{
    "__typename": "GraphVideo",
    "caption_is_edited": false,
    "commenting_disabled_for_viewer": false,
    "comments_disabled": false,
    "dash_info": {
        "is_dash_eligible": false,
        "number_of_qualities": 0,
        "video_dash_manifest": null
    },
    "dimensions": {
        "height": 421,
        "width": 750
    },
    "display_resources": [
        {
            "config_height": 360,
            "config_width": 640,
            "src": "https://scontent-hel2-1.cdninstagram.com/v/t51.2885-15/sh0.08/e35/s640x640/85166375_801210983729093_6328924033566176951_n.jpg?_nc_ht=scontent-hel2-1.cdninstagram.com&_nc_cat=105&_nc_ohc=HETUxcI8534AX9CEG6F&oh=f6ebaff93483f1036c2fbea7f3083d09&oe=5E58CA9A"
        },
        {
            "config_height": 421,
            "config_width": 750,
            "src": "https://scontent-hel2-1.cdninstagram.com/v/t51.2885-15/e35/85166375_801210983729093_6328924033566176951_n.jpg?_nc_ht=scontent-hel2-1.cdninstagram.com&_nc_cat=105&_nc_ohc=HETUxcI8534AX9CEG6F&oh=c865057cbfb37ae836cbc5e9849bc4bc&oe=5E58F6FF"
        },
        {
            "config_height": 607,
            "config_width": 1080,
            "src": "https://scontent-hel2-1.cdninstagram.com/v/t51.2885-15/e35/85166375_801210983729093_6328924033566176951_n.jpg?_nc_ht=scontent-hel2-1.cdninstagram.com&_nc_cat=105&_nc_ohc=HETUxcI8534AX9CEG6F&oh=c865057cbfb37ae836cbc5e9849bc4bc&oe=5E58F6FF"
        }
    ],
    "display_url": "https://scontent-hel2-1.cdninstagram.com/v/t51.2885-15/e35/85166375_801210983729093_6328924033566176951_n.jpg?_nc_ht=scontent-hel2-1.cdninstagram.com&_nc_cat=105&_nc_ohc=HETUxcI8534AX9CEG6F&oh=c865057cbfb37ae836cbc5e9849bc4bc&oe=5E58F6FF",
    "edge_media_preview_comment": {
        "count": 6,
        "edges": [
            {
                "node": {
                    "created_at": 1582309646,
                    "did_report_as_spam": false,
                    "edge_liked_by": {
                        "count": 1
                    },
                    "id": "17860688497732342",
                    "is_restricted_pending": false,
                    "owner": {
                        "id": "2032085314",
                        "is_verified": false,
                        "profile_pic_url": "https://scontent-hel2-1.cdninstagram.com/v/t51.2885-19/s150x150/75523315_452156905676206_8761283622238945280_n.jpg?_nc_ht=scontent-hel2-1.cdninstagram.com&_nc_ohc=_45za_gXNkYAX8iBix4&oh=1e5cc8dd51066c853a6bbf2742419424&oe=5E82674B",
                        "username": "dj_maphmatics"
                    },
                    "text": "@carl_reijer he\u2019s purposefully pronouncing prior prepared present participles pretending to proport patriarchal propaganda probably pretends to be a pretty princess parlaying on a pony \ud83d\ude10",
                    "viewer_has_liked": false
                }
            },
            {
                "node": {
                    "created_at": 1582309891,
                    "did_report_as_spam": false,
                    "edge_liked_by": {
                        "count": 1
                    },
                    "id": "17861459935712644",
                    "is_restricted_pending": false,
                    "owner": {
                        "id": "4939260287",
                        "is_verified": false,
                        "profile_pic_url": "https://scontent-hel2-1.cdninstagram.com/v/t51.2885-19/s150x150/18513820_392706111130538_8083557209067225088_a.jpg?_nc_ht=scontent-hel2-1.cdninstagram.com&_nc_ohc=AdTbKeWRJSwAX9k2VTt&oh=8c1cf63b4a7fff3eb3d5018f63edb5a6&oe=5E822157",
                        "username": "carl_reijer"
                    },
                    "text": "@dj_maphmatics perhaps",
                    "viewer_has_liked": false
                }
            }
        ]
    },
    "edge_media_preview_like": {
        "count": 57,
        "edges": []
    },
    "edge_media_to_caption": {
        "edges": [
            {
                "node": {
                    "text": "Cobra Tom knows best. #ymh #ymhpodcast #yourmomshousepodcast #deepfake #faceswap"
                }
            }
        ]
    },
    "edge_media_to_hoisted_comment": {
        "edges": []
    },
    "edge_media_to_parent_comment": {
        "count": 6,
        "edges": [
            {
                "node": {
                    "created_at": 1581830546,
                    "did_report_as_spam": false,
                    "edge_liked_by": {
                        "count": 2
                    },
                    "edge_threaded_comments": {
                        "count": 3,
                        "edges": [
                            {
                                "node": {
                                    "created_at": 1581830829,
                                    "did_report_as_spam": false,
                                    "edge_liked_by": {
                                        "count": 2
                                    },
                                    "id": "17850298264885363",
                                    "is_restricted_pending": false,
                                    "owner": {
                                        "id": "570223858",
                                        "is_verified": false,
                                        "profile_pic_url": "https://scontent-hel2-1.cdninstagram.com/v/t51.2885-19/s150x150/81988371_826710111089749_7530469067493212160_n.jpg?_nc_ht=scontent-hel2-1.cdninstagram.com&_nc_ohc=mwPAoHChcksAX-18AD_&oh=e5a23187ed4489de1dd1ec1b1d0a30ed&oe=5E873B88",
                                        "username": "skankinstein"
                                    },
                                    "text": "@carl_reijer omfg that\u2019s all I ever think\n unpr0mted",
                                    "viewer_has_liked": false
                                }
                            },
                            {
                                "node": {
                                    "created_at": 1582309646,
                                    "did_report_as_spam": false,
                                    "edge_liked_by": {
                                        "count": 1
                                    },
                                    "id": "17860688497732342",
                                    "is_restricted_pending": false,
                                    "owner": {
                                        "id": "2032085314",
                                        "is_verified": false,
                                        "profile_pic_url": "https://scontent-hel2-1.cdninstagram.com/v/t51.2885-19/s150x150/75523315_452156905676206_8761283622238945280_n.jpg?_nc_ht=scontent-hel2-1.cdninstagram.com&_nc_ohc=_45za_gXNkYAX8iBix4&oh=1e5cc8dd51066c853a6bbf2742419424&oe=5E82674B",
                                        "username": "dj_maphmatics"
                                    },
                                    "text": "@carl_reijer he\u2019s purposefully pronouncing prior prepared present participles pretending to proport patriarchal propaganda probably pretends to be a pretty princess parlaying on a pony \ud83d\ude10",
                                    "viewer_has_liked": false
                                }
                            },
                            {
                                "node": {
                                    "created_at": 1582309891,
                                    "did_report_as_spam": false,
                                    "edge_liked_by": {
                                        "count": 1
                                    },
                                    "id": "17861459935712644",
                                    "is_restricted_pending": false,
                                    "owner": {
                                        "id": "4939260287",
                                        "is_verified": false,
                                        "profile_pic_url": "https://scontent-hel2-1.cdninstagram.com/v/t51.2885-19/s150x150/18513820_392706111130538_8083557209067225088_a.jpg?_nc_ht=scontent-hel2-1.cdninstagram.com&_nc_ohc=AdTbKeWRJSwAX9k2VTt&oh=8c1cf63b4a7fff3eb3d5018f63edb5a6&oe=5E822157",
                                        "username": "carl_reijer"
                                    },
                                    "text": "@dj_maphmatics perhaps",
                                    "viewer_has_liked": false
                                }
                            }
                        ],
                        "page_info": {
                            "end_cursor": null,
                            "has_next_page": false
                        }
                    },
                    "id": "17930960827357935",
                    "is_restricted_pending": false,
                    "owner": {
                        "id": "4939260287",
                        "is_verified": false,
                        "profile_pic_url": "https://scontent-hel2-1.cdninstagram.com/v/t51.2885-19/s150x150/18513820_392706111130538_8083557209067225088_a.jpg?_nc_ht=scontent-hel2-1.cdninstagram.com&_nc_ohc=AdTbKeWRJSwAX9k2VTt&oh=8c1cf63b4a7fff3eb3d5018f63edb5a6&oe=5E822157",
                        "username": "carl_reijer"
                    },
                    "text": "Why does he go bri-hish when he says the word prompted like a pompous porpoise poised platypus",
                    "viewer_has_liked": false
                }
            },
            {
                "node": {
                    "created_at": 1581833433,
                    "did_report_as_spam": false,
                    "edge_liked_by": {
                        "count": 0
                    },
                    "edge_threaded_comments": {
                        "count": 0,
                        "edges": [],
                        "page_info": {
                            "end_cursor": null,
                            "has_next_page": false
                        }
                    },
                    "id": "18088200058147813",
                    "is_restricted_pending": false,
                    "owner": {
                        "id": "16974880",
                        "is_verified": false,
                        "profile_pic_url": "https://scontent-hel2-1.cdninstagram.com/v/t51.2885-19/s150x150/40802419_245725592782204_7497695297338867712_n.jpg?_nc_ht=scontent-hel2-1.cdninstagram.com&_nc_ohc=It-7hURquGYAX959J-Y&oh=34823a4bee4ca9e31d596f2306a26817&oe=5E857E51",
                        "username": "stosmrc"
                    },
                    "text": "Tina ain\u2019t cleaning shit in that house",
                    "viewer_has_liked": false
                }
            },
            {
                "node": {
                    "created_at": 1582309506,
                    "did_report_as_spam": false,
                    "edge_liked_by": {
                        "count": 1
                    },
                    "edge_threaded_comments": {
                        "count": 0,
                        "edges": [],
                        "page_info": {
                            "end_cursor": null,
                            "has_next_page": false
                        }
                    },
                    "id": "17863621900688474",
                    "is_restricted_pending": false,
                    "owner": {
                        "id": "2032085314",
                        "is_verified": false,
                        "profile_pic_url": "https://scontent-hel2-1.cdninstagram.com/v/t51.2885-19/s150x150/75523315_452156905676206_8761283622238945280_n.jpg?_nc_ht=scontent-hel2-1.cdninstagram.com&_nc_ohc=_45za_gXNkYAX8iBix4&oh=1e5cc8dd51066c853a6bbf2742419424&oe=5E82674B",
                        "username": "dj_maphmatics"
                    },
                    "text": "He\u2019s a keeper",
                    "viewer_has_liked": false
                }
            }
        ],
        "page_info": {
            "end_cursor": null,
            "has_next_page": false
        }
    },
    "edge_media_to_sponsor_user": {
        "edges": []
    },
    "edge_media_to_tagged_user": {
        "edges": [
            {
                "node": {
                    "user": {
                        "full_name": "Tom Segura",
                        "id": "22680409",
                        "is_verified": true,
                        "profile_pic_url": "https://scontent-hel2-1.cdninstagram.com/v/t51.2885-19/s150x150/41266541_787223341608683_3926907316200275968_n.jpg?_nc_ht=scontent-hel2-1.cdninstagram.com&_nc_ohc=HP39eb4hX1EAX_dEm--&oh=1d7f24bcabb917f243363816277d0308&oe=5E8B5EA5",
                        "username": "seguratom"
                    },
                    "x": 0.0,
                    "y": 0.0
                }
            },
            {
                "node": {
                    "user": {
                        "full_name": "Studio Jeans",
                        "id": "11062400270",
                        "is_verified": false,
                        "profile_pic_url": "https://scontent-hel2-1.cdninstagram.com/v/t51.2885-19/s150x150/53416983_636058756843903_5575269593506643968_n.jpg?_nc_ht=scontent-hel2-1.cdninstagram.com&_nc_ohc=TK_OXDlp378AX_MQLME&oh=a520a82124fe7cada6ca01d592c47717&oe=5E8305E6",
                        "username": "ymhstudios"
                    },
                    "x": 0.0,
                    "y": 0.0
                }
            }
        ]
    },
    "edge_web_media_to_related_media": {
        "edges": []
    },
    "encoding_status": null,
    "fact_check_information": null,
    "fact_check_overall_rating": null,
    "gating_info": null,
    "has_ranked_comments": false,
    "id": "2244867563110759053",
    "is_ad": false,
    "is_published": true,
    "is_video": true,
    "location": null,
    "media_preview": "ACoX05JVRSzHA6fieB+ZpWnVSFOQT0BwCfpzzVIzBhjH+f1qs85U8j6HP/1qVwsacs2MIAQ7/dBA524J79hUFrK0jMrnO3Hrn3H0pttMrH5uGP3c/wBDVkKqEv0J60b6j2ViRzxVan+arA4IPOKi3D1FAjIa7XOE+Y/kKYpeQgHA57UUUrDNOGFkcMcELVi5k+RsDt+lFFUlpYLmWJ3TpwDzg4pPtL+35UUVFraBc//Z",
    "owner": {
        "blocked_by_viewer": false,
        "followed_by_viewer": false,
        "full_name": "JMH",
        "has_blocked_viewer": false,
        "id": "10022438200",
        "is_private": false,
        "is_unpublished": false,
        "is_verified": false,
        "profile_pic_url": "https://scontent-hel2-1.cdninstagram.com/v/t51.2885-19/s150x150/83979714_121538112583436_1823438420035239936_n.jpg?_nc_ht=scontent-hel2-1.cdninstagram.com&_nc_ohc=JT_NLJKLCNMAX-UpW47&oh=1ac5d847a406787cc2ba48fcb77f139f&oe=5E81B6CF",
        "requested_by_viewer": false,
        "restricted_by_viewer": null,
        "username": "junojuannun"
    },
    "product_type": "feed",
    "shortcode": "B8nXyejA3qN",
    "taken_at_timestamp": 1581829156,
    "thumbnail_src": "https://scontent-hel2-1.cdninstagram.com/v/t51.2885-15/e35/c157.0.405.405a/85166375_801210983729093_6328924033566176951_n.jpg?_nc_ht=scontent-hel2-1.cdninstagram.com&_nc_cat=105&_nc_ohc=HETUxcI8534AX9CEG6F&oh=5ce677f07ccabdb6d1892959bf1c4577&oe=5E589537",
    "title": "",
    "tracking_token": "eyJ2ZXJzaW9uIjo1LCJwYXlsb2FkIjp7ImlzX2FuYWx5dGljc190cmFja2VkIjp0cnVlLCJ1dWlkIjoiYTI4MmYzYzBhNDM1NDZjNTkzZjUxZTIwNTM3MzNiNTIyMjQ0ODY3NTYzMTEwNzU5MDUzIn0sInNpZ25hdHVyZSI6IiJ9",
    "video_duration": 59.233,
    "video_url": "https://scontent-hel2-1.cdninstagram.com/v/t50.2886-16/86725313_199220757942791_1061692470743597729_n.mp4?_nc_ht=scontent-hel2-1.cdninstagram.com&_nc_cat=111&_nc_ohc=vQ-awW6A3LQAX-DuSV_&oe=5E58EEF3&oh=51da76be769d0a913ee611414d520ec8",
    "video_view_count": 527,
    "viewer_can_reshare": true,
    "viewer_has_liked": false,
    "viewer_has_saved": false,
    "viewer_has_saved_to_collection": false,
    "viewer_in_photo_of_you": false
}