{
    "__typename": "GraphVideo",
    "caption_is_edited": false,
    "commenting_disabled_for_viewer": true,
    "comments_disabled": false,
    "dash_info": {
        "is_dash_eligible": false,
        "number_of_qualities": 0,
        "video_dash_manifest": null
    },
    "dimensions": {
        "height": 750,
        "width": 750
    },
    "display_resources": [
        {
            "config_height": 640,
            "config_width": 640,
            "src": "https://scontent-hel2-1.cdninstagram.com/v/t51.2885-15/sh0.08/e35/s640x640/83765342_968738703520755_63997016438967379_n.jpg?_nc_ht=scontent-hel2-1.cdninstagram.com&_nc_cat=103&_nc_ohc=C1sHV5nfP7UAX9kERoD&oh=51ef25b0669a1895d1e59a837603ab93&oe=5E58FE9A"
        },
        {
            "config_height": 750,
            "config_width": 750,
            "src": "https://scontent-hel2-1.cdninstagram.com/v/t51.2885-15/e35/83765342_968738703520755_63997016438967379_n.jpg?_nc_ht=scontent-hel2-1.cdninstagram.com&_nc_cat=103&_nc_ohc=C1sHV5nfP7UAX9kERoD&oh=4c2234fbd5509f6d9ba691b988ac2499&oe=5E585894"
        },
        {
            "config_height": 1080,
            "config_width": 1080,
            "src": "https://scontent-hel2-1.cdninstagram.com/v/t51.2885-15/e35/83765342_968738703520755_63997016438967379_n.jpg?_nc_ht=scontent-hel2-1.cdninstagram.com&_nc_cat=103&_nc_ohc=C1sHV5nfP7UAX9kERoD&oh=4c2234fbd5509f6d9ba691b988ac2499&oe=5E585894"
        }
    ],
    "display_url": "https://scontent-hel2-1.cdninstagram.com/v/t51.2885-15/e35/83765342_968738703520755_63997016438967379_n.jpg?_nc_ht=scontent-hel2-1.cdninstagram.com&_nc_cat=103&_nc_ohc=C1sHV5nfP7UAX9kERoD&oh=4c2234fbd5509f6d9ba691b988ac2499&oe=5E585894",
    "edge_media_preview_comment": {
        "count": 1,
        "edges": [
            {
                "node": {
                    "created_at": 1581870832,
                    "did_report_as_spam": false,
                    "edge_liked_by": {
                        "count": 0
                    },
                    "id": "17900440030437171",
                    "is_restricted_pending": false,
                    "owner": {
                        "id": "1548615786",
                        "is_verified": false,
                        "profile_pic_url": "https://scontent-hel2-1.cdninstagram.com/v/t51.2885-19/s150x150/71544398_405549213669210_7271065837522386944_n.jpg?_nc_ht=scontent-hel2-1.cdninstagram.com&_nc_ohc=q8vp5yGWaaQAX_fIN3R&oh=06429191d514e58470caa93bf076e24c&oe=5E85C0D0",
                        "username": "fran_aragon88"
                    },
                    "text": "Woooow \ud83d\ude33",
                    "viewer_has_liked": false
                }
            }
        ]
    },
    "edge_media_preview_like": {
        "count": 4,
        "edges": []
    },
    "edge_media_to_caption": {
        "edges": [
            {
                "node": {
                    "text": "#BTTF #backtothefuture #deepfake #movie #robertdowneyjr #tomholland"
                }
            }
        ]
    },
    "edge_media_to_hoisted_comment": {
        "edges": []
    },
    "edge_media_to_parent_comment": {
        "count": 1,
        "edges": [
            {
                "node": {
                    "created_at": 1581870832,
                    "did_report_as_spam": false,
                    "edge_liked_by": {
                        "count": 0
                    },
                    "edge_threaded_comments": {
                        "count": 0,
                        "edges": [],
                        "page_info": {
                            "end_cursor": null,
                            "has_next_page": false
                        }
                    },
                    "id": "17900440030437171",
                    "is_restricted_pending": false,
                    "owner": {
                        "id": "1548615786",
                        "is_verified": false,
                        "profile_pic_url": "https://scontent-hel2-1.cdninstagram.com/v/t51.2885-19/s150x150/71544398_405549213669210_7271065837522386944_n.jpg?_nc_ht=scontent-hel2-1.cdninstagram.com&_nc_ohc=q8vp5yGWaaQAX_fIN3R&oh=06429191d514e58470caa93bf076e24c&oe=5E85C0D0",
                        "username": "fran_aragon88"
                    },
                    "text": "Woooow \ud83d\ude33",
                    "viewer_has_liked": false
                }
            }
        ],
        "page_info": {
            "end_cursor": null,
            "has_next_page": false
        }
    },
    "edge_media_to_sponsor_user": {
        "edges": []
    },
    "edge_media_to_tagged_user": {
        "edges": []
    },
    "edge_web_media_to_related_media": {
        "edges": []
    },
    "encoding_status": null,
    "fact_check_information": null,
    "fact_check_overall_rating": null,
    "gating_info": null,
    "has_ranked_comments": false,
    "id": "2244915696381678876",
    "is_ad": false,
    "is_published": true,
    "is_video": true,
    "location": null,
    "media_preview": "ACoq5miiigAooooAKKKKACiiigAooooAKKKKACiiigAooooAKKKKAP/Z",
    "owner": {
        "blocked_by_viewer": false,
        "followed_by_viewer": false,
        "full_name": "Osiris",
        "has_blocked_viewer": false,
        "id": "4019693018",
        "is_private": false,
        "is_unpublished": false,
        "is_verified": false,
        "profile_pic_url": "https://scontent-hel2-1.cdninstagram.com/v/t51.2885-19/s150x150/14449076_309307776109607_1451146823707131904_a.jpg?_nc_ht=scontent-hel2-1.cdninstagram.com&_nc_ohc=uT2580UPVIAAX-Medv1&oh=186da300b31d4a95dee80d059d25b6c7&oe=5E8C090F",
        "requested_by_viewer": false,
        "restricted_by_viewer": null,
        "username": "frivan49"
    },
    "product_type": "feed",
    "shortcode": "B8niu6Jh1Uc",
    "taken_at_timestamp": 1581834854,
    "thumbnail_src": "https://scontent-hel2-1.cdninstagram.com/v/t51.2885-15/sh0.08/e35/s640x640/83765342_968738703520755_63997016438967379_n.jpg?_nc_ht=scontent-hel2-1.cdninstagram.com&_nc_cat=103&_nc_ohc=C1sHV5nfP7UAX9kERoD&oh=51ef25b0669a1895d1e59a837603ab93&oe=5E58FE9A",
    "title": "",
    "tracking_token": "eyJ2ZXJzaW9uIjo1LCJwYXlsb2FkIjp7ImlzX2FuYWx5dGljc190cmFja2VkIjpmYWxzZSwidXVpZCI6IjEyYTE3OWM5ZjIwMjQ4ZThiZjgwMjM0OTAxNGM2ZDA2MjI0NDkxNTY5NjM4MTY3ODg3NiJ9LCJzaWduYXR1cmUiOiIifQ==",
    "video_duration": 29.991,
    "video_url": "https://scontent-hel2-1.cdninstagram.com/v/t50.2886-16/86304146_193330608551711_3112102417305183253_n.mp4?_nc_ht=scontent-hel2-1.cdninstagram.com&_nc_cat=111&_nc_ohc=d9mMBOwP8rEAX83kSpW&oe=5E58CDDF&oh=2e5225b3b0006eecd42092d869450248",
    "video_view_count": 15,
    "viewer_can_reshare": true,
    "viewer_has_liked": false,
    "viewer_has_saved": false,
    "viewer_has_saved_to_collection": false,
    "viewer_in_photo_of_you": false
}