{
    "__typename": "GraphVideo",
    "caption_is_edited": false,
    "commenting_disabled_for_viewer": false,
    "comments_disabled": false,
    "dash_info": {
        "is_dash_eligible": false,
        "number_of_qualities": 0,
        "video_dash_manifest": null
    },
    "dimensions": {
        "height": 1166,
        "width": 750
    },
    "display_resources": [
        {
            "config_height": 995,
            "config_width": 640,
            "src": "https://scontent-hel2-1.cdninstagram.com/v/t51.2885-15/sh0.08/e35/p640x640/84089357_132311748044764_7627583779587088346_n.jpg?_nc_ht=scontent-hel2-1.cdninstagram.com&_nc_cat=104&_nc_ohc=X_L6hG2w8xcAX-pzLcj&oh=bb0dab6d9367310e1006788f1f12e6c4&oe=5E58A81B"
        },
        {
            "config_height": 1166,
            "config_width": 750,
            "src": "https://scontent-hel2-1.cdninstagram.com/v/t51.2885-15/e35/84089357_132311748044764_7627583779587088346_n.jpg?_nc_ht=scontent-hel2-1.cdninstagram.com&_nc_cat=104&_nc_ohc=X_L6hG2w8xcAX-pzLcj&oh=ff82c0d9cf415f54fe19fb176dd64e7c&oe=5E585CED"
        },
        {
            "config_height": 1680,
            "config_width": 1080,
            "src": "https://scontent-hel2-1.cdninstagram.com/v/t51.2885-15/e35/84089357_132311748044764_7627583779587088346_n.jpg?_nc_ht=scontent-hel2-1.cdninstagram.com&_nc_cat=104&_nc_ohc=X_L6hG2w8xcAX-pzLcj&oh=ff82c0d9cf415f54fe19fb176dd64e7c&oe=5E585CED"
        }
    ],
    "display_url": "https://scontent-hel2-1.cdninstagram.com/v/t51.2885-15/e35/84089357_132311748044764_7627583779587088346_n.jpg?_nc_ht=scontent-hel2-1.cdninstagram.com&_nc_cat=104&_nc_ohc=X_L6hG2w8xcAX-pzLcj&oh=ff82c0d9cf415f54fe19fb176dd64e7c&oe=5E585CED",
    "edge_media_preview_comment": {
        "count": 1,
        "edges": [
            {
                "node": {
                    "created_at": 1581883836,
                    "did_report_as_spam": false,
                    "edge_liked_by": {
                        "count": 0
                    },
                    "id": "18042043831242404",
                    "is_restricted_pending": false,
                    "owner": {
                        "id": "7210108077",
                        "is_verified": false,
                        "profile_pic_url": "https://scontent-hel2-1.cdninstagram.com/v/t51.2885-19/s150x150/29090250_126490438189420_5300296660411219968_n.jpg?_nc_ht=scontent-hel2-1.cdninstagram.com&_nc_ohc=8C41voDajsIAX93n529&oh=a8e908bf15c81e4c64c018e7c3941838&oe=5E83508D",
                        "username": "interes_kino2018"
                    },
                    "text": "#\u0442\u043e\u043c\u0445\u043e\u043b\u0430\u043d\u0434 #\u0442\u043e\u043c\u0445\u043e\u043b\u043b\u0430\u043d\u0434 #\u0440\u043e\u0431\u0435\u0440\u0442\u0434\u0430\u0443\u043d\u0438\u043c\u043b\u0430\u0434\u0448\u0438\u0438 #\u0440\u043e\u0431\u0435\u0440\u0442\u0434\u0430\u0443\u043d\u0438\u043c\u043b\u0430\u0434\u0448\u0438\u0439 #\u043d\u0430\u0437\u0430\u043b\u0432\u0431\u0443\u0434\u0443\u0449\u0435\u0435 #\u043d\u0430\u0437\u0430\u0434\u0432\u0431\u0443\u0434\u0443\u0449\u0435\u04352 #\u0438\u043d\u0442\u0435\u0440\u0435\u0441\u043d\u043e\u0435\u0432\u0438\u0434\u0435\u043e #deepfake #\u043a\u0440\u0438\u0441\u0442\u043e\u0444\u0435\u0440\u043b\u043b\u043e\u0439\u0434 #\u043c\u0430\u0439\u043a\u043b\u0434\u0436\u0444\u043e\u043a\u0441 #\u0437\u0430\u043c\u0435\u043d\u0430\u043b\u0438\u0446\u0430 #\u0432\u0438\u0434\u044e\u0448\u043a\u0438 #\u043b\u043b\u043e\u0439\u0434 #\u0438\u043d\u0442\u0435\u0440\u0435\u0441\u043a\u0438\u043d\u043e #\u0437\u0430\u0431\u0430\u0432\u043d\u044b\u0435\u0432\u0438\u0434\u0435\u043e #\u0437\u0430\u0431\u0430\u0432\u043d\u043e\u0441\u0442\u0438",
                    "viewer_has_liked": false
                }
            }
        ]
    },
    "edge_media_preview_like": {
        "count": 16,
        "edges": []
    },
    "edge_media_to_caption": {
        "edges": [
            {
                "node": {
                    "text": "\u2800- \u0412\u044b\u0448\u043b\u043e \u043e\u0447\u0435\u043d\u044c \u043a\u0440\u0443\u0442\u043e\ud83e\udd17 \u043a\u0430\u043a \u0432\u0430\u043c?\n\u0421\u0442\u0430\u0432\u044c \u043b\u0430\u0439\u043a \u2764\n\u041d\u0430 YouTube \u043f\u043e\u044f\u0432\u0438\u043b\u043e\u0441\u044c \u0432\u0438\u0434\u0435\u043e \u0441 \u043e\u0442\u0440\u044b\u0432\u043a\u043e\u043c \u0438\u0437 \u0444\u0438\u043b\u044c\u043c\u0430 \u00ab\u041d\u0430\u0437\u0430\u0434 \u0432 \u0431\u0443\u0434\u0443\u0449\u0435\u0435\u00bb, \u0432 \u043a\u043e\u0442\u043e\u0440\u043e\u043c \u0441 \u043f\u043e\u043c\u043e\u0449\u044c\u044e Deepfake,  \u043b\u0438\u0446\u0430 \u041c\u0430\u0439\u043a\u043b\u0430 \u0414\u0436. \u0424\u043e\u043a\u0441\u0430 \u0438 \u041a\u0440\u0438\u0441\u0442\u043e\u0444\u0435\u0440\u0430 \u041b\u043b\u043e\u0439\u0434\u0430 \u0437\u0430\u043c\u0435\u043d\u0438\u043b\u0438 \u043d\u0430 \u043b\u0438\u0446\u0430 \u0422\u043e\u043c\u0430 \u0425\u043e\u043b\u043b\u0430\u043d\u0434\u0430 \u0438 \u0420\u043e\u0431\u0435\u0440\u0442\u0430 \u0414\u0430\u0443\u043d\u0438 \u043c\u043b."
                }
            }
        ]
    },
    "edge_media_to_hoisted_comment": {
        "edges": []
    },
    "edge_media_to_parent_comment": {
        "count": 1,
        "edges": [
            {
                "node": {
                    "created_at": 1581883836,
                    "did_report_as_spam": false,
                    "edge_liked_by": {
                        "count": 0
                    },
                    "edge_threaded_comments": {
                        "count": 0,
                        "edges": [],
                        "page_info": {
                            "end_cursor": null,
                            "has_next_page": false
                        }
                    },
                    "id": "18042043831242404",
                    "is_restricted_pending": false,
                    "owner": {
                        "id": "7210108077",
                        "is_verified": false,
                        "profile_pic_url": "https://scontent-hel2-1.cdninstagram.com/v/t51.2885-19/s150x150/29090250_126490438189420_5300296660411219968_n.jpg?_nc_ht=scontent-hel2-1.cdninstagram.com&_nc_ohc=8C41voDajsIAX93n529&oh=a8e908bf15c81e4c64c018e7c3941838&oe=5E83508D",
                        "username": "interes_kino2018"
                    },
                    "text": "#\u0442\u043e\u043c\u0445\u043e\u043b\u0430\u043d\u0434 #\u0442\u043e\u043c\u0445\u043e\u043b\u043b\u0430\u043d\u0434 #\u0440\u043e\u0431\u0435\u0440\u0442\u0434\u0430\u0443\u043d\u0438\u043c\u043b\u0430\u0434\u0448\u0438\u0438 #\u0440\u043e\u0431\u0435\u0440\u0442\u0434\u0430\u0443\u043d\u0438\u043c\u043b\u0430\u0434\u0448\u0438\u0439 #\u043d\u0430\u0437\u0430\u043b\u0432\u0431\u0443\u0434\u0443\u0449\u0435\u0435 #\u043d\u0430\u0437\u0430\u0434\u0432\u0431\u0443\u0434\u0443\u0449\u0435\u04352 #\u0438\u043d\u0442\u0435\u0440\u0435\u0441\u043d\u043e\u0435\u0432\u0438\u0434\u0435\u043e #deepfake #\u043a\u0440\u0438\u0441\u0442\u043e\u0444\u0435\u0440\u043b\u043b\u043e\u0439\u0434 #\u043c\u0430\u0439\u043a\u043b\u0434\u0436\u0444\u043e\u043a\u0441 #\u0437\u0430\u043c\u0435\u043d\u0430\u043b\u0438\u0446\u0430 #\u0432\u0438\u0434\u044e\u0448\u043a\u0438 #\u043b\u043b\u043e\u0439\u0434 #\u0438\u043d\u0442\u0435\u0440\u0435\u0441\u043a\u0438\u043d\u043e #\u0437\u0430\u0431\u0430\u0432\u043d\u044b\u0435\u0432\u0438\u0434\u0435\u043e #\u0437\u0430\u0431\u0430\u0432\u043d\u043e\u0441\u0442\u0438",
                    "viewer_has_liked": false
                }
            }
        ],
        "page_info": {
            "end_cursor": null,
            "has_next_page": false
        }
    },
    "edge_media_to_sponsor_user": {
        "edges": []
    },
    "edge_media_to_tagged_user": {
        "edges": []
    },
    "edge_web_media_to_related_media": {
        "edges": []
    },
    "encoding_status": null,
    "fact_check_information": null,
    "fact_check_overall_rating": null,
    "gating_info": null,
    "has_ranked_comments": false,
    "id": "2245324040641128331",
    "is_ad": false,
    "is_published": true,
    "is_video": true,
    "location": null,
    "media_preview": "ABsqhaJNh+Vfu+g9KzgikAkfpWr/AAf8B/pWWobj0xn6U4uyY2iQeWp5A/KrIkQ/3f8Avlf8KrLu5AJ/OkxIf/1D/Csy7GivKj6f0rLjZsbR16D059f5itJOVH0H8qQR46dKtPQkrDOeO1P3VXhjMuQOxPt3prS7TgcgcZrNo0TLEdynAz0GKuqwI4rmqnSVx0Yj8TVmZOGCngkZPJB7fTvTCyg8D+dV9x3de9ISaRR//9k=",
    "owner": {
        "blocked_by_viewer": false,
        "followed_by_viewer": false,
        "full_name": "",
        "has_blocked_viewer": false,
        "id": "7210108077",
        "is_private": false,
        "is_unpublished": false,
        "is_verified": false,
        "profile_pic_url": "https://scontent-hel2-1.cdninstagram.com/v/t51.2885-19/s150x150/29090250_126490438189420_5300296660411219968_n.jpg?_nc_ht=scontent-hel2-1.cdninstagram.com&_nc_ohc=8C41voDajsIAX93n529&oh=a8e908bf15c81e4c64c018e7c3941838&oe=5E83508D",
        "requested_by_viewer": false,
        "restricted_by_viewer": null,
        "username": "interes_kino2018"
    },
    "product_type": "igtv",
    "shortcode": "B8o_lGYDyeL",
    "taken_at_timestamp": 1581883553,
    "thumbnail_src": "https://scontent-hel2-1.cdninstagram.com/v/t51.2885-15/sh0.08/e35/c0.200.720.720a/s640x640/84089357_132311748044764_7627583779587088346_n.jpg?_nc_ht=scontent-hel2-1.cdninstagram.com&_nc_cat=104&_nc_ohc=X_L6hG2w8xcAX-pzLcj&oh=027579ef1f96c7a84552387b8c01b31e&oe=5E58AA19",
    "title": "\u0422\u043e\u043c \u0425\u043e\u043b\u043b\u0430\u043d\u0434 \u0438 \u0420\u043e\u0431\u0435\u0440\u0442 \u0414\u0430\u0443\u043d\u0438 \u043c\u043b., \u043d\u0430\u0437\u0430\u0434 \u0432 \u0431\u0443\u0434\u0443\u0449\u0435\u0435\ud83c\udfac",
    "tracking_token": "eyJ2ZXJzaW9uIjo1LCJwYXlsb2FkIjp7ImlzX2FuYWx5dGljc190cmFja2VkIjp0cnVlLCJ1dWlkIjoiMWI2YjRlYmI4YWRlNDJjOWIwMDFiODI2ODRlYWIyOTUyMjQ1MzI0MDQwNjQxMTI4MzMxIn0sInNpZ25hdHVyZSI6IiJ9",
    "video_duration": 86.558,
    "video_url": "https://scontent-hel2-1.cdninstagram.com/v/t50.16885-16/10000000_250216525972434_3789370013861123367_n.mp4?_nc_ht=scontent-hel2-1.cdninstagram.com&_nc_cat=106&_nc_ohc=Ul7Qrb8payQAX-4vzoM&oe=5E58651A&oh=a0d8732f6dab972f4eb8b6067abace31",
    "video_view_count": 144,
    "viewer_can_reshare": true,
    "viewer_has_liked": false,
    "viewer_has_saved": false,
    "viewer_has_saved_to_collection": false,
    "viewer_in_photo_of_you": false
}