{
    "__typename": "GraphVideo",
    "caption_is_edited": true,
    "commenting_disabled_for_viewer": false,
    "comments_disabled": false,
    "dash_info": {
        "is_dash_eligible": false,
        "number_of_qualities": 0,
        "video_dash_manifest": null
    },
    "dimensions": {
        "height": 996,
        "width": 640
    },
    "display_resources": [
        {
            "config_height": 996,
            "config_width": 640,
            "src": "https://scontent-hel2-1.cdninstagram.com/v/t51.2885-15/e35/83982029_601573287242310_5736685443032784921_n.jpg?_nc_ht=scontent-hel2-1.cdninstagram.com&_nc_cat=106&_nc_ohc=v6LhCC7tVyQAX_cDWRo&oh=3ed6970601bd7c068cecb10f929e5cb2&oe=5E589F9B"
        },
        {
            "config_height": 1167,
            "config_width": 750,
            "src": "https://scontent-hel2-1.cdninstagram.com/v/t51.2885-15/e35/83982029_601573287242310_5736685443032784921_n.jpg?_nc_ht=scontent-hel2-1.cdninstagram.com&_nc_cat=106&_nc_ohc=v6LhCC7tVyQAX_cDWRo&oh=3ed6970601bd7c068cecb10f929e5cb2&oe=5E589F9B"
        },
        {
            "config_height": 1680,
            "config_width": 1080,
            "src": "https://scontent-hel2-1.cdninstagram.com/v/t51.2885-15/e35/83982029_601573287242310_5736685443032784921_n.jpg?_nc_ht=scontent-hel2-1.cdninstagram.com&_nc_cat=106&_nc_ohc=v6LhCC7tVyQAX_cDWRo&oh=3ed6970601bd7c068cecb10f929e5cb2&oe=5E589F9B"
        }
    ],
    "display_url": "https://scontent-hel2-1.cdninstagram.com/v/t51.2885-15/e35/83982029_601573287242310_5736685443032784921_n.jpg?_nc_ht=scontent-hel2-1.cdninstagram.com&_nc_cat=106&_nc_ohc=v6LhCC7tVyQAX_cDWRo&oh=3ed6970601bd7c068cecb10f929e5cb2&oe=5E589F9B",
    "edge_media_preview_comment": {
        "count": 0,
        "edges": []
    },
    "edge_media_preview_like": {
        "count": 57,
        "edges": []
    },
    "edge_media_to_caption": {
        "edges": [
            {
                "node": {
                    "text": "- Gracias a los secos de la CGI, hemos podido revivir a algunos actores, rejuvenecer a otros y en esta ocasi\u00f3n hacer un crossover \u00e9pico entre Volver al Futuro, y Tom Holland con Robert Downey Jr. como Marty y el Doc. Qu\u00e9 les parece?\n.\n.\n.\n.\n.\n.\n.\n#tomholland #robertdowneyjr #martymcfly #backtothefuture #deepfake #cgi #movies #podcast #podcastchile"
                }
            }
        ]
    },
    "edge_media_to_hoisted_comment": {
        "edges": []
    },
    "edge_media_to_parent_comment": {
        "count": 0,
        "edges": [],
        "page_info": {
            "end_cursor": null,
            "has_next_page": false
        }
    },
    "edge_media_to_sponsor_user": {
        "edges": []
    },
    "edge_media_to_tagged_user": {
        "edges": []
    },
    "edge_web_media_to_related_media": {
        "edges": []
    },
    "encoding_status": null,
    "fact_check_information": null,
    "fact_check_overall_rating": null,
    "gating_info": null,
    "has_ranked_comments": false,
    "id": "2245286718248215739",
    "is_ad": false,
    "is_published": true,
    "is_video": true,
    "location": null,
    "media_preview": "ABsq5vY3ofypNp9DW3IJoI97PkZA4P8ATbUX72Rd64I/Ik9zSuNJvoZODRtPpXR2zBoikqtncTlcYOAO/XvyOlQmNl4OQRRcLD7zMkOz3B/L/wDXVePcsYQHae/HNMIabCtls9FX/PP40GFwoIBJPUH61L1KUlH4ml6uxMpOSEJI75//AF+1Sbn7/wCf1qsHktxuKYVuPoak88mnsJ2lqndeRlm4YjBxz7U5b2ZOjtj0ycVWoqiSw91LIMMxYD1JNILhxxx+VQUUAf/Z",
    "owner": {
        "blocked_by_viewer": false,
        "followed_by_viewer": false,
        "full_name": "CadaD\u00edaPeor",
        "has_blocked_viewer": false,
        "id": "18411285190",
        "is_private": false,
        "is_unpublished": false,
        "is_verified": false,
        "profile_pic_url": "https://scontent-hel2-1.cdninstagram.com/v/t51.2885-19/s150x150/79499080_2492403701086590_2268078332442574848_n.jpg?_nc_ht=scontent-hel2-1.cdninstagram.com&_nc_ohc=pB1OFcCE0ZQAX_PlVld&oh=6c9f1c0e97d57409ed9f56ebc0c77c3b&oe=5E8357F8",
        "requested_by_viewer": false,
        "restricted_by_viewer": null,
        "username": "cadadiapeorcl"
    },
    "product_type": "igtv",
    "shortcode": "B8o3F_MFmS7",
    "taken_at_timestamp": 1581879153,
    "thumbnail_src": "https://scontent-hel2-1.cdninstagram.com/v/t51.2885-15/e35/c0.178.640.640a/83982029_601573287242310_5736685443032784921_n.jpg?_nc_ht=scontent-hel2-1.cdninstagram.com&_nc_cat=106&_nc_ohc=v6LhCC7tVyQAX_cDWRo&oh=f6925c0ad7bd08d4f42ad22b793a0f69&oe=5E58A314",
    "title": "Tom Holland en \u201cVolver al Futuro\u201d",
    "tracking_token": "eyJ2ZXJzaW9uIjo1LCJwYXlsb2FkIjp7ImlzX2FuYWx5dGljc190cmFja2VkIjp0cnVlLCJ1dWlkIjoiYjVlODQ2NzZjZTZjNDY2YzkzMTI1MzM0ZmYwN2Q0MjIyMjQ1Mjg2NzE4MjQ4MjE1NzM5In0sInNpZ25hdHVyZSI6IiJ9",
    "video_duration": 86.458,
    "video_url": "https://scontent-hel2-1.cdninstagram.com/v/t50.16885-16/10000000_868245760288909_5530038106823991214_n.mp4?_nc_ht=scontent-hel2-1.cdninstagram.com&_nc_cat=101&_nc_ohc=P6b4LheVCogAX--5exB&oe=5E58A62C&oh=9074464d0da5b9d60506d8e4522647d5",
    "video_view_count": 371,
    "viewer_can_reshare": true,
    "viewer_has_liked": false,
    "viewer_has_saved": false,
    "viewer_has_saved_to_collection": false,
    "viewer_in_photo_of_you": false
}