{
    "__typename": "GraphVideo",
    "caption_is_edited": false,
    "commenting_disabled_for_viewer": false,
    "comments_disabled": false,
    "dash_info": {
        "is_dash_eligible": false,
        "number_of_qualities": 0,
        "video_dash_manifest": null
    },
    "dimensions": {
        "height": 1080,
        "width": 1080
    },
    "display_resources": [
        {
            "config_height": 640,
            "config_width": 640,
            "src": "https://scontent-hel2-1.cdninstagram.com/v/t51.2885-15/sh0.08/e35/s640x640/83892205_182697456341341_3843814139898347049_n.jpg?_nc_ht=scontent-hel2-1.cdninstagram.com&_nc_cat=101&_nc_ohc=_cBMBMRoZzMAX8-hDgU&oh=5b97c5b67860c952454494a51ab98080&oe=5E586260"
        },
        {
            "config_height": 750,
            "config_width": 750,
            "src": "https://scontent-hel2-1.cdninstagram.com/v/t51.2885-15/sh0.08/e35/s750x750/83892205_182697456341341_3843814139898347049_n.jpg?_nc_ht=scontent-hel2-1.cdninstagram.com&_nc_cat=101&_nc_ohc=_cBMBMRoZzMAX8-hDgU&oh=66a4399cbe866fa8b6b719cbc062e245&oe=5E585DE0"
        },
        {
            "config_height": 1080,
            "config_width": 1080,
            "src": "https://scontent-hel2-1.cdninstagram.com/v/t51.2885-15/fr/e15/s1080x1080/83892205_182697456341341_3843814139898347049_n.jpg?_nc_ht=scontent-hel2-1.cdninstagram.com&_nc_cat=101&_nc_ohc=_cBMBMRoZzMAX8-hDgU&oh=f3d4c792a636cb29c1443b122ddf0ec0&oe=5E589B5A"
        }
    ],
    "display_url": "https://scontent-hel2-1.cdninstagram.com/v/t51.2885-15/fr/e15/s1080x1080/83892205_182697456341341_3843814139898347049_n.jpg?_nc_ht=scontent-hel2-1.cdninstagram.com&_nc_cat=101&_nc_ohc=_cBMBMRoZzMAX8-hDgU&oh=f3d4c792a636cb29c1443b122ddf0ec0&oe=5E589B5A",
    "edge_media_preview_comment": {
        "count": 652,
        "edges": [
            {
                "node": {
                    "created_at": 1582656971,
                    "did_report_as_spam": false,
                    "edge_liked_by": {
                        "count": 0
                    },
                    "id": "18131022460048758",
                    "is_restricted_pending": false,
                    "owner": {
                        "id": "4229012129",
                        "is_verified": false,
                        "profile_pic_url": "https://scontent-hel2-1.cdninstagram.com/v/t51.2885-19/s150x150/79372677_708152249711160_4031259108639244288_n.jpg?_nc_ht=scontent-hel2-1.cdninstagram.com&_nc_ohc=AjWU9CTrEo0AX_aX3la&oh=edaef04b40b441d61713bfaac8e5f3e3&oe=5E841F9B",
                        "username": "harrydocwra"
                    },
                    "text": "@angelcocio Her fave wasn\u2019t CGI. They only used cgi on the scenes around her because they reused deleted footage from TFA",
                    "viewer_has_liked": false
                }
            },
            {
                "node": {
                    "created_at": 1582669259,
                    "did_report_as_spam": false,
                    "edge_liked_by": {
                        "count": 0
                    },
                    "id": "18042768322242066",
                    "is_restricted_pending": false,
                    "owner": {
                        "id": "1279524622",
                        "is_verified": false,
                        "profile_pic_url": "https://scontent-hel2-1.cdninstagram.com/v/t51.2885-19/s150x150/78781373_599793807236466_3299097412374626304_n.jpg?_nc_ht=scontent-hel2-1.cdninstagram.com&_nc_ohc=ORGhRhFb_j0AX8k46JQ&oh=b3e55fc7ee74c85fef1de34797fce9af&oe=5E8C605D",
                        "username": "_caamv"
                    },
                    "text": "@beto_kozmo_rockjas mmm mejor no\ud83d\ude02",
                    "viewer_has_liked": false
                }
            }
        ]
    },
    "edge_media_preview_like": {
        "count": 20766,
        "edges": []
    },
    "edge_media_to_caption": {
        "edges": [
            {
                "node": {
                    "text": "Heath Ledger como el Joker de Todd Phillips \ud83d\ude32\ud83d\ude22\nCredits: #filmcoder ------------------------------------------------------------------------------------------\nSigue a @elclubcinema para m\u00e1s cine \ud83c\udfac\n.\n.\n.\n.\n.\n#cinefilos #clubcinema #cine #peliculas #joker #heathledger #deepfake #cinemtography #oscars2020 #joaquinphoenix #jokermovie  #deepfake"
                }
            }
        ]
    },
    "edge_media_to_hoisted_comment": {
        "edges": []
    },
    "edge_media_to_parent_comment": {
        "count": 652,
        "edges": [
            {
                "node": {
                    "created_at": 1582490477,
                    "did_report_as_spam": false,
                    "edge_liked_by": {
                        "count": 0
                    },
                    "edge_threaded_comments": {
                        "count": 0,
                        "edges": [],
                        "page_info": {
                            "end_cursor": null,
                            "has_next_page": false
                        }
                    },
                    "id": "17864385703673422",
                    "is_restricted_pending": false,
                    "owner": {
                        "id": "3995897",
                        "is_verified": false,
                        "profile_pic_url": "https://scontent-hel2-1.cdninstagram.com/v/t51.2885-19/s150x150/74670595_2174873179489122_8827142272798687232_n.jpg?_nc_ht=scontent-hel2-1.cdninstagram.com&_nc_ohc=b3vwwgCSMV0AX-jrS36&oh=85030ae4b19f79b4e7bc52cb2003b939&oe=5E8C4DDD",
                        "username": "lost140601"
                    },
                    "text": "@djamd",
                    "viewer_has_liked": false
                }
            },
            {
                "node": {
                    "created_at": 1582501365,
                    "did_report_as_spam": false,
                    "edge_liked_by": {
                        "count": 0
                    },
                    "edge_threaded_comments": {
                        "count": 0,
                        "edges": [],
                        "page_info": {
                            "end_cursor": null,
                            "has_next_page": false
                        }
                    },
                    "id": "17902125415434576",
                    "is_restricted_pending": false,
                    "owner": {
                        "id": "2356809768",
                        "is_verified": false,
                        "profile_pic_url": "https://scontent-hel2-1.cdninstagram.com/v/t51.2885-19/s150x150/44392035_2726643964228368_2061801124914003968_n.jpg?_nc_ht=scontent-hel2-1.cdninstagram.com&_nc_ohc=jyL9iLckaGAAX-V-SYq&oh=5e63b9bd564b80a3f59f625d031adece&oe=5E898638",
                        "username": "_oskrr_oteiza"
                    },
                    "text": "Nah",
                    "viewer_has_liked": false
                }
            },
            {
                "node": {
                    "created_at": 1582502788,
                    "did_report_as_spam": false,
                    "edge_liked_by": {
                        "count": 0
                    },
                    "edge_threaded_comments": {
                        "count": 1,
                        "edges": [
                            {
                                "node": {
                                    "created_at": 1582504995,
                                    "did_report_as_spam": false,
                                    "edge_liked_by": {
                                        "count": 0
                                    },
                                    "id": "18105115921119524",
                                    "is_restricted_pending": false,
                                    "owner": {
                                        "id": "3196588028",
                                        "is_verified": false,
                                        "profile_pic_url": "https://scontent-hel2-1.cdninstagram.com/v/t51.2885-19/s150x150/87608455_208125293711299_4480289280781975552_n.jpg?_nc_ht=scontent-hel2-1.cdninstagram.com&_nc_ohc=fIcArLzyCJEAX8SdSva&oh=81258a55d7d6f835e0193dca1cd0fac4&oe=5E8A4D8F",
                                        "username": "ricknalex"
                                    },
                                    "text": "@cheetoznxx VRO",
                                    "viewer_has_liked": false
                                }
                            }
                        ],
                        "page_info": {
                            "end_cursor": null,
                            "has_next_page": false
                        }
                    },
                    "id": "17848457929900159",
                    "is_restricted_pending": false,
                    "owner": {
                        "id": "3188211267",
                        "is_verified": false,
                        "profile_pic_url": "https://scontent-hel2-1.cdninstagram.com/v/t51.2885-19/s150x150/87230815_622422048611073_819694023110295552_n.jpg?_nc_ht=scontent-hel2-1.cdninstagram.com&_nc_ohc=n3endBw-cvUAX9_2QsJ&oh=2e519bf9512eeb235a9c70c576fac63e&oe=5E8373A2",
                        "username": "cheetoznxx"
                    },
                    "text": "@ricknalex K",
                    "viewer_has_liked": false
                }
            },
            {
                "node": {
                    "created_at": 1582506309,
                    "did_report_as_spam": false,
                    "edge_liked_by": {
                        "count": 1
                    },
                    "edge_threaded_comments": {
                        "count": 0,
                        "edges": [],
                        "page_info": {
                            "end_cursor": null,
                            "has_next_page": false
                        }
                    },
                    "id": "17890615315472269",
                    "is_restricted_pending": false,
                    "owner": {
                        "id": "513966670",
                        "is_verified": false,
                        "profile_pic_url": "https://scontent-hel2-1.cdninstagram.com/v/t51.2885-19/s150x150/71869736_443752769659597_626132736276430848_n.jpg?_nc_ht=scontent-hel2-1.cdninstagram.com&_nc_ohc=B9jywrcmeNsAX8B_XaQ&oh=82ce28f9fb272fa48eb74604d3e85d62&oe=5E8AB527",
                        "username": "thehobymusician"
                    },
                    "text": "@bachmeiersax",
                    "viewer_has_liked": false
                }
            },
            {
                "node": {
                    "created_at": 1582507064,
                    "did_report_as_spam": false,
                    "edge_liked_by": {
                        "count": 0
                    },
                    "edge_threaded_comments": {
                        "count": 0,
                        "edges": [],
                        "page_info": {
                            "end_cursor": null,
                            "has_next_page": false
                        }
                    },
                    "id": "18028508449300013",
                    "is_restricted_pending": false,
                    "owner": {
                        "id": "4926643301",
                        "is_verified": false,
                        "profile_pic_url": "https://scontent-hel2-1.cdninstagram.com/v/t51.2885-19/s150x150/39823537_231737940840381_1133287362260893696_n.jpg?_nc_ht=scontent-hel2-1.cdninstagram.com&_nc_ohc=A9sALevzR6oAX_wqfVv&oh=509924b7bb92b1b76124e134b903cc2e&oe=5E80DA5B",
                        "username": "dizzel559"
                    },
                    "text": "Inappropriate",
                    "viewer_has_liked": false
                }
            },
            {
                "node": {
                    "created_at": 1582509705,
                    "did_report_as_spam": false,
                    "edge_liked_by": {
                        "count": 0
                    },
                    "edge_threaded_comments": {
                        "count": 0,
                        "edges": [],
                        "page_info": {
                            "end_cursor": null,
                            "has_next_page": false
                        }
                    },
                    "id": "17906276263419025",
                    "is_restricted_pending": false,
                    "owner": {
                        "id": "2280901691",
                        "is_verified": false,
                        "profile_pic_url": "https://scontent-hel2-1.cdninstagram.com/v/t51.2885-19/s150x150/87223337_198267287925381_3907478052384276480_n.jpg?_nc_ht=scontent-hel2-1.cdninstagram.com&_nc_ohc=WtxIpt-VCgEAX8bM5qR&oh=ffa467850db5079d9e8484e3f2688f75&oe=5E89161D",
                        "username": "angelsartforweirdos"
                    },
                    "text": "My heart clenched",
                    "viewer_has_liked": false
                }
            },
            {
                "node": {
                    "created_at": 1582510493,
                    "did_report_as_spam": false,
                    "edge_liked_by": {
                        "count": 0
                    },
                    "edge_threaded_comments": {
                        "count": 0,
                        "edges": [],
                        "page_info": {
                            "end_cursor": null,
                            "has_next_page": false
                        }
                    },
                    "id": "17931888901358414",
                    "is_restricted_pending": false,
                    "owner": {
                        "id": "1598053514",
                        "is_verified": false,
                        "profile_pic_url": "https://scontent-hel2-1.cdninstagram.com/v/t51.2885-19/s150x150/84278293_169028777855890_6099980271975661568_n.jpg?_nc_ht=scontent-hel2-1.cdninstagram.com&_nc_ohc=x0-51305QA4AX8r_5Ly&oh=a06f0e310c7e1316324c7c2fd4717777&oe=5E8B6A82",
                        "username": "mohamed_ajmal_"
                    },
                    "text": "\ud83d\udd25\ud83d\ude0d\ud83d\ude0d\ud83d\ude0d\ud83d\ude0d",
                    "viewer_has_liked": false
                }
            },
            {
                "node": {
                    "created_at": 1582511129,
                    "did_report_as_spam": false,
                    "edge_liked_by": {
                        "count": 0
                    },
                    "edge_threaded_comments": {
                        "count": 0,
                        "edges": [],
                        "page_info": {
                            "end_cursor": null,
                            "has_next_page": false
                        }
                    },
                    "id": "18132514957031556",
                    "is_restricted_pending": false,
                    "owner": {
                        "id": "23044166883",
                        "is_verified": false,
                        "profile_pic_url": "https://scontent-hel2-1.cdninstagram.com/v/t51.2885-19/s150x150/72701789_404760270460816_3956023986126585856_n.jpg?_nc_ht=scontent-hel2-1.cdninstagram.com&_nc_ohc=c5F1tce5NNsAX9Bi5-O&oh=5c080f4d9632ab5049cf7ebdfcd738e9&oe=5E8BB543",
                        "username": "re.giane972"
                    },
                    "text": "\u2764\ufe0f\u2764\ufe0f",
                    "viewer_has_liked": false
                }
            },
            {
                "node": {
                    "created_at": 1582515096,
                    "did_report_as_spam": false,
                    "edge_liked_by": {
                        "count": 0
                    },
                    "edge_threaded_comments": {
                        "count": 0,
                        "edges": [],
                        "page_info": {
                            "end_cursor": null,
                            "has_next_page": false
                        }
                    },
                    "id": "17912800573392961",
                    "is_restricted_pending": false,
                    "owner": {
                        "id": "1608392141",
                        "is_verified": false,
                        "profile_pic_url": "https://scontent-hel2-1.cdninstagram.com/v/t51.2885-19/s150x150/60441548_338660670132569_6402992113084006400_n.jpg?_nc_ht=scontent-hel2-1.cdninstagram.com&_nc_ohc=Rsm1uWc2iAEAX8v8yrM&oh=73a6ee43620dc5d6fa80ede6b542e452&oe=5E8C92CF",
                        "username": "sofitrossero"
                    },
                    "text": "@nicolavini",
                    "viewer_has_liked": false
                }
            },
            {
                "node": {
                    "created_at": 1582527776,
                    "did_report_as_spam": false,
                    "edge_liked_by": {
                        "count": 0
                    },
                    "edge_threaded_comments": {
                        "count": 0,
                        "edges": [],
                        "page_info": {
                            "end_cursor": null,
                            "has_next_page": false
                        }
                    },
                    "id": "17865112588669418",
                    "is_restricted_pending": false,
                    "owner": {
                        "id": "248554140",
                        "is_verified": false,
                        "profile_pic_url": "https://scontent-hel2-1.cdninstagram.com/v/t51.2885-19/s150x150/40887140_1889085651386654_9155456212924366848_n.jpg?_nc_ht=scontent-hel2-1.cdninstagram.com&_nc_ohc=2jOh5eqcur0AX8x9sGV&oh=174bf386ab0abe04380d2cab00853b56&oe=5E823EAB",
                        "username": "tcam32"
                    },
                    "text": "@schroeder1000",
                    "viewer_has_liked": false
                }
            },
            {
                "node": {
                    "created_at": 1582532160,
                    "did_report_as_spam": false,
                    "edge_liked_by": {
                        "count": 0
                    },
                    "edge_threaded_comments": {
                        "count": 0,
                        "edges": [],
                        "page_info": {
                            "end_cursor": null,
                            "has_next_page": false
                        }
                    },
                    "id": "18117684439072944",
                    "is_restricted_pending": false,
                    "owner": {
                        "id": "9057628674",
                        "is_verified": false,
                        "profile_pic_url": "https://scontent-hel2-1.cdninstagram.com/v/t51.2885-19/s150x150/83097953_1610772579077145_1114525102570995712_n.jpg?_nc_ht=scontent-hel2-1.cdninstagram.com&_nc_ohc=6aDGifMnkqAAX_HDDxH&oh=40e299b4eb4897a552e905a8da0afc8a&oe=5E8BD4CB",
                        "username": "in_castyle"
                    },
                    "text": "@hees000316",
                    "viewer_has_liked": false
                }
            },
            {
                "node": {
                    "created_at": 1582549228,
                    "did_report_as_spam": false,
                    "edge_liked_by": {
                        "count": 1
                    },
                    "edge_threaded_comments": {
                        "count": 1,
                        "edges": [
                            {
                                "node": {
                                    "created_at": 1582549682,
                                    "did_report_as_spam": false,
                                    "edge_liked_by": {
                                        "count": 0
                                    },
                                    "id": "18023447626260076",
                                    "is_restricted_pending": false,
                                    "owner": {
                                        "id": "1829960531",
                                        "is_verified": false,
                                        "profile_pic_url": "https://scontent-hel2-1.cdninstagram.com/v/t51.2885-19/s150x150/79915947_584301222418417_7147827081018081280_n.jpg?_nc_ht=scontent-hel2-1.cdninstagram.com&_nc_ohc=6QfNKFgmpegAX9LxrGD&oh=3f1f452b5346bd437eadba137a407b27&oe=5E8386B1",
                                        "username": "sandy_santos29"
                                    },
                                    "text": "@pedrohlima_ ficou top esse v\u00eddeo, ele iria arrebentar tb, uma pena ele ter morrido t\u00e3o cedo",
                                    "viewer_has_liked": false
                                }
                            }
                        ],
                        "page_info": {
                            "end_cursor": null,
                            "has_next_page": false
                        }
                    },
                    "id": "17872670161589795",
                    "is_restricted_pending": false,
                    "owner": {
                        "id": "356783484",
                        "is_verified": false,
                        "profile_pic_url": "https://scontent-hel2-1.cdninstagram.com/v/t51.2885-19/s150x150/52780202_708305162900997_4769680187161837568_n.jpg?_nc_ht=scontent-hel2-1.cdninstagram.com&_nc_ohc=yeeqiQA0lsEAX9Lt3xf&oh=cd634c4eca0d7d5d6f063083df2e1beb&oe=5E8288D8",
                        "username": "pedrohlima_"
                    },
                    "text": "@sandy_santos29",
                    "viewer_has_liked": false
                }
            },
            {
                "node": {
                    "created_at": 1582554258,
                    "did_report_as_spam": false,
                    "edge_liked_by": {
                        "count": 0
                    },
                    "edge_threaded_comments": {
                        "count": 0,
                        "edges": [],
                        "page_info": {
                            "end_cursor": null,
                            "has_next_page": false
                        }
                    },
                    "id": "17890910203470405",
                    "is_restricted_pending": false,
                    "owner": {
                        "id": "4093900682",
                        "is_verified": false,
                        "profile_pic_url": "https://scontent-hel2-1.cdninstagram.com/v/t51.2885-19/s150x150/84636623_436128157115931_8659627218130960384_n.jpg?_nc_ht=scontent-hel2-1.cdninstagram.com&_nc_ohc=de_z0l9lyUkAX_Qci7K&oh=6988be22876a2e32ff6f037af5c338d2&oe=5E80C03D",
                        "username": "riley___j___j"
                    },
                    "text": "If the entire film had joaquins face swapped with heath and they got somebody that sounds like heath to voice him. It would be a good origin story for the dark knight joker.",
                    "viewer_has_liked": false
                }
            },
            {
                "node": {
                    "created_at": 1582556747,
                    "did_report_as_spam": false,
                    "edge_liked_by": {
                        "count": 0
                    },
                    "edge_threaded_comments": {
                        "count": 0,
                        "edges": [],
                        "page_info": {
                            "end_cursor": null,
                            "has_next_page": false
                        }
                    },
                    "id": "17985200788295138",
                    "is_restricted_pending": false,
                    "owner": {
                        "id": "1578523883",
                        "is_verified": false,
                        "profile_pic_url": "https://scontent-hel2-1.cdninstagram.com/v/t51.2885-19/s150x150/20478512_1999892410240540_4974454263510990848_a.jpg?_nc_ht=scontent-hel2-1.cdninstagram.com&_nc_ohc=tW2nUXOCy9IAX_hlIh5&oh=7253680ad28a87bd7bfe0a0ea0bed827&oe=5E851978",
                        "username": "youssef.mikhail"
                    },
                    "text": "Weird and scary but kinda fits",
                    "viewer_has_liked": false
                }
            },
            {
                "node": {
                    "created_at": 1582558333,
                    "did_report_as_spam": false,
                    "edge_liked_by": {
                        "count": 0
                    },
                    "edge_threaded_comments": {
                        "count": 0,
                        "edges": [],
                        "page_info": {
                            "end_cursor": null,
                            "has_next_page": false
                        }
                    },
                    "id": "18057030082202297",
                    "is_restricted_pending": false,
                    "owner": {
                        "id": "3104848441",
                        "is_verified": false,
                        "profile_pic_url": "https://scontent-hel2-1.cdninstagram.com/v/t51.2885-19/s150x150/36848663_412363602589683_2810982389298233344_n.jpg?_nc_ht=scontent-hel2-1.cdninstagram.com&_nc_ohc=zjAcpThFSr8AX9PVjj0&oh=91be22fc9f6fd1f1a9dcce3a52a174c6&oe=5E87F3D9",
                        "username": "michiboy8"
                    },
                    "text": "\ud83d\ude32\ud83d\ude32\ud83d\ude32\ud83d\ude32\ud83d\ude32 veros\u00edmil!!!\ud83d\udc4f\ud83d\udc4f\ud83d\udc4f",
                    "viewer_has_liked": false
                }
            },
            {
                "node": {
                    "created_at": 1582559800,
                    "did_report_as_spam": false,
                    "edge_liked_by": {
                        "count": 0
                    },
                    "edge_threaded_comments": {
                        "count": 0,
                        "edges": [],
                        "page_info": {
                            "end_cursor": null,
                            "has_next_page": false
                        }
                    },
                    "id": "17878461265539618",
                    "is_restricted_pending": false,
                    "owner": {
                        "id": "2109816360",
                        "is_verified": false,
                        "profile_pic_url": "https://scontent-hel2-1.cdninstagram.com/v/t51.2885-19/s150x150/44234285_755290708162589_8705612393587146752_n.jpg?_nc_ht=scontent-hel2-1.cdninstagram.com&_nc_ohc=SlrIVzSrecsAX_xwzyK&oh=e8169bb63300efcbfae05bc4d3a77637&oe=5E87837E",
                        "username": "ayoubblmkl"
                    },
                    "text": "@reda6613 halli gtlk hhhhhh",
                    "viewer_has_liked": false
                }
            },
            {
                "node": {
                    "created_at": 1582563513,
                    "did_report_as_spam": false,
                    "edge_liked_by": {
                        "count": 1
                    },
                    "edge_threaded_comments": {
                        "count": 0,
                        "edges": [],
                        "page_info": {
                            "end_cursor": null,
                            "has_next_page": false
                        }
                    },
                    "id": "17859736150739184",
                    "is_restricted_pending": false,
                    "owner": {
                        "id": "1528563015",
                        "is_verified": false,
                        "profile_pic_url": "https://scontent-hel2-1.cdninstagram.com/v/t51.2885-19/s150x150/80788231_652598142226023_7874342312627666944_n.jpg?_nc_ht=scontent-hel2-1.cdninstagram.com&_nc_ohc=12Hc1WMVp3AAX_ju8bx&oh=cdba4f8090a3e9887a3914b317baa6a3&oe=5E846AD6",
                        "username": "mralexrodriguez"
                    },
                    "text": "@philly.rodriguez",
                    "viewer_has_liked": false
                }
            },
            {
                "node": {
                    "created_at": 1582566184,
                    "did_report_as_spam": false,
                    "edge_liked_by": {
                        "count": 1
                    },
                    "edge_threaded_comments": {
                        "count": 1,
                        "edges": [
                            {
                                "node": {
                                    "created_at": 1582575281,
                                    "did_report_as_spam": false,
                                    "edge_liked_by": {
                                        "count": 0
                                    },
                                    "id": "18106122970099181",
                                    "is_restricted_pending": false,
                                    "owner": {
                                        "id": "37360416",
                                        "is_verified": false,
                                        "profile_pic_url": "https://scontent-hel2-1.cdninstagram.com/v/t51.2885-19/11887060_387340701475621_1547910777_a.jpg?_nc_ht=scontent-hel2-1.cdninstagram.com&_nc_ohc=55QMPs7f4YcAX8o_wZH&oh=859f9389fe3744c0487e6975961dbe95&oe=5E80ED4C",
                                        "username": "mikecav24"
                                    },
                                    "text": "@kevincegan wow",
                                    "viewer_has_liked": false
                                }
                            }
                        ],
                        "page_info": {
                            "end_cursor": null,
                            "has_next_page": false
                        }
                    },
                    "id": "17870100166609906",
                    "is_restricted_pending": false,
                    "owner": {
                        "id": "192436532",
                        "is_verified": false,
                        "profile_pic_url": "https://scontent-hel2-1.cdninstagram.com/v/t51.2885-19/s150x150/83926948_2219769484997497_2914778116616355840_n.jpg?_nc_ht=scontent-hel2-1.cdninstagram.com&_nc_ohc=SaFiPxuP3RYAX_oynHs&oh=30299fd8f5e0c485da623b0f2faa0b70&oe=5E8CDD22",
                        "username": "kevincegan"
                    },
                    "text": "@mikecav24",
                    "viewer_has_liked": false
                }
            },
            {
                "node": {
                    "created_at": 1582568706,
                    "did_report_as_spam": false,
                    "edge_liked_by": {
                        "count": 0
                    },
                    "edge_threaded_comments": {
                        "count": 0,
                        "edges": [],
                        "page_info": {
                            "end_cursor": null,
                            "has_next_page": false
                        }
                    },
                    "id": "17938731733334420",
                    "is_restricted_pending": false,
                    "owner": {
                        "id": "27891304577",
                        "is_verified": false,
                        "profile_pic_url": "https://scontent-hel2-1.cdninstagram.com/v/t51.2885-19/s150x150/87224106_126731255411828_4427936678870515712_n.jpg?_nc_ht=scontent-hel2-1.cdninstagram.com&_nc_ohc=CwQuRopxp-wAX8jhKxE&oh=017506c80a819baa3636cc63f0efaa90&oe=5E855CD5",
                        "username": "minds_are_dark"
                    },
                    "text": "Cool\ud83d\udeac",
                    "viewer_has_liked": false
                }
            },
            {
                "node": {
                    "created_at": 1582571330,
                    "did_report_as_spam": false,
                    "edge_liked_by": {
                        "count": 1
                    },
                    "edge_threaded_comments": {
                        "count": 0,
                        "edges": [],
                        "page_info": {
                            "end_cursor": null,
                            "has_next_page": false
                        }
                    },
                    "id": "17868802687624586",
                    "is_restricted_pending": false,
                    "owner": {
                        "id": "1685631215",
                        "is_verified": false,
                        "profile_pic_url": "https://scontent-hel2-1.cdninstagram.com/v/t51.2885-19/s150x150/82934044_891480134617057_2327225611271012352_n.jpg?_nc_ht=scontent-hel2-1.cdninstagram.com&_nc_ohc=Lto8z7Wxj4EAX-b9rqU&oh=d5397a4b39b81f42786ac8458dc09ec3&oe=5E8BC204",
                        "username": "l1ttle.wing"
                    },
                    "text": "@cashfl0vv",
                    "viewer_has_liked": false
                }
            },
            {
                "node": {
                    "created_at": 1582573711,
                    "did_report_as_spam": false,
                    "edge_liked_by": {
                        "count": 1
                    },
                    "edge_threaded_comments": {
                        "count": 0,
                        "edges": [],
                        "page_info": {
                            "end_cursor": null,
                            "has_next_page": false
                        }
                    },
                    "id": "17924743015365622",
                    "is_restricted_pending": false,
                    "owner": {
                        "id": "1394057979",
                        "is_verified": false,
                        "profile_pic_url": "https://scontent-hel2-1.cdninstagram.com/v/t51.2885-19/s150x150/83378071_781101392378645_7285057526712762368_n.jpg?_nc_ht=scontent-hel2-1.cdninstagram.com&_nc_ohc=9g-_dRK42CQAX9XfqeX&oh=802eb32e110c441ff34eb89c8259ab01&oe=5E8631ED",
                        "username": "mazen.alfikki"
                    },
                    "text": "@alfikki \u0645\u0634 \u0638\u0627\u0628\u0637\u0629 \u0623\u0648\u064a \u0628\u0633 \u0627\u0644\u062d\u0648\u0627\u0631 \u062c\u0627\u0645\u062f",
                    "viewer_has_liked": false
                }
            },
            {
                "node": {
                    "created_at": 1582595744,
                    "did_report_as_spam": false,
                    "edge_liked_by": {
                        "count": 0
                    },
                    "edge_threaded_comments": {
                        "count": 0,
                        "edges": [],
                        "page_info": {
                            "end_cursor": null,
                            "has_next_page": false
                        }
                    },
                    "id": "18116854804074215",
                    "is_restricted_pending": false,
                    "owner": {
                        "id": "182577758",
                        "is_verified": false,
                        "profile_pic_url": "https://scontent-hel2-1.cdninstagram.com/v/t51.2885-19/s150x150/14374169_1253644884686784_8436698774583115776_a.jpg?_nc_ht=scontent-hel2-1.cdninstagram.com&_nc_ohc=ICKcRDXp0sMAX_5xZvj&oh=5aa0eadb2e8472acba56358e8d59e9bf&oe=5E892FF2",
                        "username": "lukemactravels"
                    },
                    "text": "Why on earth would you make/share this? Not only is it terrible but it's just wrong on soo many levels",
                    "viewer_has_liked": false
                }
            },
            {
                "node": {
                    "created_at": 1582608427,
                    "did_report_as_spam": false,
                    "edge_liked_by": {
                        "count": 1
                    },
                    "edge_threaded_comments": {
                        "count": 0,
                        "edges": [],
                        "page_info": {
                            "end_cursor": null,
                            "has_next_page": false
                        }
                    },
                    "id": "17934039301352631",
                    "is_restricted_pending": false,
                    "owner": {
                        "id": "4040150928",
                        "is_verified": false,
                        "profile_pic_url": "https://scontent-hel2-1.cdninstagram.com/v/t51.2885-19/s150x150/46653454_285526202102989_3350404297123692544_n.jpg?_nc_ht=scontent-hel2-1.cdninstagram.com&_nc_ohc=_FYKw0WwD4AAX-qlgwF&oh=e1421c6dda96ddab1aa52d8a1fd61f75&oe=5E8649A6",
                        "username": "hajiyevteymur"
                    },
                    "text": "@rehimehajiyeva_",
                    "viewer_has_liked": false
                }
            }
        ],
        "page_info": {
            "end_cursor": "QVFBdnVRUTB5M3JQS1p2RGJtdG1WQkFMOU15bmtSY1hqOXU2b1hSWkx3M09Fa0FFcmJsS2pQcDZ0YVliNlUxckNoTGU0SWNRZ0Mya21yYXVpajNWWUZnag==",
            "has_next_page": true
        }
    },
    "edge_media_to_sponsor_user": {
        "edges": []
    },
    "edge_media_to_tagged_user": {
        "edges": []
    },
    "edge_web_media_to_related_media": {
        "edges": []
    },
    "encoding_status": null,
    "fact_check_information": null,
    "fact_check_overall_rating": null,
    "gating_info": null,
    "has_ranked_comments": false,
    "id": "2245231045826258453",
    "is_ad": false,
    "is_published": true,
    "is_video": true,
    "location": null,
    "media_preview": "ACoqSduAuOp/l/kVRyGJIA6nue3H9KtSnDZ7KM/1/pWeDtSpRK2Gs1RMTU8WCcHnNEsJHtii5dtCJULjI7VL9lf2/Oq8b+WfY1d85PU0ySS4b5WPrgfyH9TVEnPHvVu5UhAfVj+maoKaEBLGcNV3ywytkk5/Sq0cG8ZqXds4bkVDeuhotNyk3arYuExVc4ZuOKbtqyDWuBvhGOdpI/MGsvyWAz2rYt+WIPIKHj8ay5eG/OpT6B2ZdXCqAPSqkp5qQE4FQSVEdzV7EYOOtMzSmm1sYn//2Q==",
    "owner": {
        "blocked_by_viewer": false,
        "followed_by_viewer": false,
        "full_name": "Club Cinema",
        "has_blocked_viewer": false,
        "id": "8606757347",
        "is_private": false,
        "is_unpublished": false,
        "is_verified": false,
        "profile_pic_url": "https://scontent-hel2-1.cdninstagram.com/v/t51.2885-19/s150x150/41479375_939987629539189_3415581344963493888_n.jpg?_nc_ht=scontent-hel2-1.cdninstagram.com&_nc_ohc=SQtGi_dNP_QAX88k6Am&oh=a014f9d6457241a2f5d53909270d3e28&oe=5E80E2B6",
        "requested_by_viewer": false,
        "restricted_by_viewer": null,
        "username": "elclubcinema"
    },
    "product_type": "feed",
    "shortcode": "B8oqb2NJyYV",
    "taken_at_timestamp": 1581872434,
    "thumbnail_src": "https://scontent-hel2-1.cdninstagram.com/v/t51.2885-15/sh0.08/e35/s640x640/83892205_182697456341341_3843814139898347049_n.jpg?_nc_ht=scontent-hel2-1.cdninstagram.com&_nc_cat=101&_nc_ohc=_cBMBMRoZzMAX8-hDgU&oh=5b97c5b67860c952454494a51ab98080&oe=5E586260",
    "title": "",
    "tracking_token": "eyJ2ZXJzaW9uIjo1LCJwYXlsb2FkIjp7ImlzX2FuYWx5dGljc190cmFja2VkIjp0cnVlLCJ1dWlkIjoiOTE0OGE2ZDY3MzdmNDk4YmJlNDg5NzJjYjhjMWJjMjgyMjQ1MjMxMDQ1ODI2MjU4NDUzIn0sInNpZ25hdHVyZSI6IiJ9",
    "video_duration": 26.633,
    "video_url": "https://scontent-hel2-1.cdninstagram.com/v/t50.2886-16/86710713_645461116199752_7477016029752213320_n.mp4?_nc_ht=scontent-hel2-1.cdninstagram.com&_nc_cat=104&_nc_ohc=THUUqjQQkh0AX-uwFnG&oe=5E58C79C&oh=49500cdf9b8f20f57df4e6c25111ca8a",
    "video_view_count": 290132,
    "viewer_can_reshare": true,
    "viewer_has_liked": false,
    "viewer_has_saved": false,
    "viewer_has_saved_to_collection": false,
    "viewer_in_photo_of_you": false
}