{
    "__typename": "GraphVideo",
    "caption_is_edited": false,
    "commenting_disabled_for_viewer": false,
    "comments_disabled": false,
    "dash_info": {
        "is_dash_eligible": false,
        "number_of_qualities": 0,
        "video_dash_manifest": null
    },
    "dimensions": {
        "height": 640,
        "width": 640
    },
    "display_resources": [
        {
            "config_height": 640,
            "config_width": 640,
            "src": "https://scontent-hel2-1.cdninstagram.com/v/t51.2885-15/e35/83859343_200323091081299_5285522717054089517_n.jpg?_nc_ht=scontent-hel2-1.cdninstagram.com&_nc_cat=107&_nc_ohc=XyfTHwjL3t0AX8Lmn2w&oh=5ad2a4d08a9bc43d60b30b966121173a&oe=5E58F189"
        },
        {
            "config_height": 750,
            "config_width": 750,
            "src": "https://scontent-hel2-1.cdninstagram.com/v/t51.2885-15/e35/83859343_200323091081299_5285522717054089517_n.jpg?_nc_ht=scontent-hel2-1.cdninstagram.com&_nc_cat=107&_nc_ohc=XyfTHwjL3t0AX8Lmn2w&oh=5ad2a4d08a9bc43d60b30b966121173a&oe=5E58F189"
        },
        {
            "config_height": 1080,
            "config_width": 1080,
            "src": "https://scontent-hel2-1.cdninstagram.com/v/t51.2885-15/e35/83859343_200323091081299_5285522717054089517_n.jpg?_nc_ht=scontent-hel2-1.cdninstagram.com&_nc_cat=107&_nc_ohc=XyfTHwjL3t0AX8Lmn2w&oh=5ad2a4d08a9bc43d60b30b966121173a&oe=5E58F189"
        }
    ],
    "display_url": "https://scontent-hel2-1.cdninstagram.com/v/t51.2885-15/e35/83859343_200323091081299_5285522717054089517_n.jpg?_nc_ht=scontent-hel2-1.cdninstagram.com&_nc_cat=107&_nc_ohc=XyfTHwjL3t0AX8Lmn2w&oh=5ad2a4d08a9bc43d60b30b966121173a&oe=5E58F189",
    "edge_media_preview_comment": {
        "count": 6,
        "edges": [
            {
                "node": {
                    "created_at": 1581960956,
                    "did_report_as_spam": false,
                    "edge_liked_by": {
                        "count": 1
                    },
                    "id": "17851353370878830",
                    "is_restricted_pending": false,
                    "owner": {
                        "id": "3111330483",
                        "is_verified": false,
                        "profile_pic_url": "https://scontent-hel2-1.cdninstagram.com/v/t51.2885-19/s150x150/52612089_337133640241803_7031009399405543424_n.jpg?_nc_ht=scontent-hel2-1.cdninstagram.com&_nc_ohc=tZgC6f2fEaEAX-1bY4-&oh=d77f7e167526dc28602845d2704fd02c&oe=5E8A91A3",
                        "username": "romainbensoussan"
                    },
                    "text": "Incroyable ! L'avenir du cin\u00e9ma !! hahaha",
                    "viewer_has_liked": false
                }
            },
            {
                "node": {
                    "created_at": 1582308445,
                    "did_report_as_spam": false,
                    "edge_liked_by": {
                        "count": 1
                    },
                    "id": "17862687748702370",
                    "is_restricted_pending": false,
                    "owner": {
                        "id": "432374819",
                        "is_verified": false,
                        "profile_pic_url": "https://scontent-hel2-1.cdninstagram.com/v/t51.2885-19/s150x150/72779381_1430191227147662_1481703299815047168_n.jpg?_nc_ht=scontent-hel2-1.cdninstagram.com&_nc_ohc=3a_yEoQGez4AX_vsTeF&oh=2511582ab9a9b417c2b9c46e408bbba1&oe=5E861053",
                        "username": "guyanamunroe"
                    },
                    "text": "movie magic \ud83c\udfa5\ud83c\udfac",
                    "viewer_has_liked": false
                }
            }
        ]
    },
    "edge_media_preview_like": {
        "count": 21,
        "edges": []
    },
    "edge_media_to_caption": {
        "edges": [
            {
                "node": {
                    "text": "So fucking scary (and funny) what we can do with deepfake.\n.\n.\n.\n.\n.\n.\n#TomHolland y #RobertDowneyJr  #BackToTheFuture #deepfake #hollywood #scary #legend #future #technology"
                }
            }
        ]
    },
    "edge_media_to_hoisted_comment": {
        "edges": []
    },
    "edge_media_to_parent_comment": {
        "count": 6,
        "edges": [
            {
                "node": {
                    "created_at": 1581905646,
                    "did_report_as_spam": false,
                    "edge_liked_by": {
                        "count": 1
                    },
                    "edge_threaded_comments": {
                        "count": 0,
                        "edges": [],
                        "page_info": {
                            "end_cursor": null,
                            "has_next_page": false
                        }
                    },
                    "id": "17871789256594692",
                    "is_restricted_pending": false,
                    "owner": {
                        "id": "190574888",
                        "is_verified": false,
                        "profile_pic_url": "https://scontent-hel2-1.cdninstagram.com/v/t51.2885-19/s150x150/80602119_551415385680889_4128135377355538432_n.jpg?_nc_ht=scontent-hel2-1.cdninstagram.com&_nc_ohc=0FGXawZaEmMAX9On3eP&oh=468b608b19e6c445e6656eb99905e9f5&oe=5E884E15",
                        "username": "romanaldaine"
                    },
                    "text": "It\u2019s more than fake, it\u2019s downright shallow and a disservice to the craft of acting. Simply because this is not how Tom Holland and Robert Downey Jr would have approached playing these characters. Creepily, It\u2019s still Michael J. Fox and Christopher Lloyd underneath a CG mask. It\u2019s soulless.",
                    "viewer_has_liked": false
                }
            },
            {
                "node": {
                    "created_at": 1581918594,
                    "did_report_as_spam": false,
                    "edge_liked_by": {
                        "count": 2
                    },
                    "edge_threaded_comments": {
                        "count": 1,
                        "edges": [
                            {
                                "node": {
                                    "created_at": 1581945620,
                                    "did_report_as_spam": false,
                                    "edge_liked_by": {
                                        "count": 0
                                    },
                                    "id": "17851147309852707",
                                    "is_restricted_pending": false,
                                    "owner": {
                                        "id": "1765287336",
                                        "is_verified": false,
                                        "profile_pic_url": "https://scontent-hel2-1.cdninstagram.com/v/t51.2885-19/s150x150/40609377_248083585857275_6361733531957198848_n.jpg?_nc_ht=scontent-hel2-1.cdninstagram.com&_nc_ohc=xib_XNOMhSMAX-lkAEI&oh=e32af1b601135f44b1c1e6321ef6b795&oe=5E85DD4D",
                                        "username": "michaelnakache"
                                    },
                                    "text": "@nabmassy pour le moment comme tu dis. Mais donne 5 ans \u00e0 cette technologie et on va voir le d\u00e9sastre!",
                                    "viewer_has_liked": false
                                }
                            }
                        ],
                        "page_info": {
                            "end_cursor": null,
                            "has_next_page": false
                        }
                    },
                    "id": "17868016381626222",
                    "is_restricted_pending": false,
                    "owner": {
                        "id": "190888909",
                        "is_verified": false,
                        "profile_pic_url": "https://scontent-hel2-1.cdninstagram.com/v/t51.2885-19/s150x150/58423801_593813111119433_7642841354875174912_n.jpg?_nc_ht=scontent-hel2-1.cdninstagram.com&_nc_ohc=vsqhjAzsSCUAX9npxtq&oh=5d2192d4f1cd27dcb3cffabd01a48f20&oe=5E866300",
                        "username": "nabmassy"
                    },
                    "text": "@romanaldaine\u00a0 a raison, j ai regard\u00e9 les 2 vid\u00e9os, successivement et plusieurs fois, et c' est seulement une d\u00e9monstration technique de morphing. En revanche et quelque part heureusement peut \u00eatre, le jeu est totalement absent et neutralis\u00e9 par l' incapacit\u00e9 (pour l' instant) de l' algorithme \u00e0 reproduire la singularit\u00e9 et la complexit\u00e9 d'un personnage et des ses expressions.Not so scary, just funny.",
                    "viewer_has_liked": false
                }
            },
            {
                "node": {
                    "created_at": 1581929290,
                    "did_report_as_spam": false,
                    "edge_liked_by": {
                        "count": 1
                    },
                    "edge_threaded_comments": {
                        "count": 0,
                        "edges": [],
                        "page_info": {
                            "end_cursor": null,
                            "has_next_page": false
                        }
                    },
                    "id": "17877749695528182",
                    "is_restricted_pending": false,
                    "owner": {
                        "id": "39471158",
                        "is_verified": false,
                        "profile_pic_url": "https://scontent-hel2-1.cdninstagram.com/v/t51.2885-19/s150x150/44487675_549692612124429_7952679952011231232_n.jpg?_nc_ht=scontent-hel2-1.cdninstagram.com&_nc_ohc=iPp8eqD00x4AX-mgHP0&oh=1ba3deef8cf60c082020b01c6c5d703a&oe=5E87AE57",
                        "username": "zoecorraface"
                    },
                    "text": "What.is.happening?! \ud83d\ude31",
                    "viewer_has_liked": false
                }
            },
            {
                "node": {
                    "created_at": 1581960956,
                    "did_report_as_spam": false,
                    "edge_liked_by": {
                        "count": 1
                    },
                    "edge_threaded_comments": {
                        "count": 0,
                        "edges": [],
                        "page_info": {
                            "end_cursor": null,
                            "has_next_page": false
                        }
                    },
                    "id": "17851353370878830",
                    "is_restricted_pending": false,
                    "owner": {
                        "id": "3111330483",
                        "is_verified": false,
                        "profile_pic_url": "https://scontent-hel2-1.cdninstagram.com/v/t51.2885-19/s150x150/52612089_337133640241803_7031009399405543424_n.jpg?_nc_ht=scontent-hel2-1.cdninstagram.com&_nc_ohc=tZgC6f2fEaEAX-1bY4-&oh=d77f7e167526dc28602845d2704fd02c&oe=5E8A91A3",
                        "username": "romainbensoussan"
                    },
                    "text": "Incroyable ! L'avenir du cin\u00e9ma !! hahaha",
                    "viewer_has_liked": false
                }
            },
            {
                "node": {
                    "created_at": 1582308445,
                    "did_report_as_spam": false,
                    "edge_liked_by": {
                        "count": 1
                    },
                    "edge_threaded_comments": {
                        "count": 0,
                        "edges": [],
                        "page_info": {
                            "end_cursor": null,
                            "has_next_page": false
                        }
                    },
                    "id": "17862687748702370",
                    "is_restricted_pending": false,
                    "owner": {
                        "id": "432374819",
                        "is_verified": false,
                        "profile_pic_url": "https://scontent-hel2-1.cdninstagram.com/v/t51.2885-19/s150x150/72779381_1430191227147662_1481703299815047168_n.jpg?_nc_ht=scontent-hel2-1.cdninstagram.com&_nc_ohc=3a_yEoQGez4AX_vsTeF&oh=2511582ab9a9b417c2b9c46e408bbba1&oe=5E861053",
                        "username": "guyanamunroe"
                    },
                    "text": "movie magic \ud83c\udfa5\ud83c\udfac",
                    "viewer_has_liked": false
                }
            }
        ],
        "page_info": {
            "end_cursor": null,
            "has_next_page": false
        }
    },
    "edge_media_to_sponsor_user": {
        "edges": []
    },
    "edge_media_to_tagged_user": {
        "edges": []
    },
    "edge_web_media_to_related_media": {
        "edges": []
    },
    "encoding_status": null,
    "fact_check_information": null,
    "fact_check_overall_rating": null,
    "gating_info": null,
    "has_ranked_comments": false,
    "id": "2245420327230318129",
    "is_ad": false,
    "is_published": true,
    "is_video": true,
    "location": {
        "address_json": "{\"street_address\": \"\", \"zip_code\": \"90038, 90046, 90048, 90069\", \"city_name\": \"West Hollywood, California\", \"region_name\": \"\", \"country_code\": \"US\", \"exact_city_match\": true, \"exact_region_match\": false, \"exact_country_match\": false}",
        "has_public_page": true,
        "id": "213764719",
        "name": "West Hollywood, California",
        "slug": "west-hollywood-california"
    },
    "media_preview": "ACoqf9qikxnqR6dDnoTn0pVKlNw7n+VZxkIG0fczkDHepfNBUrnbk+lSUWw6gAtwDnr7evpU6gMMjkVnBzIMHkElSP8APP8ASrFs+0be2QAPTigZbxWVIx3nr1P861Cwzis97WRmJGMEk9aGCaHPb7DgmniJcVD5rlVLAYI2nn5iRn5j9e/NT+biMZ4Oefr0FADYoig7Z5yRmgW7dQcH2z/hTnl8td2N2Acjv2xj+tWY2DqGHegRV8ubIJKtj1yP5CkN0AcHGR9f8KvVgSfeP1P86VxpJjyrZyOpqUFsYIBH4j/PrUn8VWf4fw/pQFipECwB5BGefUHP5/5xU0MoX5SQMnnP0FQxE7B9DRjimI0BJlsDtUBs4yc88+//ANassMVbgkfStIO2Op/OgW2zP//Z",
    "owner": {
        "blocked_by_viewer": false,
        "followed_by_viewer": false,
        "full_name": "Michael Nakache",
        "has_blocked_viewer": false,
        "id": "1765287336",
        "is_private": false,
        "is_unpublished": false,
        "is_verified": false,
        "profile_pic_url": "https://scontent-hel2-1.cdninstagram.com/v/t51.2885-19/s150x150/40609377_248083585857275_6361733531957198848_n.jpg?_nc_ht=scontent-hel2-1.cdninstagram.com&_nc_ohc=xib_XNOMhSMAX-lkAEI&oh=e32af1b601135f44b1c1e6321ef6b795&oe=5E85DD4D",
        "requested_by_viewer": false,
        "restricted_by_viewer": null,
        "username": "michaelnakache"
    },
    "product_type": "feed",
    "shortcode": "B8pVeQQASYx",
    "taken_at_timestamp": 1581895129,
    "thumbnail_src": "https://scontent-hel2-1.cdninstagram.com/v/t51.2885-15/e35/83859343_200323091081299_5285522717054089517_n.jpg?_nc_ht=scontent-hel2-1.cdninstagram.com&_nc_cat=107&_nc_ohc=XyfTHwjL3t0AX8Lmn2w&oh=5ad2a4d08a9bc43d60b30b966121173a&oe=5E58F189",
    "title": "",
    "tracking_token": "eyJ2ZXJzaW9uIjo1LCJwYXlsb2FkIjp7ImlzX2FuYWx5dGljc190cmFja2VkIjp0cnVlLCJ1dWlkIjoiZmZhZDM0YTE1MzFmNGM5ZmJkMTRlNzAyN2UxODU1NzAyMjQ1NDIwMzI3MjMwMzE4MTI5In0sInNpZ25hdHVyZSI6IiJ9",
    "video_duration": 52.866,
    "video_url": "https://scontent-hel2-1.cdninstagram.com/v/t50.2886-16/87095395_121035492678778_8376697677110727583_n.mp4?_nc_ht=scontent-hel2-1.cdninstagram.com&_nc_cat=110&_nc_ohc=2voyBdrmgrMAX_3607K&oe=5E58651D&oh=b77ee1fc78c578910a3f5aff2fbd5085",
    "video_view_count": 312,
    "viewer_can_reshare": true,
    "viewer_has_liked": false,
    "viewer_has_saved": false,
    "viewer_has_saved_to_collection": false,
    "viewer_in_photo_of_you": false
}