{
    "__typename": "GraphVideo",
    "caption_is_edited": false,
    "commenting_disabled_for_viewer": false,
    "comments_disabled": false,
    "dash_info": {
        "is_dash_eligible": false,
        "number_of_qualities": 0,
        "video_dash_manifest": null
    },
    "dimensions": {
        "height": 1166,
        "width": 750
    },
    "display_resources": [
        {
            "config_height": 995,
            "config_width": 640,
            "src": "https://scontent-hel2-1.cdninstagram.com/v/t51.2885-15/sh0.08/e35/p640x640/85083338_1122688521410657_920585239979100857_n.jpg?_nc_ht=scontent-hel2-1.cdninstagram.com&_nc_cat=105&_nc_ohc=IAYS9EiMS-IAX81ANWv&oh=291772a327786083e1b0d9f695b9106c&oe=5E585806"
        },
        {
            "config_height": 1166,
            "config_width": 750,
            "src": "https://scontent-hel2-1.cdninstagram.com/v/t51.2885-15/e35/85083338_1122688521410657_920585239979100857_n.jpg?_nc_ht=scontent-hel2-1.cdninstagram.com&_nc_cat=105&_nc_ohc=IAYS9EiMS-IAX81ANWv&oh=3d48e6e1148361bc74351442f774bf50&oe=5E58E230"
        },
        {
            "config_height": 1680,
            "config_width": 1080,
            "src": "https://scontent-hel2-1.cdninstagram.com/v/t51.2885-15/e35/85083338_1122688521410657_920585239979100857_n.jpg?_nc_ht=scontent-hel2-1.cdninstagram.com&_nc_cat=105&_nc_ohc=IAYS9EiMS-IAX81ANWv&oh=3d48e6e1148361bc74351442f774bf50&oe=5E58E230"
        }
    ],
    "display_url": "https://scontent-hel2-1.cdninstagram.com/v/t51.2885-15/e35/85083338_1122688521410657_920585239979100857_n.jpg?_nc_ht=scontent-hel2-1.cdninstagram.com&_nc_cat=105&_nc_ohc=IAYS9EiMS-IAX81ANWv&oh=3d48e6e1148361bc74351442f774bf50&oe=5E58E230",
    "edge_media_preview_comment": {
        "count": 0,
        "edges": []
    },
    "edge_media_preview_like": {
        "count": 17,
        "edges": []
    },
    "edge_media_to_caption": {
        "edges": [
            {
                "node": {
                    "text": "Con la t\u00e9cnica del #Deepfake este impactante software ha hecho posible que los rostros de Christopher Lloyd y Michael J. Fox sean sustituidos por los de los Vengadores. \nLa relaci\u00f3n entre Tony Stark y Peter Parker es uno de los valores m\u00e1s emotivos del Universo Cinematogr\u00e1fico de Marvel y, de hecho, el que termina acogiendo un mayor potencial emotivo en el d\u00edptico formado por\u00a0Vengadores: Infinity War/Endgame. La qu\u00edmica entre ambos int\u00e9rpretes (Robert Downey Jr.\u00a0y\u00a0Tom Holland) est\u00e1 m\u00e1s que probada, y es posible que la tentaci\u00f3n de verla trasladada a otros productos haya sido lo que ha movido a EZRyderX47 a lanzarse a un experimento con\u00a0deepfake\u00a0capaz de ponernos los pelos de punta.\n\nEn caso de que no tengas muy claro qu\u00e9 es el\u00a0deepfake, basta con que sepas que es un\u00a0software\u00a0libre capaz de hacer enrojecer a\u00a0Martin Scorsese\u00a0gracias a la sustituci\u00f3n digital de un rostro determinado por otro que as\u00ed le convenga al autor. Consigui\u00f3 que los actores de\u00a0El irland\u00e9s\u00a0en sus versiones juveniles fueran\u00a0m\u00e1s convincentes\u00a0que lo aparecido en la pel\u00edcula de Netflix, y ahora ha conseguido que Downey Jr. y Holland se paseen con total naturalidad por una escena de\u00a0Volver al futuro,\u00a0sustituyendo a\u00a0Christopher Lloyd\u00a0y a\u00a0Michael J. Fox\u00a0como Doc Brown y Marty McFly.\n\nTodos amamos\u00a0Volver al futuro\u00a0tal y como es (o, si tenemos un m\u00ednimo respeto por nosotros mismos, deber\u00edamos hacerlo), pero ver a Iron Man y a Spider-Man saltando a sus escenas es una imagen muy sugerente, y un nuevo desaf\u00edo a la capacidad del\u00a0deepfake."
                }
            }
        ]
    },
    "edge_media_to_hoisted_comment": {
        "edges": []
    },
    "edge_media_to_parent_comment": {
        "count": 0,
        "edges": [],
        "page_info": {
            "end_cursor": null,
            "has_next_page": false
        }
    },
    "edge_media_to_sponsor_user": {
        "edges": []
    },
    "edge_media_to_tagged_user": {
        "edges": []
    },
    "edge_web_media_to_related_media": {
        "edges": []
    },
    "encoding_status": null,
    "fact_check_information": null,
    "fact_check_overall_rating": null,
    "gating_info": null,
    "has_ranked_comments": false,
    "id": "2245322913370804920",
    "is_ad": false,
    "is_published": true,
    "is_video": true,
    "location": null,
    "media_preview": "ABsqrxWW/duUjAyMKDn6+lQeQA21xt4zyB/hT4buaY4LBQeM4x/L+XeluAoGSd5JwOMYpFWI0jV84AwD6V0kVnEUUlE6D+Een0rAtVG3I71rOAcdfur3P90UtwOdZih5HApZpNygDr1p84+VP8+lUBk/hTHc1LNwowxxwcHt1qdpCT1PQfyqrFgLj2qTbjpwKCSGd0KAAgkf5NUV6j61Hk0A0wNJetaCR5ArBDt6n86f50n95vzNJAf/2Q==",
    "owner": {
        "blocked_by_viewer": false,
        "followed_by_viewer": false,
        "full_name": "Just Flecha \u2197\ufe0f\u2197\ufe0f\u2197\ufe0f\u2197\ufe0f\u2197\ufe0f",
        "has_blocked_viewer": false,
        "id": "2182921356",
        "is_private": false,
        "is_unpublished": false,
        "is_verified": false,
        "profile_pic_url": "https://scontent-hel2-1.cdninstagram.com/v/t51.2885-19/s150x150/84183478_237312903930099_8993718877112238080_n.jpg?_nc_ht=scontent-hel2-1.cdninstagram.com&_nc_ohc=a3sSHO5aPokAX994Y12&oh=ef2ee9b9f4451f0667428ca825cf93e7&oe=5E897CEF",
        "requested_by_viewer": false,
        "restricted_by_viewer": null,
        "username": "flecha_lastrico"
    },
    "product_type": "igtv",
    "shortcode": "B8o_UshgxK4",
    "taken_at_timestamp": 1581883546,
    "thumbnail_src": "https://scontent-hel2-1.cdninstagram.com/v/t51.2885-15/sh0.08/e35/c0.200.720.720a/s640x640/85083338_1122688521410657_920585239979100857_n.jpg?_nc_ht=scontent-hel2-1.cdninstagram.com&_nc_cat=105&_nc_ohc=IAYS9EiMS-IAX81ANWv&oh=f1be769fd75cf7c3a23d362704b55e49&oe=5E58B244",
    "title": "Robert Downey Jr. y Tom Holland son recreados en \u2018Volver al futuro\u2019",
    "tracking_token": "eyJ2ZXJzaW9uIjo1LCJwYXlsb2FkIjp7ImlzX2FuYWx5dGljc190cmFja2VkIjp0cnVlLCJ1dWlkIjoiNGE2ODJmYTdiMDM5NDkxZGJmYWU4YTA3ZDhiZTFhOTgyMjQ1MzIyOTEzMzcwODA0OTIwIn0sInNpZ25hdHVyZSI6IiJ9",
    "video_duration": 86.391,
    "video_url": "https://scontent-hel2-1.cdninstagram.com/v/t50.16885-16/10000000_788863041608403_8454978174593458959_n.mp4?_nc_ht=scontent-hel2-1.cdninstagram.com&_nc_cat=103&_nc_ohc=nzdg9ogBBUkAX9EDBy2&oe=5E58A801&oh=c18ddf82d2f1846cca58fdfb8e10e3bb",
    "video_view_count": 167,
    "viewer_can_reshare": true,
    "viewer_has_liked": false,
    "viewer_has_saved": false,
    "viewer_has_saved_to_collection": false,
    "viewer_in_photo_of_you": false
}