{
    "__typename": "GraphVideo",
    "caption_is_edited": true,
    "commenting_disabled_for_viewer": false,
    "comments_disabled": false,
    "dash_info": {
        "is_dash_eligible": false,
        "number_of_qualities": 0,
        "video_dash_manifest": null
    },
    "dimensions": {
        "height": 480,
        "width": 480
    },
    "display_resources": [
        {
            "config_height": 640,
            "config_width": 640,
            "src": "https://scontent-hel2-1.cdninstagram.com/v/t51.2885-15/e35/84330360_432206930866515_4093881689381579663_n.jpg?_nc_ht=scontent-hel2-1.cdninstagram.com&_nc_cat=103&_nc_ohc=8SEuyg3sQnUAX-dd7Hy&oh=ba0c25bd1658774b743b3d42d42e83a6&oe=5E58D43D"
        },
        {
            "config_height": 750,
            "config_width": 750,
            "src": "https://scontent-hel2-1.cdninstagram.com/v/t51.2885-15/e35/84330360_432206930866515_4093881689381579663_n.jpg?_nc_ht=scontent-hel2-1.cdninstagram.com&_nc_cat=103&_nc_ohc=8SEuyg3sQnUAX-dd7Hy&oh=ba0c25bd1658774b743b3d42d42e83a6&oe=5E58D43D"
        },
        {
            "config_height": 1080,
            "config_width": 1080,
            "src": "https://scontent-hel2-1.cdninstagram.com/v/t51.2885-15/e35/84330360_432206930866515_4093881689381579663_n.jpg?_nc_ht=scontent-hel2-1.cdninstagram.com&_nc_cat=103&_nc_ohc=8SEuyg3sQnUAX-dd7Hy&oh=ba0c25bd1658774b743b3d42d42e83a6&oe=5E58D43D"
        }
    ],
    "display_url": "https://scontent-hel2-1.cdninstagram.com/v/t51.2885-15/e35/84330360_432206930866515_4093881689381579663_n.jpg?_nc_ht=scontent-hel2-1.cdninstagram.com&_nc_cat=103&_nc_ohc=8SEuyg3sQnUAX-dd7Hy&oh=ba0c25bd1658774b743b3d42d42e83a6&oe=5E58D43D",
    "edge_media_preview_comment": {
        "count": 4,
        "edges": [
            {
                "node": {
                    "created_at": 1581947235,
                    "did_report_as_spam": false,
                    "edge_liked_by": {
                        "count": 1
                    },
                    "id": "17857592662753747",
                    "is_restricted_pending": false,
                    "owner": {
                        "id": "1459020499",
                        "is_verified": false,
                        "profile_pic_url": "https://scontent-hel2-1.cdninstagram.com/v/t51.2885-19/s150x150/59265571_410452033020417_9206561178375946240_n.jpg?_nc_ht=scontent-hel2-1.cdninstagram.com&_nc_ohc=OMPYcPHu5OcAX89ReVd&oh=f8dec280a927a0600b845f3bab6c8259&oe=5E886B8E",
                        "username": "roh_vm94"
                    },
                    "text": "Ser\u00eda genial un remake con el genio de Robert \ud83d\udc96\ud83d\udc96\ud83d\udc96",
                    "viewer_has_liked": false
                }
            },
            {
                "node": {
                    "created_at": 1581954970,
                    "did_report_as_spam": false,
                    "edge_liked_by": {
                        "count": 0
                    },
                    "id": "17870942062604064",
                    "is_restricted_pending": false,
                    "owner": {
                        "id": "1473026169",
                        "is_verified": false,
                        "profile_pic_url": "https://scontent-hel2-1.cdninstagram.com/v/t51.2885-19/s150x150/70250326_1244831365696426_3620236476488351744_n.jpg?_nc_ht=scontent-hel2-1.cdninstagram.com&_nc_ohc=3Q0qkW7Es1gAX9uFdnM&oh=dba17fb121bb42a6b66407de9a6b93dc&oe=5E828989",
                        "username": "echelon.diamond"
                    },
                    "text": "@hipscore Mal!! En especial Tom \ud83d\ude2e\ud83d\ude2e",
                    "viewer_has_liked": false
                }
            }
        ]
    },
    "edge_media_preview_like": {
        "count": 19,
        "edges": []
    },
    "edge_media_to_caption": {
        "edges": [
            {
                "node": {
                    "text": "Tom Holland y Robert Downey Jr en \"Back to The Future\" \ud83d\ude33\u2764\ufe0f. \u00c9sta edici\u00f3n es perfecta \u2728\n\nCon la tecnolog\u00eda Deepfake se pudo realizar este extra\u00f1o pero expectacular cambio de rostros de la escena de la pel\u00edcula.\n#deepfake"
                }
            }
        ]
    },
    "edge_media_to_hoisted_comment": {
        "edges": []
    },
    "edge_media_to_parent_comment": {
        "count": 4,
        "edges": [
            {
                "node": {
                    "created_at": 1581886230,
                    "did_report_as_spam": false,
                    "edge_liked_by": {
                        "count": 1
                    },
                    "edge_threaded_comments": {
                        "count": 2,
                        "edges": [
                            {
                                "node": {
                                    "created_at": 1581945810,
                                    "did_report_as_spam": false,
                                    "edge_liked_by": {
                                        "count": 1
                                    },
                                    "id": "18044056771234734",
                                    "is_restricted_pending": false,
                                    "owner": {
                                        "id": "1103884966",
                                        "is_verified": false,
                                        "profile_pic_url": "https://scontent-hel2-1.cdninstagram.com/v/t51.2885-19/s150x150/11931182_1155356767832095_1997936024_a.jpg?_nc_ht=scontent-hel2-1.cdninstagram.com&_nc_ohc=WUm41vDBzxYAX9bfLWo&oh=86b7862478486b38dfe49b86311593b7&oe=5E8CB0B2",
                                        "username": "hipscore"
                                    },
                                    "text": "@echelon.diamond que carajos? Se re parece",
                                    "viewer_has_liked": false
                                }
                            },
                            {
                                "node": {
                                    "created_at": 1581954970,
                                    "did_report_as_spam": false,
                                    "edge_liked_by": {
                                        "count": 0
                                    },
                                    "id": "17870942062604064",
                                    "is_restricted_pending": false,
                                    "owner": {
                                        "id": "1473026169",
                                        "is_verified": false,
                                        "profile_pic_url": "https://scontent-hel2-1.cdninstagram.com/v/t51.2885-19/s150x150/70250326_1244831365696426_3620236476488351744_n.jpg?_nc_ht=scontent-hel2-1.cdninstagram.com&_nc_ohc=3Q0qkW7Es1gAX9uFdnM&oh=dba17fb121bb42a6b66407de9a6b93dc&oe=5E828989",
                                        "username": "echelon.diamond"
                                    },
                                    "text": "@hipscore Mal!! En especial Tom \ud83d\ude2e\ud83d\ude2e",
                                    "viewer_has_liked": false
                                }
                            }
                        ],
                        "page_info": {
                            "end_cursor": null,
                            "has_next_page": false
                        }
                    },
                    "id": "18017386990264777",
                    "is_restricted_pending": false,
                    "owner": {
                        "id": "1473026169",
                        "is_verified": false,
                        "profile_pic_url": "https://scontent-hel2-1.cdninstagram.com/v/t51.2885-19/s150x150/70250326_1244831365696426_3620236476488351744_n.jpg?_nc_ht=scontent-hel2-1.cdninstagram.com&_nc_ohc=3Q0qkW7Es1gAX9uFdnM&oh=dba17fb121bb42a6b66407de9a6b93dc&oe=5E828989",
                        "username": "echelon.diamond"
                    },
                    "text": "@hipscore",
                    "viewer_has_liked": false
                }
            },
            {
                "node": {
                    "created_at": 1581947235,
                    "did_report_as_spam": false,
                    "edge_liked_by": {
                        "count": 1
                    },
                    "edge_threaded_comments": {
                        "count": 0,
                        "edges": [],
                        "page_info": {
                            "end_cursor": null,
                            "has_next_page": false
                        }
                    },
                    "id": "17857592662753747",
                    "is_restricted_pending": false,
                    "owner": {
                        "id": "1459020499",
                        "is_verified": false,
                        "profile_pic_url": "https://scontent-hel2-1.cdninstagram.com/v/t51.2885-19/s150x150/59265571_410452033020417_9206561178375946240_n.jpg?_nc_ht=scontent-hel2-1.cdninstagram.com&_nc_ohc=OMPYcPHu5OcAX89ReVd&oh=f8dec280a927a0600b845f3bab6c8259&oe=5E886B8E",
                        "username": "roh_vm94"
                    },
                    "text": "Ser\u00eda genial un remake con el genio de Robert \ud83d\udc96\ud83d\udc96\ud83d\udc96",
                    "viewer_has_liked": false
                }
            }
        ],
        "page_info": {
            "end_cursor": null,
            "has_next_page": false
        }
    },
    "edge_media_to_sponsor_user": {
        "edges": []
    },
    "edge_media_to_tagged_user": {
        "edges": []
    },
    "edge_web_media_to_related_media": {
        "edges": []
    },
    "encoding_status": null,
    "fact_check_information": null,
    "fact_check_overall_rating": null,
    "gating_info": null,
    "has_ranked_comments": false,
    "id": "2245090730862651475",
    "is_ad": false,
    "is_published": true,
    "is_video": true,
    "location": null,
    "media_preview": "ACoqDdRSYLdSPToc9Cc+lKu0puHc1nGQgbR9zOQMVL5oKlc7cn0pFFsMoALcA5/T19KnUBhkcis4OZBg8gkqR/nn+lWLZ9o29sgAenFAy1isuRjvP1P861Cwzis97WRmJGMEk9aQJoc9vsO0kU8RLioTK5VSQMEbTzySM/Mfc9+an83EYzwc8/yFAhkURQds88jNAt2zkHB9v/1U9pfLXdjdjOR37Yx/WrMbB1DDvQBV8ubIJKnHrkfyFIbsA4OMj6/4VerAf7x+poGkmSEN1HU1JliMEAj8RT/4hVn+H8P6UBYqxAsAeQRnn1Bz+f8AnFTQyhflJAyefyqGInYPoaMcUCNASZbA7d6gNlGTnnn3/wDrVlhircEj6VpB2x1P50E7bM//2Q==",
    "owner": {
        "blocked_by_viewer": false,
        "followed_by_viewer": false,
        "full_name": "",
        "has_blocked_viewer": false,
        "id": "974584603",
        "is_private": false,
        "is_unpublished": false,
        "is_verified": false,
        "profile_pic_url": "https://scontent-hel2-1.cdninstagram.com/v/t51.2885-19/s150x150/82566165_548254285696374_2401861572960976896_n.jpg?_nc_ht=scontent-hel2-1.cdninstagram.com&_nc_ohc=5ini7eRvetoAX-2Gu9-&oh=74ed0b623ccd34a965fb563f1b5fbf34&oe=5E87841F",
        "requested_by_viewer": false,
        "restricted_by_viewer": null,
        "username": "xtr3m3_z0mb13"
    },
    "product_type": "feed",
    "shortcode": "B8oKh_tlyhT",
    "taken_at_timestamp": 1581855727,
    "thumbnail_src": "https://scontent-hel2-1.cdninstagram.com/v/t51.2885-15/e35/84330360_432206930866515_4093881689381579663_n.jpg?_nc_ht=scontent-hel2-1.cdninstagram.com&_nc_cat=103&_nc_ohc=8SEuyg3sQnUAX-dd7Hy&oh=ba0c25bd1658774b743b3d42d42e83a6&oe=5E58D43D",
    "title": "",
    "tracking_token": "eyJ2ZXJzaW9uIjo1LCJwYXlsb2FkIjp7ImlzX2FuYWx5dGljc190cmFja2VkIjpmYWxzZSwidXVpZCI6Ijg1OTE5NGQzOTI3MzQ3NzE4NDIxMjQzMWEyYzY3NTM3MjI0NTA5MDczMDg2MjY1MTQ3NSJ9LCJzaWduYXR1cmUiOiIifQ==",
    "video_duration": 52.866,
    "video_url": "https://scontent-hel2-1.cdninstagram.com/v/t50.2886-16/86294210_2544201359159063_4977891733417401256_n.mp4?_nc_ht=scontent-hel2-1.cdninstagram.com&_nc_cat=111&_nc_ohc=uoD8r-BuL88AX_dYgGV&oe=5E58AE34&oh=56b474607e1dc0be84cf26375ae48fcb",
    "video_view_count": 155,
    "viewer_can_reshare": true,
    "viewer_has_liked": false,
    "viewer_has_saved": false,
    "viewer_has_saved_to_collection": false,
    "viewer_in_photo_of_you": false
}