{
    "__typename": "GraphVideo",
    "caption_is_edited": false,
    "commenting_disabled_for_viewer": false,
    "comments_disabled": false,
    "dash_info": {
        "is_dash_eligible": false,
        "number_of_qualities": 0,
        "video_dash_manifest": null
    },
    "dimensions": {
        "height": 521,
        "width": 750
    },
    "display_resources": [
        {
            "config_height": 445,
            "config_width": 640,
            "src": "https://scontent-hel2-1.cdninstagram.com/v/t51.2885-15/sh0.08/e35/s640x640/82491713_210182230034746_9029348568021315973_n.jpg?_nc_ht=scontent-hel2-1.cdninstagram.com&_nc_cat=110&_nc_ohc=b4hVNkwSpywAX9hdoi5&oh=fd8cc893341444a296e4b01c1df253b7&oe=5E58F4E1"
        },
        {
            "config_height": 521,
            "config_width": 750,
            "src": "https://scontent-hel2-1.cdninstagram.com/v/t51.2885-15/e35/82491713_210182230034746_9029348568021315973_n.jpg?_nc_ht=scontent-hel2-1.cdninstagram.com&_nc_cat=110&_nc_ohc=b4hVNkwSpywAX9hdoi5&oh=535ca5a5d9afe862cc31f82e4717aea5&oe=5E58BD44"
        },
        {
            "config_height": 751,
            "config_width": 1080,
            "src": "https://scontent-hel2-1.cdninstagram.com/v/t51.2885-15/e35/82491713_210182230034746_9029348568021315973_n.jpg?_nc_ht=scontent-hel2-1.cdninstagram.com&_nc_cat=110&_nc_ohc=b4hVNkwSpywAX9hdoi5&oh=535ca5a5d9afe862cc31f82e4717aea5&oe=5E58BD44"
        }
    ],
    "display_url": "https://scontent-hel2-1.cdninstagram.com/v/t51.2885-15/e35/82491713_210182230034746_9029348568021315973_n.jpg?_nc_ht=scontent-hel2-1.cdninstagram.com&_nc_cat=110&_nc_ohc=b4hVNkwSpywAX9hdoi5&oh=535ca5a5d9afe862cc31f82e4717aea5&oe=5E58BD44",
    "edge_media_preview_comment": {
        "count": 0,
        "edges": []
    },
    "edge_media_preview_like": {
        "count": 9,
        "edges": []
    },
    "edge_media_to_caption": {
        "edges": [
            {
                "node": {
                    "text": "@robertdowneyjr @tomholland2013 #deepfake #backtothefuture #dontaskquestionschief #quittouchingshit"
                }
            }
        ]
    },
    "edge_media_to_hoisted_comment": {
        "edges": []
    },
    "edge_media_to_parent_comment": {
        "count": 0,
        "edges": [],
        "page_info": {
            "end_cursor": null,
            "has_next_page": false
        }
    },
    "edge_media_to_sponsor_user": {
        "edges": []
    },
    "edge_media_to_tagged_user": {
        "edges": []
    },
    "edge_web_media_to_related_media": {
        "edges": []
    },
    "encoding_status": null,
    "fact_check_information": null,
    "fact_check_overall_rating": null,
    "gating_info": null,
    "has_ranked_comments": false,
    "id": "2245344036491079505",
    "is_ad": false,
    "is_published": true,
    "is_video": true,
    "location": null,
    "media_preview": "ACod5milFO4qkr9UgGUU/ijj2p8vmhANvcHPsf8A61N4oPtSVL0GKKXNNpQMnFFwFBpM1Z+ze/6f/XqGRNhx1p3YDCc0lFOxS3A//9k=",
    "owner": {
        "blocked_by_viewer": false,
        "followed_by_viewer": false,
        "full_name": "Teflon Ronn",
        "has_blocked_viewer": false,
        "id": "6360998131",
        "is_private": false,
        "is_unpublished": false,
        "is_verified": false,
        "profile_pic_url": "https://scontent-hel2-1.cdninstagram.com/v/t51.2885-19/s150x150/87226449_1365925996947627_1030587427128868864_n.jpg?_nc_ht=scontent-hel2-1.cdninstagram.com&_nc_ohc=tAuvZiC1bFsAX8THuJU&oh=a6f49f200f85517fd224c5956572f1d7&oe=5E843FDA",
        "requested_by_viewer": false,
        "restricted_by_viewer": null,
        "username": "thatduderonn"
    },
    "product_type": "feed",
    "shortcode": "B8pEIE9l69R",
    "taken_at_timestamp": 1581886017,
    "thumbnail_src": "https://scontent-hel2-1.cdninstagram.com/v/t51.2885-15/e35/c109.0.501.501a/82491713_210182230034746_9029348568021315973_n.jpg?_nc_ht=scontent-hel2-1.cdninstagram.com&_nc_cat=110&_nc_ohc=b4hVNkwSpywAX9hdoi5&oh=e182fad488ad3308bfd8b5089c659850&oe=5E58C5D0",
    "title": "",
    "tracking_token": "eyJ2ZXJzaW9uIjo1LCJwYXlsb2FkIjp7ImlzX2FuYWx5dGljc190cmFja2VkIjp0cnVlLCJ1dWlkIjoiMWRjNmZmMThkNWNjNGE1NDg1MWNlMjQyODAyYjRiZDcyMjQ1MzQ0MDM2NDkxMDc5NTA1In0sInNpZ25hdHVyZSI6IiJ9",
    "video_duration": 54.266,
    "video_url": "https://scontent-hel2-1.cdninstagram.com/v/t50.2886-16/86360616_185126606090891_6350114607841393165_n.mp4?_nc_ht=scontent-hel2-1.cdninstagram.com&_nc_cat=111&_nc_ohc=sD60hPs3xYoAX-9ha-5&oe=5E58D21B&oh=800efe0efc99be832d3a79df7c88fcd7",
    "video_view_count": 78,
    "viewer_can_reshare": true,
    "viewer_has_liked": false,
    "viewer_has_saved": false,
    "viewer_has_saved_to_collection": false,
    "viewer_in_photo_of_you": false
}