{
    "__typename": "GraphVideo",
    "caption_is_edited": true,
    "commenting_disabled_for_viewer": false,
    "comments_disabled": false,
    "dash_info": {
        "is_dash_eligible": false,
        "number_of_qualities": 0,
        "video_dash_manifest": null
    },
    "dimensions": {
        "height": 1080,
        "width": 1080
    },
    "display_resources": [
        {
            "config_height": 640,
            "config_width": 640,
            "src": "https://scontent-hel2-1.cdninstagram.com/v/t51.2885-15/sh0.08/e35/s640x640/84723718_182407936382046_5158367025775630045_n.jpg?_nc_ht=scontent-hel2-1.cdninstagram.com&_nc_cat=106&_nc_ohc=ykoDNSpdnoYAX_4-RWU&oh=79269759e8081d16aabb2341e1898ca1&oe=5E58C43A"
        },
        {
            "config_height": 750,
            "config_width": 750,
            "src": "https://scontent-hel2-1.cdninstagram.com/v/t51.2885-15/sh0.08/e35/s750x750/84723718_182407936382046_5158367025775630045_n.jpg?_nc_ht=scontent-hel2-1.cdninstagram.com&_nc_cat=106&_nc_ohc=ykoDNSpdnoYAX_4-RWU&oh=a33cc1f99cf0844d7d115968d9ceaec8&oe=5E587B3A"
        },
        {
            "config_height": 1080,
            "config_width": 1080,
            "src": "https://scontent-hel2-1.cdninstagram.com/v/t51.2885-15/fr/e15/s1080x1080/84723718_182407936382046_5158367025775630045_n.jpg?_nc_ht=scontent-hel2-1.cdninstagram.com&_nc_cat=106&_nc_ohc=ykoDNSpdnoYAX_4-RWU&oh=8ee19fcecd56c921abdd1f4ba18a217f&oe=5E58EA80"
        }
    ],
    "display_url": "https://scontent-hel2-1.cdninstagram.com/v/t51.2885-15/fr/e15/s1080x1080/84723718_182407936382046_5158367025775630045_n.jpg?_nc_ht=scontent-hel2-1.cdninstagram.com&_nc_cat=106&_nc_ohc=ykoDNSpdnoYAX_4-RWU&oh=8ee19fcecd56c921abdd1f4ba18a217f&oe=5E58EA80",
    "edge_media_preview_comment": {
        "count": 287,
        "edges": [
            {
                "node": {
                    "created_at": 1582644639,
                    "did_report_as_spam": false,
                    "edge_liked_by": {
                        "count": 0
                    },
                    "id": "17848647733910446",
                    "is_restricted_pending": false,
                    "owner": {
                        "id": "9132668992",
                        "is_verified": false,
                        "profile_pic_url": "https://scontent-hel2-1.cdninstagram.com/v/t51.2885-19/s150x150/45521179_197430001143886_3401692288311623680_n.jpg?_nc_ht=scontent-hel2-1.cdninstagram.com&_nc_ohc=FiYbpPKdd7YAX8y_qm5&oh=81b0a8adf473b832df35e77a9f2e0827&oe=5E813C3B",
                        "username": "cocoa_outletboutique"
                    },
                    "text": "Secos\ud83d\udc4f\ud83d\udc4f\ud83d\udc4f\ud83d\udc4f",
                    "viewer_has_liked": false
                }
            },
            {
                "node": {
                    "created_at": 1582654163,
                    "did_report_as_spam": false,
                    "edge_liked_by": {
                        "count": 0
                    },
                    "id": "18107431102128236",
                    "is_restricted_pending": false,
                    "owner": {
                        "id": "7142754599",
                        "is_verified": false,
                        "profile_pic_url": "https://scontent-hel2-1.cdninstagram.com/v/t51.2885-19/s150x150/84555452_530775204213174_3186521745406296064_n.jpg?_nc_ht=scontent-hel2-1.cdninstagram.com&_nc_ohc=EDMxB894gGMAX9VVLoR&oh=bf1279803f1306808c7860415bad09cd&oe=5E801191",
                        "username": "iaaraa.c"
                    },
                    "text": "\ud83d\ude0d\ud83d\ude0d\ud83d\ude0d\ud83d\ude0d",
                    "viewer_has_liked": false
                }
            }
        ]
    },
    "edge_media_preview_like": {
        "count": 24814,
        "edges": []
    },
    "edge_media_to_caption": {
        "edges": [
            {
                "node": {
                    "text": "#TomHolland y #RobertDowney protagonizan escena de \"#Regresoalfuturo\" gracias a la ayuda de la tecnolog\u00eda \u00bfC\u00f3mo es posible? se trata de \u201c#deepfake\u201d. Con este t\u00e9rmino nos referimos a una t\u00e9cnica de inteligencia artificial que permite modificar v\u00eddeos con un realismo que asusta. Mediante algoritmos de aprendizaje, por ejemplo, se puede cambiar la cara de una persona en un video determinado, como ha ocurrido en este ejemplo de \u201c#Regresoalfuturo\u201d."
                }
            }
        ]
    },
    "edge_media_to_hoisted_comment": {
        "edges": []
    },
    "edge_media_to_parent_comment": {
        "count": 287,
        "edges": [
            {
                "node": {
                    "created_at": 1582075801,
                    "did_report_as_spam": false,
                    "edge_liked_by": {
                        "count": 0
                    },
                    "edge_threaded_comments": {
                        "count": 0,
                        "edges": [],
                        "page_info": {
                            "end_cursor": null,
                            "has_next_page": false
                        }
                    },
                    "id": "17854590811813977",
                    "is_restricted_pending": false,
                    "owner": {
                        "id": "2021634144",
                        "is_verified": false,
                        "profile_pic_url": "https://scontent-hel2-1.cdninstagram.com/v/t51.2885-19/s150x150/72402907_1163560487172532_888554280284323840_n.jpg?_nc_ht=scontent-hel2-1.cdninstagram.com&_nc_ohc=5mgLpVWbDT0AX8gvpC2&oh=d70f581e9c60cee460b17de46f122507&oe=5E8B4582",
                        "username": "iampapadoc"
                    },
                    "text": "\ud83d\ude31\ud83e\udd2f\ud83d\ude31\ud83e\udd2f\ud83d\ude31\ud83e\udd2f\ud83d\ude31\ud83e\udd2f",
                    "viewer_has_liked": false
                }
            },
            {
                "node": {
                    "created_at": 1582084728,
                    "did_report_as_spam": false,
                    "edge_liked_by": {
                        "count": 0
                    },
                    "edge_threaded_comments": {
                        "count": 0,
                        "edges": [],
                        "page_info": {
                            "end_cursor": null,
                            "has_next_page": false
                        }
                    },
                    "id": "17851525990871498",
                    "is_restricted_pending": false,
                    "owner": {
                        "id": "439307426",
                        "is_verified": false,
                        "profile_pic_url": "https://scontent-hel2-1.cdninstagram.com/v/t51.2885-19/s150x150/61745925_2236126636604742_6667459195396161536_n.jpg?_nc_ht=scontent-hel2-1.cdninstagram.com&_nc_ohc=QPVfeMHueUsAX-Zx96B&oh=962106048d42e32b616b5a8a6527f5e4&oe=5E84F4C6",
                        "username": "mony_isabella"
                    },
                    "text": "\ud83d\udc96\ud83d\udc9emaravillosos",
                    "viewer_has_liked": false
                }
            },
            {
                "node": {
                    "created_at": 1582086620,
                    "did_report_as_spam": false,
                    "edge_liked_by": {
                        "count": 1
                    },
                    "edge_threaded_comments": {
                        "count": 0,
                        "edges": [],
                        "page_info": {
                            "end_cursor": null,
                            "has_next_page": false
                        }
                    },
                    "id": "17859824575736593",
                    "is_restricted_pending": false,
                    "owner": {
                        "id": "12533822881",
                        "is_verified": false,
                        "profile_pic_url": "https://scontent-hel2-1.cdninstagram.com/v/t51.2885-19/s150x150/71199108_911618662551848_4798609089707900928_n.jpg?_nc_ht=scontent-hel2-1.cdninstagram.com&_nc_ohc=0Uof5DOvnAkAX_6C8kI&oh=5f35bc7cc2db512c3dd0d991fdb88b39&oe=5E806459",
                        "username": "marouf_aluen23"
                    },
                    "text": "\ud83e\udd23\ud83e\udd23\ud83e\udd23 Iguales \ud83d\udc4c",
                    "viewer_has_liked": false
                }
            },
            {
                "node": {
                    "created_at": 1582127566,
                    "did_report_as_spam": false,
                    "edge_liked_by": {
                        "count": 0
                    },
                    "edge_threaded_comments": {
                        "count": 0,
                        "edges": [],
                        "page_info": {
                            "end_cursor": null,
                            "has_next_page": false
                        }
                    },
                    "id": "17852386393857839",
                    "is_restricted_pending": false,
                    "owner": {
                        "id": "9723894354",
                        "is_verified": false,
                        "profile_pic_url": "https://scontent-hel2-1.cdninstagram.com/v/t51.2885-19/s150x150/59440891_391364561455108_4960635713042251776_n.jpg?_nc_ht=scontent-hel2-1.cdninstagram.com&_nc_ohc=8cr69770H64AX-D4-fU&oh=7df244ea52fea3fcd6c78bfe30e83702&oe=5E84793D",
                        "username": "aliver._"
                    },
                    "text": "He visto esta noticia en varios sitios pero a\u00fan no veo q corrigan el nombre del actor...es Michael J Fox y no Downey \ud83d\ude4c",
                    "viewer_has_liked": false
                }
            },
            {
                "node": {
                    "created_at": 1582155726,
                    "did_report_as_spam": false,
                    "edge_liked_by": {
                        "count": 0
                    },
                    "edge_threaded_comments": {
                        "count": 0,
                        "edges": [],
                        "page_info": {
                            "end_cursor": null,
                            "has_next_page": false
                        }
                    },
                    "id": "17864674468663244",
                    "is_restricted_pending": false,
                    "owner": {
                        "id": "1752866176",
                        "is_verified": false,
                        "profile_pic_url": "https://scontent-hel2-1.cdninstagram.com/v/t51.2885-19/s150x150/52616144_262582101311167_4761977266395676672_n.jpg?_nc_ht=scontent-hel2-1.cdninstagram.com&_nc_ohc=NNdeVFP0IcMAX9arg15&oh=c2908d51b49d26093685fbd661507e07&oe=5E8B4656",
                        "username": "liset_snopy"
                    },
                    "text": "@gonzalorafarl",
                    "viewer_has_liked": false
                }
            },
            {
                "node": {
                    "created_at": 1582167173,
                    "did_report_as_spam": false,
                    "edge_liked_by": {
                        "count": 1
                    },
                    "edge_threaded_comments": {
                        "count": 0,
                        "edges": [],
                        "page_info": {
                            "end_cursor": null,
                            "has_next_page": false
                        }
                    },
                    "id": "18095178901143042",
                    "is_restricted_pending": false,
                    "owner": {
                        "id": "8008033258",
                        "is_verified": false,
                        "profile_pic_url": "https://scontent-hel2-1.cdninstagram.com/v/t51.2885-19/s150x150/84419612_170134480951214_6984047526911410176_n.jpg?_nc_ht=scontent-hel2-1.cdninstagram.com&_nc_ohc=RU_tSJermvMAX-sBORL&oh=8202d49f834f09c0c98d73bbb8af63d2&oe=5E8CE955",
                        "username": "eugenexd_19"
                    },
                    "text": "@el_freeman_",
                    "viewer_has_liked": false
                }
            },
            {
                "node": {
                    "created_at": 1582201556,
                    "did_report_as_spam": false,
                    "edge_liked_by": {
                        "count": 0
                    },
                    "edge_threaded_comments": {
                        "count": 0,
                        "edges": [],
                        "page_info": {
                            "end_cursor": null,
                            "has_next_page": false
                        }
                    },
                    "id": "17857175467780067",
                    "is_restricted_pending": false,
                    "owner": {
                        "id": "8422912103",
                        "is_verified": false,
                        "profile_pic_url": "https://scontent-hel2-1.cdninstagram.com/v/t51.2885-19/s150x150/80615551_837908030003971_9174508159568445440_n.jpg?_nc_ht=scontent-hel2-1.cdninstagram.com&_nc_ohc=PaFolKmVcK4AX-7YYbu&oh=0c3df4199e9eb2dd1076062c3dd7bb65&oe=5E847E00",
                        "username": "luchylujan.ok"
                    },
                    "text": "@deboraruthlujan",
                    "viewer_has_liked": false
                }
            },
            {
                "node": {
                    "created_at": 1582202844,
                    "did_report_as_spam": false,
                    "edge_liked_by": {
                        "count": 0
                    },
                    "edge_threaded_comments": {
                        "count": 0,
                        "edges": [],
                        "page_info": {
                            "end_cursor": null,
                            "has_next_page": false
                        }
                    },
                    "id": "18131110291060218",
                    "is_restricted_pending": false,
                    "owner": {
                        "id": "1756432150",
                        "is_verified": false,
                        "profile_pic_url": "https://scontent-hel2-1.cdninstagram.com/v/t51.2885-19/s150x150/12599422_1010438922324894_1950573622_a.jpg?_nc_ht=scontent-hel2-1.cdninstagram.com&_nc_ohc=o_gSYK0D740AX-_yxu-&oh=5b1d018acbc7b862435b5c4af37aa45e&oe=5E8AFBA0",
                        "username": "gata.sarca01"
                    },
                    "text": "Yessss\ud83d\ude0a\ud83d\ude31",
                    "viewer_has_liked": false
                }
            },
            {
                "node": {
                    "created_at": 1582203192,
                    "did_report_as_spam": false,
                    "edge_liked_by": {
                        "count": 2
                    },
                    "edge_threaded_comments": {
                        "count": 2,
                        "edges": [],
                        "page_info": {
                            "end_cursor": null,
                            "has_next_page": false
                        }
                    },
                    "id": "17852572309848210",
                    "is_restricted_pending": false,
                    "owner": {
                        "id": "185461189",
                        "is_verified": false,
                        "profile_pic_url": "https://scontent-hel2-1.cdninstagram.com/v/t51.2885-19/11246916_1173625722651191_135001331_a.jpg?_nc_ht=scontent-hel2-1.cdninstagram.com&_nc_ohc=j1m1GI5Fi-wAX-Oft5n&oh=9f7c71a89bb12c2c00994f0837a5b352&oe=5E80988B",
                        "username": "kmil8"
                    },
                    "text": "@kaenecon_k @bennjabarrera (0.0)!",
                    "viewer_has_liked": false
                }
            },
            {
                "node": {
                    "created_at": 1582203451,
                    "did_report_as_spam": false,
                    "edge_liked_by": {
                        "count": 1
                    },
                    "edge_threaded_comments": {
                        "count": 0,
                        "edges": [],
                        "page_info": {
                            "end_cursor": null,
                            "has_next_page": false
                        }
                    },
                    "id": "17847974686903935",
                    "is_restricted_pending": false,
                    "owner": {
                        "id": "1825753887",
                        "is_verified": false,
                        "profile_pic_url": "https://scontent-hel2-1.cdninstagram.com/v/t51.2885-19/s150x150/58410887_362357451051003_399047971271868416_n.jpg?_nc_ht=scontent-hel2-1.cdninstagram.com&_nc_ohc=sZfI7aUNuV8AX_ZrknV&oh=91387c39d92e6b20e4de5b1cf51a1ab9&oe=5E871662",
                        "username": "kaenecon_k"
                    },
                    "text": "@chocotroko",
                    "viewer_has_liked": false
                }
            },
            {
                "node": {
                    "created_at": 1582298394,
                    "did_report_as_spam": false,
                    "edge_liked_by": {
                        "count": 0
                    },
                    "edge_threaded_comments": {
                        "count": 0,
                        "edges": [],
                        "page_info": {
                            "end_cursor": null,
                            "has_next_page": false
                        }
                    },
                    "id": "17894582881455565",
                    "is_restricted_pending": false,
                    "owner": {
                        "id": "1737589859",
                        "is_verified": false,
                        "profile_pic_url": "https://scontent-hel2-1.cdninstagram.com/v/t51.2885-19/s150x150/87345113_660729454683035_4658650167254188032_n.jpg?_nc_ht=scontent-hel2-1.cdninstagram.com&_nc_ohc=FhXkmMlyyTUAX_9O98L&oh=695e1e3bc09da7a3b16f960587909807&oe=5E895266",
                        "username": "_luccifeer"
                    },
                    "text": "Meo crosover",
                    "viewer_has_liked": false
                }
            },
            {
                "node": {
                    "created_at": 1582411921,
                    "did_report_as_spam": false,
                    "edge_liked_by": {
                        "count": 0
                    },
                    "edge_threaded_comments": {
                        "count": 0,
                        "edges": [],
                        "page_info": {
                            "end_cursor": null,
                            "has_next_page": false
                        }
                    },
                    "id": "17851050757886017",
                    "is_restricted_pending": false,
                    "owner": {
                        "id": "7293039402",
                        "is_verified": false,
                        "profile_pic_url": "https://scontent-hel2-1.cdninstagram.com/v/t51.2885-19/s150x150/80718272_657281241472856_8592636723429638144_n.jpg?_nc_ht=scontent-hel2-1.cdninstagram.com&_nc_ohc=Nebnmsiy_hoAX9KGou-&oh=aef372fba11ce9f2dad50cc284a85fc2&oe=5E8C20A1",
                        "username": "samuel.neira.s"
                    },
                    "text": "Lo que pueden hacer los software hoy en dia, impresionante.",
                    "viewer_has_liked": false
                }
            },
            {
                "node": {
                    "created_at": 1582468695,
                    "did_report_as_spam": false,
                    "edge_liked_by": {
                        "count": 0
                    },
                    "edge_threaded_comments": {
                        "count": 0,
                        "edges": [],
                        "page_info": {
                            "end_cursor": null,
                            "has_next_page": false
                        }
                    },
                    "id": "17847308020916013",
                    "is_restricted_pending": false,
                    "owner": {
                        "id": "2189063704",
                        "is_verified": false,
                        "profile_pic_url": "https://scontent-hel2-1.cdninstagram.com/v/t51.2885-19/s150x150/82171343_481848429427737_1603321066942365696_n.jpg?_nc_ht=scontent-hel2-1.cdninstagram.com&_nc_ohc=CfMTlV1kwlAAX81pR6T&oh=7f2f840aaa75f9892023f3d62a6bf98c&oe=5E820A7C",
                        "username": "cxtxlinx_s.g"
                    },
                    "text": "\ud83e\udd24\ud83e\udd24\ud83e\udd24\ud83e\udd24",
                    "viewer_has_liked": false
                }
            },
            {
                "node": {
                    "created_at": 1582503373,
                    "did_report_as_spam": false,
                    "edge_liked_by": {
                        "count": 0
                    },
                    "edge_threaded_comments": {
                        "count": 0,
                        "edges": [],
                        "page_info": {
                            "end_cursor": null,
                            "has_next_page": false
                        }
                    },
                    "id": "18089509165150969",
                    "is_restricted_pending": false,
                    "owner": {
                        "id": "1696308306",
                        "is_verified": false,
                        "profile_pic_url": "https://scontent-hel2-1.cdninstagram.com/v/t51.2885-19/s150x150/76985379_1014527728930975_1876027103414059008_n.jpg?_nc_ht=scontent-hel2-1.cdninstagram.com&_nc_ohc=Ow7ITEPqkkEAX87XgfE&oh=a6ef6a8a32e0bcc20f87ae21e5ccbe60&oe=5E8AC892",
                        "username": "mike_angel_patagonia"
                    },
                    "text": "@\u25c7",
                    "viewer_has_liked": false
                }
            },
            {
                "node": {
                    "created_at": 1582503384,
                    "did_report_as_spam": false,
                    "edge_liked_by": {
                        "count": 0
                    },
                    "edge_threaded_comments": {
                        "count": 0,
                        "edges": [],
                        "page_info": {
                            "end_cursor": null,
                            "has_next_page": false
                        }
                    },
                    "id": "17856086602781514",
                    "is_restricted_pending": false,
                    "owner": {
                        "id": "1696308306",
                        "is_verified": false,
                        "profile_pic_url": "https://scontent-hel2-1.cdninstagram.com/v/t51.2885-19/s150x150/76985379_1014527728930975_1876027103414059008_n.jpg?_nc_ht=scontent-hel2-1.cdninstagram.com&_nc_ohc=Ow7ITEPqkkEAX87XgfE&oh=a6ef6a8a32e0bcc20f87ae21e5ccbe60&oe=5E8AC892",
                        "username": "mike_angel_patagonia"
                    },
                    "text": "@les_mfredes mira \ud83d\udc40",
                    "viewer_has_liked": false
                }
            },
            {
                "node": {
                    "created_at": 1582511144,
                    "did_report_as_spam": false,
                    "edge_liked_by": {
                        "count": 0
                    },
                    "edge_threaded_comments": {
                        "count": 0,
                        "edges": [],
                        "page_info": {
                            "end_cursor": null,
                            "has_next_page": false
                        }
                    },
                    "id": "17860544872737827",
                    "is_restricted_pending": false,
                    "owner": {
                        "id": "1525663286",
                        "is_verified": false,
                        "profile_pic_url": "https://scontent-hel2-1.cdninstagram.com/v/t51.2885-19/s150x150/83528909_272938813683628_8494473708281266176_n.jpg?_nc_ht=scontent-hel2-1.cdninstagram.com&_nc_ohc=iR9M_HN75c0AX-BIP_3&oh=834fe56af7af511cbcdef14195899e73&oe=5E89F141",
                        "username": "nambu_pibu"
                    },
                    "text": "\u2764\ufe0f\u2764\ufe0f\u2764\ufe0f",
                    "viewer_has_liked": false
                }
            },
            {
                "node": {
                    "created_at": 1582565816,
                    "did_report_as_spam": false,
                    "edge_liked_by": {
                        "count": 1
                    },
                    "edge_threaded_comments": {
                        "count": 2,
                        "edges": [
                            {
                                "node": {
                                    "created_at": 1582567037,
                                    "did_report_as_spam": false,
                                    "edge_liked_by": {
                                        "count": 1
                                    },
                                    "id": "17844087017005073",
                                    "is_restricted_pending": false,
                                    "owner": {
                                        "id": "11072554250",
                                        "is_verified": false,
                                        "profile_pic_url": "https://scontent-hel2-1.cdninstagram.com/v/t51.2885-19/s150x150/62459575_1184463108344370_8535936008296857600_n.jpg?_nc_ht=scontent-hel2-1.cdninstagram.com&_nc_ohc=MhHrkLZgRFUAX_KqB_r&oh=50a1948f6507d79fd364e0ccabcae919&oe=5E855459",
                                        "username": "rodeevalenzu"
                                    },
                                    "text": "@gigi.frh \ud83d\ude2ejajajaja pero si son id\u00e9nticos!!",
                                    "viewer_has_liked": false
                                }
                            },
                            {
                                "node": {
                                    "created_at": 1582569444,
                                    "did_report_as_spam": false,
                                    "edge_liked_by": {
                                        "count": 1
                                    },
                                    "id": "17889627646481365",
                                    "is_restricted_pending": false,
                                    "owner": {
                                        "id": "256274016",
                                        "is_verified": false,
                                        "profile_pic_url": "https://scontent-hel2-1.cdninstagram.com/v/t51.2885-19/s150x150/84499262_1503646096479308_3168322611763478528_n.jpg?_nc_ht=scontent-hel2-1.cdninstagram.com&_nc_ohc=fsrbHx0z9n0AX_gOP6_&oh=864efb20262bd45e47422dc99289da32&oe=5E880280",
                                        "username": "gigi.frh"
                                    },
                                    "text": "@rodeevalenzu siiiiii quede plop jajajaja",
                                    "viewer_has_liked": false
                                }
                            }
                        ],
                        "page_info": {
                            "end_cursor": null,
                            "has_next_page": false
                        }
                    },
                    "id": "17907482782412277",
                    "is_restricted_pending": false,
                    "owner": {
                        "id": "256274016",
                        "is_verified": false,
                        "profile_pic_url": "https://scontent-hel2-1.cdninstagram.com/v/t51.2885-19/s150x150/84499262_1503646096479308_3168322611763478528_n.jpg?_nc_ht=scontent-hel2-1.cdninstagram.com&_nc_ohc=fsrbHx0z9n0AX_gOP6_&oh=864efb20262bd45e47422dc99289da32&oe=5E880280",
                        "username": "gigi.frh"
                    },
                    "text": "@rodeevalenzu \ud83d\udc40",
                    "viewer_has_liked": false
                }
            },
            {
                "node": {
                    "created_at": 1582574544,
                    "did_report_as_spam": false,
                    "edge_liked_by": {
                        "count": 0
                    },
                    "edge_threaded_comments": {
                        "count": 0,
                        "edges": [],
                        "page_info": {
                            "end_cursor": null,
                            "has_next_page": false
                        }
                    },
                    "id": "17865216202665689",
                    "is_restricted_pending": false,
                    "owner": {
                        "id": "936789542",
                        "is_verified": false,
                        "profile_pic_url": "https://scontent-hel2-1.cdninstagram.com/v/t51.2885-19/s150x150/26155157_141036106688353_3972220372224311296_n.jpg?_nc_ht=scontent-hel2-1.cdninstagram.com&_nc_ohc=1_lGtRqJQ0YAX-BN9WX&oh=be94b2d70719cca96f7379fa2827181c&oe=5E878CB3",
                        "username": "maggie_hidales"
                    },
                    "text": "@villamarleandro \ud83d\ude32",
                    "viewer_has_liked": false
                }
            },
            {
                "node": {
                    "created_at": 1582578849,
                    "did_report_as_spam": false,
                    "edge_liked_by": {
                        "count": 0
                    },
                    "edge_threaded_comments": {
                        "count": 0,
                        "edges": [],
                        "page_info": {
                            "end_cursor": null,
                            "has_next_page": false
                        }
                    },
                    "id": "18053295412215068",
                    "is_restricted_pending": false,
                    "owner": {
                        "id": "5775990844",
                        "is_verified": false,
                        "profile_pic_url": "https://scontent-hel2-1.cdninstagram.com/v/t51.2885-19/s150x150/57674266_248604545975950_6559024241973395456_n.jpg?_nc_ht=scontent-hel2-1.cdninstagram.com&_nc_ohc=tKo9XKf7LuEAX8B5IFV&oh=152b9b472c6cc56dce3027929925207d&oe=5E84E1A0",
                        "username": "tititamosa"
                    },
                    "text": "Cuando v\u00ed las im\u00e1genes sin leer de lo que se trataba dijo ..wow ! El chico que realiza el personaje de Spiderman reciente se parece mucho al de volver al futuro !!!! \ud83e\udd2f y no me hab\u00eda dado cuenta ...!!!! \ud83e\udd23\ud83e\udd23\ud83e\udd23 ..impresionante la tecnolog\u00eda .",
                    "viewer_has_liked": false
                }
            },
            {
                "node": {
                    "created_at": 1582644639,
                    "did_report_as_spam": false,
                    "edge_liked_by": {
                        "count": 0
                    },
                    "edge_threaded_comments": {
                        "count": 0,
                        "edges": [],
                        "page_info": {
                            "end_cursor": null,
                            "has_next_page": false
                        }
                    },
                    "id": "17848647733910446",
                    "is_restricted_pending": false,
                    "owner": {
                        "id": "9132668992",
                        "is_verified": false,
                        "profile_pic_url": "https://scontent-hel2-1.cdninstagram.com/v/t51.2885-19/s150x150/45521179_197430001143886_3401692288311623680_n.jpg?_nc_ht=scontent-hel2-1.cdninstagram.com&_nc_ohc=FiYbpPKdd7YAX8y_qm5&oh=81b0a8adf473b832df35e77a9f2e0827&oe=5E813C3B",
                        "username": "cocoa_outletboutique"
                    },
                    "text": "Secos\ud83d\udc4f\ud83d\udc4f\ud83d\udc4f\ud83d\udc4f",
                    "viewer_has_liked": false
                }
            },
            {
                "node": {
                    "created_at": 1582654163,
                    "did_report_as_spam": false,
                    "edge_liked_by": {
                        "count": 0
                    },
                    "edge_threaded_comments": {
                        "count": 0,
                        "edges": [],
                        "page_info": {
                            "end_cursor": null,
                            "has_next_page": false
                        }
                    },
                    "id": "18107431102128236",
                    "is_restricted_pending": false,
                    "owner": {
                        "id": "7142754599",
                        "is_verified": false,
                        "profile_pic_url": "https://scontent-hel2-1.cdninstagram.com/v/t51.2885-19/s150x150/84555452_530775204213174_3186521745406296064_n.jpg?_nc_ht=scontent-hel2-1.cdninstagram.com&_nc_ohc=EDMxB894gGMAX9VVLoR&oh=bf1279803f1306808c7860415bad09cd&oe=5E801191",
                        "username": "iaaraa.c"
                    },
                    "text": "\ud83d\ude0d\ud83d\ude0d\ud83d\ude0d\ud83d\ude0d",
                    "viewer_has_liked": false
                }
            }
        ],
        "page_info": {
            "end_cursor": "QVFCRzVQTGJ4SGliaER1ZF8zak9aWnItcEVBeEQtN2xueGFUdk5SMkJnOTJpN0VHUkt5MzlnNHBLZnhZeHI0dTdxZUdacC1xS1NGdzdoN1paMkRZaUc0eQ==",
            "has_next_page": true
        }
    },
    "edge_media_to_sponsor_user": {
        "edges": []
    },
    "edge_media_to_tagged_user": {
        "edges": []
    },
    "edge_web_media_to_related_media": {
        "edges": []
    },
    "encoding_status": null,
    "fact_check_information": null,
    "fact_check_overall_rating": null,
    "gating_info": null,
    "has_ranked_comments": false,
    "id": "2245993628349844100",
    "is_ad": false,
    "is_published": true,
    "is_video": true,
    "location": null,
    "media_preview": "ACoqheQBDtHzKM5/CqBQMoLNyeTzUxlXJHU46Coiwx0GcY/CpZcdSzHLmERnb1POOfQH64NWLVQHB9xzWcskfQ9asI23O04JpiZalwZSOuWP86aeDioY3BwP4ge/9Ke3U0CIltHPQD86gNsy8OR7EHP4VpyEiN9vB/8AriqkkUfTPQc/Wlctald7SQgMAMdM57irEVtIzBRjJx3q5HcZiVHbtg8DPBxnP0xVq1ADD6imQZUlpIGKkDIPrTfsk3r+tbErAy49WNKy8nnvQMzjOvIHP8vzqJn4xxzyen4Uw9Mex/kagPUfQfyqWXHRFtZ4z8pBB6VYRgudpwTWa/3vyq3H1pkMtRyAjaThge/fntU561my9/rUW9vU/nTFY//Z",
    "owner": {
        "blocked_by_viewer": false,
        "followed_by_viewer": false,
        "full_name": "Mega",
        "has_blocked_viewer": false,
        "id": "1560707437",
        "is_private": false,
        "is_unpublished": false,
        "is_verified": true,
        "profile_pic_url": "https://scontent-hel2-1.cdninstagram.com/v/t51.2885-19/s150x150/12256658_171620046518924_479412040_a.jpg?_nc_ht=scontent-hel2-1.cdninstagram.com&_nc_ohc=QQCsfcDvMSwAX8-fVWa&oh=d9937e52bc4cca24b3c43a505bf4e5d6&oe=5E8B25B1",
        "requested_by_viewer": false,
        "restricted_by_viewer": null,
        "username": "mega.tv"
    },
    "product_type": "feed",
    "shortcode": "B8rX04hlUqE",
    "taken_at_timestamp": 1581963349,
    "thumbnail_src": "https://scontent-hel2-1.cdninstagram.com/v/t51.2885-15/sh0.08/e35/s640x640/84723718_182407936382046_5158367025775630045_n.jpg?_nc_ht=scontent-hel2-1.cdninstagram.com&_nc_cat=106&_nc_ohc=ykoDNSpdnoYAX_4-RWU&oh=79269759e8081d16aabb2341e1898ca1&oe=5E58C43A",
    "title": "",
    "tracking_token": "eyJ2ZXJzaW9uIjo1LCJwYXlsb2FkIjp7ImlzX2FuYWx5dGljc190cmFja2VkIjp0cnVlLCJ1dWlkIjoiMWJjZTI5NWQwMmQ4NDFjMTkyZjlkZWE0ZGZjY2NlZTYyMjQ1OTkzNjI4MzQ5ODQ0MTAwIn0sInNpZ25hdHVyZSI6IiJ9",
    "video_duration": 52.833,
    "video_url": "https://scontent-hel2-1.cdninstagram.com/v/t50.2886-16/86773395_1529895980506494_3523027272115877926_n.mp4?_nc_ht=scontent-hel2-1.cdninstagram.com&_nc_cat=106&_nc_ohc=jXWPu9PC7oQAX_9Ve2a&oe=5E589884&oh=e100941bb53295ed986359bc669c6c50",
    "video_view_count": 244969,
    "viewer_can_reshare": true,
    "viewer_has_liked": false,
    "viewer_has_saved": false,
    "viewer_has_saved_to_collection": false,
    "viewer_in_photo_of_you": false
}