{
    "__typename": "GraphVideo",
    "caption_is_edited": false,
    "commenting_disabled_for_viewer": false,
    "comments_disabled": false,
    "dash_info": {
        "is_dash_eligible": false,
        "number_of_qualities": 0,
        "video_dash_manifest": null
    },
    "dimensions": {
        "height": 750,
        "width": 750
    },
    "display_resources": [
        {
            "config_height": 640,
            "config_width": 640,
            "src": "https://scontent-hel2-1.cdninstagram.com/v/t51.2885-15/sh0.08/e35/s640x640/84890202_759749414428778_3051975877829406314_n.jpg?_nc_ht=scontent-hel2-1.cdninstagram.com&_nc_cat=102&_nc_ohc=f_fvg6h__YEAX_tsrnM&oh=0afe4647183b0de6098fff18cc4076cd&oe=5E589152"
        },
        {
            "config_height": 750,
            "config_width": 750,
            "src": "https://scontent-hel2-1.cdninstagram.com/v/t51.2885-15/e35/84890202_759749414428778_3051975877829406314_n.jpg?_nc_ht=scontent-hel2-1.cdninstagram.com&_nc_cat=102&_nc_ohc=f_fvg6h__YEAX_tsrnM&oh=229425baddc072e88270bb37fd3659c2&oe=5E58B737"
        },
        {
            "config_height": 1080,
            "config_width": 1080,
            "src": "https://scontent-hel2-1.cdninstagram.com/v/t51.2885-15/e35/84890202_759749414428778_3051975877829406314_n.jpg?_nc_ht=scontent-hel2-1.cdninstagram.com&_nc_cat=102&_nc_ohc=f_fvg6h__YEAX_tsrnM&oh=229425baddc072e88270bb37fd3659c2&oe=5E58B737"
        }
    ],
    "display_url": "https://scontent-hel2-1.cdninstagram.com/v/t51.2885-15/e35/84890202_759749414428778_3051975877829406314_n.jpg?_nc_ht=scontent-hel2-1.cdninstagram.com&_nc_cat=102&_nc_ohc=f_fvg6h__YEAX_tsrnM&oh=229425baddc072e88270bb37fd3659c2&oe=5E58B737",
    "edge_media_preview_comment": {
        "count": 9,
        "edges": [
            {
                "node": {
                    "created_at": 1582492041,
                    "did_report_as_spam": false,
                    "edge_liked_by": {
                        "count": 1
                    },
                    "id": "18002236561280500",
                    "is_restricted_pending": false,
                    "owner": {
                        "id": "227731813",
                        "is_verified": false,
                        "profile_pic_url": "https://scontent-hel2-1.cdninstagram.com/v/t51.2885-19/s150x150/75372359_827747637677834_4208882106845102080_n.jpg?_nc_ht=scontent-hel2-1.cdninstagram.com&_nc_ohc=LQ8Ela8koywAX9vNHc6&oh=304d84d68ca715d742c6e71e382cef6b&oe=5E87085C",
                        "username": "goofy_stance_"
                    },
                    "text": "This is so awesome \ud83d\udc4f\ud83c\udffd",
                    "viewer_has_liked": false
                }
            },
            {
                "node": {
                    "created_at": 1582509408,
                    "did_report_as_spam": false,
                    "edge_liked_by": {
                        "count": 0
                    },
                    "id": "18108215470096849",
                    "is_restricted_pending": false,
                    "owner": {
                        "id": "2093436301",
                        "is_verified": false,
                        "profile_pic_url": "https://scontent-hel2-1.cdninstagram.com/v/t51.2885-19/s150x150/74704981_564513144386211_442882875646279680_n.jpg?_nc_ht=scontent-hel2-1.cdninstagram.com&_nc_ohc=ieWAEbsfaIgAX-ZMcVz&oh=04127f0cf3d0947467dd7a0b308e03c0&oe=5E873525",
                        "username": "scottwelsch"
                    },
                    "text": "@goofy_stance_ ty \ud83d\ude4c",
                    "viewer_has_liked": false
                }
            }
        ]
    },
    "edge_media_preview_like": {
        "count": 113,
        "edges": []
    },
    "edge_media_to_caption": {
        "edges": [
            {
                "node": {
                    "text": "Steve Buschemi as Dr. Evil. \n#deepfakes #deepfake #drevil #stevebuschemi #deepfakechallenge #drfakenstein #mikemyers #comedyvideos"
                }
            }
        ]
    },
    "edge_media_to_hoisted_comment": {
        "edges": []
    },
    "edge_media_to_parent_comment": {
        "count": 9,
        "edges": [
            {
                "node": {
                    "created_at": 1581853316,
                    "did_report_as_spam": false,
                    "edge_liked_by": {
                        "count": 0
                    },
                    "edge_threaded_comments": {
                        "count": 0,
                        "edges": [],
                        "page_info": {
                            "end_cursor": null,
                            "has_next_page": false
                        }
                    },
                    "id": "17854621048791809",
                    "is_restricted_pending": false,
                    "owner": {
                        "id": "10027441267",
                        "is_verified": false,
                        "profile_pic_url": "https://scontent-hel2-1.cdninstagram.com/v/t51.2885-19/s150x150/79718143_799115813848861_5039599644556918784_n.jpg?_nc_ht=scontent-hel2-1.cdninstagram.com&_nc_ohc=JJe_fOWk-roAX-RaA73&oh=2832dd9dbe70434b07964e1e50cf7593&oe=5E81BE20",
                        "username": "penelopecamila_"
                    },
                    "text": "Sometimes life pushes you to what you don't feel doing. I do not want to venture into trade but I have no other option than to do it, with the way life frustrated me. I got scammed at first that I started investing with some manager. I left social media for a while and focus on my business that was fetching me some money. There was a day I wanted to wish a friend happy birthday on Instagram in the process of that I saw @david___leth.fx03 post, I contacted him and invested with him and I got my profits after the trade was over, Contact him on Instagram, @david___leth.fx03 is the best",
                    "viewer_has_liked": false
                }
            },
            {
                "node": {
                    "created_at": 1581863213,
                    "did_report_as_spam": false,
                    "edge_liked_by": {
                        "count": 1
                    },
                    "edge_threaded_comments": {
                        "count": 0,
                        "edges": [],
                        "page_info": {
                            "end_cursor": null,
                            "has_next_page": false
                        }
                    },
                    "id": "17858562319737200",
                    "is_restricted_pending": false,
                    "owner": {
                        "id": "257694452",
                        "is_verified": false,
                        "profile_pic_url": "https://scontent-hel2-1.cdninstagram.com/v/t51.2885-19/s150x150/80869477_720018471735948_1785161035838128128_n.jpg?_nc_ht=scontent-hel2-1.cdninstagram.com&_nc_ohc=AIS6JZauEQwAX-LwECm&oh=16d7e7f79e6d32ff852974b9e6a5f718&oe=5E878AEE",
                        "username": "seanthelouis"
                    },
                    "text": "\ud83e\udd23\ud83e\udd23\ud83e\udd23",
                    "viewer_has_liked": false
                }
            },
            {
                "node": {
                    "created_at": 1581864052,
                    "did_report_as_spam": false,
                    "edge_liked_by": {
                        "count": 1
                    },
                    "edge_threaded_comments": {
                        "count": 0,
                        "edges": [],
                        "page_info": {
                            "end_cursor": null,
                            "has_next_page": false
                        }
                    },
                    "id": "17911678867393746",
                    "is_restricted_pending": false,
                    "owner": {
                        "id": "231959316",
                        "is_verified": false,
                        "profile_pic_url": "https://scontent-hel2-1.cdninstagram.com/v/t51.2885-19/s150x150/83609660_174367703661164_4676083027191791616_n.jpg?_nc_ht=scontent-hel2-1.cdninstagram.com&_nc_ohc=HPQhBI3P6T4AX9tYSz_&oh=958498548bdbf45ab80a66eda2ce2bbe&oe=5E876972",
                        "username": "_stevecellis"
                    },
                    "text": "\ud83d\ude02\ud83d\ude02\ud83d\ude02\ud83d\ude02\ud83e\udd23\ud83e\udd23\ud83e\udd23\ud83e\udd23\ud83e\udd23\ud83e\udd23\ud83e\udd23 man you wild",
                    "viewer_has_liked": false
                }
            },
            {
                "node": {
                    "created_at": 1581875816,
                    "did_report_as_spam": false,
                    "edge_liked_by": {
                        "count": 1
                    },
                    "edge_threaded_comments": {
                        "count": 0,
                        "edges": [],
                        "page_info": {
                            "end_cursor": null,
                            "has_next_page": false
                        }
                    },
                    "id": "17851147453845527",
                    "is_restricted_pending": false,
                    "owner": {
                        "id": "30543384",
                        "is_verified": false,
                        "profile_pic_url": "https://scontent-hel2-1.cdninstagram.com/v/t51.2885-19/s150x150/59411482_903820446628849_6576314539061542912_n.jpg?_nc_ht=scontent-hel2-1.cdninstagram.com&_nc_ohc=UdWOxWR6_lkAX9cjE48&oh=345095c9d754bb1df2faf79071ae73cb&oe=5E8ADD84",
                        "username": "thekendallvines"
                    },
                    "text": "Bruh keep these deep fakes coming \nYou getting better am better \ud83d\udc4f\ud83c\udffe\ud83d\udc4f\ud83c\udffe\ud83d\udc4f\ud83c\udffe\ud83d\udc4f\ud83c\udffe\ud83d\udcaf\ud83d\udcaf\ud83d\udcaf",
                    "viewer_has_liked": false
                }
            },
            {
                "node": {
                    "created_at": 1581878464,
                    "did_report_as_spam": false,
                    "edge_liked_by": {
                        "count": 1
                    },
                    "edge_threaded_comments": {
                        "count": 0,
                        "edges": [],
                        "page_info": {
                            "end_cursor": null,
                            "has_next_page": false
                        }
                    },
                    "id": "17862057859702982",
                    "is_restricted_pending": false,
                    "owner": {
                        "id": "211878876",
                        "is_verified": false,
                        "profile_pic_url": "https://scontent-hel2-1.cdninstagram.com/v/t51.2885-19/s150x150/61822757_386608948624137_6754978315217403904_n.jpg?_nc_ht=scontent-hel2-1.cdninstagram.com&_nc_ohc=_RoVhXGWHAQAX-ik-HI&oh=48787ca8157e5e42aaac9e30a0b2886c&oe=5E861F45",
                        "username": "thejeffrichards"
                    },
                    "text": "Excellent \u2665\ufe0f",
                    "viewer_has_liked": false
                }
            },
            {
                "node": {
                    "created_at": 1581879166,
                    "did_report_as_spam": false,
                    "edge_liked_by": {
                        "count": 2
                    },
                    "edge_threaded_comments": {
                        "count": 0,
                        "edges": [],
                        "page_info": {
                            "end_cursor": null,
                            "has_next_page": false
                        }
                    },
                    "id": "17858857825743020",
                    "is_restricted_pending": false,
                    "owner": {
                        "id": "24970017",
                        "is_verified": false,
                        "profile_pic_url": "https://scontent-hel2-1.cdninstagram.com/v/t51.2885-19/s150x150/70446942_530933227682143_5828241616757850112_n.jpg?_nc_ht=scontent-hel2-1.cdninstagram.com&_nc_ohc=HOx7V5xDUIsAX9jCBR6&oh=8160102242ad6334f8da6d869ee01bb5&oe=5E8B0FF9",
                        "username": "nottomcruiseofficial"
                    },
                    "text": "\ud83d\ude4c",
                    "viewer_has_liked": false
                }
            },
            {
                "node": {
                    "created_at": 1581883921,
                    "did_report_as_spam": false,
                    "edge_liked_by": {
                        "count": 1
                    },
                    "edge_threaded_comments": {
                        "count": 0,
                        "edges": [],
                        "page_info": {
                            "end_cursor": null,
                            "has_next_page": false
                        }
                    },
                    "id": "17873973943573031",
                    "is_restricted_pending": false,
                    "owner": {
                        "id": "9634643835",
                        "is_verified": false,
                        "profile_pic_url": "https://scontent-hel2-1.cdninstagram.com/v/t51.2885-19/s150x150/46317865_317227772462070_1093076718794571776_n.jpg?_nc_ht=scontent-hel2-1.cdninstagram.com&_nc_ohc=w_mFryBbfoAAX930WSy&oh=f5778319d528bf874ead768ca238da25&oe=5E86BBB5",
                        "username": "cristophergonzalez1939"
                    },
                    "text": "\ud83d\ude02",
                    "viewer_has_liked": false
                }
            },
            {
                "node": {
                    "created_at": 1582492041,
                    "did_report_as_spam": false,
                    "edge_liked_by": {
                        "count": 1
                    },
                    "edge_threaded_comments": {
                        "count": 1,
                        "edges": [
                            {
                                "node": {
                                    "created_at": 1582509408,
                                    "did_report_as_spam": false,
                                    "edge_liked_by": {
                                        "count": 0
                                    },
                                    "id": "18108215470096849",
                                    "is_restricted_pending": false,
                                    "owner": {
                                        "id": "2093436301",
                                        "is_verified": false,
                                        "profile_pic_url": "https://scontent-hel2-1.cdninstagram.com/v/t51.2885-19/s150x150/74704981_564513144386211_442882875646279680_n.jpg?_nc_ht=scontent-hel2-1.cdninstagram.com&_nc_ohc=ieWAEbsfaIgAX-ZMcVz&oh=04127f0cf3d0947467dd7a0b308e03c0&oe=5E873525",
                                        "username": "scottwelsch"
                                    },
                                    "text": "@goofy_stance_ ty \ud83d\ude4c",
                                    "viewer_has_liked": false
                                }
                            }
                        ],
                        "page_info": {
                            "end_cursor": null,
                            "has_next_page": false
                        }
                    },
                    "id": "18002236561280500",
                    "is_restricted_pending": false,
                    "owner": {
                        "id": "227731813",
                        "is_verified": false,
                        "profile_pic_url": "https://scontent-hel2-1.cdninstagram.com/v/t51.2885-19/s150x150/75372359_827747637677834_4208882106845102080_n.jpg?_nc_ht=scontent-hel2-1.cdninstagram.com&_nc_ohc=LQ8Ela8koywAX9vNHc6&oh=304d84d68ca715d742c6e71e382cef6b&oe=5E87085C",
                        "username": "goofy_stance_"
                    },
                    "text": "This is so awesome \ud83d\udc4f\ud83c\udffd",
                    "viewer_has_liked": false
                }
            }
        ],
        "page_info": {
            "end_cursor": null,
            "has_next_page": false
        }
    },
    "edge_media_to_sponsor_user": {
        "edges": []
    },
    "edge_media_to_tagged_user": {
        "edges": [
            {
                "node": {
                    "user": {
                        "full_name": "EVAN FERRANTE",
                        "id": "24970017",
                        "is_verified": false,
                        "profile_pic_url": "https://scontent-hel2-1.cdninstagram.com/v/t51.2885-19/s150x150/70446942_530933227682143_5828241616757850112_n.jpg?_nc_ht=scontent-hel2-1.cdninstagram.com&_nc_ohc=HOx7V5xDUIsAX9jCBR6&oh=8160102242ad6334f8da6d869ee01bb5&oe=5E8B0FF9",
                        "username": "nottomcruiseofficial"
                    },
                    "x": 0.0,
                    "y": 0.0
                }
            },
            {
                "node": {
                    "user": {
                        "full_name": "Jeff Richards",
                        "id": "211878876",
                        "is_verified": false,
                        "profile_pic_url": "https://scontent-hel2-1.cdninstagram.com/v/t51.2885-19/s150x150/61822757_386608948624137_6754978315217403904_n.jpg?_nc_ht=scontent-hel2-1.cdninstagram.com&_nc_ohc=_RoVhXGWHAQAX-ik-HI&oh=48787ca8157e5e42aaac9e30a0b2886c&oe=5E861F45",
                        "username": "thejeffrichards"
                    },
                    "x": 0.0,
                    "y": 0.0
                }
            },
            {
                "node": {
                    "user": {
                        "full_name": "DURTE DOM",
                        "id": "244964332",
                        "is_verified": true,
                        "profile_pic_url": "https://scontent-hel2-1.cdninstagram.com/v/t51.2885-19/s150x150/69762180_2545058958940462_5281855883318394880_n.jpg?_nc_ht=scontent-hel2-1.cdninstagram.com&_nc_ohc=64fP96TSh08AX-JZPXu&oh=143f3940b4f2bd068e96bd3e1776e03a&oe=5E84D1F9",
                        "username": "durtedom"
                    },
                    "x": 0.0,
                    "y": 0.0
                }
            },
            {
                "node": {
                    "user": {
                        "full_name": "Mike Myers",
                        "id": "1547054185",
                        "is_verified": false,
                        "profile_pic_url": "https://scontent-hel2-1.cdninstagram.com/v/t51.2885-19/10731707_387576168076898_976534394_a.jpg?_nc_ht=scontent-hel2-1.cdninstagram.com&_nc_ohc=5VvTZu5APT0AX8oP0Kd&oh=6636aac0e90725d4d7ec1a3f23fedb8f&oe=5E86BD03",
                        "username": "mike_myers_official"
                    },
                    "x": 0.0,
                    "y": 0.0
                }
            },
            {
                "node": {
                    "user": {
                        "full_name": "Deep Fakes",
                        "id": "7030705525",
                        "is_verified": false,
                        "profile_pic_url": "https://scontent-hel2-1.cdninstagram.com/v/t51.2885-19/s150x150/26868867_2017090191872170_1939537957346082816_n.jpg?_nc_ht=scontent-hel2-1.cdninstagram.com&_nc_ohc=QDmYT-dpqj4AX_njCfM&oh=16570c9f4eb78cd0e886af2ed4b48196&oe=5E82732A",
                        "username": "deepfakes"
                    },
                    "x": 0.0,
                    "y": 0.0
                }
            },
            {
                "node": {
                    "user": {
                        "full_name": "Dr. Fakenstein",
                        "id": "11227599014",
                        "is_verified": false,
                        "profile_pic_url": "https://scontent-hel2-1.cdninstagram.com/v/t51.2885-19/s150x150/67058364_1341173902716144_6729280001172045824_n.jpg?_nc_ht=scontent-hel2-1.cdninstagram.com&_nc_ohc=aPkll_fEeuMAX_KTebD&oh=587a43f3d8472505952e6ffda519b5a5&oe=5E80A15C",
                        "username": "drfakenstein"
                    },
                    "x": 0.0,
                    "y": 0.0
                }
            },
            {
                "node": {
                    "user": {
                        "full_name": "Steve Buscemi",
                        "id": "14934483833",
                        "is_verified": false,
                        "profile_pic_url": "https://scontent-hel2-1.cdninstagram.com/v/t51.2885-19/s150x150/64424348_2413137492239200_8022309201604771840_n.jpg?_nc_ht=scontent-hel2-1.cdninstagram.com&_nc_ohc=7_VNvDvkiOMAX-8dMim&oh=30eeb1d5abb6f7894be79439c025990e&oe=5E843702",
                        "username": "_stevebuscemi_"
                    },
                    "x": 0.0,
                    "y": 0.0
                }
            },
            {
                "node": {
                    "user": {
                        "full_name": "Qualit\u00e4ts Deepfakes",
                        "id": "16014754398",
                        "is_verified": false,
                        "profile_pic_url": "https://scontent-hel2-1.cdninstagram.com/v/t51.2885-19/s150x150/66106561_2240997812620396_1060015276025708544_n.jpg?_nc_ht=scontent-hel2-1.cdninstagram.com&_nc_ohc=A1MsA6suAtsAX-qjAs2&oh=c66a012800ce13fe637dd5d55c0815ae&oe=5E83154C",
                        "username": "qualitaets.deepfakes"
                    },
                    "x": 0.0,
                    "y": 0.0
                }
            },
            {
                "node": {
                    "user": {
                        "full_name": "",
                        "id": "23211942159",
                        "is_verified": false,
                        "profile_pic_url": "https://scontent-hel2-1.cdninstagram.com/v/t51.2885-19/s150x150/74713841_2632687033420559_1261889549370392576_n.jpg?_nc_ht=scontent-hel2-1.cdninstagram.com&_nc_ohc=_36MY3fx--kAX_wqOL3&oh=404e4112428970512a26f376dd6c5532&oe=5E87A28B",
                        "username": "iconic.deepfakes"
                    },
                    "x": 0.0,
                    "y": 0.0
                }
            }
        ]
    },
    "edge_web_media_to_related_media": {
        "edges": []
    },
    "encoding_status": null,
    "fact_check_information": null,
    "fact_check_overall_rating": null,
    "gating_info": null,
    "has_ranked_comments": false,
    "id": "2245028939102122189",
    "is_ad": false,
    "is_published": true,
    "is_video": true,
    "location": {
        "address_json": "{\"street_address\": \"\", \"zip_code\": \"\", \"city_name\": \"Los Angeles, California\", \"region_name\": \"\", \"country_code\": \"US\", \"exact_city_match\": true, \"exact_region_match\": false, \"exact_country_match\": false}",
        "has_public_page": true,
        "id": "212999109",
        "name": "Los Angeles, California",
        "slug": "los-angeles-california"
    },
    "media_preview": "ACoqwxZufT8//rUv2KT2/P8A+tWxGqt3H51N9nPbn6VfKRcwfsT+36/4Un2N/b/P4V1ELlU24GO//wBcVltgE+xNSW9DL+xv7f5/Cj7I/qP1/wAKvlh61ZEpwPlB989fenZE3Mg7jnA3Dr61o2Masm9hzk+vT6VU8lfQVoRYjCqOhGP6/wCNNAyZUK5GeD+f4nvStGhHzAGjdUE8u1c+hGfp3p7CKJtZi5CgbQTgsQox+JqyIGHBx/30v+NSmBbn5hjIHf09PrVQ265+6fyqSrPcrNcqPu5/ED/GphfJtAKnK/TGf8KzKKVwsaxv4z1DfpUMl2jKQAeRxnHFZ9FFwsaEN5sGCzDP93H9aPtv1/z+NZ9FAz//2Q==",
    "owner": {
        "blocked_by_viewer": false,
        "followed_by_viewer": false,
        "full_name": "scottwelsch",
        "has_blocked_viewer": false,
        "id": "2093436301",
        "is_private": false,
        "is_unpublished": false,
        "is_verified": false,
        "profile_pic_url": "https://scontent-hel2-1.cdninstagram.com/v/t51.2885-19/s150x150/74704981_564513144386211_442882875646279680_n.jpg?_nc_ht=scontent-hel2-1.cdninstagram.com&_nc_ohc=ieWAEbsfaIgAX-ZMcVz&oh=04127f0cf3d0947467dd7a0b308e03c0&oe=5E873525",
        "requested_by_viewer": false,
        "restricted_by_viewer": null,
        "username": "scottwelsch"
    },
    "product_type": "feed",
    "shortcode": "B8n8ezpp3DN",
    "taken_at_timestamp": 1581848357,
    "thumbnail_src": "https://scontent-hel2-1.cdninstagram.com/v/t51.2885-15/sh0.08/e35/s640x640/84890202_759749414428778_3051975877829406314_n.jpg?_nc_ht=scontent-hel2-1.cdninstagram.com&_nc_cat=102&_nc_ohc=f_fvg6h__YEAX_tsrnM&oh=0afe4647183b0de6098fff18cc4076cd&oe=5E589152",
    "title": "",
    "tracking_token": "eyJ2ZXJzaW9uIjo1LCJwYXlsb2FkIjp7ImlzX2FuYWx5dGljc190cmFja2VkIjp0cnVlLCJ1dWlkIjoiNzE2ZjRlYWUwNDI1NDUyYzlkYTZhMWY4YjVjZDYxMTYyMjQ1MDI4OTM5MTAyMTIyMTg5In0sInNpZ25hdHVyZSI6IiJ9",
    "video_duration": 60.02,
    "video_url": "https://scontent-hel2-1.cdninstagram.com/v/t50.2886-16/86368267_204088577449270_9001472320439000129_n.mp4?_nc_ht=scontent-hel2-1.cdninstagram.com&_nc_cat=110&_nc_ohc=GgWdLpDwxqEAX8wY_ca&oe=5E589C0E&oh=8a9c8f406fafc6504e1c6e21a9a13042",
    "video_view_count": 1020,
    "viewer_can_reshare": true,
    "viewer_has_liked": false,
    "viewer_has_saved": false,
    "viewer_has_saved_to_collection": false,
    "viewer_in_photo_of_you": false
}