{
    "__typename": "GraphVideo",
    "caption_is_edited": false,
    "commenting_disabled_for_viewer": false,
    "comments_disabled": false,
    "dash_info": {
        "is_dash_eligible": false,
        "number_of_qualities": 0,
        "video_dash_manifest": null
    },
    "dimensions": {
        "height": 640,
        "width": 640
    },
    "display_resources": [
        {
            "config_height": 640,
            "config_width": 640,
            "src": "https://scontent-hel2-1.cdninstagram.com/v/t51.2885-15/e35/84083398_172337857398707_994864689603081530_n.jpg?_nc_ht=scontent-hel2-1.cdninstagram.com&_nc_cat=111&_nc_ohc=LcTkWW-zzG0AX9tZsuS&oh=1e70cfb319ecd048c00f9b470e00d165&oe=5E58A903"
        },
        {
            "config_height": 750,
            "config_width": 750,
            "src": "https://scontent-hel2-1.cdninstagram.com/v/t51.2885-15/e35/84083398_172337857398707_994864689603081530_n.jpg?_nc_ht=scontent-hel2-1.cdninstagram.com&_nc_cat=111&_nc_ohc=LcTkWW-zzG0AX9tZsuS&oh=1e70cfb319ecd048c00f9b470e00d165&oe=5E58A903"
        },
        {
            "config_height": 1080,
            "config_width": 1080,
            "src": "https://scontent-hel2-1.cdninstagram.com/v/t51.2885-15/e35/84083398_172337857398707_994864689603081530_n.jpg?_nc_ht=scontent-hel2-1.cdninstagram.com&_nc_cat=111&_nc_ohc=LcTkWW-zzG0AX9tZsuS&oh=1e70cfb319ecd048c00f9b470e00d165&oe=5E58A903"
        }
    ],
    "display_url": "https://scontent-hel2-1.cdninstagram.com/v/t51.2885-15/e35/84083398_172337857398707_994864689603081530_n.jpg?_nc_ht=scontent-hel2-1.cdninstagram.com&_nc_cat=111&_nc_ohc=LcTkWW-zzG0AX9tZsuS&oh=1e70cfb319ecd048c00f9b470e00d165&oe=5E58A903",
    "edge_media_preview_comment": {
        "count": 3,
        "edges": [
            {
                "node": {
                    "created_at": 1582091858,
                    "did_report_as_spam": false,
                    "edge_liked_by": {
                        "count": 1
                    },
                    "id": "17846064175951776",
                    "is_restricted_pending": false,
                    "owner": {
                        "id": "18770871471",
                        "is_verified": false,
                        "profile_pic_url": "https://scontent-hel2-1.cdninstagram.com/v/t51.2885-19/s150x150/69780428_427048617921575_7270747511726276608_n.jpg?_nc_ht=scontent-hel2-1.cdninstagram.com&_nc_ohc=xKMs9uwhdCAAX_TRGP8&oh=391dc3717591aba5e02b7143f9ef0390&oe=5E88E004",
                        "username": "sheylapoolp"
                    },
                    "text": "@lynnparisb \ud83d\ude06",
                    "viewer_has_liked": false
                }
            },
            {
                "node": {
                    "created_at": 1582113169,
                    "did_report_as_spam": false,
                    "edge_liked_by": {
                        "count": 1
                    },
                    "id": "17868298219621720",
                    "is_restricted_pending": false,
                    "owner": {
                        "id": "1099282487",
                        "is_verified": false,
                        "profile_pic_url": "https://scontent-hel2-1.cdninstagram.com/v/t51.2885-19/s150x150/74923130_2457010327844498_4543775223903682560_n.jpg?_nc_ht=scontent-hel2-1.cdninstagram.com&_nc_ohc=Ce0zJkoIYCMAX9hx5Mm&oh=6fecf6844cf30352579ef742b7fce3bc&oe=5E8C7E00",
                        "username": "ivesalejandro"
                    },
                    "text": "@rene.a.penaloza \ud83d\ude02",
                    "viewer_has_liked": false
                }
            }
        ]
    },
    "edge_media_preview_like": {
        "count": 41,
        "edges": []
    },
    "edge_media_to_caption": {
        "edges": [
            {
                "node": {
                    "text": "Reposted from @drfakenstein I hope the 4th Matrix movie focuses on the real love story. Keanu Reeves deepfake on Sinead O'Conner. Suggestion by: @mattsimpson_hel\n.\n.\n.\n.\n.\n#keanureeves #thematrix #thematrix4 #neo #trinity #morpheus #thematrixmovie #sineadoconnor #nothingcompares2u #deepfakes #deepfake #music #drfakenstein #paperspace - #regrann"
                }
            }
        ]
    },
    "edge_media_to_hoisted_comment": {
        "edges": []
    },
    "edge_media_to_parent_comment": {
        "count": 3,
        "edges": [
            {
                "node": {
                    "created_at": 1582054979,
                    "did_report_as_spam": false,
                    "edge_liked_by": {
                        "count": 1
                    },
                    "edge_threaded_comments": {
                        "count": 0,
                        "edges": [],
                        "page_info": {
                            "end_cursor": null,
                            "has_next_page": false
                        }
                    },
                    "id": "17900222467435686",
                    "is_restricted_pending": false,
                    "owner": {
                        "id": "6326514289",
                        "is_verified": false,
                        "profile_pic_url": "https://scontent-hel2-1.cdninstagram.com/v/t51.2885-19/s150x150/44794264_183249129282880_2436356585618931712_n.jpg?_nc_ht=scontent-hel2-1.cdninstagram.com&_nc_ohc=GMVudeO6mYwAX82Ei-d&oh=1eeb2a27f8fe8a6dc07139cf6885a00a&oe=5E80A0B4",
                        "username": "mariaangelinaoliveiraleal"
                    },
                    "text": "\ud83d\ude0d\ud83d\ude0damooo",
                    "viewer_has_liked": false
                }
            },
            {
                "node": {
                    "created_at": 1582091858,
                    "did_report_as_spam": false,
                    "edge_liked_by": {
                        "count": 1
                    },
                    "edge_threaded_comments": {
                        "count": 0,
                        "edges": [],
                        "page_info": {
                            "end_cursor": null,
                            "has_next_page": false
                        }
                    },
                    "id": "17846064175951776",
                    "is_restricted_pending": false,
                    "owner": {
                        "id": "18770871471",
                        "is_verified": false,
                        "profile_pic_url": "https://scontent-hel2-1.cdninstagram.com/v/t51.2885-19/s150x150/69780428_427048617921575_7270747511726276608_n.jpg?_nc_ht=scontent-hel2-1.cdninstagram.com&_nc_ohc=xKMs9uwhdCAAX_TRGP8&oh=391dc3717591aba5e02b7143f9ef0390&oe=5E88E004",
                        "username": "sheylapoolp"
                    },
                    "text": "@lynnparisb \ud83d\ude06",
                    "viewer_has_liked": false
                }
            },
            {
                "node": {
                    "created_at": 1582113169,
                    "did_report_as_spam": false,
                    "edge_liked_by": {
                        "count": 1
                    },
                    "edge_threaded_comments": {
                        "count": 0,
                        "edges": [],
                        "page_info": {
                            "end_cursor": null,
                            "has_next_page": false
                        }
                    },
                    "id": "17868298219621720",
                    "is_restricted_pending": false,
                    "owner": {
                        "id": "1099282487",
                        "is_verified": false,
                        "profile_pic_url": "https://scontent-hel2-1.cdninstagram.com/v/t51.2885-19/s150x150/74923130_2457010327844498_4543775223903682560_n.jpg?_nc_ht=scontent-hel2-1.cdninstagram.com&_nc_ohc=Ce0zJkoIYCMAX9hx5Mm&oh=6fecf6844cf30352579ef742b7fce3bc&oe=5E8C7E00",
                        "username": "ivesalejandro"
                    },
                    "text": "@rene.a.penaloza \ud83d\ude02",
                    "viewer_has_liked": false
                }
            }
        ],
        "page_info": {
            "end_cursor": null,
            "has_next_page": false
        }
    },
    "edge_media_to_sponsor_user": {
        "edges": []
    },
    "edge_media_to_tagged_user": {
        "edges": []
    },
    "edge_web_media_to_related_media": {
        "edges": []
    },
    "encoding_status": null,
    "fact_check_information": null,
    "fact_check_overall_rating": null,
    "gating_info": null,
    "has_ranked_comments": false,
    "id": "2246747924841446864",
    "is_ad": false,
    "is_published": true,
    "is_video": true,
    "location": null,
    "media_preview": "ACoqpXcoysa4xyfyHH9aoI21cjswNWJYpE+8wyfbk/pUMCM2cMFHTn/9RoBmsjRMuecPg4z0/wAKqXsuSqLjHX/ClW2m6Bh+C/8A1qgljdeGYZ9Mf/WpDbI4pPLCsegbn6GtURoedzfnWbbxM4yGCAnHOTk+nANWfs0o/j/8db/4mgEya6O1QGOWbjjp61mRNt5PTcP51LLN5hBIb5en/wBeq6EEFSCQfSmJnQBpSDjaMdD7VRvCBhTyx5J+gP8AjUCzlQFwx29OBUUsm87yGyBgZ6CkNsW2faV7fN+uDWvun/2f8/jWEuGXaQTznIq6LsgYw35UAmWLlQ6bwCoHQfiKoQFk5XjLAZ/HFXNQPC/7w/rWZ2P1H86AZvCSMAnBJHXrVS7XgPyMnpn1B7fhWinT8P61lX/+sX8aBvYitZWTCqdu5uSODjHStTzY/wC835tWLF1T/fFb2xfQflQCP//Z",
    "owner": {
        "blocked_by_viewer": false,
        "followed_by_viewer": false,
        "full_name": "Dan Carvalho",
        "has_blocked_viewer": false,
        "id": "422115889",
        "is_private": false,
        "is_unpublished": false,
        "is_verified": false,
        "profile_pic_url": "https://scontent-hel2-1.cdninstagram.com/v/t51.2885-19/s150x150/36753575_492032381222235_6531556315502739456_n.jpg?_nc_ht=scontent-hel2-1.cdninstagram.com&_nc_ohc=TAB8eE_R6BEAX9bKHqe&oh=9a7992998bc1afdf62eaeae66d1003aa&oe=5E893E0E",
        "requested_by_viewer": false,
        "restricted_by_viewer": null,
        "username": "dankarvalho"
    },
    "product_type": "feed",
    "shortcode": "B8uDVV4BT3Q",
    "taken_at_timestamp": 1582053282,
    "thumbnail_src": "https://scontent-hel2-1.cdninstagram.com/v/t51.2885-15/e35/84083398_172337857398707_994864689603081530_n.jpg?_nc_ht=scontent-hel2-1.cdninstagram.com&_nc_cat=111&_nc_ohc=LcTkWW-zzG0AX9tZsuS&oh=1e70cfb319ecd048c00f9b470e00d165&oe=5E58A903",
    "title": "",
    "tracking_token": "eyJ2ZXJzaW9uIjo1LCJwYXlsb2FkIjp7ImlzX2FuYWx5dGljc190cmFja2VkIjpmYWxzZSwidXVpZCI6IjhmMDBlYWY5M2NmOTRhYTQ4NzdmODU0NzE2MWEyYTViMjI0Njc0NzkyNDg0MTQ0Njg2NCJ9LCJzaWduYXR1cmUiOiIifQ==",
    "video_duration": 59.605,
    "video_url": "https://scontent-hel2-1.cdninstagram.com/v/t50.2886-16/86573479_1293142460882336_157211451813630662_n.mp4?_nc_ht=scontent-hel2-1.cdninstagram.com&_nc_cat=108&_nc_ohc=xwFTkcEkVMIAX-3YEZs&oe=5E58D4C3&oh=3570cd62f1c6d66304f54d3e2bfe989d",
    "video_view_count": 526,
    "viewer_can_reshare": true,
    "viewer_has_liked": false,
    "viewer_has_saved": false,
    "viewer_has_saved_to_collection": false,
    "viewer_in_photo_of_you": false
}