{
    "__typename": "GraphVideo",
    "caption_is_edited": false,
    "commenting_disabled_for_viewer": false,
    "comments_disabled": false,
    "dash_info": {
        "is_dash_eligible": false,
        "number_of_qualities": 0,
        "video_dash_manifest": null
    },
    "dimensions": {
        "height": 1080,
        "width": 1080
    },
    "display_resources": [
        {
            "config_height": 640,
            "config_width": 640,
            "src": "https://scontent-hel2-1.cdninstagram.com/v/t51.2885-15/sh0.08/e35/s640x640/82229813_180960619877678_3994442784693496623_n.jpg?_nc_ht=scontent-hel2-1.cdninstagram.com&_nc_cat=102&_nc_ohc=qNvnan9D94MAX9KhEBm&oh=03168d37d64cfbdc2856a4eb4b26f352&oe=5E58887D"
        },
        {
            "config_height": 750,
            "config_width": 750,
            "src": "https://scontent-hel2-1.cdninstagram.com/v/t51.2885-15/sh0.08/e35/s750x750/82229813_180960619877678_3994442784693496623_n.jpg?_nc_ht=scontent-hel2-1.cdninstagram.com&_nc_cat=102&_nc_ohc=qNvnan9D94MAX9KhEBm&oh=ef3020f5f099d1c7134aa6c3929d6be8&oe=5E58C37D"
        },
        {
            "config_height": 1080,
            "config_width": 1080,
            "src": "https://scontent-hel2-1.cdninstagram.com/v/t51.2885-15/fr/e15/s1080x1080/82229813_180960619877678_3994442784693496623_n.jpg?_nc_ht=scontent-hel2-1.cdninstagram.com&_nc_cat=102&_nc_ohc=qNvnan9D94MAX9KhEBm&oh=b410aba5578014a71be2711a88454fff&oe=5E58B907"
        }
    ],
    "display_url": "https://scontent-hel2-1.cdninstagram.com/v/t51.2885-15/fr/e15/s1080x1080/82229813_180960619877678_3994442784693496623_n.jpg?_nc_ht=scontent-hel2-1.cdninstagram.com&_nc_cat=102&_nc_ohc=qNvnan9D94MAX9KhEBm&oh=b410aba5578014a71be2711a88454fff&oe=5E58B907",
    "edge_media_preview_comment": {
        "count": 147,
        "edges": [
            {
                "node": {
                    "created_at": 1582470128,
                    "did_report_as_spam": false,
                    "edge_liked_by": {
                        "count": 0
                    },
                    "id": "18106701535100548",
                    "is_restricted_pending": false,
                    "owner": {
                        "id": "850383941",
                        "is_verified": false,
                        "profile_pic_url": "https://scontent-hel2-1.cdninstagram.com/v/t51.2885-19/s150x150/47066461_305315800106993_8582307666385174528_n.jpg?_nc_ht=scontent-hel2-1.cdninstagram.com&_nc_ohc=GSnyp2synzEAX9X8YCj&oh=ad6a9457f107c14fed0d291fc3ac65af&oe=5E8237B9",
                        "username": "jonatikmary"
                    },
                    "text": "@marvelkoman wwwwoooowwwwwww",
                    "viewer_has_liked": false
                }
            },
            {
                "node": {
                    "created_at": 1582563076,
                    "did_report_as_spam": false,
                    "edge_liked_by": {
                        "count": 0
                    },
                    "id": "17903269840428014",
                    "is_restricted_pending": false,
                    "owner": {
                        "id": "9939892436",
                        "is_verified": false,
                        "profile_pic_url": "https://scontent-hel2-1.cdninstagram.com/v/t51.2885-19/s150x150/59404951_1290521701111728_2851852022481682432_n.jpg?_nc_ht=scontent-hel2-1.cdninstagram.com&_nc_ohc=WIexQEjS_jEAX-_evYD&oh=b9a0e4296bc7c94e3cef4f8c9aaecdf4&oe=5E89ED2D",
                        "username": "red_gillespie2099"
                    },
                    "text": "Don't you dare even fucking think of doing this",
                    "viewer_has_liked": false
                }
            }
        ]
    },
    "edge_media_preview_like": {
        "count": 6322,
        "edges": []
    },
    "edge_media_to_caption": {
        "edges": [
            {
                "node": {
                    "text": "Tenemos nuevo #deepfake de la mano de @ezryderx47 ahora con las caras de Tom Holland (por Michael J. Fox) y Robert Downey (por Christopher Lloyd) en esta escena de 'Regreso al futuro' ('Back to the future', 1985).\u2063\n\u2063\n\ud83d\udcac \u00bfQu\u00e9 te parece? Deja tus comentarios\u2063\u2063\u2063\n\u2063\u2063\u2063\nS\u00edguenos \ud83d\udc49@xataka\u2063\u2063\u2063\n\u2063\u2063\u2063\n---\u2063\u2063\u2063\n#tech #xataka #instatech #backtothefuture #martymcfly #cine #inteligenciaartificial #DeepFaceLab #Tomholland #robertdowneyjr"
                }
            }
        ]
    },
    "edge_media_to_hoisted_comment": {
        "edges": []
    },
    "edge_media_to_parent_comment": {
        "count": 147,
        "edges": [
            {
                "node": {
                    "created_at": 1582092388,
                    "did_report_as_spam": false,
                    "edge_liked_by": {
                        "count": 0
                    },
                    "edge_threaded_comments": {
                        "count": 0,
                        "edges": [],
                        "page_info": {
                            "end_cursor": null,
                            "has_next_page": false
                        }
                    },
                    "id": "18129639586036009",
                    "is_restricted_pending": false,
                    "owner": {
                        "id": "9787738",
                        "is_verified": false,
                        "profile_pic_url": "https://scontent-hel2-1.cdninstagram.com/v/t51.2885-19/s150x150/71347228_407364950179740_5181700505855852544_n.jpg?_nc_ht=scontent-hel2-1.cdninstagram.com&_nc_ohc=APlRpoBqF1QAX_bhlja&oh=f66b0302e0ecb9951532adfcaf768e8f&oe=5E8D11E5",
                        "username": "quizzer"
                    },
                    "text": "Brutal",
                    "viewer_has_liked": false
                }
            },
            {
                "node": {
                    "created_at": 1582094285,
                    "did_report_as_spam": false,
                    "edge_liked_by": {
                        "count": 0
                    },
                    "edge_threaded_comments": {
                        "count": 0,
                        "edges": [],
                        "page_info": {
                            "end_cursor": null,
                            "has_next_page": false
                        }
                    },
                    "id": "18117504553074808",
                    "is_restricted_pending": false,
                    "owner": {
                        "id": "2287133279",
                        "is_verified": false,
                        "profile_pic_url": "https://scontent-hel2-1.cdninstagram.com/v/t51.2885-19/s150x150/31489848_612674789091169_801187726291369984_n.jpg?_nc_ht=scontent-hel2-1.cdninstagram.com&_nc_ohc=A3pBuZutdD8AX9QjAcI&oh=5f28095b0714583f62fd83cf00fc63a2&oe=5E8AC28C",
                        "username": "peliconcuo"
                    },
                    "text": "\ud83d\ude02\ud83d\ude02\ud83d\ude02\ud83d\ude02\ud83d\ude02\ud83d\ude02\ud83d\ude02\ud83d\ude02",
                    "viewer_has_liked": false
                }
            },
            {
                "node": {
                    "created_at": 1582106709,
                    "did_report_as_spam": false,
                    "edge_liked_by": {
                        "count": 0
                    },
                    "edge_threaded_comments": {
                        "count": 0,
                        "edges": [],
                        "page_info": {
                            "end_cursor": null,
                            "has_next_page": false
                        }
                    },
                    "id": "18037818724245004",
                    "is_restricted_pending": false,
                    "owner": {
                        "id": "1494347892",
                        "is_verified": false,
                        "profile_pic_url": "https://scontent-hel2-1.cdninstagram.com/v/t51.2885-19/s150x150/14276658_1070723019683231_1496752680_a.jpg?_nc_ht=scontent-hel2-1.cdninstagram.com&_nc_ohc=nZrNQAS-EeYAX8WDbez&oh=ad90323a7623826cbd691df224806554&oe=5E882EC9",
                        "username": "maneco1991"
                    },
                    "text": "Perturbadoramente magnifico @v.ictoriaaguiarm",
                    "viewer_has_liked": false
                }
            },
            {
                "node": {
                    "created_at": 1582108156,
                    "did_report_as_spam": false,
                    "edge_liked_by": {
                        "count": 0
                    },
                    "edge_threaded_comments": {
                        "count": 0,
                        "edges": [],
                        "page_info": {
                            "end_cursor": null,
                            "has_next_page": false
                        }
                    },
                    "id": "17916917410375861",
                    "is_restricted_pending": false,
                    "owner": {
                        "id": "3046699289",
                        "is_verified": false,
                        "profile_pic_url": "https://scontent-hel2-1.cdninstagram.com/v/t51.2885-19/s150x150/24125291_308484822892559_6799199371511463936_n.jpg?_nc_ht=scontent-hel2-1.cdninstagram.com&_nc_ohc=STPOsVHm1MEAX9J1cjU&oh=f335543057d50a609eaaac5ed3ce3928&oe=5E84826B",
                        "username": "thecrisstyle"
                    },
                    "text": "Imagina las posibilidades....",
                    "viewer_has_liked": false
                }
            },
            {
                "node": {
                    "created_at": 1582108845,
                    "did_report_as_spam": false,
                    "edge_liked_by": {
                        "count": 0
                    },
                    "edge_threaded_comments": {
                        "count": 0,
                        "edges": [],
                        "page_info": {
                            "end_cursor": null,
                            "has_next_page": false
                        }
                    },
                    "id": "18131928595033238",
                    "is_restricted_pending": false,
                    "owner": {
                        "id": "1579716725",
                        "is_verified": false,
                        "profile_pic_url": "https://scontent-hel2-1.cdninstagram.com/v/t51.2885-19/s150x150/79159051_606073116822748_439728153447890944_n.jpg?_nc_ht=scontent-hel2-1.cdninstagram.com&_nc_ohc=VQeRqLRg7xgAX_W1O4Q&oh=a9f873fe737cb1380c9d1bf6add82b52&oe=5E85C60E",
                        "username": "dahlin77_95"
                    },
                    "text": "La magia del cine! \ud83d\ude33",
                    "viewer_has_liked": false
                }
            },
            {
                "node": {
                    "created_at": 1582109347,
                    "did_report_as_spam": false,
                    "edge_liked_by": {
                        "count": 0
                    },
                    "edge_threaded_comments": {
                        "count": 2,
                        "edges": [
                            {
                                "node": {
                                    "created_at": 1582111841,
                                    "did_report_as_spam": false,
                                    "edge_liked_by": {
                                        "count": 0
                                    },
                                    "id": "18050271109220613",
                                    "is_restricted_pending": false,
                                    "owner": {
                                        "id": "7433739135",
                                        "is_verified": false,
                                        "profile_pic_url": "https://scontent-hel2-1.cdninstagram.com/v/t51.2885-19/s150x150/29739328_167259187195294_154983435314659328_n.jpg?_nc_ht=scontent-hel2-1.cdninstagram.com&_nc_ohc=tpevYhqFlGUAX_P1qFE&oh=8650bc5642a4674bc6013a9f52ef81c6&oe=5E818A6F",
                                        "username": "juliananton7882"
                                    },
                                    "text": "@cristiansul \ud83d\udd1d\ud83d\udd1d\ud83d\udd1d\ud83d\udd1d\ud83d\udd1d",
                                    "viewer_has_liked": false
                                }
                            },
                            {
                                "node": {
                                    "created_at": 1582118135,
                                    "did_report_as_spam": false,
                                    "edge_liked_by": {
                                        "count": 0
                                    },
                                    "id": "17866112464638878",
                                    "is_restricted_pending": false,
                                    "owner": {
                                        "id": "3432844554",
                                        "is_verified": false,
                                        "profile_pic_url": "https://scontent-hel2-1.cdninstagram.com/v/t51.2885-19/s150x150/13651763_1739062613011337_1774866867_a.jpg?_nc_ht=scontent-hel2-1.cdninstagram.com&_nc_ohc=mYKSiU0hg_oAX_baS9a&oh=64c482f0785e0b662a796c56ba95b62e&oe=5E8842F3",
                                        "username": "luiscaubet"
                                    },
                                    "text": "@cristiansul \ud83d\udc4f\ud83d\udc4f\ud83d\udc4f",
                                    "viewer_has_liked": false
                                }
                            }
                        ],
                        "page_info": {
                            "end_cursor": null,
                            "has_next_page": false
                        }
                    },
                    "id": "18049979449218009",
                    "is_restricted_pending": false,
                    "owner": {
                        "id": "2216072875",
                        "is_verified": false,
                        "profile_pic_url": "https://scontent-hel2-1.cdninstagram.com/v/t51.2885-19/s150x150/56496463_417481929040152_6230095236761124864_n.jpg?_nc_ht=scontent-hel2-1.cdninstagram.com&_nc_ohc=g-lhEsUFHn0AX9Unn8a&oh=e73c8a926075d65c553363ac2293038a&oe=5E823836",
                        "username": "cristiansul"
                    },
                    "text": "@juliananton7882 @luiscaubet",
                    "viewer_has_liked": false
                }
            },
            {
                "node": {
                    "created_at": 1582110329,
                    "did_report_as_spam": false,
                    "edge_liked_by": {
                        "count": 0
                    },
                    "edge_threaded_comments": {
                        "count": 0,
                        "edges": [],
                        "page_info": {
                            "end_cursor": null,
                            "has_next_page": false
                        }
                    },
                    "id": "17893960351460068",
                    "is_restricted_pending": false,
                    "owner": {
                        "id": "13087239052",
                        "is_verified": false,
                        "profile_pic_url": "https://scontent-hel2-1.cdninstagram.com/v/t51.2885-19/s150x150/82371293_177250310311382_3924387351513530368_n.jpg?_nc_ht=scontent-hel2-1.cdninstagram.com&_nc_ohc=HlC-xGbai1AAX-heT1J&oh=2669f0eac6013b4386be9084c26db602&oe=5E8A9879",
                        "username": "losviajesdemissmalone"
                    },
                    "text": "Incre\u00edble...calcados en todo .Hacen los mismos movimientos...\ud83d\udc4f\ud83d\udc4f\ud83d\udc4f",
                    "viewer_has_liked": false
                }
            },
            {
                "node": {
                    "created_at": 1582111823,
                    "did_report_as_spam": false,
                    "edge_liked_by": {
                        "count": 0
                    },
                    "edge_threaded_comments": {
                        "count": 0,
                        "edges": [],
                        "page_info": {
                            "end_cursor": null,
                            "has_next_page": false
                        }
                    },
                    "id": "17843695384992090",
                    "is_restricted_pending": false,
                    "owner": {
                        "id": "7433739135",
                        "is_verified": false,
                        "profile_pic_url": "https://scontent-hel2-1.cdninstagram.com/v/t51.2885-19/s150x150/29739328_167259187195294_154983435314659328_n.jpg?_nc_ht=scontent-hel2-1.cdninstagram.com&_nc_ohc=tpevYhqFlGUAX_P1qFE&oh=8650bc5642a4674bc6013a9f52ef81c6&oe=5E818A6F",
                        "username": "juliananton7882"
                    },
                    "text": "\ud83d\udd1d",
                    "viewer_has_liked": false
                }
            },
            {
                "node": {
                    "created_at": 1582113825,
                    "did_report_as_spam": false,
                    "edge_liked_by": {
                        "count": 0
                    },
                    "edge_threaded_comments": {
                        "count": 0,
                        "edges": [],
                        "page_info": {
                            "end_cursor": null,
                            "has_next_page": false
                        }
                    },
                    "id": "18025848712249058",
                    "is_restricted_pending": false,
                    "owner": {
                        "id": "3309124586",
                        "is_verified": false,
                        "profile_pic_url": "https://scontent-hel2-1.cdninstagram.com/v/t51.2885-19/s150x150/79751141_2682520361824324_8492560334710636544_n.jpg?_nc_ht=scontent-hel2-1.cdninstagram.com&_nc_ohc=q7tH_JdExigAX_Uw7f3&oh=2c3cadb4cfc518a68ffa64e1000b5621&oe=5E800F9D",
                        "username": "d_fenixx"
                    },
                    "text": "Espectacular",
                    "viewer_has_liked": false
                }
            },
            {
                "node": {
                    "created_at": 1582114749,
                    "did_report_as_spam": false,
                    "edge_liked_by": {
                        "count": 0
                    },
                    "edge_threaded_comments": {
                        "count": 0,
                        "edges": [],
                        "page_info": {
                            "end_cursor": null,
                            "has_next_page": false
                        }
                    },
                    "id": "18054020980211209",
                    "is_restricted_pending": false,
                    "owner": {
                        "id": "10450158771",
                        "is_verified": false,
                        "profile_pic_url": "https://scontent-hel2-1.cdninstagram.com/v/t51.2885-19/s150x150/72277153_541573163290603_3154763679182880768_n.jpg?_nc_ht=scontent-hel2-1.cdninstagram.com&_nc_ohc=9f6hWd6eQA0AX-aoHqY&oh=b74202e42049ebfbc2eaf3ecd608e9e3&oe=5E89957C",
                        "username": "migueruman"
                    },
                    "text": "Un remake, pero con Jim Carrey como el doc, y Tom Holland. \ud83d\ude0a\ud83d\udd25",
                    "viewer_has_liked": false
                }
            },
            {
                "node": {
                    "created_at": 1582118125,
                    "did_report_as_spam": false,
                    "edge_liked_by": {
                        "count": 0
                    },
                    "edge_threaded_comments": {
                        "count": 0,
                        "edges": [],
                        "page_info": {
                            "end_cursor": null,
                            "has_next_page": false
                        }
                    },
                    "id": "17856749731756754",
                    "is_restricted_pending": false,
                    "owner": {
                        "id": "3432844554",
                        "is_verified": false,
                        "profile_pic_url": "https://scontent-hel2-1.cdninstagram.com/v/t51.2885-19/s150x150/13651763_1739062613011337_1774866867_a.jpg?_nc_ht=scontent-hel2-1.cdninstagram.com&_nc_ohc=mYKSiU0hg_oAX_baS9a&oh=64c482f0785e0b662a796c56ba95b62e&oe=5E8842F3",
                        "username": "luiscaubet"
                    },
                    "text": "\ud83d\udc4f\ud83d\udc4f\ud83d\udc4f",
                    "viewer_has_liked": false
                }
            },
            {
                "node": {
                    "created_at": 1582131540,
                    "did_report_as_spam": false,
                    "edge_liked_by": {
                        "count": 1
                    },
                    "edge_threaded_comments": {
                        "count": 1,
                        "edges": [
                            {
                                "node": {
                                    "created_at": 1582132235,
                                    "did_report_as_spam": false,
                                    "edge_liked_by": {
                                        "count": 0
                                    },
                                    "id": "17948447935319255",
                                    "is_restricted_pending": false,
                                    "owner": {
                                        "id": "1119846000",
                                        "is_verified": false,
                                        "profile_pic_url": "https://scontent-hel2-1.cdninstagram.com/v/t51.2885-19/s150x150/18723771_428304984217912_8637707311369945088_a.jpg?_nc_ht=scontent-hel2-1.cdninstagram.com&_nc_ohc=UaboeoeKwpUAX8GZcxq&oh=c9de8b2990371ae9983f49979b0edbf2&oe=5E815663",
                                        "username": "m210794"
                                    },
                                    "text": "@yoyair94 Jajajaja se ve con ganas!!",
                                    "viewer_has_liked": false
                                }
                            }
                        ],
                        "page_info": {
                            "end_cursor": null,
                            "has_next_page": false
                        }
                    },
                    "id": "18106888669110698",
                    "is_restricted_pending": false,
                    "owner": {
                        "id": "4682559914",
                        "is_verified": false,
                        "profile_pic_url": "https://scontent-hel2-1.cdninstagram.com/v/t51.2885-19/s150x150/16788642_1136735883119040_8462367968750206976_a.jpg?_nc_ht=scontent-hel2-1.cdninstagram.com&_nc_ohc=9C3073UcaPgAX8Aqe0y&oh=b1885d95ea25eff91e2c7ff10f624a45&oe=5E86FCB6",
                        "username": "yoyair94"
                    },
                    "text": "@m210794  mira amor \ud83e\udd2d",
                    "viewer_has_liked": false
                }
            },
            {
                "node": {
                    "created_at": 1582133430,
                    "did_report_as_spam": false,
                    "edge_liked_by": {
                        "count": 0
                    },
                    "edge_threaded_comments": {
                        "count": 0,
                        "edges": [],
                        "page_info": {
                            "end_cursor": null,
                            "has_next_page": false
                        }
                    },
                    "id": "17876351056534620",
                    "is_restricted_pending": false,
                    "owner": {
                        "id": "294694895",
                        "is_verified": false,
                        "profile_pic_url": "https://scontent-hel2-1.cdninstagram.com/v/t51.2885-19/s150x150/44457258_1245506648935248_4680068688123002880_n.jpg?_nc_ht=scontent-hel2-1.cdninstagram.com&_nc_ohc=LAJHucp5riAAX_-CO7d&oh=a004ba8cb2b5f524c8d2f6c8661c3622&oe=5E854EF7",
                        "username": "waltersacchetti"
                    },
                    "text": "Brutal",
                    "viewer_has_liked": false
                }
            },
            {
                "node": {
                    "created_at": 1582138873,
                    "did_report_as_spam": false,
                    "edge_liked_by": {
                        "count": 0
                    },
                    "edge_threaded_comments": {
                        "count": 1,
                        "edges": [
                            {
                                "node": {
                                    "created_at": 1582210157,
                                    "did_report_as_spam": false,
                                    "edge_liked_by": {
                                        "count": 0
                                    },
                                    "id": "17846133202956599",
                                    "is_restricted_pending": false,
                                    "owner": {
                                        "id": "8961669185",
                                        "is_verified": false,
                                        "profile_pic_url": "https://scontent-hel2-1.cdninstagram.com/v/t51.2885-19/s150x150/52782538_303429463656385_4916830078869962752_n.jpg?_nc_ht=scontent-hel2-1.cdninstagram.com&_nc_ohc=iYhXNOUFKD8AX8RcwIY&oh=96ac45f63829b0dcb244fd12d33918e1&oe=5E88A741",
                                        "username": "frigiderrimo"
                                    },
                                    "text": "@michael_trilas \ud83e\udd2a",
                                    "viewer_has_liked": false
                                }
                            }
                        ],
                        "page_info": {
                            "end_cursor": null,
                            "has_next_page": false
                        }
                    },
                    "id": "17860109956735803",
                    "is_restricted_pending": false,
                    "owner": {
                        "id": "11227182164",
                        "is_verified": false,
                        "profile_pic_url": "https://scontent-hel2-1.cdninstagram.com/v/t51.2885-19/s150x150/52341755_294297444572988_1087562539132256256_n.jpg?_nc_ht=scontent-hel2-1.cdninstagram.com&_nc_ohc=52pIwdTGTEAAX84qGR2&oh=9ab027873710f9cc64460a08d46d10ba&oe=5E8C0518",
                        "username": "michael_trilas"
                    },
                    "text": "@frigiderrimo .. Spidy cada vez me cae mejor",
                    "viewer_has_liked": false
                }
            },
            {
                "node": {
                    "created_at": 1582150932,
                    "did_report_as_spam": false,
                    "edge_liked_by": {
                        "count": 0
                    },
                    "edge_threaded_comments": {
                        "count": 0,
                        "edges": [],
                        "page_info": {
                            "end_cursor": null,
                            "has_next_page": false
                        }
                    },
                    "id": "17866177231648339",
                    "is_restricted_pending": false,
                    "owner": {
                        "id": "345695865",
                        "is_verified": false,
                        "profile_pic_url": "https://scontent-hel2-1.cdninstagram.com/v/t51.2885-19/s150x150/27573427_173157983219300_2331236917451948032_n.jpg?_nc_ht=scontent-hel2-1.cdninstagram.com&_nc_ohc=XT8TDc6IGX8AX9h0ebO&oh=45beca62b47104869a7253bcb7875409&oe=5E8244EA",
                        "username": "juca_gt"
                    },
                    "text": "@eslylimas15",
                    "viewer_has_liked": false
                }
            },
            {
                "node": {
                    "created_at": 1582159427,
                    "did_report_as_spam": false,
                    "edge_liked_by": {
                        "count": 0
                    },
                    "edge_threaded_comments": {
                        "count": 0,
                        "edges": [],
                        "page_info": {
                            "end_cursor": null,
                            "has_next_page": false
                        }
                    },
                    "id": "17862719740715779",
                    "is_restricted_pending": false,
                    "owner": {
                        "id": "3144636288",
                        "is_verified": false,
                        "profile_pic_url": "https://scontent-hel2-1.cdninstagram.com/v/t51.2885-19/21227358_476289582726791_4816351930320158720_a.jpg?_nc_ht=scontent-hel2-1.cdninstagram.com&_nc_ohc=T4nq3GFeN84AX-ebTKI&oh=b8472794e4be3727335c267849f9cb34&oe=5E869A3C",
                        "username": "androidmaniaco_"
                    },
                    "text": "@rhaycira1980things @rhaycira @rrds_2004",
                    "viewer_has_liked": false
                }
            },
            {
                "node": {
                    "created_at": 1582166621,
                    "did_report_as_spam": false,
                    "edge_liked_by": {
                        "count": 0
                    },
                    "edge_threaded_comments": {
                        "count": 0,
                        "edges": [],
                        "page_info": {
                            "end_cursor": null,
                            "has_next_page": false
                        }
                    },
                    "id": "17912287087392164",
                    "is_restricted_pending": false,
                    "owner": {
                        "id": "1343355653",
                        "is_verified": false,
                        "profile_pic_url": "https://scontent-hel2-1.cdninstagram.com/v/t51.2885-19/s150x150/80835189_1500787066753829_3087748849196859392_n.jpg?_nc_ht=scontent-hel2-1.cdninstagram.com&_nc_ohc=pN4htnMG18cAX-AX-An&oh=3aa267133953a4790ccde95dd69e5b16&oe=5E8B9FA8",
                        "username": "dario_jrz"
                    },
                    "text": "Que a nadie se le ocurra pedir remakes de Back to the Future, as\u00ed esta bien c\u00f3mo est\u00e1.",
                    "viewer_has_liked": false
                }
            },
            {
                "node": {
                    "created_at": 1582186854,
                    "did_report_as_spam": false,
                    "edge_liked_by": {
                        "count": 0
                    },
                    "edge_threaded_comments": {
                        "count": 0,
                        "edges": [],
                        "page_info": {
                            "end_cursor": null,
                            "has_next_page": false
                        }
                    },
                    "id": "18053335117213369",
                    "is_restricted_pending": false,
                    "owner": {
                        "id": "384742149",
                        "is_verified": false,
                        "profile_pic_url": "https://scontent-hel2-1.cdninstagram.com/v/t51.2885-19/s150x150/20213766_1397200570366342_8323431106779021312_a.jpg?_nc_ht=scontent-hel2-1.cdninstagram.com&_nc_ohc=Iymvie1Fml0AX-qN2gV&oh=002fe3f8d96edec1d1870d7cd591072b&oe=5E8CADDA",
                        "username": "rafael23ve"
                    },
                    "text": "Demonios que brutal",
                    "viewer_has_liked": false
                }
            },
            {
                "node": {
                    "created_at": 1582203812,
                    "did_report_as_spam": false,
                    "edge_liked_by": {
                        "count": 0
                    },
                    "edge_threaded_comments": {
                        "count": 0,
                        "edges": [],
                        "page_info": {
                            "end_cursor": null,
                            "has_next_page": false
                        }
                    },
                    "id": "17983729252292848",
                    "is_restricted_pending": false,
                    "owner": {
                        "id": "34123947",
                        "is_verified": false,
                        "profile_pic_url": "https://scontent-hel2-1.cdninstagram.com/v/t51.2885-19/11910274_623300161142984_1378176795_a.jpg?_nc_ht=scontent-hel2-1.cdninstagram.com&_nc_ohc=J236A8pyQd4AX-vWWlW&oh=2e1cf400ef4f1552f43aba216292e5e9&oe=5E8A1CCC",
                        "username": "aluchense"
                    },
                    "text": "Ahora s\u00f3lo pienso en Robert Downey Jr. interpretando a Rick S\u00e1nchez.",
                    "viewer_has_liked": false
                }
            },
            {
                "node": {
                    "created_at": 1582208469,
                    "did_report_as_spam": false,
                    "edge_liked_by": {
                        "count": 1
                    },
                    "edge_threaded_comments": {
                        "count": 1,
                        "edges": [
                            {
                                "node": {
                                    "created_at": 1582208858,
                                    "did_report_as_spam": false,
                                    "edge_liked_by": {
                                        "count": 0
                                    },
                                    "id": "18052809358212143",
                                    "is_restricted_pending": false,
                                    "owner": {
                                        "id": "181507468",
                                        "is_verified": false,
                                        "profile_pic_url": "https://scontent-hel2-1.cdninstagram.com/v/t51.2885-19/s150x150/80312752_742184742978718_6689629593239814144_n.jpg?_nc_ht=scontent-hel2-1.cdninstagram.com&_nc_ohc=tzkVbNb-z8kAX_8iOTO&oh=ead1144296fe208d6bce4db22b4380a3&oe=5E8292AC",
                                        "username": "alicecaldelas"
                                    },
                                    "text": "@nick_lse OMG!",
                                    "viewer_has_liked": false
                                }
                            }
                        ],
                        "page_info": {
                            "end_cursor": null,
                            "has_next_page": false
                        }
                    },
                    "id": "17863294570685103",
                    "is_restricted_pending": false,
                    "owner": {
                        "id": "12823162",
                        "is_verified": false,
                        "profile_pic_url": "https://scontent-hel2-1.cdninstagram.com/v/t51.2885-19/s150x150/61109962_384744568817516_2961301962575839232_n.jpg?_nc_ht=scontent-hel2-1.cdninstagram.com&_nc_ohc=0veTuqmOy38AX8S95VZ&oh=49214f81fdf1a3c0fd0ef7e87d4519eb&oe=5E818641",
                        "username": "nick_lse"
                    },
                    "text": "@alicecaldelas  checa",
                    "viewer_has_liked": false
                }
            },
            {
                "node": {
                    "created_at": 1582229118,
                    "did_report_as_spam": false,
                    "edge_liked_by": {
                        "count": 0
                    },
                    "edge_threaded_comments": {
                        "count": 0,
                        "edges": [],
                        "page_info": {
                            "end_cursor": null,
                            "has_next_page": false
                        }
                    },
                    "id": "17875702576556668",
                    "is_restricted_pending": false,
                    "owner": {
                        "id": "4620543802",
                        "is_verified": false,
                        "profile_pic_url": "https://scontent-hel2-1.cdninstagram.com/v/t51.2885-19/s150x150/85022371_503739890554601_8905817908928577536_n.jpg?_nc_ht=scontent-hel2-1.cdninstagram.com&_nc_ohc=Eres4bAQiUYAX9xdLC1&oh=81569735b9f383f6ce3c75eab81eb0b6&oe=5E817FE7",
                        "username": "matias_241"
                    },
                    "text": "Es igual \ud83d\ude02",
                    "viewer_has_liked": false
                }
            },
            {
                "node": {
                    "created_at": 1582232413,
                    "did_report_as_spam": false,
                    "edge_liked_by": {
                        "count": 2
                    },
                    "edge_threaded_comments": {
                        "count": 0,
                        "edges": [],
                        "page_info": {
                            "end_cursor": null,
                            "has_next_page": false
                        }
                    },
                    "id": "17857011634787261",
                    "is_restricted_pending": false,
                    "owner": {
                        "id": "7756433645",
                        "is_verified": false,
                        "profile_pic_url": "https://scontent-hel2-1.cdninstagram.com/v/t51.2885-19/s150x150/82046901_685905005279988_5040869039321120768_n.jpg?_nc_ht=scontent-hel2-1.cdninstagram.com&_nc_ohc=i6jgHvrw8ycAX8JWB3e&oh=2b441a7ab7cfafb48ce96be01c7b8b9f&oe=5E89559A",
                        "username": "ivox_br21"
                    },
                    "text": "jajajaja Tom es igualito a Marty",
                    "viewer_has_liked": false
                }
            },
            {
                "node": {
                    "created_at": 1582467998,
                    "did_report_as_spam": false,
                    "edge_liked_by": {
                        "count": 1
                    },
                    "edge_threaded_comments": {
                        "count": 1,
                        "edges": [
                            {
                                "node": {
                                    "created_at": 1582470128,
                                    "did_report_as_spam": false,
                                    "edge_liked_by": {
                                        "count": 0
                                    },
                                    "id": "18106701535100548",
                                    "is_restricted_pending": false,
                                    "owner": {
                                        "id": "850383941",
                                        "is_verified": false,
                                        "profile_pic_url": "https://scontent-hel2-1.cdninstagram.com/v/t51.2885-19/s150x150/47066461_305315800106993_8582307666385174528_n.jpg?_nc_ht=scontent-hel2-1.cdninstagram.com&_nc_ohc=GSnyp2synzEAX9X8YCj&oh=ad6a9457f107c14fed0d291fc3ac65af&oe=5E8237B9",
                                        "username": "jonatikmary"
                                    },
                                    "text": "@marvelkoman wwwwoooowwwwwww",
                                    "viewer_has_liked": false
                                }
                            }
                        ],
                        "page_info": {
                            "end_cursor": null,
                            "has_next_page": false
                        }
                    },
                    "id": "18053217925208939",
                    "is_restricted_pending": false,
                    "owner": {
                        "id": "10694735506",
                        "is_verified": false,
                        "profile_pic_url": "https://scontent-hel2-1.cdninstagram.com/v/t51.2885-19/s150x150/65721685_1571892389611494_3060655018672652288_n.jpg?_nc_ht=scontent-hel2-1.cdninstagram.com&_nc_ohc=m2l0Ga2ocMMAX_M-CzT&oh=64758c38d8d2b7637296fd2d66661ffc&oe=5E8829F2",
                        "username": "marvelkoman"
                    },
                    "text": "@jonatikmary Mira, mi cielo, la comparaci\u00f3n de los deepfakes",
                    "viewer_has_liked": false
                }
            },
            {
                "node": {
                    "created_at": 1582563076,
                    "did_report_as_spam": false,
                    "edge_liked_by": {
                        "count": 0
                    },
                    "edge_threaded_comments": {
                        "count": 0,
                        "edges": [],
                        "page_info": {
                            "end_cursor": null,
                            "has_next_page": false
                        }
                    },
                    "id": "17903269840428014",
                    "is_restricted_pending": false,
                    "owner": {
                        "id": "9939892436",
                        "is_verified": false,
                        "profile_pic_url": "https://scontent-hel2-1.cdninstagram.com/v/t51.2885-19/s150x150/59404951_1290521701111728_2851852022481682432_n.jpg?_nc_ht=scontent-hel2-1.cdninstagram.com&_nc_ohc=WIexQEjS_jEAX-_evYD&oh=b9a0e4296bc7c94e3cef4f8c9aaecdf4&oe=5E89ED2D",
                        "username": "red_gillespie2099"
                    },
                    "text": "Don't you dare even fucking think of doing this",
                    "viewer_has_liked": false
                }
            }
        ],
        "page_info": {
            "end_cursor": "QVFEWDNENFNHWXRncFpMS3Bxdy1PeUpPZGNidlNvcHU1UXpRdlpsYUo5d2lWSVNJV2NkbmNZUk1waUhGUzRBLThjN3hoVk0zeXBHd1BDZ1EyNnJGbEIyRA==",
            "has_next_page": true
        }
    },
    "edge_media_to_sponsor_user": {
        "edges": []
    },
    "edge_media_to_tagged_user": {
        "edges": []
    },
    "edge_web_media_to_related_media": {
        "edges": []
    },
    "encoding_status": null,
    "fact_check_information": null,
    "fact_check_overall_rating": null,
    "gating_info": null,
    "has_ranked_comments": false,
    "id": "2246711391874821720",
    "is_ad": false,
    "is_published": true,
    "is_video": true,
    "location": null,
    "media_preview": null,
    "owner": {
        "blocked_by_viewer": false,
        "followed_by_viewer": false,
        "full_name": "Xataka",
        "has_blocked_viewer": false,
        "id": "256199402",
        "is_private": false,
        "is_unpublished": false,
        "is_verified": true,
        "profile_pic_url": "https://scontent-hel2-1.cdninstagram.com/v/t51.2885-19/s150x150/74965351_1391002331066795_3079292702836129792_n.jpg?_nc_ht=scontent-hel2-1.cdninstagram.com&_nc_ohc=TBGHY5Qoh6YAX8ycLsf&oh=db56ce62bcd777ece37b1083fe299cb4&oe=5E809127",
        "requested_by_viewer": false,
        "restricted_by_viewer": null,
        "username": "xataka"
    },
    "product_type": "feed",
    "shortcode": "B8t7Bt5ha5Y",
    "taken_at_timestamp": 1582049162,
    "thumbnail_src": "https://scontent-hel2-1.cdninstagram.com/v/t51.2885-15/sh0.08/e35/s640x640/82229813_180960619877678_3994442784693496623_n.jpg?_nc_ht=scontent-hel2-1.cdninstagram.com&_nc_cat=102&_nc_ohc=qNvnan9D94MAX9KhEBm&oh=03168d37d64cfbdc2856a4eb4b26f352&oe=5E58887D",
    "title": "",
    "tracking_token": "eyJ2ZXJzaW9uIjo1LCJwYXlsb2FkIjp7ImlzX2FuYWx5dGljc190cmFja2VkIjp0cnVlLCJ1dWlkIjoiMWJlMGEyZjI1ZWQ1NDBkMWI3YWMwZjFmNjM0NTljZDUyMjQ2NzExMzkxODc0ODIxNzIwIn0sInNpZ25hdHVyZSI6IiJ9",
    "video_duration": 49.2,
    "video_url": "https://scontent-hel2-1.cdninstagram.com/v/t50.2886-16/86850413_609879196517426_8295065153322338991_n.mp4?_nc_ht=scontent-hel2-1.cdninstagram.com&_nc_cat=102&_nc_ohc=eCiVSVrPHvoAX-wF3_B&oe=5E58D085&oh=b648ae88398b3b84cd9427b70f5b5426",
    "video_view_count": 55098,
    "viewer_can_reshare": true,
    "viewer_has_liked": false,
    "viewer_has_saved": false,
    "viewer_has_saved_to_collection": false,
    "viewer_in_photo_of_you": false
}