{
    "__typename": "GraphVideo",
    "caption_is_edited": true,
    "commenting_disabled_for_viewer": false,
    "comments_disabled": false,
    "dash_info": {
        "is_dash_eligible": false,
        "number_of_qualities": 0,
        "video_dash_manifest": null
    },
    "dimensions": {
        "height": 640,
        "width": 640
    },
    "display_resources": [
        {
            "config_height": 640,
            "config_width": 640,
            "src": "https://scontent-hel2-1.cdninstagram.com/v/t51.2885-15/e35/84335524_101904308034185_3766400693868259445_n.jpg?_nc_ht=scontent-hel2-1.cdninstagram.com&_nc_cat=105&_nc_ohc=hvz4ICmJHmAAX_I8OO3&oh=380cd171adba3ed86efc4aa76a40681e&oe=5E5876C6"
        },
        {
            "config_height": 750,
            "config_width": 750,
            "src": "https://scontent-hel2-1.cdninstagram.com/v/t51.2885-15/e35/84335524_101904308034185_3766400693868259445_n.jpg?_nc_ht=scontent-hel2-1.cdninstagram.com&_nc_cat=105&_nc_ohc=hvz4ICmJHmAAX_I8OO3&oh=380cd171adba3ed86efc4aa76a40681e&oe=5E5876C6"
        },
        {
            "config_height": 1080,
            "config_width": 1080,
            "src": "https://scontent-hel2-1.cdninstagram.com/v/t51.2885-15/e35/84335524_101904308034185_3766400693868259445_n.jpg?_nc_ht=scontent-hel2-1.cdninstagram.com&_nc_cat=105&_nc_ohc=hvz4ICmJHmAAX_I8OO3&oh=380cd171adba3ed86efc4aa76a40681e&oe=5E5876C6"
        }
    ],
    "display_url": "https://scontent-hel2-1.cdninstagram.com/v/t51.2885-15/e35/84335524_101904308034185_3766400693868259445_n.jpg?_nc_ht=scontent-hel2-1.cdninstagram.com&_nc_cat=105&_nc_ohc=hvz4ICmJHmAAX_I8OO3&oh=380cd171adba3ed86efc4aa76a40681e&oe=5E5876C6",
    "edge_media_preview_comment": {
        "count": 13,
        "edges": [
            {
                "node": {
                    "created_at": 1582394943,
                    "did_report_as_spam": false,
                    "edge_liked_by": {
                        "count": 1
                    },
                    "id": "17866569466628826",
                    "is_restricted_pending": false,
                    "owner": {
                        "id": "16954861531",
                        "is_verified": false,
                        "profile_pic_url": "https://scontent-hel2-1.cdninstagram.com/v/t51.2885-19/s150x150/72221067_594969327973632_2606240469369225216_n.jpg?_nc_ht=scontent-hel2-1.cdninstagram.com&_nc_ohc=k2URuH4ziBYAX8jhoJj&oh=5e00a517b7c60f47e99f190696998bb6&oe=5E85A054",
                        "username": "dantetobias18"
                    },
                    "text": "Si que uno tiene el logo que molesta  y el otro que no tiene logo y no molesta",
                    "viewer_has_liked": false
                }
            },
            {
                "node": {
                    "created_at": 1582606773,
                    "did_report_as_spam": false,
                    "edge_liked_by": {
                        "count": 0
                    },
                    "id": "17848434451932544",
                    "is_restricted_pending": false,
                    "owner": {
                        "id": "7876785027",
                        "is_verified": false,
                        "profile_pic_url": "https://scontent-hel2-1.cdninstagram.com/v/t51.2885-19/s150x150/36029548_681718658856022_3310343921678155776_n.jpg?_nc_ht=scontent-hel2-1.cdninstagram.com&_nc_ohc=FXh_K0444cAAX-O651j&oh=844ba6401ce0bbfa768a6d1bf5b199fb&oe=5E8A36F4",
                        "username": "leonel_zamp"
                    },
                    "text": "Directores de cine y posibles extorsionistas o terroristas peligrosos: \u00a1Ah caray! eso si me interesa eh.",
                    "viewer_has_liked": false
                }
            }
        ]
    },
    "edge_media_preview_like": {
        "count": 1756,
        "edges": []
    },
    "edge_media_to_caption": {
        "edges": [
            {
                "node": {
                    "text": "Nota de @biobiochile \u00bfNotas la diferencia?\ud83e\uddd0 Gracias a la t\u00e9cnica del deepfake, Tom Holland y Robertt Downey Jr volvieron al pasado para interpretar a Marty y al doctor Emmet, respectivamente.\n\nFue el usuario EZRyderX47 el que edit\u00f3 una de las escenas del cl\u00e1sico \"Back to the future\" de 1985 con las voces originales mediante el intercambio de identidades, donde mont\u00f3 los rostros de los actores. \nEl deepfake es una t\u00e9cnica de inteligencia artificial que permite editar v\u00eddeos falsos de personas que aparentemente son reales, para lo cual se emplean algoritmos, im\u00e1genes y videos ya existentes.\n#deepfake\n.\n.\n.\n.\n.\n.\n.\n.\n#marvel #marvelentertainment #marvelstudios #avengers #sandiegocomiccon #comiccon #avengersendgame #avengersmemes #avengersinfinitywar #avengersendgame #xmen #newmutants #professorx #wolverine #fantasticfour #drdoom #nickfury #thor #ironman #tonystark #capitanamerica"
                }
            }
        ]
    },
    "edge_media_to_hoisted_comment": {
        "edges": []
    },
    "edge_media_to_parent_comment": {
        "count": 13,
        "edges": [
            {
                "node": {
                    "created_at": 1582066441,
                    "did_report_as_spam": false,
                    "edge_liked_by": {
                        "count": 0
                    },
                    "edge_threaded_comments": {
                        "count": 0,
                        "edges": [],
                        "page_info": {
                            "end_cursor": null,
                            "has_next_page": false
                        }
                    },
                    "id": "17874126607566533",
                    "is_restricted_pending": false,
                    "owner": {
                        "id": "9463415322",
                        "is_verified": false,
                        "profile_pic_url": "https://scontent-hel2-1.cdninstagram.com/v/t51.2885-19/s150x150/83893767_224458415250761_5104628232557166592_n.jpg?_nc_ht=scontent-hel2-1.cdninstagram.com&_nc_ohc=iEaoyIs7JiMAX-zo0zM&oh=0f4748e2e0e4ec8e169d9377a6f84f64&oe=5E856506",
                        "username": "fcavieresg"
                    },
                    "text": "\ud83d\udc4f\ud83d\udc4f\ud83d\udc4f\ud83d\udc4f\ud83d\udc4f\ud83d\udc4f\ud83d\udc4f",
                    "viewer_has_liked": false
                }
            },
            {
                "node": {
                    "created_at": 1582066449,
                    "did_report_as_spam": false,
                    "edge_liked_by": {
                        "count": 3
                    },
                    "edge_threaded_comments": {
                        "count": 0,
                        "edges": [],
                        "page_info": {
                            "end_cursor": null,
                            "has_next_page": false
                        }
                    },
                    "id": "18130424251056012",
                    "is_restricted_pending": false,
                    "owner": {
                        "id": "9463415322",
                        "is_verified": false,
                        "profile_pic_url": "https://scontent-hel2-1.cdninstagram.com/v/t51.2885-19/s150x150/83893767_224458415250761_5104628232557166592_n.jpg?_nc_ht=scontent-hel2-1.cdninstagram.com&_nc_ohc=iEaoyIs7JiMAX-zo0zM&oh=0f4748e2e0e4ec8e169d9377a6f84f64&oe=5E856506",
                        "username": "fcavieresg"
                    },
                    "text": "Lo vi ayer y fue guau",
                    "viewer_has_liked": false
                }
            },
            {
                "node": {
                    "created_at": 1582066900,
                    "did_report_as_spam": false,
                    "edge_liked_by": {
                        "count": 3
                    },
                    "edge_threaded_comments": {
                        "count": 0,
                        "edges": [],
                        "page_info": {
                            "end_cursor": null,
                            "has_next_page": false
                        }
                    },
                    "id": "18082143016164094",
                    "is_restricted_pending": false,
                    "owner": {
                        "id": "4662357847",
                        "is_verified": false,
                        "profile_pic_url": "https://scontent-hel2-1.cdninstagram.com/v/t51.2885-19/s150x150/52673360_1360983997375878_1462023815499350016_n.jpg?_nc_ht=scontent-hel2-1.cdninstagram.com&_nc_ohc=Hs-4Nj40s_EAX95z-o-&oh=58300200135548c4f2a1d3752ad12c60&oe=5E8529EF",
                        "username": "jr_salvi"
                    },
                    "text": "Ya estoy viendo correr a paul walker en el cielo",
                    "viewer_has_liked": false
                }
            },
            {
                "node": {
                    "created_at": 1582072249,
                    "did_report_as_spam": false,
                    "edge_liked_by": {
                        "count": 0
                    },
                    "edge_threaded_comments": {
                        "count": 0,
                        "edges": [],
                        "page_info": {
                            "end_cursor": null,
                            "has_next_page": false
                        }
                    },
                    "id": "18088291198145194",
                    "is_restricted_pending": false,
                    "owner": {
                        "id": "214597842",
                        "is_verified": false,
                        "profile_pic_url": "https://scontent-hel2-1.cdninstagram.com/v/t51.2885-19/s150x150/79771344_479773999315985_2880757676369772544_n.jpg?_nc_ht=scontent-hel2-1.cdninstagram.com&_nc_ohc=GbIstz0FFh0AX8OphJR&oh=34320db060c31d9f960b9367325fa263&oe=5E89D38D",
                        "username": "xavier_m22"
                    },
                    "text": "El futuro es hoy",
                    "viewer_has_liked": false
                }
            },
            {
                "node": {
                    "created_at": 1582078451,
                    "did_report_as_spam": false,
                    "edge_liked_by": {
                        "count": 0
                    },
                    "edge_threaded_comments": {
                        "count": 0,
                        "edges": [],
                        "page_info": {
                            "end_cursor": null,
                            "has_next_page": false
                        }
                    },
                    "id": "17850688387881435",
                    "is_restricted_pending": false,
                    "owner": {
                        "id": "1197269633",
                        "is_verified": false,
                        "profile_pic_url": "https://scontent-hel2-1.cdninstagram.com/v/t51.2885-19/s150x150/82951674_566863674041878_5997137756814311424_n.jpg?_nc_ht=scontent-hel2-1.cdninstagram.com&_nc_ohc=or9ZE6fYVpUAX9E3VKU&oh=6f11d313d2e7e74cd85ffeb4d92703b3&oe=5E889043",
                        "username": "kiki_706"
                    },
                    "text": "Wooow!!! En Chile cagamos hdhfhdjs Ahora s\u00ed har\u00e1n montajes de la verga",
                    "viewer_has_liked": false
                }
            },
            {
                "node": {
                    "created_at": 1582115592,
                    "did_report_as_spam": false,
                    "edge_liked_by": {
                        "count": 0
                    },
                    "edge_threaded_comments": {
                        "count": 0,
                        "edges": [],
                        "page_info": {
                            "end_cursor": null,
                            "has_next_page": false
                        }
                    },
                    "id": "17887105003489465",
                    "is_restricted_pending": false,
                    "owner": {
                        "id": "4354848431",
                        "is_verified": false,
                        "profile_pic_url": "https://scontent-hel2-1.cdninstagram.com/v/t51.2885-19/s150x150/71184422_3312030058837823_1701001065773662208_n.jpg?_nc_ht=scontent-hel2-1.cdninstagram.com&_nc_ohc=pTeerAPgfzIAX-F_snE&oh=dcdf2d0b1102bb4c62671638557ececb&oe=5E869288",
                        "username": "myfairyqueen1970"
                    },
                    "text": "\ud83d\ude31omg",
                    "viewer_has_liked": false
                }
            },
            {
                "node": {
                    "created_at": 1582135550,
                    "did_report_as_spam": false,
                    "edge_liked_by": {
                        "count": 0
                    },
                    "edge_threaded_comments": {
                        "count": 0,
                        "edges": [],
                        "page_info": {
                            "end_cursor": null,
                            "has_next_page": false
                        }
                    },
                    "id": "17859212200731599",
                    "is_restricted_pending": false,
                    "owner": {
                        "id": "7738310572",
                        "is_verified": false,
                        "profile_pic_url": "https://scontent-hel2-1.cdninstagram.com/v/t51.2885-19/s150x150/81815360_2698075663642015_2592750818906079232_n.jpg?_nc_ht=scontent-hel2-1.cdninstagram.com&_nc_ohc=nFbdwbLWG8QAX_AcTag&oh=7b0238b524e5d949dd8f73192d9cea86&oe=5E829CC7",
                        "username": "_rockhound_87"
                    },
                    "text": "No no no",
                    "viewer_has_liked": false
                }
            },
            {
                "node": {
                    "created_at": 1582141973,
                    "did_report_as_spam": false,
                    "edge_liked_by": {
                        "count": 0
                    },
                    "edge_threaded_comments": {
                        "count": 0,
                        "edges": [],
                        "page_info": {
                            "end_cursor": null,
                            "has_next_page": false
                        }
                    },
                    "id": "17869731208613426",
                    "is_restricted_pending": false,
                    "owner": {
                        "id": "1819632634",
                        "is_verified": false,
                        "profile_pic_url": "https://scontent-hel2-1.cdninstagram.com/v/t51.2885-19/s150x150/82568638_524935934793920_4712097238501818368_n.jpg?_nc_ht=scontent-hel2-1.cdninstagram.com&_nc_ohc=Ro3ZZ96e408AX-KLqaF&oh=bf613c595c0acf0691a949fff93e5ae6&oe=5E84F288",
                        "username": "jhon.everth"
                    },
                    "text": "Wtf. I like",
                    "viewer_has_liked": false
                }
            },
            {
                "node": {
                    "created_at": 1582147082,
                    "did_report_as_spam": false,
                    "edge_liked_by": {
                        "count": 0
                    },
                    "edge_threaded_comments": {
                        "count": 0,
                        "edges": [],
                        "page_info": {
                            "end_cursor": null,
                            "has_next_page": false
                        }
                    },
                    "id": "17890325089474957",
                    "is_restricted_pending": false,
                    "owner": {
                        "id": "3515175312",
                        "is_verified": false,
                        "profile_pic_url": "https://scontent-hel2-1.cdninstagram.com/v/t51.2885-19/s150x150/73174163_440935566624141_8742788634068910080_n.jpg?_nc_ht=scontent-hel2-1.cdninstagram.com&_nc_ohc=x2GHxZiFbRUAX-p1Qww&oh=17de7307f4ac6a292d3a4a761d6a8dd9&oe=5E885DAC",
                        "username": "romanocrocetta"
                    },
                    "text": "\ud83d\ude02",
                    "viewer_has_liked": false
                }
            },
            {
                "node": {
                    "created_at": 1582159754,
                    "did_report_as_spam": false,
                    "edge_liked_by": {
                        "count": 0
                    },
                    "edge_threaded_comments": {
                        "count": 0,
                        "edges": [],
                        "page_info": {
                            "end_cursor": null,
                            "has_next_page": false
                        }
                    },
                    "id": "17887072591490219",
                    "is_restricted_pending": false,
                    "owner": {
                        "id": "52611331",
                        "is_verified": false,
                        "profile_pic_url": "https://scontent-hel2-1.cdninstagram.com/v/t51.2885-19/s150x150/69875305_422302855075889_695193959265206272_n.jpg?_nc_ht=scontent-hel2-1.cdninstagram.com&_nc_ohc=a0AUSAJiXNIAX8tFx19&oh=a5df47e70441a25de8be15c71af36db1&oe=5E8A6AB7",
                        "username": "arcadedog"
                    },
                    "text": "@annievvgopp sorcery!",
                    "viewer_has_liked": false
                }
            },
            {
                "node": {
                    "created_at": 1582347236,
                    "did_report_as_spam": false,
                    "edge_liked_by": {
                        "count": 0
                    },
                    "edge_threaded_comments": {
                        "count": 0,
                        "edges": [],
                        "page_info": {
                            "end_cursor": null,
                            "has_next_page": false
                        }
                    },
                    "id": "17894461081452674",
                    "is_restricted_pending": false,
                    "owner": {
                        "id": "1176638746",
                        "is_verified": false,
                        "profile_pic_url": "https://scontent-hel2-1.cdninstagram.com/v/t51.2885-19/s150x150/76700162_550622432417638_2541719988884996096_n.jpg?_nc_ht=scontent-hel2-1.cdninstagram.com&_nc_ohc=Syh0oWsQ-7kAX_9BKj0&oh=1ac3d3b603f5b830348b6fba11f665c8&oe=5E896306",
                        "username": "outcazted"
                    },
                    "text": "Took me a sec to notice that its tom holland",
                    "viewer_has_liked": false
                }
            },
            {
                "node": {
                    "created_at": 1582394943,
                    "did_report_as_spam": false,
                    "edge_liked_by": {
                        "count": 1
                    },
                    "edge_threaded_comments": {
                        "count": 0,
                        "edges": [],
                        "page_info": {
                            "end_cursor": null,
                            "has_next_page": false
                        }
                    },
                    "id": "17866569466628826",
                    "is_restricted_pending": false,
                    "owner": {
                        "id": "16954861531",
                        "is_verified": false,
                        "profile_pic_url": "https://scontent-hel2-1.cdninstagram.com/v/t51.2885-19/s150x150/72221067_594969327973632_2606240469369225216_n.jpg?_nc_ht=scontent-hel2-1.cdninstagram.com&_nc_ohc=k2URuH4ziBYAX8jhoJj&oh=5e00a517b7c60f47e99f190696998bb6&oe=5E85A054",
                        "username": "dantetobias18"
                    },
                    "text": "Si que uno tiene el logo que molesta  y el otro que no tiene logo y no molesta",
                    "viewer_has_liked": false
                }
            },
            {
                "node": {
                    "created_at": 1582606773,
                    "did_report_as_spam": false,
                    "edge_liked_by": {
                        "count": 0
                    },
                    "edge_threaded_comments": {
                        "count": 0,
                        "edges": [],
                        "page_info": {
                            "end_cursor": null,
                            "has_next_page": false
                        }
                    },
                    "id": "17848434451932544",
                    "is_restricted_pending": false,
                    "owner": {
                        "id": "7876785027",
                        "is_verified": false,
                        "profile_pic_url": "https://scontent-hel2-1.cdninstagram.com/v/t51.2885-19/s150x150/36029548_681718658856022_3310343921678155776_n.jpg?_nc_ht=scontent-hel2-1.cdninstagram.com&_nc_ohc=FXh_K0444cAAX-O651j&oh=844ba6401ce0bbfa768a6d1bf5b199fb&oe=5E8A36F4",
                        "username": "leonel_zamp"
                    },
                    "text": "Directores de cine y posibles extorsionistas o terroristas peligrosos: \u00a1Ah caray! eso si me interesa eh.",
                    "viewer_has_liked": false
                }
            }
        ],
        "page_info": {
            "end_cursor": null,
            "has_next_page": false
        }
    },
    "edge_media_to_sponsor_user": {
        "edges": []
    },
    "edge_media_to_tagged_user": {
        "edges": []
    },
    "edge_web_media_to_related_media": {
        "edges": []
    },
    "encoding_status": null,
    "fact_check_information": null,
    "fact_check_overall_rating": null,
    "gating_info": null,
    "has_ranked_comments": false,
    "id": "2246845301414879056",
    "is_ad": false,
    "is_published": true,
    "is_video": true,
    "location": null,
    "media_preview": "ACoqsRKhHJHCk5+nNQbzKDIMD5iB8owQO59j2x+tQB/mwTjaDj/gQwalhXzIiAdoUkHPP0x6/nUW7GqSWr2EuLhrYjbjd2/rx+lLp05mLB+dvOfX2PakuoRcY5wygDPr+HaiKPyWJGApGMD8Mn6Gqaa3Jui9xmrgrPQ5NaFIDnHt3SQ7yM44xn/CrufkwOv5CqbSuVViBhgF6/NuGfmPcZ781YM2IlyMHJB+vQCmnbYHruPQHuf51MFqs03lLuxuwDkDr1AGPb1q5C4kQMO9Dk+orCKuDzStqUKkgk5HHSn4rm5j87f7x/nUjtcUhs5HU81LuYjBUEe2f8+9SAfMKuYG0/Q/youFilCCwB5BG7n1Bz37+mO3arNtOE+QkAluc/Qf1qvCT5Y+hpoAIOaYjXE2X2+g61WbT42JYluTnt/hWPG7K4wSPoa3VY4HNBGsdj//2Q==",
    "owner": {
        "blocked_by_viewer": false,
        "followed_by_viewer": false,
        "full_name": "Geek Anime",
        "has_blocked_viewer": false,
        "id": "3099681694",
        "is_private": false,
        "is_unpublished": false,
        "is_verified": false,
        "profile_pic_url": "https://scontent-hel2-1.cdninstagram.com/v/t51.2885-19/s150x150/76798450_2554417157938475_5086230903353507840_n.jpg?_nc_ht=scontent-hel2-1.cdninstagram.com&_nc_ohc=t79dQrXfss4AX9-STQ3&oh=f58686ff01527dc0f5e566a322fda25a&oe=5E88CA52",
        "requested_by_viewer": false,
        "restricted_by_viewer": null,
        "username": "geekanimee"
    },
    "product_type": "feed",
    "shortcode": "B8uZeW4Ft9Q",
    "taken_at_timestamp": 1582065019,
    "thumbnail_src": "https://scontent-hel2-1.cdninstagram.com/v/t51.2885-15/e35/84335524_101904308034185_3766400693868259445_n.jpg?_nc_ht=scontent-hel2-1.cdninstagram.com&_nc_cat=105&_nc_ohc=hvz4ICmJHmAAX_I8OO3&oh=380cd171adba3ed86efc4aa76a40681e&oe=5E5876C6",
    "title": "",
    "tracking_token": "eyJ2ZXJzaW9uIjo1LCJwYXlsb2FkIjp7ImlzX2FuYWx5dGljc190cmFja2VkIjp0cnVlLCJ1dWlkIjoiNjEzOGY1OThiODkxNDM1YjkxMzM3YTgxNTM3Mjk1M2YyMjQ2ODQ1MzAxNDE0ODc5MDU2In0sInNpZ25hdHVyZSI6IiJ9",
    "video_duration": 55.433,
    "video_url": "https://scontent-hel2-1.cdninstagram.com/v/t50.2886-16/86387682_524949148403043_577721509353249634_n.mp4?_nc_ht=scontent-hel2-1.cdninstagram.com&_nc_cat=103&_nc_ohc=YYb6xdFe8F8AX8zZFnx&oe=5E5887E2&oh=e6c03f8e45423e42371b802f57f07202",
    "video_view_count": 14275,
    "viewer_can_reshare": true,
    "viewer_has_liked": false,
    "viewer_has_saved": false,
    "viewer_has_saved_to_collection": false,
    "viewer_in_photo_of_you": false
}