{
    "__typename": "GraphVideo",
    "caption_is_edited": false,
    "commenting_disabled_for_viewer": false,
    "comments_disabled": false,
    "dash_info": {
        "is_dash_eligible": false,
        "number_of_qualities": 0,
        "video_dash_manifest": null
    },
    "dimensions": {
        "height": 996,
        "width": 640
    },
    "display_resources": [
        {
            "config_height": 996,
            "config_width": 640,
            "src": "https://scontent-hel2-1.cdninstagram.com/v/t51.2885-15/e35/85161527_874502426346927_958458542765698420_n.jpg?_nc_ht=scontent-hel2-1.cdninstagram.com&_nc_cat=103&_nc_ohc=gFqzcGUygk4AX_k05mk&oh=104e65fe7d34f5d57dd2239e1498f24b&oe=5E589BD6"
        },
        {
            "config_height": 1167,
            "config_width": 750,
            "src": "https://scontent-hel2-1.cdninstagram.com/v/t51.2885-15/e35/85161527_874502426346927_958458542765698420_n.jpg?_nc_ht=scontent-hel2-1.cdninstagram.com&_nc_cat=103&_nc_ohc=gFqzcGUygk4AX_k05mk&oh=104e65fe7d34f5d57dd2239e1498f24b&oe=5E589BD6"
        },
        {
            "config_height": 1680,
            "config_width": 1080,
            "src": "https://scontent-hel2-1.cdninstagram.com/v/t51.2885-15/e35/85161527_874502426346927_958458542765698420_n.jpg?_nc_ht=scontent-hel2-1.cdninstagram.com&_nc_cat=103&_nc_ohc=gFqzcGUygk4AX_k05mk&oh=104e65fe7d34f5d57dd2239e1498f24b&oe=5E589BD6"
        }
    ],
    "display_url": "https://scontent-hel2-1.cdninstagram.com/v/t51.2885-15/e35/85161527_874502426346927_958458542765698420_n.jpg?_nc_ht=scontent-hel2-1.cdninstagram.com&_nc_cat=103&_nc_ohc=gFqzcGUygk4AX_k05mk&oh=104e65fe7d34f5d57dd2239e1498f24b&oe=5E589BD6",
    "edge_media_preview_comment": {
        "count": 0,
        "edges": []
    },
    "edge_media_preview_like": {
        "count": 2,
        "edges": []
    },
    "edge_media_to_caption": {
        "edges": [
            {
                "node": {
                    "text": "#tomholland  #robertdowneyjr #backtothefuture #ritornoalfuturo @tomholland2013 @robertdowneyjr @backtothefuture.page @backtothefuture__ @backtothefuturetrilogy @ritornoalfuturo_it @ritornoalfuturofficial #deepfake I know most of BTTF fan don't want a sequel or reboot...but... this videoclip is amazing and I think that a reboot with them will be epic!!!"
                }
            }
        ]
    },
    "edge_media_to_hoisted_comment": {
        "edges": []
    },
    "edge_media_to_parent_comment": {
        "count": 0,
        "edges": [],
        "page_info": {
            "end_cursor": null,
            "has_next_page": false
        }
    },
    "edge_media_to_sponsor_user": {
        "edges": []
    },
    "edge_media_to_tagged_user": {
        "edges": []
    },
    "edge_web_media_to_related_media": {
        "edges": []
    },
    "encoding_status": null,
    "fact_check_information": null,
    "fact_check_overall_rating": null,
    "gating_info": null,
    "has_ranked_comments": false,
    "id": "2246021303962699038",
    "is_ad": false,
    "is_published": true,
    "is_video": true,
    "location": null,
    "media_preview": "ABsq5miiigAooooAKKKKACiiigAooooAKKKKAP/Z",
    "owner": {
        "blocked_by_viewer": false,
        "followed_by_viewer": false,
        "full_name": "claudio",
        "has_blocked_viewer": false,
        "id": "1345178118",
        "is_private": false,
        "is_unpublished": false,
        "is_verified": false,
        "profile_pic_url": "https://scontent-hel2-1.cdninstagram.com/v/t51.2885-19/10838479_838436619554640_1144701139_a.jpg?_nc_ht=scontent-hel2-1.cdninstagram.com&_nc_ohc=31Lt4YDwVUwAX98UfMU&oh=35a394e8f05a33909d31a33ab3c6f3dd&oe=5E8268BC",
        "requested_by_viewer": false,
        "restricted_by_viewer": null,
        "username": "quentin351980"
    },
    "product_type": "igtv",
    "shortcode": "B8reHncqAUe",
    "taken_at_timestamp": 1581966665,
    "thumbnail_src": "https://scontent-hel2-1.cdninstagram.com/v/t51.2885-15/e35/c0.178.640.640a/85161527_874502426346927_958458542765698420_n.jpg?_nc_ht=scontent-hel2-1.cdninstagram.com&_nc_cat=103&_nc_ohc=gFqzcGUygk4AX_k05mk&oh=a57609f98758bd88af6e9c43c496e6d4&oe=5E587B73",
    "title": "Back to the fake",
    "tracking_token": "eyJ2ZXJzaW9uIjo1LCJwYXlsb2FkIjp7ImlzX2FuYWx5dGljc190cmFja2VkIjpmYWxzZSwidXVpZCI6ImZhNmViYTA0OGI3MDQzODdiZWQzYzhiZmE4YjBjNjYwMjI0NjAyMTMwMzk2MjY5OTAzOCJ9LCJzaWduYXR1cmUiOiIifQ==",
    "video_duration": 59.933,
    "video_url": "https://scontent-hel2-1.cdninstagram.com/v/t50.16885-16/86764749_231555981177377_7144565801380838765_n.mp4?_nc_ht=scontent-hel2-1.cdninstagram.com&_nc_cat=105&_nc_ohc=DDMp4l_t5ckAX_pnSK6&oe=5E58B9E1&oh=1f02d52852215c2bbd2b00787cb647c3",
    "video_view_count": 34,
    "viewer_can_reshare": true,
    "viewer_has_liked": false,
    "viewer_has_saved": false,
    "viewer_has_saved_to_collection": false,
    "viewer_in_photo_of_you": false
}