{
    "__typename": "GraphVideo",
    "caption_is_edited": false,
    "commenting_disabled_for_viewer": false,
    "comments_disabled": false,
    "dash_info": {
        "is_dash_eligible": false,
        "number_of_qualities": 0,
        "video_dash_manifest": null
    },
    "dimensions": {
        "height": 1166,
        "width": 750
    },
    "display_resources": [
        {
            "config_height": 995,
            "config_width": 640,
            "src": "https://scontent-hel2-1.cdninstagram.com/v/t51.2885-15/sh0.08/e35/p640x640/84857243_777060456108810_8365723241102990388_n.jpg?_nc_ht=scontent-hel2-1.cdninstagram.com&_nc_cat=106&_nc_ohc=IozOEcQScT0AX8Dr9N9&oh=59fcaa998b85a43d0d5610f8596f5fdc&oe=5E58E2D9"
        },
        {
            "config_height": 1166,
            "config_width": 750,
            "src": "https://scontent-hel2-1.cdninstagram.com/v/t51.2885-15/e35/84857243_777060456108810_8365723241102990388_n.jpg?_nc_ht=scontent-hel2-1.cdninstagram.com&_nc_cat=106&_nc_ohc=IozOEcQScT0AX8Dr9N9&oh=4ac2becb854f2e7477d19a74aa6e25ef&oe=5E58DCEF"
        },
        {
            "config_height": 1680,
            "config_width": 1080,
            "src": "https://scontent-hel2-1.cdninstagram.com/v/t51.2885-15/e35/84857243_777060456108810_8365723241102990388_n.jpg?_nc_ht=scontent-hel2-1.cdninstagram.com&_nc_cat=106&_nc_ohc=IozOEcQScT0AX8Dr9N9&oh=4ac2becb854f2e7477d19a74aa6e25ef&oe=5E58DCEF"
        }
    ],
    "display_url": "https://scontent-hel2-1.cdninstagram.com/v/t51.2885-15/e35/84857243_777060456108810_8365723241102990388_n.jpg?_nc_ht=scontent-hel2-1.cdninstagram.com&_nc_cat=106&_nc_ohc=IozOEcQScT0AX8Dr9N9&oh=4ac2becb854f2e7477d19a74aa6e25ef&oe=5E58DCEF",
    "edge_media_preview_comment": {
        "count": 1,
        "edges": [
            {
                "node": {
                    "created_at": 1582044653,
                    "did_report_as_spam": false,
                    "edge_liked_by": {
                        "count": 0
                    },
                    "id": "18012147346300310",
                    "is_restricted_pending": false,
                    "owner": {
                        "id": "470151820",
                        "is_verified": false,
                        "profile_pic_url": "https://scontent-hel2-1.cdninstagram.com/v/t51.2885-19/s150x150/68750248_576887442716219_5061870424376213504_n.jpg?_nc_ht=scontent-hel2-1.cdninstagram.com&_nc_ohc=MogGB5549c0AX90X3ST&oh=723a0e56d6436f9180abd166cc560d5a&oe=5E82CDD5",
                        "username": "tom.uncensored"
                    },
                    "text": "\u2022\n\u2022\n\u2022\n\u2022\n\u2022\n#yyc #movies #backtothefuture #calgary #films #martymcfly #cinema #bttf #movie #docbrown #yycliving #yycnow #robertdowneyjr #film #instamovies #tomholland #captureyyc #capturecalgary #nice #moviestar #actor #alberta #look #instacool #hollywood #goodmovie #perfect #calgaryisbeautiful #cinephile #deepfake",
                    "viewer_has_liked": false
                }
            }
        ]
    },
    "edge_media_preview_like": {
        "count": 11,
        "edges": []
    },
    "edge_media_to_caption": {
        "edges": [
            {
                "node": {
                    "text": "\u2022\n\u2022\n\u2022\nthis is amazing."
                }
            }
        ]
    },
    "edge_media_to_hoisted_comment": {
        "edges": []
    },
    "edge_media_to_parent_comment": {
        "count": 1,
        "edges": [
            {
                "node": {
                    "created_at": 1582044653,
                    "did_report_as_spam": false,
                    "edge_liked_by": {
                        "count": 0
                    },
                    "edge_threaded_comments": {
                        "count": 0,
                        "edges": [],
                        "page_info": {
                            "end_cursor": null,
                            "has_next_page": false
                        }
                    },
                    "id": "18012147346300310",
                    "is_restricted_pending": false,
                    "owner": {
                        "id": "470151820",
                        "is_verified": false,
                        "profile_pic_url": "https://scontent-hel2-1.cdninstagram.com/v/t51.2885-19/s150x150/68750248_576887442716219_5061870424376213504_n.jpg?_nc_ht=scontent-hel2-1.cdninstagram.com&_nc_ohc=MogGB5549c0AX90X3ST&oh=723a0e56d6436f9180abd166cc560d5a&oe=5E82CDD5",
                        "username": "tom.uncensored"
                    },
                    "text": "\u2022\n\u2022\n\u2022\n\u2022\n\u2022\n#yyc #movies #backtothefuture #calgary #films #martymcfly #cinema #bttf #movie #docbrown #yycliving #yycnow #robertdowneyjr #film #instamovies #tomholland #captureyyc #capturecalgary #nice #moviestar #actor #alberta #look #instacool #hollywood #goodmovie #perfect #calgaryisbeautiful #cinephile #deepfake",
                    "viewer_has_liked": false
                }
            }
        ],
        "page_info": {
            "end_cursor": null,
            "has_next_page": false
        }
    },
    "edge_media_to_sponsor_user": {
        "edges": []
    },
    "edge_media_to_tagged_user": {
        "edges": []
    },
    "edge_web_media_to_related_media": {
        "edges": []
    },
    "encoding_status": null,
    "fact_check_information": null,
    "fact_check_overall_rating": null,
    "gating_info": null,
    "has_ranked_comments": false,
    "id": "2246674609565175031",
    "is_ad": false,
    "is_published": true,
    "is_video": true,
    "location": null,
    "media_preview": "ABsqYygEggcYzgqevTp+tQvkcD+lQCdw4MgAViuSB0A9P61LKTuAAHLAdfU4pFWIzMoBAI98Dn8627VIZYlf5BkdOBWA25CVyOPYU9AjDLE5/CgBCu8hSepA/WrSY59cmqk0WFP5CmwSsCFbvQNj5gFkJPQgZxVMkg4zj6VbvBkj3A/rVZtmeh/l/jQBfujyB9TVFPmlA/z0qxck5H0NUQSGz70xFm4YuQccAY/WocCpE5zn3qKkM//Z",
    "owner": {
        "blocked_by_viewer": false,
        "followed_by_viewer": false,
        "full_name": "T H O M A S",
        "has_blocked_viewer": false,
        "id": "470151820",
        "is_private": false,
        "is_unpublished": false,
        "is_verified": false,
        "profile_pic_url": "https://scontent-hel2-1.cdninstagram.com/v/t51.2885-19/s150x150/68750248_576887442716219_5061870424376213504_n.jpg?_nc_ht=scontent-hel2-1.cdninstagram.com&_nc_ohc=MogGB5549c0AX90X3ST&oh=723a0e56d6436f9180abd166cc560d5a&oe=5E82CDD5",
        "requested_by_viewer": false,
        "restricted_by_viewer": null,
        "username": "tom.uncensored"
    },
    "product_type": "igtv",
    "shortcode": "B8tyqdtBYz3",
    "taken_at_timestamp": 1582044597,
    "thumbnail_src": "https://scontent-hel2-1.cdninstagram.com/v/t51.2885-15/sh0.08/e35/c0.200.720.720a/s640x640/84857243_777060456108810_8365723241102990388_n.jpg?_nc_ht=scontent-hel2-1.cdninstagram.com&_nc_cat=106&_nc_ohc=IozOEcQScT0AX8Dr9N9&oh=687f7b4f8f1f755344060b2bf5ad9fa7&oe=5E58F21B",
    "title": "Back To The Future \ud83d\ude32",
    "tracking_token": "eyJ2ZXJzaW9uIjo1LCJwYXlsb2FkIjp7ImlzX2FuYWx5dGljc190cmFja2VkIjp0cnVlLCJ1dWlkIjoiMzdiNTdmYjU2Njg0NDVmOGFmZjg5ZTA1YjdkMzFjMjYyMjQ2Njc0NjA5NTY1MTc1MDMxIn0sInNpZ25hdHVyZSI6IiJ9",
    "video_duration": 75.018,
    "video_url": "https://scontent-hel2-1.cdninstagram.com/v/t50.16885-16/10000000_1627053100783750_2174465466769465623_n.mp4?_nc_ht=scontent-hel2-1.cdninstagram.com&_nc_cat=110&_nc_ohc=wMrOwyX4UqsAX8bqWP2&oe=5E586511&oh=0e38593f28d3ade81e924d031e73ead9",
    "video_view_count": 83,
    "viewer_can_reshare": true,
    "viewer_has_liked": false,
    "viewer_has_saved": false,
    "viewer_has_saved_to_collection": false,
    "viewer_in_photo_of_you": false
}