{
    "__typename": "GraphVideo",
    "caption_is_edited": false,
    "commenting_disabled_for_viewer": false,
    "comments_disabled": false,
    "dash_info": {
        "is_dash_eligible": false,
        "number_of_qualities": 0,
        "video_dash_manifest": null
    },
    "dimensions": {
        "height": 640,
        "width": 640
    },
    "display_resources": [
        {
            "config_height": 640,
            "config_width": 640,
            "src": "https://scontent-hel2-1.cdninstagram.com/v/t51.2885-15/e35/84981501_509267153357740_6570271365753700001_n.jpg?_nc_ht=scontent-hel2-1.cdninstagram.com&_nc_cat=104&_nc_ohc=BwWhgV0AEEoAX9KrDGg&oh=752e1cf43aba1636884c1cd1c3501a6d&oe=5E58ED19"
        },
        {
            "config_height": 750,
            "config_width": 750,
            "src": "https://scontent-hel2-1.cdninstagram.com/v/t51.2885-15/e35/84981501_509267153357740_6570271365753700001_n.jpg?_nc_ht=scontent-hel2-1.cdninstagram.com&_nc_cat=104&_nc_ohc=BwWhgV0AEEoAX9KrDGg&oh=752e1cf43aba1636884c1cd1c3501a6d&oe=5E58ED19"
        },
        {
            "config_height": 1080,
            "config_width": 1080,
            "src": "https://scontent-hel2-1.cdninstagram.com/v/t51.2885-15/e35/84981501_509267153357740_6570271365753700001_n.jpg?_nc_ht=scontent-hel2-1.cdninstagram.com&_nc_cat=104&_nc_ohc=BwWhgV0AEEoAX9KrDGg&oh=752e1cf43aba1636884c1cd1c3501a6d&oe=5E58ED19"
        }
    ],
    "display_url": "https://scontent-hel2-1.cdninstagram.com/v/t51.2885-15/e35/84981501_509267153357740_6570271365753700001_n.jpg?_nc_ht=scontent-hel2-1.cdninstagram.com&_nc_cat=104&_nc_ohc=BwWhgV0AEEoAX9KrDGg&oh=752e1cf43aba1636884c1cd1c3501a6d&oe=5E58ED19",
    "edge_media_preview_comment": {
        "count": 205,
        "edges": [
            {
                "node": {
                    "created_at": 1582486302,
                    "did_report_as_spam": false,
                    "edge_liked_by": {
                        "count": 0
                    },
                    "id": "17856464665806567",
                    "is_restricted_pending": false,
                    "owner": {
                        "id": "7400909414",
                        "is_verified": false,
                        "profile_pic_url": "https://scontent-hel2-1.cdninstagram.com/v/t51.2885-19/s150x150/84300093_1917863131691469_1321229560561270784_n.jpg?_nc_ht=scontent-hel2-1.cdninstagram.com&_nc_ohc=n_y6fKQ5xpMAX9EKUbI&oh=0b368ac372655ba7bfd137aadabd606f&oe=5E87C27A",
                        "username": "whatever_it_takes42"
                    },
                    "text": "@ramontelladoneto achei interessante essa informa\u00e7\u00e3o kkkk mas ainda assim tmb tenho medo",
                    "viewer_has_liked": false
                }
            },
            {
                "node": {
                    "created_at": 1582486495,
                    "did_report_as_spam": false,
                    "edge_liked_by": {
                        "count": 0
                    },
                    "id": "17941730689329764",
                    "is_restricted_pending": false,
                    "owner": {
                        "id": "6757055276",
                        "is_verified": false,
                        "profile_pic_url": "https://scontent-hel2-1.cdninstagram.com/v/t51.2885-19/s150x150/25013923_2446184678939248_6748984443542700032_n.jpg?_nc_ht=scontent-hel2-1.cdninstagram.com&_nc_ohc=iFtwvrKew4QAX_YleL2&oh=f1f0a847d77045aea527950d60f6673e&oe=5E8AE0DE",
                        "username": "ramontelladoneto"
                    },
                    "text": "@whatever_it_takes42 eu vi um da J\u00e9ssica alba. Se n\u00e3o fosse a tatuagem da atriz, diria que \u00e9 a pr\u00f3pria \ud83e\udd23",
                    "viewer_has_liked": false
                }
            }
        ]
    },
    "edge_media_preview_like": {
        "count": 7373,
        "edges": []
    },
    "edge_media_to_caption": {
        "edges": [
            {
                "node": {
                    "text": "Tom Holland e Robert Downey Jr como Doc e Marty de #devoltaparaofuturo \ud83d\ude2e\ud83d\ude31!!\nO video \u00e9 um DeepFake(v\u00eddeo criado a partir de intelig\u00eancia artificial e que pode reproduzir a apar\u00eancia, as express\u00f5es e at\u00e9 a voz de algu\u00e9m), criado pelo usu\u00e1rio do youtube EZRyderX47 @ezryderx47\nVideo comparativo de @elclubcinema\n\nSeria um \"De Volta para o Futuro do Aranhaverso\"?? \ud83e\udd14\ud83e\udd14\ud83e\udd23\ud83e\udd23 #docandmarty #docemmettbrown #martymcfly #backtothefuture #devoltaparaofuturo #tomholland #robertdowneyjr #deepfake #filme #filmes #aranhaverso"
                }
            }
        ]
    },
    "edge_media_to_hoisted_comment": {
        "edges": []
    },
    "edge_media_to_parent_comment": {
        "count": 205,
        "edges": [
            {
                "node": {
                    "created_at": 1582058562,
                    "did_report_as_spam": false,
                    "edge_liked_by": {
                        "count": 1
                    },
                    "edge_threaded_comments": {
                        "count": 0,
                        "edges": [],
                        "page_info": {
                            "end_cursor": null,
                            "has_next_page": false
                        }
                    },
                    "id": "17852448127852943",
                    "is_restricted_pending": false,
                    "owner": {
                        "id": "1558954008",
                        "is_verified": false,
                        "profile_pic_url": "https://scontent-hel2-1.cdninstagram.com/v/t51.2885-19/s150x150/75196147_771823293276522_2421309915021705216_n.jpg?_nc_ht=scontent-hel2-1.cdninstagram.com&_nc_ohc=iAgcdfJQ-iQAX87z3_z&oh=d9471cc2f6e1b2ea4e8616331a5544f1&oe=5E822451",
                        "username": "sara_freckles08"
                    },
                    "text": "@rochaeduardadeoliveira",
                    "viewer_has_liked": false
                }
            },
            {
                "node": {
                    "created_at": 1582070278,
                    "did_report_as_spam": false,
                    "edge_liked_by": {
                        "count": 1
                    },
                    "edge_threaded_comments": {
                        "count": 1,
                        "edges": [
                            {
                                "node": {
                                    "created_at": 1582072089,
                                    "did_report_as_spam": false,
                                    "edge_liked_by": {
                                        "count": 0
                                    },
                                    "id": "18009727654276401",
                                    "is_restricted_pending": false,
                                    "owner": {
                                        "id": "212114064",
                                        "is_verified": false,
                                        "profile_pic_url": "https://scontent-hel2-1.cdninstagram.com/v/t51.2885-19/s150x150/61464524_2120823128015851_3697445664754499584_n.jpg?_nc_ht=scontent-hel2-1.cdninstagram.com&_nc_ohc=fHnpK-eBLCcAX-L71DS&oh=a105e0facc6c90528bfdc446b0bcdda6&oe=5E894043",
                                        "username": "eniedson_07"
                                    },
                                    "text": "@thabata.albernaz q lokoo",
                                    "viewer_has_liked": false
                                }
                            }
                        ],
                        "page_info": {
                            "end_cursor": null,
                            "has_next_page": false
                        }
                    },
                    "id": "17844631690986597",
                    "is_restricted_pending": false,
                    "owner": {
                        "id": "1982564913",
                        "is_verified": false,
                        "profile_pic_url": "https://scontent-hel2-1.cdninstagram.com/v/t51.2885-19/s150x150/83517848_2298443473780980_2613127488083066880_n.jpg?_nc_ht=scontent-hel2-1.cdninstagram.com&_nc_ohc=_e-dKnWTs4sAX8z62X4&oh=7bab08d8ed00b6198d1d938586907f96&oe=5E8CFDDD",
                        "username": "thabata.albernaz"
                    },
                    "text": "@luisricardo10 @eniedson_07",
                    "viewer_has_liked": false
                }
            },
            {
                "node": {
                    "created_at": 1582071160,
                    "did_report_as_spam": false,
                    "edge_liked_by": {
                        "count": 0
                    },
                    "edge_threaded_comments": {
                        "count": 0,
                        "edges": [],
                        "page_info": {
                            "end_cursor": null,
                            "has_next_page": false
                        }
                    },
                    "id": "17852194888862148",
                    "is_restricted_pending": false,
                    "owner": {
                        "id": "11343429732",
                        "is_verified": false,
                        "profile_pic_url": "https://scontent-hel2-1.cdninstagram.com/v/t51.2885-19/s150x150/75208747_539406973553352_5936657642259742720_n.jpg?_nc_ht=scontent-hel2-1.cdninstagram.com&_nc_ohc=FNaf_FuRC50AX-W_idS&oh=44c8a4abb8a6be05888dba75881de302&oe=5E8AB10C",
                        "username": "itsbillwith2ls"
                    },
                    "text": "@hairsamurai",
                    "viewer_has_liked": false
                }
            },
            {
                "node": {
                    "created_at": 1582072561,
                    "did_report_as_spam": false,
                    "edge_liked_by": {
                        "count": 1
                    },
                    "edge_threaded_comments": {
                        "count": 1,
                        "edges": [
                            {
                                "node": {
                                    "created_at": 1582108219,
                                    "did_report_as_spam": false,
                                    "edge_liked_by": {
                                        "count": 1
                                    },
                                    "id": "18082186207161080",
                                    "is_restricted_pending": false,
                                    "owner": {
                                        "id": "1285095697",
                                        "is_verified": false,
                                        "profile_pic_url": "https://scontent-hel2-1.cdninstagram.com/v/t51.2885-19/s150x150/42895819_239459566731895_6167843766024536064_n.jpg?_nc_ht=scontent-hel2-1.cdninstagram.com&_nc_ohc=5YyPct6PxHUAX8BO00x&oh=c0a590ad71bc562287063929b92a6149&oe=5E8916F0",
                                        "username": "laraissa_marques"
                                    },
                                    "text": "@liviamatiasm meu sonho que fosse real",
                                    "viewer_has_liked": false
                                }
                            }
                        ],
                        "page_info": {
                            "end_cursor": null,
                            "has_next_page": false
                        }
                    },
                    "id": "17952603337308617",
                    "is_restricted_pending": false,
                    "owner": {
                        "id": "2346283334",
                        "is_verified": false,
                        "profile_pic_url": "https://scontent-hel2-1.cdninstagram.com/v/t51.2885-19/s150x150/80824489_759741344536668_6903380765417930752_n.jpg?_nc_ht=scontent-hel2-1.cdninstagram.com&_nc_ohc=nMrynykxsucAX9jBQPs&oh=52d4b42f08877a35b49821f689fd1923&oe=5E813815",
                        "username": "liviamatiasm"
                    },
                    "text": "@laraissa_marques",
                    "viewer_has_liked": false
                }
            },
            {
                "node": {
                    "created_at": 1582075383,
                    "did_report_as_spam": false,
                    "edge_liked_by": {
                        "count": 1
                    },
                    "edge_threaded_comments": {
                        "count": 0,
                        "edges": [],
                        "page_info": {
                            "end_cursor": null,
                            "has_next_page": false
                        }
                    },
                    "id": "17846831344913902",
                    "is_restricted_pending": false,
                    "owner": {
                        "id": "2626657098",
                        "is_verified": false,
                        "profile_pic_url": "https://scontent-hel2-1.cdninstagram.com/v/t51.2885-19/s150x150/61681942_2053626368264973_8275802066950029312_n.jpg?_nc_ht=scontent-hel2-1.cdninstagram.com&_nc_ohc=NDrtHOzDRMoAX-sGlij&oh=5d83d0370eb29ac08e30774d3e8ba1ac&oe=5E8BF379",
                        "username": "juju_baka_"
                    },
                    "text": "@marcio__marthins",
                    "viewer_has_liked": false
                }
            },
            {
                "node": {
                    "created_at": 1582088247,
                    "did_report_as_spam": false,
                    "edge_liked_by": {
                        "count": 1
                    },
                    "edge_threaded_comments": {
                        "count": 1,
                        "edges": [
                            {
                                "node": {
                                    "created_at": 1582130894,
                                    "did_report_as_spam": false,
                                    "edge_liked_by": {
                                        "count": 0
                                    },
                                    "id": "18050041285218480",
                                    "is_restricted_pending": false,
                                    "owner": {
                                        "id": "1179458492",
                                        "is_verified": false,
                                        "profile_pic_url": "https://scontent-hel2-1.cdninstagram.com/v/t51.2885-19/s150x150/81253621_2589096121411083_6537294095457452032_n.jpg?_nc_ht=scontent-hel2-1.cdninstagram.com&_nc_ohc=1fhXaCP8EoEAX9TWl_5&oh=95805db4f416ce36778aa9a721ca2fde&oe=5E8677C5",
                                        "username": "mari__bana"
                                    },
                                    "text": "@wever_made eu AMEI??????? \ud83d\ude0d\ud83d\ude0d\ud83d\ude0d",
                                    "viewer_has_liked": false
                                }
                            }
                        ],
                        "page_info": {
                            "end_cursor": null,
                            "has_next_page": false
                        }
                    },
                    "id": "17843587255998965",
                    "is_restricted_pending": false,
                    "owner": {
                        "id": "2035888360",
                        "is_verified": false,
                        "profile_pic_url": "https://scontent-hel2-1.cdninstagram.com/v/t51.2885-19/s150x150/75419846_2423331434573820_8827416841467985920_n.jpg?_nc_ht=scontent-hel2-1.cdninstagram.com&_nc_ohc=rcJy0jJoBQsAX_5R5ry&oh=c594a61b38e214130c118e15d73072ff&oe=5E833E9B",
                        "username": "wever_made"
                    },
                    "text": "@mari__bana  Surte",
                    "viewer_has_liked": false
                }
            },
            {
                "node": {
                    "created_at": 1582092228,
                    "did_report_as_spam": false,
                    "edge_liked_by": {
                        "count": 0
                    },
                    "edge_threaded_comments": {
                        "count": 0,
                        "edges": [],
                        "page_info": {
                            "end_cursor": null,
                            "has_next_page": false
                        }
                    },
                    "id": "17860113337727927",
                    "is_restricted_pending": false,
                    "owner": {
                        "id": "5829985703",
                        "is_verified": false,
                        "profile_pic_url": "https://scontent-hel2-1.cdninstagram.com/v/t51.2885-19/s150x150/20634710_157571584818250_3104587264185860096_a.jpg?_nc_ht=scontent-hel2-1.cdninstagram.com&_nc_ohc=AlAHouaw0HkAX_Zp6lO&oh=c2cd4d8817c60563f4a8dd7488aafc18&oe=5E874F56",
                        "username": "sakuramochi963"
                    },
                    "text": "\ud83d\udc95\ud83d\ude4c\ud83d\udc95\ud83d\ude4c\ud83d\udc95",
                    "viewer_has_liked": false
                }
            },
            {
                "node": {
                    "created_at": 1582136373,
                    "did_report_as_spam": false,
                    "edge_liked_by": {
                        "count": 0
                    },
                    "edge_threaded_comments": {
                        "count": 0,
                        "edges": [],
                        "page_info": {
                            "end_cursor": null,
                            "has_next_page": false
                        }
                    },
                    "id": "18000514390282463",
                    "is_restricted_pending": false,
                    "owner": {
                        "id": "267370079",
                        "is_verified": false,
                        "profile_pic_url": "https://scontent-hel2-1.cdninstagram.com/v/t51.2885-19/s150x150/81040656_2620243574865492_8591706154340450304_n.jpg?_nc_ht=scontent-hel2-1.cdninstagram.com&_nc_ohc=qC5SFnFB1gUAX8oKe8v&oh=71e544c030458eb52dd36712c6feae34&oe=5E8836AD",
                        "username": "bethmurgas"
                    },
                    "text": "@abad.roman",
                    "viewer_has_liked": false
                }
            },
            {
                "node": {
                    "created_at": 1582160676,
                    "did_report_as_spam": false,
                    "edge_liked_by": {
                        "count": 0
                    },
                    "edge_threaded_comments": {
                        "count": 0,
                        "edges": [],
                        "page_info": {
                            "end_cursor": null,
                            "has_next_page": false
                        }
                    },
                    "id": "18094555084138061",
                    "is_restricted_pending": false,
                    "owner": {
                        "id": "11131416547",
                        "is_verified": false,
                        "profile_pic_url": "https://scontent-hel2-1.cdninstagram.com/v/t51.2885-19/s150x150/75467907_559106824915705_7759146878817533952_n.jpg?_nc_ht=scontent-hel2-1.cdninstagram.com&_nc_ohc=wXMFuY6VfPYAX86EMbH&oh=80ac40e572c2ed18b9e6eac431714ceb&oe=5E85C4DD",
                        "username": "jackeliine2"
                    },
                    "text": "@sandneyjunio",
                    "viewer_has_liked": false
                }
            },
            {
                "node": {
                    "created_at": 1582212911,
                    "did_report_as_spam": false,
                    "edge_liked_by": {
                        "count": 1
                    },
                    "edge_threaded_comments": {
                        "count": 1,
                        "edges": [
                            {
                                "node": {
                                    "created_at": 1582307410,
                                    "did_report_as_spam": false,
                                    "edge_liked_by": {
                                        "count": 1
                                    },
                                    "id": "17874408331574947",
                                    "is_restricted_pending": false,
                                    "owner": {
                                        "id": "289071989",
                                        "is_verified": false,
                                        "profile_pic_url": "https://scontent-hel2-1.cdninstagram.com/v/t51.2885-19/s150x150/79306708_596214337588576_628961998738030592_n.jpg?_nc_ht=scontent-hel2-1.cdninstagram.com&_nc_ohc=l3i6pG634gUAX8wMBsN&oh=6b15514dc6358c3fb8c4e36abccc8176&oe=5E8028DC",
                                        "username": "ise_ribeiro"
                                    },
                                    "text": "@kaikygomex maaano to assustada kkkkkkkkk",
                                    "viewer_has_liked": false
                                }
                            }
                        ],
                        "page_info": {
                            "end_cursor": null,
                            "has_next_page": false
                        }
                    },
                    "id": "17844735112968995",
                    "is_restricted_pending": false,
                    "owner": {
                        "id": "7757237225",
                        "is_verified": false,
                        "profile_pic_url": "https://scontent-hel2-1.cdninstagram.com/v/t51.2885-19/s150x150/83626958_623863248185074_5819707366416842752_n.jpg?_nc_ht=scontent-hel2-1.cdninstagram.com&_nc_ohc=1_s370DijMAAX-YbH33&oh=fca53d4d187dc83bf11f6392d6693ccf&oe=5E82546A",
                        "username": "kaikygomex"
                    },
                    "text": "@ise_ribeiro",
                    "viewer_has_liked": false
                }
            },
            {
                "node": {
                    "created_at": 1582223971,
                    "did_report_as_spam": false,
                    "edge_liked_by": {
                        "count": 0
                    },
                    "edge_threaded_comments": {
                        "count": 0,
                        "edges": [],
                        "page_info": {
                            "end_cursor": null,
                            "has_next_page": false
                        }
                    },
                    "id": "17900631265437690",
                    "is_restricted_pending": false,
                    "owner": {
                        "id": "9703423465",
                        "is_verified": false,
                        "profile_pic_url": "https://scontent-hel2-1.cdninstagram.com/v/t51.2885-19/s150x150/83695387_124689132194933_7049797231330721792_n.jpg?_nc_ht=scontent-hel2-1.cdninstagram.com&_nc_ohc=VZYKvjZL7VEAX_5qV4Q&oh=6b00dc3d19c1cb48953d65d7205e644b&oe=5E804EE8",
                        "username": "pinheirogoncalvesana"
                    },
                    "text": "Saudade daquilo que agente ainda n\u00e3o viveu! \ud83d\ude02\ud83d\ude02\ud83d\ude02\ud83d\ude0d",
                    "viewer_has_liked": false
                }
            },
            {
                "node": {
                    "created_at": 1582224610,
                    "did_report_as_spam": false,
                    "edge_liked_by": {
                        "count": 0
                    },
                    "edge_threaded_comments": {
                        "count": 0,
                        "edges": [],
                        "page_info": {
                            "end_cursor": null,
                            "has_next_page": false
                        }
                    },
                    "id": "17874318448576530",
                    "is_restricted_pending": false,
                    "owner": {
                        "id": "15960079728",
                        "is_verified": false,
                        "profile_pic_url": "https://scontent-hel2-1.cdninstagram.com/v/t51.2885-19/s150x150/72659034_2422060941223024_9010186357250719744_n.jpg?_nc_ht=scontent-hel2-1.cdninstagram.com&_nc_ohc=Q4NmKwefYLcAX9PrCAx&oh=0c518ed5eda999effeb747c3a7d12770&oe=5E87DD18",
                        "username": "cardial482"
                    },
                    "text": "Esque\u00e7e essa merda ai meu",
                    "viewer_has_liked": false
                }
            },
            {
                "node": {
                    "created_at": 1582293966,
                    "did_report_as_spam": false,
                    "edge_liked_by": {
                        "count": 0
                    },
                    "edge_threaded_comments": {
                        "count": 0,
                        "edges": [],
                        "page_info": {
                            "end_cursor": null,
                            "has_next_page": false
                        }
                    },
                    "id": "17872278208591756",
                    "is_restricted_pending": false,
                    "owner": {
                        "id": "27926425995",
                        "is_verified": false,
                        "profile_pic_url": "https://scontent-hel2-1.cdninstagram.com/v/t51.2885-19/s150x150/81453254_487767541913314_2167603186074910720_n.jpg?_nc_ht=scontent-hel2-1.cdninstagram.com&_nc_ohc=X-TfPBbk0P0AX8sPB5m&oh=ee6796f73874abc3a4c73363a59d937c&oe=5E826668",
                        "username": "goku.9mm"
                    },
                    "text": "M",
                    "viewer_has_liked": false
                }
            },
            {
                "node": {
                    "created_at": 1582330544,
                    "did_report_as_spam": false,
                    "edge_liked_by": {
                        "count": 0
                    },
                    "edge_threaded_comments": {
                        "count": 0,
                        "edges": [],
                        "page_info": {
                            "end_cursor": null,
                            "has_next_page": false
                        }
                    },
                    "id": "18083588782163920",
                    "is_restricted_pending": false,
                    "owner": {
                        "id": "20048888507",
                        "is_verified": false,
                        "profile_pic_url": "https://scontent-hel2-1.cdninstagram.com/v/t51.2885-19/s150x150/79199685_529570454296910_7205469106953256960_n.jpg?_nc_ht=scontent-hel2-1.cdninstagram.com&_nc_ohc=azjc-N0_FW4AX-SKYsB&oh=414e78511638670ba78cec82cb55df83&oe=5E8BFE56",
                        "username": "poesyperfumes"
                    },
                    "text": "\ud83d\ude31\ud83d\ude31\ud83d\udc4f\ud83c\udffb\ud83d\udc4f\ud83c\udffb\ud83d\udc4f\ud83c\udffb",
                    "viewer_has_liked": false
                }
            },
            {
                "node": {
                    "created_at": 1582331407,
                    "did_report_as_spam": false,
                    "edge_liked_by": {
                        "count": 0
                    },
                    "edge_threaded_comments": {
                        "count": 0,
                        "edges": [],
                        "page_info": {
                            "end_cursor": null,
                            "has_next_page": false
                        }
                    },
                    "id": "17846320093962077",
                    "is_restricted_pending": false,
                    "owner": {
                        "id": "5322482959",
                        "is_verified": false,
                        "profile_pic_url": "https://scontent-hel2-1.cdninstagram.com/v/t51.2885-19/s150x150/76794627_814723072321181_4258596327526498304_n.jpg?_nc_ht=scontent-hel2-1.cdninstagram.com&_nc_ohc=lCFcY0P5j80AX8Mlo9A&oh=c8f51a56eb65a3e40b3e72c8d1bc0c18&oe=5E873AE1",
                        "username": "alinedutradecarvalho"
                    },
                    "text": "@_jujuba._.2006",
                    "viewer_has_liked": false
                }
            },
            {
                "node": {
                    "created_at": 1582336399,
                    "did_report_as_spam": false,
                    "edge_liked_by": {
                        "count": 0
                    },
                    "edge_threaded_comments": {
                        "count": 0,
                        "edges": [],
                        "page_info": {
                            "end_cursor": null,
                            "has_next_page": false
                        }
                    },
                    "id": "18053235472209941",
                    "is_restricted_pending": false,
                    "owner": {
                        "id": "1663266690",
                        "is_verified": false,
                        "profile_pic_url": "https://scontent-hel2-1.cdninstagram.com/v/t51.2885-19/s150x150/25015201_1794790687260489_979640915905740800_n.jpg?_nc_ht=scontent-hel2-1.cdninstagram.com&_nc_ohc=rZsBQxp6ApEAX-1Y5nW&oh=e2531b2ce3567e3651782edc025ba625&oe=5E879E90",
                        "username": "giovani_righi_vieira"
                    },
                    "text": "\ud83d\udc4d\ud83d\udc4fBack to the future",
                    "viewer_has_liked": false
                }
            },
            {
                "node": {
                    "created_at": 1582343675,
                    "did_report_as_spam": false,
                    "edge_liked_by": {
                        "count": 0
                    },
                    "edge_threaded_comments": {
                        "count": 0,
                        "edges": [],
                        "page_info": {
                            "end_cursor": null,
                            "has_next_page": false
                        }
                    },
                    "id": "17886262807493345",
                    "is_restricted_pending": false,
                    "owner": {
                        "id": "1579202716",
                        "is_verified": false,
                        "profile_pic_url": "https://scontent-hel2-1.cdninstagram.com/v/t51.2885-19/s150x150/71231315_2505445472866951_5943263499529486336_n.jpg?_nc_ht=scontent-hel2-1.cdninstagram.com&_nc_ohc=ADcLDah3WCMAX_aRnyp&oh=0b98d0dea5eb76beff2f976102dda024&oe=5E8A93B7",
                        "username": "joe_ditomasso"
                    },
                    "text": "@gia_vesce \ud83d\udd25",
                    "viewer_has_liked": false
                }
            },
            {
                "node": {
                    "created_at": 1582348147,
                    "did_report_as_spam": false,
                    "edge_liked_by": {
                        "count": 0
                    },
                    "edge_threaded_comments": {
                        "count": 0,
                        "edges": [],
                        "page_info": {
                            "end_cursor": null,
                            "has_next_page": false
                        }
                    },
                    "id": "18099632212124387",
                    "is_restricted_pending": false,
                    "owner": {
                        "id": "2031118850",
                        "is_verified": false,
                        "profile_pic_url": "https://scontent-hel2-1.cdninstagram.com/v/t51.2885-19/s150x150/13658586_1759676767643839_1485323579_a.jpg?_nc_ht=scontent-hel2-1.cdninstagram.com&_nc_ohc=vUKbbvPpkXEAX-aG9Au&oh=ac1a741ac50b6b16f582fb76c12ee36b&oe=5E850067",
                        "username": "fernando_brz"
                    },
                    "text": "S\u00ediiiii \ud83e\udd7a ya quiero verla",
                    "viewer_has_liked": false
                }
            },
            {
                "node": {
                    "created_at": 1582369999,
                    "did_report_as_spam": false,
                    "edge_liked_by": {
                        "count": 0
                    },
                    "edge_threaded_comments": {
                        "count": 0,
                        "edges": [],
                        "page_info": {
                            "end_cursor": null,
                            "has_next_page": false
                        }
                    },
                    "id": "17894670823446122",
                    "is_restricted_pending": false,
                    "owner": {
                        "id": "4824710225",
                        "is_verified": false,
                        "profile_pic_url": "https://instagram.fraj2-1.fna.fbcdn.net/v/t51.2885-19/44884218_345707102882519_2446069589734326272_n.jpg?_nc_ht=instagram.fraj2-1.fna.fbcdn.net&_nc_ohc=HMnxoTj_3W4AX-qn7Yj&oh=a424fa40c2088b0d742f61d3ddca45ed&oe=5E83B9F1",
                        "username": "kassionario"
                    },
                    "text": "@filmesegames",
                    "viewer_has_liked": false
                }
            },
            {
                "node": {
                    "created_at": 1582379314,
                    "did_report_as_spam": false,
                    "edge_liked_by": {
                        "count": 1
                    },
                    "edge_threaded_comments": {
                        "count": 0,
                        "edges": [],
                        "page_info": {
                            "end_cursor": null,
                            "has_next_page": false
                        }
                    },
                    "id": "17845003489986148",
                    "is_restricted_pending": false,
                    "owner": {
                        "id": "8570321936",
                        "is_verified": false,
                        "profile_pic_url": "https://scontent-hel2-1.cdninstagram.com/v/t51.2885-19/s150x150/62586524_2263300620666429_916928350365155328_n.jpg?_nc_ht=scontent-hel2-1.cdninstagram.com&_nc_ohc=GE76B69JNSIAX9mtH6z&oh=c73db6173684f6eb82924d75a9e0e7ad&oe=5E85D2A7",
                        "username": "_jujuba._.2006"
                    },
                    "text": "@ellen_silvaalves",
                    "viewer_has_liked": false
                }
            },
            {
                "node": {
                    "created_at": 1582380710,
                    "did_report_as_spam": false,
                    "edge_liked_by": {
                        "count": 0
                    },
                    "edge_threaded_comments": {
                        "count": 0,
                        "edges": [],
                        "page_info": {
                            "end_cursor": null,
                            "has_next_page": false
                        }
                    },
                    "id": "18044329636239087",
                    "is_restricted_pending": false,
                    "owner": {
                        "id": "789471909",
                        "is_verified": false,
                        "profile_pic_url": "https://scontent-hel2-1.cdninstagram.com/v/t51.2885-19/s150x150/67290248_2211207402341340_3855565658850852864_n.jpg?_nc_ht=scontent-hel2-1.cdninstagram.com&_nc_ohc=sOvtF6WPxMoAX98sk1V&oh=0e4a75459666278f80d2f385f365cfec&oe=5E8253A7",
                        "username": "natyaffareli"
                    },
                    "text": "@rafa_affareli",
                    "viewer_has_liked": false
                }
            },
            {
                "node": {
                    "created_at": 1582394617,
                    "did_report_as_spam": false,
                    "edge_liked_by": {
                        "count": 0
                    },
                    "edge_threaded_comments": {
                        "count": 0,
                        "edges": [],
                        "page_info": {
                            "end_cursor": null,
                            "has_next_page": false
                        }
                    },
                    "id": "18120588703074807",
                    "is_restricted_pending": false,
                    "owner": {
                        "id": "4533889106",
                        "is_verified": false,
                        "profile_pic_url": "https://scontent-hel2-1.cdninstagram.com/v/t51.2885-19/s150x150/16230978_243759746068508_1346291446352707584_a.jpg?_nc_ht=scontent-hel2-1.cdninstagram.com&_nc_ohc=IG-woTT4988AX9_vLOx&oh=ff9ac72e7c5e47b79894e9ffa1036fbe&oe=5E876BF0",
                        "username": "neemiasn.com.br"
                    },
                    "text": "@raissacrusso.arte",
                    "viewer_has_liked": false
                }
            },
            {
                "node": {
                    "created_at": 1582405087,
                    "did_report_as_spam": false,
                    "edge_liked_by": {
                        "count": 1
                    },
                    "edge_threaded_comments": {
                        "count": 0,
                        "edges": [],
                        "page_info": {
                            "end_cursor": null,
                            "has_next_page": false
                        }
                    },
                    "id": "17845536766952486",
                    "is_restricted_pending": false,
                    "owner": {
                        "id": "265092329",
                        "is_verified": false,
                        "profile_pic_url": "https://scontent-hel2-1.cdninstagram.com/v/t51.2885-19/s150x150/70957350_2429390954049552_7816367349417639936_n.jpg?_nc_ht=scontent-hel2-1.cdninstagram.com&_nc_ohc=ZZT6aVlNn_0AX-FznT6&oh=75252ce1eab6782cb537b8e6e519e8fa&oe=5E8AB4F8",
                        "username": "ellem.mendes"
                    },
                    "text": "@ednaldo.smendes",
                    "viewer_has_liked": false
                }
            }
        ],
        "page_info": {
            "end_cursor": "QVFBZGk0eHNYMHVvWjhqWWExMHgzV2UxNHpVMEwtSmVId3dQVXFjYkx5a0huSEdIMVcxOVVuelJYWTFSb1RtMnhKbHhJa2FoZmpIcWJxc3lWRFNyaUlieg==",
            "has_next_page": true
        }
    },
    "edge_media_to_sponsor_user": {
        "edges": []
    },
    "edge_media_to_tagged_user": {
        "edges": []
    },
    "edge_web_media_to_related_media": {
        "edges": []
    },
    "encoding_status": null,
    "fact_check_information": null,
    "fact_check_overall_rating": null,
    "gating_info": null,
    "has_ranked_comments": false,
    "id": "2246055934912608820",
    "is_ad": false,
    "is_published": true,
    "is_video": true,
    "location": null,
    "media_preview": "ACoqoySLubGGIPOCcH3HtUp2qobHXnqazt6nGQBgY44zU5bKjHbjr270iiwCOO2elSAVQL7xj+E5HuKsW7bQV7DHP1oAsYoxS5pM0Cuii9uUPOOfSjyR+NBlcqCQOMqfUnOcn+X0qUSYj54IP/6qQxkcRUYPPf2BpRE4+7j8acZCoz1POR3/AAqeNw67h+VMBhDN6D8aYbhAcHPHtVmsd/vH6n+dIEkxxB6jqaeC2MEAipD1qdelA7FWNSeeeCealikCHBOMnn8qiiJ2j8aUdKBF0Pk4FQm2QnPPPvWfkq3HH0q4HbHU/nQTtsf/2Q==",
    "owner": {
        "blocked_by_viewer": false,
        "followed_by_viewer": false,
        "full_name": "Canal Estilo Geek",
        "has_blocked_viewer": false,
        "id": "2041761158",
        "is_private": false,
        "is_unpublished": false,
        "is_verified": false,
        "profile_pic_url": "https://scontent-hel2-1.cdninstagram.com/v/t51.2885-19/s150x150/78712218_699613390562171_4512448088928944128_n.jpg?_nc_ht=scontent-hel2-1.cdninstagram.com&_nc_ohc=tGOvdzlULJAAX8dMjUg&oh=ff20b64fc66ed87270db47ff2e695a51&oe=5E8C23D5",
        "requested_by_viewer": false,
        "restricted_by_viewer": null,
        "username": "canalestilogeek"
    },
    "product_type": "feed",
    "shortcode": "B8rl_kCH7o0",
    "taken_at_timestamp": 1581970767,
    "thumbnail_src": "https://scontent-hel2-1.cdninstagram.com/v/t51.2885-15/e35/84981501_509267153357740_6570271365753700001_n.jpg?_nc_ht=scontent-hel2-1.cdninstagram.com&_nc_cat=104&_nc_ohc=BwWhgV0AEEoAX9KrDGg&oh=752e1cf43aba1636884c1cd1c3501a6d&oe=5E58ED19",
    "title": "",
    "tracking_token": "eyJ2ZXJzaW9uIjo1LCJwYXlsb2FkIjp7ImlzX2FuYWx5dGljc190cmFja2VkIjp0cnVlLCJ1dWlkIjoiYWY5MjhmZTkwOTRlNGM4NjhmYTVlMzBjZjViNmZkMGQyMjQ2MDU1OTM0OTEyNjA4ODIwIn0sInNpZ25hdHVyZSI6IiJ9",
    "video_duration": 53.599,
    "video_url": "https://scontent-hel2-1.cdninstagram.com/v/t50.2886-16/86396287_176203693815551_5417715610175005392_n.mp4?_nc_ht=scontent-hel2-1.cdninstagram.com&_nc_cat=111&_nc_ohc=UTTfAw1CZjcAX-6isPg&oe=5E58D7FE&oh=bf379496898a364e8c798e84d6a14768",
    "video_view_count": 53308,
    "viewer_can_reshare": true,
    "viewer_has_liked": false,
    "viewer_has_saved": false,
    "viewer_has_saved_to_collection": false,
    "viewer_in_photo_of_you": false
}