{
    "__typename": "GraphVideo",
    "caption_is_edited": false,
    "commenting_disabled_for_viewer": false,
    "comments_disabled": false,
    "dash_info": {
        "is_dash_eligible": false,
        "number_of_qualities": 0,
        "video_dash_manifest": null
    },
    "dimensions": {
        "height": 480,
        "width": 480
    },
    "display_resources": [
        {
            "config_height": 640,
            "config_width": 640,
            "src": "https://scontent-hel2-1.cdninstagram.com/v/t51.2885-15/e35/84749256_645726739302991_2639195248473962588_n.jpg?_nc_ht=scontent-hel2-1.cdninstagram.com&_nc_cat=107&_nc_ohc=SL90SAmxOVQAX9QKm7r&oh=f3257bb2573f202a45fd196c29fe8b93&oe=5E587B13"
        },
        {
            "config_height": 750,
            "config_width": 750,
            "src": "https://scontent-hel2-1.cdninstagram.com/v/t51.2885-15/e35/84749256_645726739302991_2639195248473962588_n.jpg?_nc_ht=scontent-hel2-1.cdninstagram.com&_nc_cat=107&_nc_ohc=SL90SAmxOVQAX9QKm7r&oh=f3257bb2573f202a45fd196c29fe8b93&oe=5E587B13"
        },
        {
            "config_height": 1080,
            "config_width": 1080,
            "src": "https://scontent-hel2-1.cdninstagram.com/v/t51.2885-15/e35/84749256_645726739302991_2639195248473962588_n.jpg?_nc_ht=scontent-hel2-1.cdninstagram.com&_nc_cat=107&_nc_ohc=SL90SAmxOVQAX9QKm7r&oh=f3257bb2573f202a45fd196c29fe8b93&oe=5E587B13"
        }
    ],
    "display_url": "https://scontent-hel2-1.cdninstagram.com/v/t51.2885-15/e35/84749256_645726739302991_2639195248473962588_n.jpg?_nc_ht=scontent-hel2-1.cdninstagram.com&_nc_cat=107&_nc_ohc=SL90SAmxOVQAX9QKm7r&oh=f3257bb2573f202a45fd196c29fe8b93&oe=5E587B13",
    "edge_media_preview_comment": {
        "count": 5,
        "edges": [
            {
                "node": {
                    "created_at": 1582183286,
                    "did_report_as_spam": false,
                    "edge_liked_by": {
                        "count": 0
                    },
                    "id": "17851710433867678",
                    "is_restricted_pending": false,
                    "owner": {
                        "id": "3264257024",
                        "is_verified": false,
                        "profile_pic_url": "https://scontent-hel2-1.cdninstagram.com/v/t51.2885-19/s150x150/79217219_2556425757759683_2918636693760245760_n.jpg?_nc_ht=scontent-hel2-1.cdninstagram.com&_nc_ohc=OHvi4SmZYl0AX9U-x7K&oh=cfb075623a2d64e985cf4509286a8511&oe=5E8C0420",
                        "username": "anscrib"
                    },
                    "text": "Nah. Original actor the best.",
                    "viewer_has_liked": false
                }
            },
            {
                "node": {
                    "created_at": 1582245822,
                    "did_report_as_spam": false,
                    "edge_liked_by": {
                        "count": 0
                    },
                    "id": "17941177150328734",
                    "is_restricted_pending": false,
                    "owner": {
                        "id": "32108083",
                        "is_verified": false,
                        "profile_pic_url": "https://scontent-hel2-1.cdninstagram.com/v/t51.2885-19/s150x150/55894851_2185508144826348_6334548484917559296_n.jpg?_nc_ht=scontent-hel2-1.cdninstagram.com&_nc_ohc=-gYZQ5yoRcYAX_Jym67&oh=38201120ea1a44014d16c6721fce5a0a&oe=5E862236",
                        "username": "alexrosapvh"
                    },
                    "text": "@jpturibio que foda kkkkkkk",
                    "viewer_has_liked": false
                }
            }
        ]
    },
    "edge_media_preview_like": {
        "count": 253,
        "edges": []
    },
    "edge_media_to_caption": {
        "edges": [
            {
                "node": {
                    "text": "Doc Brown and Marty McFly get deepfake treatment with Robert Downey Jr and Tom Holland... And It completely works! This two could play the roles one day if Hollywood goes for one Back to the Future unnecessary remake.\n\u2022\n\u2022\n\u2022\n#deepfake #bttf #backtothefuture #tomholland #robertdowneyjr #martymcfly"
                }
            }
        ]
    },
    "edge_media_to_hoisted_comment": {
        "edges": []
    },
    "edge_media_to_parent_comment": {
        "count": 5,
        "edges": [
            {
                "node": {
                    "created_at": 1581976836,
                    "did_report_as_spam": false,
                    "edge_liked_by": {
                        "count": 1
                    },
                    "edge_threaded_comments": {
                        "count": 1,
                        "edges": [
                            {
                                "node": {
                                    "created_at": 1582245822,
                                    "did_report_as_spam": false,
                                    "edge_liked_by": {
                                        "count": 0
                                    },
                                    "id": "17941177150328734",
                                    "is_restricted_pending": false,
                                    "owner": {
                                        "id": "32108083",
                                        "is_verified": false,
                                        "profile_pic_url": "https://scontent-hel2-1.cdninstagram.com/v/t51.2885-19/s150x150/55894851_2185508144826348_6334548484917559296_n.jpg?_nc_ht=scontent-hel2-1.cdninstagram.com&_nc_ohc=-gYZQ5yoRcYAX_Jym67&oh=38201120ea1a44014d16c6721fce5a0a&oe=5E862236",
                                        "username": "alexrosapvh"
                                    },
                                    "text": "@jpturibio que foda kkkkkkk",
                                    "viewer_has_liked": false
                                }
                            }
                        ],
                        "page_info": {
                            "end_cursor": null,
                            "has_next_page": false
                        }
                    },
                    "id": "17934600802350054",
                    "is_restricted_pending": false,
                    "owner": {
                        "id": "29653318589",
                        "is_verified": false,
                        "profile_pic_url": "https://scontent-hel2-1.cdninstagram.com/v/t51.2885-19/s150x150/83963403_606306519945229_1920564174811824128_n.jpg?_nc_ht=scontent-hel2-1.cdninstagram.com&_nc_ohc=ksZYuWsayPoAX_fEbgG&oh=a2f9847873ccb1775cbdb34b0374da3d&oe=5E87EEB7",
                        "username": "jpturibio"
                    },
                    "text": "@alexrosapvh hahahahaahhahahaahahaaha",
                    "viewer_has_liked": false
                }
            },
            {
                "node": {
                    "created_at": 1581976994,
                    "did_report_as_spam": false,
                    "edge_liked_by": {
                        "count": 0
                    },
                    "edge_threaded_comments": {
                        "count": 0,
                        "edges": [],
                        "page_info": {
                            "end_cursor": null,
                            "has_next_page": false
                        }
                    },
                    "id": "17854679848790337",
                    "is_restricted_pending": false,
                    "owner": {
                        "id": "6652907410",
                        "is_verified": false,
                        "profile_pic_url": "https://scontent-hel2-1.cdninstagram.com/v/t51.2885-19/s150x150/65852022_2319399004780826_2117423343693987840_n.jpg?_nc_ht=scontent-hel2-1.cdninstagram.com&_nc_ohc=ID2OuPUFns8AX-p3iTY&oh=025dd03eed192eadb8936b77679b683a&oe=5E890938",
                        "username": "scottlewisart"
                    },
                    "text": "Don\u2019t give them any ideas.",
                    "viewer_has_liked": false
                }
            },
            {
                "node": {
                    "created_at": 1582010714,
                    "did_report_as_spam": false,
                    "edge_liked_by": {
                        "count": 2
                    },
                    "edge_threaded_comments": {
                        "count": 0,
                        "edges": [],
                        "page_info": {
                            "end_cursor": null,
                            "has_next_page": false
                        }
                    },
                    "id": "18041235112240870",
                    "is_restricted_pending": false,
                    "owner": {
                        "id": "38372929",
                        "is_verified": false,
                        "profile_pic_url": "https://scontent-hel2-1.cdninstagram.com/v/t51.2885-19/11849237_814744651957444_1514133287_a.jpg?_nc_ht=scontent-hel2-1.cdninstagram.com&_nc_ohc=nUj7Up-rfQYAX-L_ie8&oh=f9add95b5fd76a7fcf62bad8c36fd1bc&oe=5E8CFF68",
                        "username": "crowstudio"
                    },
                    "text": "The only thing missing is the wildness in Downey's eyes!",
                    "viewer_has_liked": false
                }
            },
            {
                "node": {
                    "created_at": 1582183286,
                    "did_report_as_spam": false,
                    "edge_liked_by": {
                        "count": 0
                    },
                    "edge_threaded_comments": {
                        "count": 0,
                        "edges": [],
                        "page_info": {
                            "end_cursor": null,
                            "has_next_page": false
                        }
                    },
                    "id": "17851710433867678",
                    "is_restricted_pending": false,
                    "owner": {
                        "id": "3264257024",
                        "is_verified": false,
                        "profile_pic_url": "https://scontent-hel2-1.cdninstagram.com/v/t51.2885-19/s150x150/79217219_2556425757759683_2918636693760245760_n.jpg?_nc_ht=scontent-hel2-1.cdninstagram.com&_nc_ohc=OHvi4SmZYl0AX9U-x7K&oh=cfb075623a2d64e985cf4509286a8511&oe=5E8C0420",
                        "username": "anscrib"
                    },
                    "text": "Nah. Original actor the best.",
                    "viewer_has_liked": false
                }
            }
        ],
        "page_info": {
            "end_cursor": null,
            "has_next_page": false
        }
    },
    "edge_media_to_sponsor_user": {
        "edges": []
    },
    "edge_media_to_tagged_user": {
        "edges": []
    },
    "edge_web_media_to_related_media": {
        "edges": []
    },
    "encoding_status": null,
    "fact_check_information": null,
    "fact_check_overall_rating": null,
    "gating_info": null,
    "has_ranked_comments": false,
    "id": "2246088476655314888",
    "is_ad": false,
    "is_published": true,
    "is_video": true,
    "location": null,
    "media_preview": "ACoqd9qikxnqR6dDnoTn0pylSm4dz/Ks4yEDaPuZyBjvUolBUrnbn29aRRb3qAC3AOf09fSp1wwyORWcHMgweQSVI/zz/SrFs+Bt7ZAA9OKALWKy5GO4/U/zrU3DOKz3tpGYkYwST1pDTQ5oNhwTUgiXFQea5VSwGCNp5+YkZ5P9easeZiMZ4Of/ANVAhkURQds85IzR5DdQcH2//VTnl8td2N2M5Hf2x/WrMbB1DDvTAq+XNnJKnHrkfyFIboA4OMj6/wCFXawn+8fqaVxpXHFW+8OpqUFsYIBH4ipP4hVk/d/D+lILFSIFgDyCM8+oOfz/AM4qeGUL8pIBJ5z9KgiJ2D6H+dLjIpiL4ky2B2qA2cZOeeff/wCtWWGKtwSPpWmHbHU/nTFtsz//2Q==",
    "owner": {
        "blocked_by_viewer": false,
        "followed_by_viewer": false,
        "full_name": "The Sci-Fi Nerds \ud83d\udef8",
        "has_blocked_viewer": false,
        "id": "4685723038",
        "is_private": false,
        "is_unpublished": false,
        "is_verified": false,
        "profile_pic_url": "https://scontent-hel2-1.cdninstagram.com/v/t51.2885-19/s150x150/16789889_1370810899659092_8653038652399550464_a.jpg?_nc_ht=scontent-hel2-1.cdninstagram.com&_nc_ohc=hOc9XSC0seEAX9oRwe_&oh=a7b3cf7a443f34b5bbf05757e09fa175&oe=5E88D5FA",
        "requested_by_viewer": false,
        "restricted_by_viewer": null,
        "username": "scifi_nerds"
    },
    "product_type": "feed",
    "shortcode": "B8rtZG5I2fI",
    "taken_at_timestamp": 1581974666,
    "thumbnail_src": "https://scontent-hel2-1.cdninstagram.com/v/t51.2885-15/e35/84749256_645726739302991_2639195248473962588_n.jpg?_nc_ht=scontent-hel2-1.cdninstagram.com&_nc_cat=107&_nc_ohc=SL90SAmxOVQAX9QKm7r&oh=f3257bb2573f202a45fd196c29fe8b93&oe=5E587B13",
    "title": "",
    "tracking_token": "eyJ2ZXJzaW9uIjo1LCJwYXlsb2FkIjp7ImlzX2FuYWx5dGljc190cmFja2VkIjp0cnVlLCJ1dWlkIjoiNjU2YmFkZTcxOTc1NDFiNzk0MjE2ODU1NjkxODIyODYyMjQ2MDg4NDc2NjU1MzE0ODg4In0sInNpZ25hdHVyZSI6IiJ9",
    "video_duration": 52.866,
    "video_url": "https://scontent-hel2-1.cdninstagram.com/v/t50.2886-16/86372074_210755269976640_2583124172344378919_n.mp4?_nc_ht=scontent-hel2-1.cdninstagram.com&_nc_cat=100&_nc_ohc=zVeSL27KtU4AX9nlYRt&oe=5E58A6EC&oh=8e567fa603a59073a7d5ccc5ce576ff2",
    "video_view_count": 2304,
    "viewer_can_reshare": true,
    "viewer_has_liked": false,
    "viewer_has_saved": false,
    "viewer_has_saved_to_collection": false,
    "viewer_in_photo_of_you": false
}