{
    "__typename": "GraphVideo",
    "caption_is_edited": false,
    "commenting_disabled_for_viewer": false,
    "comments_disabled": false,
    "dash_info": {
        "is_dash_eligible": false,
        "number_of_qualities": 0,
        "video_dash_manifest": null
    },
    "dimensions": {
        "height": 395,
        "width": 750
    },
    "display_resources": [
        {
            "config_height": 337,
            "config_width": 640,
            "src": "https://scontent-hel2-1.cdninstagram.com/v/t51.2885-15/sh0.08/e35/s640x640/83940719_807570163078619_3831779562788126474_n.jpg?_nc_ht=scontent-hel2-1.cdninstagram.com&_nc_cat=111&_nc_ohc=k_FjMhLm7wgAX-qNEJe&oh=e4403cdc88e42ebe586fb80948634029&oe=5E586022"
        },
        {
            "config_height": 395,
            "config_width": 750,
            "src": "https://scontent-hel2-1.cdninstagram.com/v/t51.2885-15/e35/83940719_807570163078619_3831779562788126474_n.jpg?_nc_ht=scontent-hel2-1.cdninstagram.com&_nc_cat=111&_nc_ohc=k_FjMhLm7wgAX-qNEJe&oh=f35830dd47395cd6ea571484812a12be&oe=5E58E487"
        },
        {
            "config_height": 570,
            "config_width": 1080,
            "src": "https://scontent-hel2-1.cdninstagram.com/v/t51.2885-15/e35/83940719_807570163078619_3831779562788126474_n.jpg?_nc_ht=scontent-hel2-1.cdninstagram.com&_nc_cat=111&_nc_ohc=k_FjMhLm7wgAX-qNEJe&oh=f35830dd47395cd6ea571484812a12be&oe=5E58E487"
        }
    ],
    "display_url": "https://scontent-hel2-1.cdninstagram.com/v/t51.2885-15/e35/83940719_807570163078619_3831779562788126474_n.jpg?_nc_ht=scontent-hel2-1.cdninstagram.com&_nc_cat=111&_nc_ohc=k_FjMhLm7wgAX-qNEJe&oh=f35830dd47395cd6ea571484812a12be&oe=5E58E487",
    "edge_media_preview_comment": {
        "count": 1,
        "edges": [
            {
                "node": {
                    "created_at": 1582059310,
                    "did_report_as_spam": false,
                    "edge_liked_by": {
                        "count": 0
                    },
                    "id": "17860398073733466",
                    "is_restricted_pending": false,
                    "owner": {
                        "id": "6431780485",
                        "is_verified": false,
                        "profile_pic_url": "https://scontent-hel2-1.cdninstagram.com/v/t51.2885-19/s150x150/23966898_258964497964863_7300907227345321984_n.jpg?_nc_ht=scontent-hel2-1.cdninstagram.com&_nc_ohc=EwMpFCxK_dUAX9DyVq3&oh=140604f92ae722c12ea9c70eeb254059&oe=5E817AA1",
                        "username": "sweetpea_thegypsy"
                    },
                    "text": "Oh wow!",
                    "viewer_has_liked": false
                }
            }
        ]
    },
    "edge_media_preview_like": {
        "count": 17,
        "edges": []
    },
    "edge_media_to_caption": {
        "edges": [
            {
                "node": {
                    "text": "#deepfake in the making \ud83e\udd2f\ud83e\udd16\ud83d\ude80 Great working with Robert Hobbs, a real pro! #animationstudio \nM\nM\nM\n#awareness #animation3d #corporatecommunication #videoedits #animationvideo #technology #TechTuesday"
                }
            }
        ]
    },
    "edge_media_to_hoisted_comment": {
        "edges": []
    },
    "edge_media_to_parent_comment": {
        "count": 1,
        "edges": [
            {
                "node": {
                    "created_at": 1582059310,
                    "did_report_as_spam": false,
                    "edge_liked_by": {
                        "count": 0
                    },
                    "edge_threaded_comments": {
                        "count": 0,
                        "edges": [],
                        "page_info": {
                            "end_cursor": null,
                            "has_next_page": false
                        }
                    },
                    "id": "17860398073733466",
                    "is_restricted_pending": false,
                    "owner": {
                        "id": "6431780485",
                        "is_verified": false,
                        "profile_pic_url": "https://scontent-hel2-1.cdninstagram.com/v/t51.2885-19/s150x150/23966898_258964497964863_7300907227345321984_n.jpg?_nc_ht=scontent-hel2-1.cdninstagram.com&_nc_ohc=EwMpFCxK_dUAX9DyVq3&oh=140604f92ae722c12ea9c70eeb254059&oe=5E817AA1",
                        "username": "sweetpea_thegypsy"
                    },
                    "text": "Oh wow!",
                    "viewer_has_liked": false
                }
            }
        ],
        "page_info": {
            "end_cursor": null,
            "has_next_page": false
        }
    },
    "edge_media_to_sponsor_user": {
        "edges": []
    },
    "edge_media_to_tagged_user": {
        "edges": []
    },
    "edge_web_media_to_related_media": {
        "edges": []
    },
    "encoding_status": null,
    "fact_check_information": null,
    "fact_check_overall_rating": null,
    "gating_info": null,
    "has_ranked_comments": false,
    "id": "2246768147117739297",
    "is_ad": false,
    "is_published": true,
    "is_video": true,
    "location": {
        "address_json": "{\"street_address\": \"\", \"zip_code\": \"\", \"city_name\": \"\", \"region_name\": \"\", \"country_code\": \"ZA\", \"exact_city_match\": false, \"exact_region_match\": false, \"exact_country_match\": true}",
        "has_public_page": true,
        "id": "479091515",
        "name": "South Africa",
        "slug": "south-africa"
    },
    "media_preview": "ACoWddo+4bQxAVRxnHT2rcEnH4Cqwk4+lUdQlxA2CRnA49yKALC3LCcqWGznuMdOMH1rQ8yuTbH2UD2B/wDHyK09Pm3W6+2R+RNAF29gFyoBOMZ/H/P0Nc+2kzZOAMZ45PT8q3/Mo8ygCnHN8g47D+VVL9t0Lfh/MUUUAZJucxiPHIGM9sbt1aenNiL/AIEf6UUUAXt9U3uyrEehIoooA//Z",
    "owner": {
        "blocked_by_viewer": false,
        "followed_by_viewer": false,
        "full_name": "Mann Made | Content Solutions",
        "has_blocked_viewer": false,
        "id": "10972604072",
        "is_private": false,
        "is_unpublished": false,
        "is_verified": false,
        "profile_pic_url": "https://scontent-hel2-1.cdninstagram.com/v/t51.2885-19/s150x150/74611111_1234219750273521_4172192065251180544_n.jpg?_nc_ht=scontent-hel2-1.cdninstagram.com&_nc_ohc=0WQpFKZz6mQAX9QCHl4&oh=db6993bd3e8b2fc57094aec8a773a21d&oe=5E81A764",
        "requested_by_viewer": false,
        "restricted_by_viewer": null,
        "username": "mannmadesa"
    },
    "product_type": "feed",
    "shortcode": "B8uH7nVnY0h",
    "taken_at_timestamp": 1582055659,
    "thumbnail_src": "https://scontent-hel2-1.cdninstagram.com/v/t51.2885-15/e35/c170.0.380.380a/83940719_807570163078619_3831779562788126474_n.jpg?_nc_ht=scontent-hel2-1.cdninstagram.com&_nc_cat=111&_nc_ohc=k_FjMhLm7wgAX-qNEJe&oh=280d9d00b72fdae5acdf0fdbc938dcfa&oe=5E589A8C",
    "title": "",
    "tracking_token": "eyJ2ZXJzaW9uIjo1LCJwYXlsb2FkIjp7ImlzX2FuYWx5dGljc190cmFja2VkIjp0cnVlLCJ1dWlkIjoiY2RkMDE4YWI4ZDRjNDQ1MmFjNDcwZGViZmYyOTViNWUyMjQ2NzY4MTQ3MTE3NzM5Mjk3In0sInNpZ25hdHVyZSI6IiJ9",
    "video_duration": 1.9,
    "video_url": "https://scontent-hel2-1.cdninstagram.com/v/t50.2886-16/86830138_213587143370935_6971830341469926672_n.mp4?_nc_ht=scontent-hel2-1.cdninstagram.com&_nc_cat=107&_nc_ohc=k4Zzesl3HgEAX_Subrj&oe=5E58934E&oh=0cf8817efc364eb7457c023e9d31a94b",
    "video_view_count": 181,
    "viewer_can_reshare": true,
    "viewer_has_liked": false,
    "viewer_has_saved": false,
    "viewer_has_saved_to_collection": false,
    "viewer_in_photo_of_you": false
}