{
    "__typename": "GraphVideo",
    "caption_is_edited": false,
    "commenting_disabled_for_viewer": false,
    "comments_disabled": false,
    "dash_info": {
        "is_dash_eligible": false,
        "number_of_qualities": 0,
        "video_dash_manifest": null
    },
    "dimensions": {
        "height": 252,
        "width": 480
    },
    "display_resources": [
        {
            "config_height": 336,
            "config_width": 640,
            "src": "https://scontent-hel2-1.cdninstagram.com/v/t51.2885-15/e35/84632789_607209703392796_1478716281632287494_n.jpg?_nc_ht=scontent-hel2-1.cdninstagram.com&_nc_cat=104&_nc_ohc=cqxeqnFbtzAAX_WIY67&oh=5b3cf5c6ef83ce00b973657f6f586c2f&oe=5E58694F"
        },
        {
            "config_height": 393,
            "config_width": 750,
            "src": "https://scontent-hel2-1.cdninstagram.com/v/t51.2885-15/e35/84632789_607209703392796_1478716281632287494_n.jpg?_nc_ht=scontent-hel2-1.cdninstagram.com&_nc_cat=104&_nc_ohc=cqxeqnFbtzAAX_WIY67&oh=5b3cf5c6ef83ce00b973657f6f586c2f&oe=5E58694F"
        },
        {
            "config_height": 567,
            "config_width": 1080,
            "src": "https://scontent-hel2-1.cdninstagram.com/v/t51.2885-15/e35/84632789_607209703392796_1478716281632287494_n.jpg?_nc_ht=scontent-hel2-1.cdninstagram.com&_nc_cat=104&_nc_ohc=cqxeqnFbtzAAX_WIY67&oh=5b3cf5c6ef83ce00b973657f6f586c2f&oe=5E58694F"
        }
    ],
    "display_url": "https://scontent-hel2-1.cdninstagram.com/v/t51.2885-15/e35/84632789_607209703392796_1478716281632287494_n.jpg?_nc_ht=scontent-hel2-1.cdninstagram.com&_nc_cat=104&_nc_ohc=cqxeqnFbtzAAX_WIY67&oh=5b3cf5c6ef83ce00b973657f6f586c2f&oe=5E58694F",
    "edge_media_preview_comment": {
        "count": 0,
        "edges": []
    },
    "edge_media_preview_like": {
        "count": 2,
        "edges": []
    },
    "edge_media_to_caption": {
        "edges": [
            {
                "node": {
                    "text": "Avengers cast in back to the future\n#seeingisbelieving #seeingisntbelieving #deepfake"
                }
            }
        ]
    },
    "edge_media_to_hoisted_comment": {
        "edges": []
    },
    "edge_media_to_parent_comment": {
        "count": 0,
        "edges": [],
        "page_info": {
            "end_cursor": null,
            "has_next_page": false
        }
    },
    "edge_media_to_sponsor_user": {
        "edges": []
    },
    "edge_media_to_tagged_user": {
        "edges": []
    },
    "edge_web_media_to_related_media": {
        "edges": []
    },
    "encoding_status": null,
    "fact_check_information": null,
    "fact_check_overall_rating": null,
    "gating_info": null,
    "has_ranked_comments": false,
    "id": "2246677000737818681",
    "is_ad": false,
    "is_published": true,
    "is_video": true,
    "location": null,
    "media_preview": "ACoWoTMysq8A4y2B09hTFnBkA/hxj8agaQyvk+g/z+fNPTGd5Azn+uKRZaaUAhe5H61DHI0bFXyxPI/z703eS/AJAxjnHI4/Go7l/mGOoqhFwyFkYD5Wz269Kzxcyj+I/nViCQrtPUEkEfy/lVrzBSAzlXgMPxoBJ79aKKQx64wEbnJqOfAYY7UUUxEsQLDjjH51a2CiihCZ/9k=",
    "owner": {
        "blocked_by_viewer": false,
        "followed_by_viewer": false,
        "full_name": "Ono Northey",
        "has_blocked_viewer": false,
        "id": "5884153784",
        "is_private": false,
        "is_unpublished": false,
        "is_verified": false,
        "profile_pic_url": "https://scontent-hel2-1.cdninstagram.com/v/t51.2885-19/s150x150/20838533_1887597588161241_3688859711597182976_a.jpg?_nc_ht=scontent-hel2-1.cdninstagram.com&_nc_ohc=dcr1L-HQLEEAX_xmUB2&oh=a0851b98ddbd00d6b8b4cb910f398dc5&oe=5E8C22BE",
        "requested_by_viewer": false,
        "restricted_by_viewer": null,
        "username": "ononorthey"
    },
    "product_type": "feed",
    "shortcode": "B8tzNQqBIg5",
    "taken_at_timestamp": 1582044817,
    "thumbnail_src": "https://scontent-hel2-1.cdninstagram.com/v/t51.2885-15/e35/c114.0.252.252a/84632789_607209703392796_1478716281632287494_n.jpg?_nc_ht=scontent-hel2-1.cdninstagram.com&_nc_cat=104&_nc_ohc=cqxeqnFbtzAAX_WIY67&oh=19e918a29c208ca62c6099ea876efc06&oe=5E5864F9",
    "title": "",
    "tracking_token": "eyJ2ZXJzaW9uIjo1LCJwYXlsb2FkIjp7ImlzX2FuYWx5dGljc190cmFja2VkIjpmYWxzZSwidXVpZCI6IjIzYWE1ZjM5MTIzYTQxYzc4MmVhYjUxYmVmMmI3YmJlMjI0NjY3NzAwMDczNzgxODY4MSJ9LCJzaWduYXR1cmUiOiIifQ==",
    "video_duration": 59.932,
    "video_url": "https://scontent-hel2-1.cdninstagram.com/v/t50.2886-16/86662554_874913822939596_1981749087732547698_n.mp4?_nc_ht=scontent-hel2-1.cdninstagram.com&_nc_cat=104&_nc_ohc=WjprZywsGR8AX_5-4XJ&oe=5E587BD6&oh=d4cad81e60ca7f80a2b76dcc614d142d",
    "video_view_count": 28,
    "viewer_can_reshare": true,
    "viewer_has_liked": false,
    "viewer_has_saved": false,
    "viewer_has_saved_to_collection": false,
    "viewer_in_photo_of_you": false
}