{
    "__typename": "GraphVideo",
    "caption_is_edited": false,
    "commenting_disabled_for_viewer": false,
    "comments_disabled": false,
    "dash_info": {
        "is_dash_eligible": false,
        "number_of_qualities": 0,
        "video_dash_manifest": null
    },
    "dimensions": {
        "height": 640,
        "width": 640
    },
    "display_resources": [
        {
            "config_height": 640,
            "config_width": 640,
            "src": "https://scontent-hel2-1.cdninstagram.com/v/t51.2885-15/e35/84958621_532876260671908_3040942282799927755_n.jpg?_nc_ht=scontent-hel2-1.cdninstagram.com&_nc_cat=104&_nc_ohc=VVPWq_OVrGMAX9IZVMz&oh=fdb5dca2b86bd1b9ad76dd19d1723e22&oe=5E58646C"
        },
        {
            "config_height": 750,
            "config_width": 750,
            "src": "https://scontent-hel2-1.cdninstagram.com/v/t51.2885-15/e35/84958621_532876260671908_3040942282799927755_n.jpg?_nc_ht=scontent-hel2-1.cdninstagram.com&_nc_cat=104&_nc_ohc=VVPWq_OVrGMAX9IZVMz&oh=fdb5dca2b86bd1b9ad76dd19d1723e22&oe=5E58646C"
        },
        {
            "config_height": 1080,
            "config_width": 1080,
            "src": "https://scontent-hel2-1.cdninstagram.com/v/t51.2885-15/e35/84958621_532876260671908_3040942282799927755_n.jpg?_nc_ht=scontent-hel2-1.cdninstagram.com&_nc_cat=104&_nc_ohc=VVPWq_OVrGMAX9IZVMz&oh=fdb5dca2b86bd1b9ad76dd19d1723e22&oe=5E58646C"
        }
    ],
    "display_url": "https://scontent-hel2-1.cdninstagram.com/v/t51.2885-15/e35/84958621_532876260671908_3040942282799927755_n.jpg?_nc_ht=scontent-hel2-1.cdninstagram.com&_nc_cat=104&_nc_ohc=VVPWq_OVrGMAX9IZVMz&oh=fdb5dca2b86bd1b9ad76dd19d1723e22&oe=5E58646C",
    "edge_media_preview_comment": {
        "count": 3,
        "edges": [
            {
                "node": {
                    "created_at": 1582234726,
                    "did_report_as_spam": false,
                    "edge_liked_by": {
                        "count": 0
                    },
                    "id": "17906051344419019",
                    "is_restricted_pending": false,
                    "owner": {
                        "id": "1515902841",
                        "is_verified": false,
                        "profile_pic_url": "https://scontent-hel2-1.cdninstagram.com/v/t51.2885-19/s150x150/85164561_2924608257578427_330270899024429056_n.jpg?_nc_ht=scontent-hel2-1.cdninstagram.com&_nc_ohc=nu0Aip1LxysAX-yTBWL&oh=b248184eafc9dd9ec864cac1585e0a9d&oe=5E80BD44",
                        "username": "andrea632"
                    },
                    "text": "@jodossanto2",
                    "viewer_has_liked": false
                }
            },
            {
                "node": {
                    "created_at": 1582390353,
                    "did_report_as_spam": false,
                    "edge_liked_by": {
                        "count": 0
                    },
                    "id": "18129864286044791",
                    "is_restricted_pending": false,
                    "owner": {
                        "id": "2266942704",
                        "is_verified": false,
                        "profile_pic_url": "https://scontent-hel2-1.cdninstagram.com/v/t51.2885-19/s150x150/51036656_403106813815180_5861468325573296128_n.jpg?_nc_ht=scontent-hel2-1.cdninstagram.com&_nc_ohc=hok-fkdL8tQAX9yoBmG&oh=d323b458b9a4160a8e0eb641f78ff757&oe=5E8CF9CF",
                        "username": "yk_perez"
                    },
                    "text": "\ud83d\ude32\ud83d\ude32\ud83d\ude32\ud83d\ude32\ud83d\ude32\u2764\ufe0f",
                    "viewer_has_liked": false
                }
            }
        ]
    },
    "edge_media_preview_like": {
        "count": 71,
        "edges": []
    },
    "edge_media_to_caption": {
        "edges": [
            {
                "node": {
                    "text": "#TomHolland y #RobertDowney protagonizan escena de \"#Regresoalfuturo\" gracias a la ayuda de la tecnolog\u00eda \u00bfC\u00f3mo es posible? se trata de \u201c#deepfake\u201d. Con este t\u00e9rmino nos referimos a una t\u00e9cnica de inteligencia artificial que permite modificar v\u00eddeos con un realismo que asusta. Mediante algoritmos de aprendizaje, por ejemplo, se puede cambiar la cara de una persona en un video determinado, como ha ocurrido en este ejemplo de \u201c#Regresoalfuturo\u201d. .\n\ud83d\udcfa @mega.tv .\n.\n #RevistaMaracay \ud83d\udd0e"
                }
            }
        ]
    },
    "edge_media_to_hoisted_comment": {
        "edges": []
    },
    "edge_media_to_parent_comment": {
        "count": 3,
        "edges": [
            {
                "node": {
                    "created_at": 1582148606,
                    "did_report_as_spam": false,
                    "edge_liked_by": {
                        "count": 0
                    },
                    "edge_threaded_comments": {
                        "count": 0,
                        "edges": [],
                        "page_info": {
                            "end_cursor": null,
                            "has_next_page": false
                        }
                    },
                    "id": "18042945112226192",
                    "is_restricted_pending": false,
                    "owner": {
                        "id": "518484725",
                        "is_verified": false,
                        "profile_pic_url": "https://scontent-hel2-1.cdninstagram.com/v/t51.2885-19/s150x150/81647537_2718890318391140_3883622721690533888_n.jpg?_nc_ht=scontent-hel2-1.cdninstagram.com&_nc_ohc=-tstqv9Y98QAX8i3TOy&oh=2c7882bdc5cef56094f00cf430c793a5&oe=5E80F2BE",
                        "username": "revistamaracay"
                    },
                    "text": "#Venezuela #Aragua #Carabobo #Gu\u00e1rico #Miranda #Anzoategui #Yaracuy #Lara #Zulia #Falc\u00f3n #T\u00e1chira #Ccs #Barquisimeto #Caracas #Maracay #Valencia #SanDiego #M\u00e9rida #Miami #S\u00e1badosensacional",
                    "viewer_has_liked": false
                }
            },
            {
                "node": {
                    "created_at": 1582234726,
                    "did_report_as_spam": false,
                    "edge_liked_by": {
                        "count": 0
                    },
                    "edge_threaded_comments": {
                        "count": 0,
                        "edges": [],
                        "page_info": {
                            "end_cursor": null,
                            "has_next_page": false
                        }
                    },
                    "id": "17906051344419019",
                    "is_restricted_pending": false,
                    "owner": {
                        "id": "1515902841",
                        "is_verified": false,
                        "profile_pic_url": "https://scontent-hel2-1.cdninstagram.com/v/t51.2885-19/s150x150/85164561_2924608257578427_330270899024429056_n.jpg?_nc_ht=scontent-hel2-1.cdninstagram.com&_nc_ohc=nu0Aip1LxysAX-yTBWL&oh=b248184eafc9dd9ec864cac1585e0a9d&oe=5E80BD44",
                        "username": "andrea632"
                    },
                    "text": "@jodossanto2",
                    "viewer_has_liked": false
                }
            },
            {
                "node": {
                    "created_at": 1582390353,
                    "did_report_as_spam": false,
                    "edge_liked_by": {
                        "count": 0
                    },
                    "edge_threaded_comments": {
                        "count": 0,
                        "edges": [],
                        "page_info": {
                            "end_cursor": null,
                            "has_next_page": false
                        }
                    },
                    "id": "18129864286044791",
                    "is_restricted_pending": false,
                    "owner": {
                        "id": "2266942704",
                        "is_verified": false,
                        "profile_pic_url": "https://scontent-hel2-1.cdninstagram.com/v/t51.2885-19/s150x150/51036656_403106813815180_5861468325573296128_n.jpg?_nc_ht=scontent-hel2-1.cdninstagram.com&_nc_ohc=hok-fkdL8tQAX9yoBmG&oh=d323b458b9a4160a8e0eb641f78ff757&oe=5E8CF9CF",
                        "username": "yk_perez"
                    },
                    "text": "\ud83d\ude32\ud83d\ude32\ud83d\ude32\ud83d\ude32\ud83d\ude32\u2764\ufe0f",
                    "viewer_has_liked": false
                }
            }
        ],
        "page_info": {
            "end_cursor": null,
            "has_next_page": false
        }
    },
    "edge_media_to_sponsor_user": {
        "edges": []
    },
    "edge_media_to_tagged_user": {
        "edges": []
    },
    "edge_web_media_to_related_media": {
        "edges": []
    },
    "encoding_status": null,
    "fact_check_information": null,
    "fact_check_overall_rating": null,
    "gating_info": null,
    "has_ranked_comments": false,
    "id": "2247542178280938817",
    "is_ad": false,
    "is_published": true,
    "is_video": true,
    "location": null,
    "media_preview": "ACoqrrKm1RtweR254P8AP3quvzqWPc5HqB7VDuAPrxU6Y2neM88f59qm1y9tyK5JQgAkZGadZsRnP4CnEB+D0HSgLgkjr/SqasK5ODzViqidat1IGc1nJGxzjJHrUphcrtXA455/zxUhlcqrEDBG088kjPzH3Pfmp/NxGM8HPP16CnewblRLeQDt+dSeRJ6D86naXy13Y3Yzkd+2Mf1qzGwdQw70XYWKK28g7D86aZwDgjpWnWDIfmP1P86VxpXHlT1HU1JlsYIBH40/+IVZ/h/D+lILFWIFgDyCM8+o5/P/ADipoZQvykgZPP5VDGTsH0NGOKYi+JMtj0qA2cZOeeff/wCtWaGKtwSPpWiHbHU/nQTtsz//2Q==",
    "owner": {
        "blocked_by_viewer": false,
        "followed_by_viewer": false,
        "full_name": "Revista MARACAY",
        "has_blocked_viewer": false,
        "id": "518484725",
        "is_private": false,
        "is_unpublished": false,
        "is_verified": false,
        "profile_pic_url": "https://scontent-hel2-1.cdninstagram.com/v/t51.2885-19/s150x150/81647537_2718890318391140_3883622721690533888_n.jpg?_nc_ht=scontent-hel2-1.cdninstagram.com&_nc_ohc=-tstqv9Y98QAX8i3TOy&oh=2c7882bdc5cef56094f00cf430c793a5&oe=5E80F2BE",
        "requested_by_viewer": false,
        "restricted_by_viewer": null,
        "username": "revistamaracay"
    },
    "product_type": "feed",
    "shortcode": "B8w37QCJJ1B",
    "taken_at_timestamp": 1582148067,
    "thumbnail_src": "https://scontent-hel2-1.cdninstagram.com/v/t51.2885-15/e35/84958621_532876260671908_3040942282799927755_n.jpg?_nc_ht=scontent-hel2-1.cdninstagram.com&_nc_cat=104&_nc_ohc=VVPWq_OVrGMAX9IZVMz&oh=fdb5dca2b86bd1b9ad76dd19d1723e22&oe=5E58646C",
    "title": "",
    "tracking_token": "eyJ2ZXJzaW9uIjo1LCJwYXlsb2FkIjp7ImlzX2FuYWx5dGljc190cmFja2VkIjp0cnVlLCJ1dWlkIjoiMGMzNmY1NTA5ODhkNDAxZGEyYzNmYmM2MDNhMDJmNDAyMjQ3NTQyMTc4MjgwOTM4ODE3In0sInNpZ25hdHVyZSI6IiJ9",
    "video_duration": 52.766,
    "video_url": "https://scontent-hel2-1.cdninstagram.com/v/t50.2886-16/86570467_128972805133127_9108145229088241900_n.mp4?_nc_ht=scontent-hel2-1.cdninstagram.com&_nc_cat=111&_nc_ohc=rscEvaNgBuEAX-cgVZR&oe=5E58974C&oh=8589d5aa4e8ee782388e46a9687cdc06",
    "video_view_count": 2705,
    "viewer_can_reshare": true,
    "viewer_has_liked": false,
    "viewer_has_saved": false,
    "viewer_has_saved_to_collection": false,
    "viewer_in_photo_of_you": false
}