{
    "__typename": "GraphVideo",
    "caption_is_edited": false,
    "commenting_disabled_for_viewer": false,
    "comments_disabled": false,
    "dash_info": {
        "is_dash_eligible": false,
        "number_of_qualities": 0,
        "video_dash_manifest": null
    },
    "dimensions": {
        "height": 750,
        "width": 750
    },
    "display_resources": [
        {
            "config_height": 640,
            "config_width": 640,
            "src": "https://scontent-hel2-1.cdninstagram.com/v/t51.2885-15/sh0.08/e35/s640x640/84225918_883209628800419_3208044852234884747_n.jpg?_nc_ht=scontent-hel2-1.cdninstagram.com&_nc_cat=111&_nc_ohc=lq0A7hS3Ff0AX9MQ2sj&oh=7a3f0537577462db2fa01aa174074e82&oe=5E5900BC"
        },
        {
            "config_height": 750,
            "config_width": 750,
            "src": "https://scontent-hel2-1.cdninstagram.com/v/t51.2885-15/e35/84225918_883209628800419_3208044852234884747_n.jpg?_nc_ht=scontent-hel2-1.cdninstagram.com&_nc_cat=111&_nc_ohc=lq0A7hS3Ff0AX9MQ2sj&oh=c140a88b6a80acfaed653bbbc0cea2bb&oe=5E58F159"
        },
        {
            "config_height": 1080,
            "config_width": 1080,
            "src": "https://scontent-hel2-1.cdninstagram.com/v/t51.2885-15/e35/84225918_883209628800419_3208044852234884747_n.jpg?_nc_ht=scontent-hel2-1.cdninstagram.com&_nc_cat=111&_nc_ohc=lq0A7hS3Ff0AX9MQ2sj&oh=c140a88b6a80acfaed653bbbc0cea2bb&oe=5E58F159"
        }
    ],
    "display_url": "https://scontent-hel2-1.cdninstagram.com/v/t51.2885-15/e35/84225918_883209628800419_3208044852234884747_n.jpg?_nc_ht=scontent-hel2-1.cdninstagram.com&_nc_cat=111&_nc_ohc=lq0A7hS3Ff0AX9MQ2sj&oh=c140a88b6a80acfaed653bbbc0cea2bb&oe=5E58F159",
    "edge_media_preview_comment": {
        "count": 3,
        "edges": [
            {
                "node": {
                    "created_at": 1582307171,
                    "did_report_as_spam": false,
                    "edge_liked_by": {
                        "count": 0
                    },
                    "id": "17941720249332449",
                    "is_restricted_pending": false,
                    "owner": {
                        "id": "7696975364",
                        "is_verified": false,
                        "profile_pic_url": "https://scontent-hel2-1.cdninstagram.com/v/t51.2885-19/s150x150/31296396_2029535847314114_3242589305050234880_n.jpg?_nc_ht=scontent-hel2-1.cdninstagram.com&_nc_ohc=_SZH2I-xkQMAX-1jZbT&oh=260edfcf752f0ab8a1d16acffbb6233a&oe=5E8B8DBD",
                        "username": "taichi.takahashi.0905"
                    },
                    "text": "@mt0714 \n\u3060\u3088\u306d\u7b11",
                    "viewer_has_liked": false
                }
            },
            {
                "node": {
                    "created_at": 1582307278,
                    "did_report_as_spam": false,
                    "edge_liked_by": {
                        "count": 0
                    },
                    "id": "17878037179540449",
                    "is_restricted_pending": false,
                    "owner": {
                        "id": "36546635",
                        "is_verified": false,
                        "profile_pic_url": "https://scontent-hel2-1.cdninstagram.com/v/t51.2885-19/s150x150/12080470_597875200352808_1348860831_a.jpg?_nc_ht=scontent-hel2-1.cdninstagram.com&_nc_ohc=v8U958zpnHIAX8JsVe_&oh=0381b9d1610c0059bb04e65cb5777787&oe=5E892CEF",
                        "username": "mt0714"
                    },
                    "text": "\u3082\u3046\u305f\u3044\u3061\u3055\u3093\u304c\u305f\u3044\u3061\u3055\u3093\u3067\u4f55\u304c\u306a\u306b\u3084\u3089w",
                    "viewer_has_liked": false
                }
            }
        ]
    },
    "edge_media_preview_like": {
        "count": 1,
        "edges": []
    },
    "edge_media_to_caption": {
        "edges": [
            {
                "node": {
                    "text": "\u904e\u53bb\u6700\u9ad8\u306b\u30ad\u30e2\u3044\u306e\u304c\u3067\u304d\u3042\u304c\u308a\u307e\u3057\u305f\u3002\n\n\u8a00\u3044\u8a33\u3068\u3057\u3066\u306f \u300c\u9752\u6625\u306b\u623b\u308a\u305f\u304b\u3063\u305f\u300d\n\n\u3068\u3067\u3082\u8a00\u3063\u3066\u304a\u304d\u307e\u3059\u3002\n\n#AI\n#deepfake"
                }
            }
        ]
    },
    "edge_media_to_hoisted_comment": {
        "edges": []
    },
    "edge_media_to_parent_comment": {
        "count": 3,
        "edges": [
            {
                "node": {
                    "created_at": 1582307114,
                    "did_report_as_spam": false,
                    "edge_liked_by": {
                        "count": 0
                    },
                    "edge_threaded_comments": {
                        "count": 1,
                        "edges": [
                            {
                                "node": {
                                    "created_at": 1582307171,
                                    "did_report_as_spam": false,
                                    "edge_liked_by": {
                                        "count": 0
                                    },
                                    "id": "17941720249332449",
                                    "is_restricted_pending": false,
                                    "owner": {
                                        "id": "7696975364",
                                        "is_verified": false,
                                        "profile_pic_url": "https://scontent-hel2-1.cdninstagram.com/v/t51.2885-19/s150x150/31296396_2029535847314114_3242589305050234880_n.jpg?_nc_ht=scontent-hel2-1.cdninstagram.com&_nc_ohc=_SZH2I-xkQMAX-1jZbT&oh=260edfcf752f0ab8a1d16acffbb6233a&oe=5E8B8DBD",
                                        "username": "taichi.takahashi.0905"
                                    },
                                    "text": "@mt0714 \n\u3060\u3088\u306d\u7b11",
                                    "viewer_has_liked": false
                                }
                            }
                        ],
                        "page_info": {
                            "end_cursor": null,
                            "has_next_page": false
                        }
                    },
                    "id": "17857080643756716",
                    "is_restricted_pending": false,
                    "owner": {
                        "id": "36546635",
                        "is_verified": false,
                        "profile_pic_url": "https://scontent-hel2-1.cdninstagram.com/v/t51.2885-19/s150x150/12080470_597875200352808_1348860831_a.jpg?_nc_ht=scontent-hel2-1.cdninstagram.com&_nc_ohc=v8U958zpnHIAX8JsVe_&oh=0381b9d1610c0059bb04e65cb5777787&oe=5E892CEF",
                        "username": "mt0714"
                    },
                    "text": "\u3051\u3069\u3001\u3053\u308c\u306f\u3054\u3063\u3064\u8179\u7acb\u3061\u307e\u3059\u306dw",
                    "viewer_has_liked": false
                }
            },
            {
                "node": {
                    "created_at": 1582307278,
                    "did_report_as_spam": false,
                    "edge_liked_by": {
                        "count": 0
                    },
                    "edge_threaded_comments": {
                        "count": 0,
                        "edges": [],
                        "page_info": {
                            "end_cursor": null,
                            "has_next_page": false
                        }
                    },
                    "id": "17878037179540449",
                    "is_restricted_pending": false,
                    "owner": {
                        "id": "36546635",
                        "is_verified": false,
                        "profile_pic_url": "https://scontent-hel2-1.cdninstagram.com/v/t51.2885-19/s150x150/12080470_597875200352808_1348860831_a.jpg?_nc_ht=scontent-hel2-1.cdninstagram.com&_nc_ohc=v8U958zpnHIAX8JsVe_&oh=0381b9d1610c0059bb04e65cb5777787&oe=5E892CEF",
                        "username": "mt0714"
                    },
                    "text": "\u3082\u3046\u305f\u3044\u3061\u3055\u3093\u304c\u305f\u3044\u3061\u3055\u3093\u3067\u4f55\u304c\u306a\u306b\u3084\u3089w",
                    "viewer_has_liked": false
                }
            }
        ],
        "page_info": {
            "end_cursor": null,
            "has_next_page": false
        }
    },
    "edge_media_to_sponsor_user": {
        "edges": []
    },
    "edge_media_to_tagged_user": {
        "edges": []
    },
    "edge_web_media_to_related_media": {
        "edges": []
    },
    "encoding_status": null,
    "fact_check_information": null,
    "fact_check_overall_rating": null,
    "gating_info": null,
    "has_ranked_comments": false,
    "id": "2247324769106262376",
    "is_ad": false,
    "is_published": true,
    "is_video": true,
    "location": null,
    "media_preview": "ACoqzvs6/wB2lW3Xuoq3TTUXLIfIj/uis+VASSuFAJH5VqE1bgSCSMgAHBy3qD35/D6U0FrnNJgMM8jNav2VfQU+cRtKcADkAVLmh3e2gWsReavqPzo8weo/OsvFTWsH2iVYuzHnHp1P6U7EcxPJLtycgY6Drn/DFGlzhGZG/jHB9xVzULYWyHyxuhPBB5Kt/eB681hIxVgR1FOw7lm7dt+c96sC7THPWobsqwUoc568YqjStcdyc1taLFy85/hG0fU8n9MfnXP5p6yuowrED0BIFUQjrJP3yuh6Nmuceynh+cA4HII/njr9aredIP4m/M0edJ/eb8zQMnWdQCxHz9vTnqf8+tVcE0lO3t6n86AP/9k=",
    "owner": {
        "blocked_by_viewer": false,
        "followed_by_viewer": false,
        "full_name": "Taichi Takahashi",
        "has_blocked_viewer": false,
        "id": "7696975364",
        "is_private": false,
        "is_unpublished": false,
        "is_verified": false,
        "profile_pic_url": "https://scontent-hel2-1.cdninstagram.com/v/t51.2885-19/s150x150/31296396_2029535847314114_3242589305050234880_n.jpg?_nc_ht=scontent-hel2-1.cdninstagram.com&_nc_ohc=_SZH2I-xkQMAX-1jZbT&oh=260edfcf752f0ab8a1d16acffbb6233a&oe=5E8B8DBD",
        "requested_by_viewer": false,
        "restricted_by_viewer": null,
        "username": "taichi.takahashi.0905"
    },
    "product_type": "feed",
    "shortcode": "B8wGfh9g_lo",
    "taken_at_timestamp": 1582122131,
    "thumbnail_src": "https://scontent-hel2-1.cdninstagram.com/v/t51.2885-15/sh0.08/e35/s640x640/84225918_883209628800419_3208044852234884747_n.jpg?_nc_ht=scontent-hel2-1.cdninstagram.com&_nc_cat=111&_nc_ohc=lq0A7hS3Ff0AX9MQ2sj&oh=7a3f0537577462db2fa01aa174074e82&oe=5E5900BC",
    "title": "",
    "tracking_token": "eyJ2ZXJzaW9uIjo1LCJwYXlsb2FkIjp7ImlzX2FuYWx5dGljc190cmFja2VkIjpmYWxzZSwidXVpZCI6IjY4MzA4YWI1ZTNlYjQzNjFhZTMwYjM3YmJlNGI0YTAzMjI0NzMyNDc2OTEwNjI2MjM3NiJ9LCJzaWduYXR1cmUiOiIifQ==",
    "video_duration": 33.633,
    "video_url": "https://scontent-hel2-1.cdninstagram.com/v/t50.2886-16/87090829_620793225159021_2919226139175865870_n.mp4?_nc_ht=scontent-hel2-1.cdninstagram.com&_nc_cat=109&_nc_ohc=uYG3zmavp28AX-8KAmX&oe=5E58C93A&oh=2acd044faa5f00620db7531775b29198",
    "video_view_count": 49,
    "viewer_can_reshare": true,
    "viewer_has_liked": false,
    "viewer_has_saved": false,
    "viewer_has_saved_to_collection": false,
    "viewer_in_photo_of_you": false
}