{
    "__typename": "GraphVideo",
    "caption_is_edited": true,
    "commenting_disabled_for_viewer": false,
    "comments_disabled": false,
    "dash_info": {
        "is_dash_eligible": false,
        "number_of_qualities": 0,
        "video_dash_manifest": null
    },
    "dimensions": {
        "height": 422,
        "width": 750
    },
    "display_resources": [
        {
            "config_height": 360,
            "config_width": 640,
            "src": "https://scontent-hel2-1.cdninstagram.com/v/t51.2885-15/sh0.08/e35/s640x640/85164561_1278622249002187_5615746806357548585_n.jpg?_nc_ht=scontent-hel2-1.cdninstagram.com&_nc_cat=107&_nc_ohc=4O2BqL8kRLgAX91ATLX&oh=b040f1d81bab6ca5fd4941467ac33a12&oe=5E588914"
        },
        {
            "config_height": 422,
            "config_width": 750,
            "src": "https://scontent-hel2-1.cdninstagram.com/v/t51.2885-15/e35/85164561_1278622249002187_5615746806357548585_n.jpg?_nc_ht=scontent-hel2-1.cdninstagram.com&_nc_cat=107&_nc_ohc=4O2BqL8kRLgAX91ATLX&oh=12b7875d1e02777ac35ec4467ebe14fe&oe=5E58E4EE"
        },
        {
            "config_height": 609,
            "config_width": 1080,
            "src": "https://scontent-hel2-1.cdninstagram.com/v/t51.2885-15/e35/85164561_1278622249002187_5615746806357548585_n.jpg?_nc_ht=scontent-hel2-1.cdninstagram.com&_nc_cat=107&_nc_ohc=4O2BqL8kRLgAX91ATLX&oh=12b7875d1e02777ac35ec4467ebe14fe&oe=5E58E4EE"
        }
    ],
    "display_url": "https://scontent-hel2-1.cdninstagram.com/v/t51.2885-15/e35/85164561_1278622249002187_5615746806357548585_n.jpg?_nc_ht=scontent-hel2-1.cdninstagram.com&_nc_cat=107&_nc_ohc=4O2BqL8kRLgAX91ATLX&oh=12b7875d1e02777ac35ec4467ebe14fe&oe=5E58E4EE",
    "edge_media_preview_comment": {
        "count": 0,
        "edges": []
    },
    "edge_media_preview_like": {
        "count": 5,
        "edges": []
    },
    "edge_media_to_caption": {
        "edges": [
            {
                "node": {
                    "text": "\u041c\u043e\u0433\u0443 \u0432\u0441\u0442\u0430\u0432\u0438\u0442\u044c \u043b\u044e\u0431\u043e\u0435 \u043b\u0438\u0446\u0430 \u0432 \u0444\u0438\u043b\u044c\u043c\u044b \u0438 \u0434\u0430\u0436\u0435 \u0432\u0430\u0448\u0435 \u043b\u0438\u0446\u043e. \u041a\u043e\u043c\u0443 \u0438\u043d\u0442\u0435\u0440\u0435\u0441\u043d\u043e \u043f\u0438\u0448\u0438\u0442\u0435 \u043c\u043d\u0435 \u0432 \u0434\u0430\u0439\u0440\u0435\u043a\u0442.\n\nI can insert any face in movies and even your face. Anyone interested please contact me in direct.\n\n#Deepfake #\u0434\u0438\u043f\u0444\u0435\u0439\u043a #\u043f\u043e\u0434\u043c\u0435\u043d\u0430\u043b\u0438\u0446\u0430 #\u043c\u043e\u043d\u0442\u0430\u0436 #\u0432\u0438\u0434\u0435\u043e\u043c\u043e\u043d\u0442\u0430\u0436 #\u0445\u0430\u0431\u0438\u0431 #\u0442\u043e\u043d\u0438 #ufc #\u044e\u0444\u0441 #\u043c\u043c\u0430 #mma #zabit #amandanunes #magomedsharipov"
                }
            }
        ]
    },
    "edge_media_to_hoisted_comment": {
        "edges": []
    },
    "edge_media_to_parent_comment": {
        "count": 0,
        "edges": [],
        "page_info": {
            "end_cursor": null,
            "has_next_page": false
        }
    },
    "edge_media_to_sponsor_user": {
        "edges": []
    },
    "edge_media_to_tagged_user": {
        "edges": []
    },
    "edge_web_media_to_related_media": {
        "edges": []
    },
    "encoding_status": null,
    "fact_check_information": null,
    "fact_check_overall_rating": null,
    "gating_info": null,
    "has_ranked_comments": false,
    "id": "2247293817458201126",
    "is_ad": false,
    "is_published": true,
    "is_video": true,
    "location": null,
    "media_preview": "ACoX5tDg1flSJ+VYAjsc/wD16zxTmYt1oAmii8x9gOeT09B3qzNbFVwrE45waisjtcnGRtPtj8asPcEKckknseevoaTZSWhmuc4plObrxTaZI+PaWG/7uecelW2S3J+UkAeoPNFFUkUn0siRHjUABh3yMGo5CpzhvoMHmiijlRdyo5zTKKKT0M3uf//Z",
    "owner": {
        "blocked_by_viewer": false,
        "followed_by_viewer": false,
        "full_name": "\u0412\u0441\u0442\u0430\u0432\u0438\u043c \u0432\u0430\u0448\u0435 \u043b\u0438\u0446\u043e \u0432 \u0444\u0438\u043b\u044c\u043c\u044b",
        "has_blocked_viewer": false,
        "id": "29950628333",
        "is_private": false,
        "is_unpublished": false,
        "is_verified": false,
        "profile_pic_url": "https://scontent-hel2-1.cdninstagram.com/v/t51.2885-19/s150x150/87310138_838631849882651_7136449283154247680_n.jpg?_nc_ht=scontent-hel2-1.cdninstagram.com&_nc_ohc=s38zv1mDuvsAX8pHic_&oh=9eb5dffffa606ea0720bf60c78798cc7&oe=5E80BEA8",
        "requested_by_viewer": false,
        "restricted_by_viewer": null,
        "username": "deepfake_kz"
    },
    "product_type": "feed",
    "shortcode": "B8v_dH_hxIm",
    "taken_at_timestamp": 1582118365,
    "thumbnail_src": "https://scontent-hel2-1.cdninstagram.com/v/t51.2885-15/e35/c157.0.406.406a/85164561_1278622249002187_5615746806357548585_n.jpg?_nc_ht=scontent-hel2-1.cdninstagram.com&_nc_cat=107&_nc_ohc=4O2BqL8kRLgAX91ATLX&oh=a6153daa737cbd9bd4c6c6e766fea763&oe=5E58DDBA",
    "title": "",
    "tracking_token": "eyJ2ZXJzaW9uIjo1LCJwYXlsb2FkIjp7ImlzX2FuYWx5dGljc190cmFja2VkIjpmYWxzZSwidXVpZCI6IjI4NTE2MTIzYWVkYjQyYjNhMzgxNWY1NGY2YTJlMWIxMjI0NzI5MzgxNzQ1ODIwMTEyNiJ9LCJzaWduYXR1cmUiOiIifQ==",
    "video_duration": 19.882,
    "video_url": "https://scontent-hel2-1.cdninstagram.com/v/t50.2886-16/86838586_1219605538411342_1805686335081079024_n.mp4?_nc_ht=scontent-hel2-1.cdninstagram.com&_nc_cat=110&_nc_ohc=9Z-OVcBULB0AX_tEBvJ&oe=5E58F1A5&oh=52f50e584c71038ea18f58ba25e27c2c",
    "video_view_count": 487,
    "viewer_can_reshare": true,
    "viewer_has_liked": false,
    "viewer_has_saved": false,
    "viewer_has_saved_to_collection": false,
    "viewer_in_photo_of_you": false
}