{
    "__typename": "GraphVideo",
    "caption_is_edited": false,
    "commenting_disabled_for_viewer": false,
    "comments_disabled": false,
    "dash_info": {
        "is_dash_eligible": false,
        "number_of_qualities": 0,
        "video_dash_manifest": null
    },
    "dimensions": {
        "height": 640,
        "width": 640
    },
    "display_resources": [
        {
            "config_height": 640,
            "config_width": 640,
            "src": "https://scontent-hel2-1.cdninstagram.com/v/t51.2885-15/e35/85124363_258537555131844_5172088704938681403_n.jpg?_nc_ht=scontent-hel2-1.cdninstagram.com&_nc_cat=100&_nc_ohc=jBMtx4Y0LBgAX-kLwHq&oh=547bc8ad426d34cf8dcc11c8aa914f6c&oe=5E588A4E"
        },
        {
            "config_height": 750,
            "config_width": 750,
            "src": "https://scontent-hel2-1.cdninstagram.com/v/t51.2885-15/e35/85124363_258537555131844_5172088704938681403_n.jpg?_nc_ht=scontent-hel2-1.cdninstagram.com&_nc_cat=100&_nc_ohc=jBMtx4Y0LBgAX-kLwHq&oh=547bc8ad426d34cf8dcc11c8aa914f6c&oe=5E588A4E"
        },
        {
            "config_height": 1080,
            "config_width": 1080,
            "src": "https://scontent-hel2-1.cdninstagram.com/v/t51.2885-15/e35/85124363_258537555131844_5172088704938681403_n.jpg?_nc_ht=scontent-hel2-1.cdninstagram.com&_nc_cat=100&_nc_ohc=jBMtx4Y0LBgAX-kLwHq&oh=547bc8ad426d34cf8dcc11c8aa914f6c&oe=5E588A4E"
        }
    ],
    "display_url": "https://scontent-hel2-1.cdninstagram.com/v/t51.2885-15/e35/85124363_258537555131844_5172088704938681403_n.jpg?_nc_ht=scontent-hel2-1.cdninstagram.com&_nc_cat=100&_nc_ohc=jBMtx4Y0LBgAX-kLwHq&oh=547bc8ad426d34cf8dcc11c8aa914f6c&oe=5E588A4E",
    "edge_media_preview_comment": {
        "count": 1,
        "edges": [
            {
                "node": {
                    "created_at": 1582331179,
                    "did_report_as_spam": false,
                    "edge_liked_by": {
                        "count": 0
                    },
                    "id": "17873158999564121",
                    "is_restricted_pending": false,
                    "owner": {
                        "id": "3878913796",
                        "is_verified": false,
                        "profile_pic_url": "https://scontent-hel2-1.cdninstagram.com/v/t51.2885-19/s150x150/50886420_403000457140029_5185926783739887616_n.jpg?_nc_ht=scontent-hel2-1.cdninstagram.com&_nc_ohc=eSDaQtAGnzQAX8xQdyE&oh=480a72ec4c27c877031a3681ea08efce&oe=5E8D04A1",
                        "username": "snakemo1123"
                    },
                    "text": "\ud83e\udd5c",
                    "viewer_has_liked": false
                }
            }
        ]
    },
    "edge_media_preview_like": {
        "count": 14,
        "edges": []
    },
    "edge_media_to_caption": {
        "edges": [
            {
                "node": {
                    "text": "Jeff Bezos and Elon Musk talk about humanity's future. \nPosted @withregram \u2022 @the_fakening In the not too distant future Elon Musk will save us from the captivity of @jeffbezos' @amazon illusion.\n\nElon Musk and Jeff Bezos in Star Trek's pilot episode deepfake.\n\n#elon #elonmusk #bezos #jeffbezos #startrek #amazon #tesla #spacex #deepfake #deepfakes #faceswap #thefakening"
                }
            }
        ]
    },
    "edge_media_to_hoisted_comment": {
        "edges": []
    },
    "edge_media_to_parent_comment": {
        "count": 1,
        "edges": [
            {
                "node": {
                    "created_at": 1582331179,
                    "did_report_as_spam": false,
                    "edge_liked_by": {
                        "count": 0
                    },
                    "edge_threaded_comments": {
                        "count": 0,
                        "edges": [],
                        "page_info": {
                            "end_cursor": null,
                            "has_next_page": false
                        }
                    },
                    "id": "17873158999564121",
                    "is_restricted_pending": false,
                    "owner": {
                        "id": "3878913796",
                        "is_verified": false,
                        "profile_pic_url": "https://scontent-hel2-1.cdninstagram.com/v/t51.2885-19/s150x150/50886420_403000457140029_5185926783739887616_n.jpg?_nc_ht=scontent-hel2-1.cdninstagram.com&_nc_ohc=eSDaQtAGnzQAX8xQdyE&oh=480a72ec4c27c877031a3681ea08efce&oe=5E8D04A1",
                        "username": "snakemo1123"
                    },
                    "text": "\ud83e\udd5c",
                    "viewer_has_liked": false
                }
            }
        ],
        "page_info": {
            "end_cursor": null,
            "has_next_page": false
        }
    },
    "edge_media_to_sponsor_user": {
        "edges": []
    },
    "edge_media_to_tagged_user": {
        "edges": []
    },
    "edge_web_media_to_related_media": {
        "edges": []
    },
    "encoding_status": null,
    "fact_check_information": null,
    "fact_check_overall_rating": null,
    "gating_info": null,
    "has_ranked_comments": false,
    "id": "2247473735256895215",
    "is_ad": false,
    "is_published": true,
    "is_video": true,
    "location": null,
    "media_preview": "ACoqxSx70+KF7g+ijuf5D1NHlr13Zq9bkKgHvU3KSI204gZU5PuMVn4IPPWuh85SO/5Vl3CBpCw9vzoTG12KVaa6iVAG3oMdaqGIkZ6DNL5I/vf5/OgmwzZ5jZzjPXjmrUQ8rvnnvTVjaQ/L+vb0q0LfA5O4/kD7f/XpFbEm/v2/DFVmfBqVYVXlaHt89D+dKxTZVMfmEnnHsabhPXH402TKHB4xUO1TzzQSalqdow3U96snHaq0XUfQ/wA6mXr+NWIjctuGAMdz3x7etSg1dzVWTqfrQBlX55B9sVQ87HatG9Hyj6/0rIosI//Z",
    "owner": {
        "blocked_by_viewer": false,
        "followed_by_viewer": false,
        "full_name": "Juan Herman",
        "has_blocked_viewer": false,
        "id": "4089258345",
        "is_private": false,
        "is_unpublished": false,
        "is_verified": false,
        "profile_pic_url": "https://scontent-hel2-1.cdninstagram.com/v/t51.2885-19/s150x150/15875985_1894667564090273_3397251038724489216_a.jpg?_nc_ht=scontent-hel2-1.cdninstagram.com&_nc_ohc=FPGzPMGwkOgAX8ZJlsB&oh=67e311952b12d50a0553e6c58bcea819&oe=5E80173D",
        "requested_by_viewer": false,
        "restricted_by_viewer": null,
        "username": "jhlandandwater"
    },
    "product_type": "feed",
    "shortcode": "B8woXRgAe7v",
    "taken_at_timestamp": 1582139798,
    "thumbnail_src": "https://scontent-hel2-1.cdninstagram.com/v/t51.2885-15/e35/85124363_258537555131844_5172088704938681403_n.jpg?_nc_ht=scontent-hel2-1.cdninstagram.com&_nc_cat=100&_nc_ohc=jBMtx4Y0LBgAX-kLwHq&oh=547bc8ad426d34cf8dcc11c8aa914f6c&oe=5E588A4E",
    "title": "",
    "tracking_token": "eyJ2ZXJzaW9uIjo1LCJwYXlsb2FkIjp7ImlzX2FuYWx5dGljc190cmFja2VkIjpmYWxzZSwidXVpZCI6IjlkYWNjYjczYjdhNDQ2OGVhMDdlYmVjMzc5NGQ1NGEwMjI0NzQ3MzczNTI1Njg5NTIxNSJ9LCJzaWduYXR1cmUiOiIifQ==",
    "video_duration": 59.845,
    "video_url": "https://scontent-hel2-1.cdninstagram.com/v/t50.2886-16/87040719_1365746376961006_2294016961046453800_n.mp4?_nc_ht=scontent-hel2-1.cdninstagram.com&_nc_cat=110&_nc_ohc=6meE0GrM_MEAX9y6uGG&oe=5E587E89&oh=1151540e7e82eaea25d5a110ac4086e3",
    "video_view_count": 191,
    "viewer_can_reshare": true,
    "viewer_has_liked": false,
    "viewer_has_saved": false,
    "viewer_has_saved_to_collection": false,
    "viewer_in_photo_of_you": false
}