{
    "__typename": "GraphVideo",
    "caption_is_edited": false,
    "commenting_disabled_for_viewer": false,
    "comments_disabled": false,
    "dash_info": {
        "is_dash_eligible": false,
        "number_of_qualities": 0,
        "video_dash_manifest": null
    },
    "dimensions": {
        "height": 422,
        "width": 750
    },
    "display_resources": [
        {
            "config_height": 360,
            "config_width": 640,
            "src": "https://scontent-hel2-1.cdninstagram.com/v/t51.2885-15/sh0.08/e35/s640x640/84629052_171135670979078_1613417576562079698_n.jpg?_nc_ht=scontent-hel2-1.cdninstagram.com&_nc_cat=102&_nc_ohc=Q3fs8gK-1n8AX8uor5x&oh=92a1098950b5d45da36ed6e432252980&oe=5E586EE8"
        },
        {
            "config_height": 422,
            "config_width": 750,
            "src": "https://scontent-hel2-1.cdninstagram.com/v/t51.2885-15/e35/84629052_171135670979078_1613417576562079698_n.jpg?_nc_ht=scontent-hel2-1.cdninstagram.com&_nc_cat=102&_nc_ohc=Q3fs8gK-1n8AX8uor5x&oh=4164cc60bd9c34493d96969e39878d10&oe=5E58594D"
        },
        {
            "config_height": 609,
            "config_width": 1080,
            "src": "https://scontent-hel2-1.cdninstagram.com/v/t51.2885-15/e35/84629052_171135670979078_1613417576562079698_n.jpg?_nc_ht=scontent-hel2-1.cdninstagram.com&_nc_cat=102&_nc_ohc=Q3fs8gK-1n8AX8uor5x&oh=4164cc60bd9c34493d96969e39878d10&oe=5E58594D"
        }
    ],
    "display_url": "https://scontent-hel2-1.cdninstagram.com/v/t51.2885-15/e35/84629052_171135670979078_1613417576562079698_n.jpg?_nc_ht=scontent-hel2-1.cdninstagram.com&_nc_cat=102&_nc_ohc=Q3fs8gK-1n8AX8uor5x&oh=4164cc60bd9c34493d96969e39878d10&oe=5E58594D",
    "edge_media_preview_comment": {
        "count": 0,
        "edges": []
    },
    "edge_media_preview_like": {
        "count": 10,
        "edges": []
    },
    "edge_media_to_caption": {
        "edges": [
            {
                "node": {
                    "text": "Keanu Reeves es Wolverine\n#deepfake\n\"X-Men Origins: Wolverine\" (2009)\ud83c\udfac\nGavin Hood\n__________\n@keanueevees \n@thehughjackman \n#wolverine #xmen #gavinhood \n#keanureeves\n#fila6butaca12 \n@fila6butaca12"
                }
            }
        ]
    },
    "edge_media_to_hoisted_comment": {
        "edges": []
    },
    "edge_media_to_parent_comment": {
        "count": 0,
        "edges": [],
        "page_info": {
            "end_cursor": null,
            "has_next_page": false
        }
    },
    "edge_media_to_sponsor_user": {
        "edges": []
    },
    "edge_media_to_tagged_user": {
        "edges": []
    },
    "edge_web_media_to_related_media": {
        "edges": []
    },
    "encoding_status": null,
    "fact_check_information": null,
    "fact_check_overall_rating": null,
    "gating_info": null,
    "has_ranked_comments": false,
    "id": "2247244410169357452",
    "is_ad": false,
    "is_published": true,
    "is_video": true,
    "location": null,
    "media_preview": "ACoX5/FWRCm05PzcYA5Bz15z1FV6mR8CkA3yxU8lvEAvlksSOfZu46DimFweaR36AcYoGM2L05zSbFqc7+emD9Kr0CG5Hofz/wDrUA0UUxC7qsGeIrjZ83HzZ/Pj3/SiigCHevpz+FM3UUUhn//Z",
    "owner": {
        "blocked_by_viewer": false,
        "followed_by_viewer": false,
        "full_name": "fila6butaca12",
        "has_blocked_viewer": false,
        "id": "14287669595",
        "is_private": false,
        "is_unpublished": false,
        "is_verified": false,
        "profile_pic_url": "https://scontent-hel2-1.cdninstagram.com/v/t51.2885-19/s150x150/84705540_633745567185419_2560712398692417536_n.jpg?_nc_ht=scontent-hel2-1.cdninstagram.com&_nc_ohc=uUbuyc_tBR8AX_k92tM&oh=2fa38cd1647d81eb53263d095d2f8246&oe=5E8B6B81",
        "requested_by_viewer": false,
        "restricted_by_viewer": null,
        "username": "fila6butaca12"
    },
    "product_type": "feed",
    "shortcode": "B8v0OJ3oHSM",
    "taken_at_timestamp": 1582112536,
    "thumbnail_src": "https://scontent-hel2-1.cdninstagram.com/v/t51.2885-15/e35/c157.0.406.406a/84629052_171135670979078_1613417576562079698_n.jpg?_nc_ht=scontent-hel2-1.cdninstagram.com&_nc_cat=102&_nc_ohc=Q3fs8gK-1n8AX8uor5x&oh=21239ef02c18084d24551c008387dabb&oe=5E58C6AA",
    "title": "",
    "tracking_token": "eyJ2ZXJzaW9uIjo1LCJwYXlsb2FkIjp7ImlzX2FuYWx5dGljc190cmFja2VkIjpmYWxzZSwidXVpZCI6Ijg2ZjA0NjgwZjE0YTRhMTA5ZDU0MDkwZTUxZGE5NjFjMjI0NzI0NDQxMDE2OTM1NzQ1MiJ9LCJzaWduYXR1cmUiOiIifQ==",
    "video_duration": 57.253,
    "video_url": "https://scontent-hel2-1.cdninstagram.com/v/t50.2886-16/86463575_772909609863289_6409787723501805418_n.mp4?_nc_ht=scontent-hel2-1.cdninstagram.com&_nc_cat=101&_nc_ohc=iwFj6UQ9GKkAX-6NOv2&oe=5E58E9BA&oh=cb03bc3ec0c8edaf4ab637eefe180aa0",
    "video_view_count": 60,
    "viewer_can_reshare": true,
    "viewer_has_liked": false,
    "viewer_has_saved": false,
    "viewer_has_saved_to_collection": false,
    "viewer_in_photo_of_you": false
}