{
    "__typename": "GraphVideo",
    "caption_is_edited": false,
    "commenting_disabled_for_viewer": false,
    "comments_disabled": false,
    "dash_info": {
        "is_dash_eligible": false,
        "number_of_qualities": 0,
        "video_dash_manifest": null
    },
    "dimensions": {
        "height": 422,
        "width": 750
    },
    "display_resources": [
        {
            "config_height": 360,
            "config_width": 640,
            "src": "https://scontent-hel2-1.cdninstagram.com/v/t51.2885-15/sh0.08/e35/s640x640/82641076_191788301907378_1644713150781130477_n.jpg?_nc_ht=scontent-hel2-1.cdninstagram.com&_nc_cat=106&_nc_ohc=YMYVJZDqjNwAX-Md6ju&oh=8ee5a00a2f8fa40d7b376a6c6ac1d834&oe=5E58CF88"
        },
        {
            "config_height": 422,
            "config_width": 750,
            "src": "https://scontent-hel2-1.cdninstagram.com/v/t51.2885-15/e35/82641076_191788301907378_1644713150781130477_n.jpg?_nc_ht=scontent-hel2-1.cdninstagram.com&_nc_cat=106&_nc_ohc=YMYVJZDqjNwAX-Md6ju&oh=2b08ef76ccbc1f4ecd4caf1579a3ddd5&oe=5E58FAAD"
        },
        {
            "config_height": 609,
            "config_width": 1080,
            "src": "https://scontent-hel2-1.cdninstagram.com/v/t51.2885-15/e35/82641076_191788301907378_1644713150781130477_n.jpg?_nc_ht=scontent-hel2-1.cdninstagram.com&_nc_cat=106&_nc_ohc=YMYVJZDqjNwAX-Md6ju&oh=2b08ef76ccbc1f4ecd4caf1579a3ddd5&oe=5E58FAAD"
        }
    ],
    "display_url": "https://scontent-hel2-1.cdninstagram.com/v/t51.2885-15/e35/82641076_191788301907378_1644713150781130477_n.jpg?_nc_ht=scontent-hel2-1.cdninstagram.com&_nc_cat=106&_nc_ohc=YMYVJZDqjNwAX-Md6ju&oh=2b08ef76ccbc1f4ecd4caf1579a3ddd5&oe=5E58FAAD",
    "edge_media_preview_comment": {
        "count": 0,
        "edges": []
    },
    "edge_media_preview_like": {
        "count": 10,
        "edges": []
    },
    "edge_media_to_caption": {
        "edges": [
            {
                "node": {
                    "text": "Sick acting, Mark! The deepfake is finally coming together, I scrapped the old face and started a new and improved one. This one is about halfway there! #filmmaking #keanureeves #johnwick #deepfake @aka_mark_seditious"
                }
            }
        ]
    },
    "edge_media_to_hoisted_comment": {
        "edges": []
    },
    "edge_media_to_parent_comment": {
        "count": 0,
        "edges": [],
        "page_info": {
            "end_cursor": null,
            "has_next_page": false
        }
    },
    "edge_media_to_sponsor_user": {
        "edges": []
    },
    "edge_media_to_tagged_user": {
        "edges": []
    },
    "edge_web_media_to_related_media": {
        "edges": []
    },
    "encoding_status": null,
    "fact_check_information": null,
    "fact_check_overall_rating": null,
    "gating_info": null,
    "has_ranked_comments": false,
    "id": "2247700610730494613",
    "is_ad": false,
    "is_published": true,
    "is_video": true,
    "location": null,
    "media_preview": "ACoXkkbis2S4fzPLjwD6mpJJwOW6VQTMkhYDd1JHt61JRuW8pcEPjcpwSOhyMg+3vVjNY1rciNysg25wOnf37961SaBDy1N3VGzVFuoAxZnyQPSiBtpb3Rh+lFFUIZKxZix6nB/QVvb8jNFFJjRGz1FvoopDP//Z",
    "owner": {
        "blocked_by_viewer": false,
        "followed_by_viewer": false,
        "full_name": "Jacob Garner",
        "has_blocked_viewer": false,
        "id": "1467634362",
        "is_private": false,
        "is_unpublished": false,
        "is_verified": false,
        "profile_pic_url": "https://scontent-hel2-1.cdninstagram.com/v/t51.2885-19/s150x150/12531052_221979481493886_1481414335_a.jpg?_nc_ht=scontent-hel2-1.cdninstagram.com&_nc_ohc=2s_5hY5vaEMAX_srEll&oh=c2e4117fc4ea30d03f4cb84fd78cfc44&oe=5E8A78A6",
        "requested_by_viewer": false,
        "restricted_by_viewer": null,
        "username": "not_reallyjacob"
    },
    "product_type": "feed",
    "shortcode": "B8xb8vwBQqV",
    "taken_at_timestamp": 1582166834,
    "thumbnail_src": "https://scontent-hel2-1.cdninstagram.com/v/t51.2885-15/e35/c157.0.406.406a/82641076_191788301907378_1644713150781130477_n.jpg?_nc_ht=scontent-hel2-1.cdninstagram.com&_nc_cat=106&_nc_ohc=YMYVJZDqjNwAX-Md6ju&oh=c3c543b323ffda38272bf22b8b5ded71&oe=5E58FF0A",
    "title": "",
    "tracking_token": "eyJ2ZXJzaW9uIjo1LCJwYXlsb2FkIjp7ImlzX2FuYWx5dGljc190cmFja2VkIjpmYWxzZSwidXVpZCI6IjRjZjdjOGJkMzc3NzRkOTk4YTEwN2I2NjEyODA0ZWFkMjI0NzcwMDYxMDczMDQ5NDYxMyJ9LCJzaWduYXR1cmUiOiIifQ==",
    "video_duration": 49.966,
    "video_url": "https://scontent-hel2-1.cdninstagram.com/v/t50.2886-16/86701689_191922095211932_6963870929585469886_n.mp4?_nc_ht=scontent-hel2-1.cdninstagram.com&_nc_cat=108&_nc_ohc=-5mxt7jzxYMAX-MmYHf&oe=5E585FD9&oh=8af163dddedeb0ee026c0cbfafbdc0c0",
    "video_view_count": 130,
    "viewer_can_reshare": true,
    "viewer_has_liked": false,
    "viewer_has_saved": false,
    "viewer_has_saved_to_collection": false,
    "viewer_in_photo_of_you": false
}