{
    "__typename": "GraphVideo",
    "caption_is_edited": true,
    "commenting_disabled_for_viewer": false,
    "comments_disabled": false,
    "dash_info": {
        "is_dash_eligible": false,
        "number_of_qualities": 0,
        "video_dash_manifest": null
    },
    "dimensions": {
        "height": 1166,
        "width": 750
    },
    "display_resources": [
        {
            "config_height": 995,
            "config_width": 640,
            "src": "https://scontent-hel2-1.cdninstagram.com/v/t51.2885-15/sh0.08/e35/p640x640/84992250_581182869140104_8033559957408378660_n.jpg?_nc_ht=scontent-hel2-1.cdninstagram.com&_nc_cat=104&_nc_ohc=jKk2e__1V_EAX-ceAWU&oh=1c6244b73b9f88b4a902b4855c001374&oe=5E58775E"
        },
        {
            "config_height": 1166,
            "config_width": 750,
            "src": "https://scontent-hel2-1.cdninstagram.com/v/t51.2885-15/e35/84992250_581182869140104_8033559957408378660_n.jpg?_nc_ht=scontent-hel2-1.cdninstagram.com&_nc_cat=104&_nc_ohc=jKk2e__1V_EAX-ceAWU&oh=2e182f3db5b914a17006590c618490ed&oe=5E58EFA8"
        },
        {
            "config_height": 1680,
            "config_width": 1080,
            "src": "https://scontent-hel2-1.cdninstagram.com/v/t51.2885-15/e35/84992250_581182869140104_8033559957408378660_n.jpg?_nc_ht=scontent-hel2-1.cdninstagram.com&_nc_cat=104&_nc_ohc=jKk2e__1V_EAX-ceAWU&oh=2e182f3db5b914a17006590c618490ed&oe=5E58EFA8"
        }
    ],
    "display_url": "https://scontent-hel2-1.cdninstagram.com/v/t51.2885-15/e35/84992250_581182869140104_8033559957408378660_n.jpg?_nc_ht=scontent-hel2-1.cdninstagram.com&_nc_cat=104&_nc_ohc=jKk2e__1V_EAX-ceAWU&oh=2e182f3db5b914a17006590c618490ed&oe=5E58EFA8",
    "edge_media_preview_comment": {
        "count": 31,
        "edges": [
            {
                "node": {
                    "created_at": 1582462086,
                    "did_report_as_spam": false,
                    "edge_liked_by": {
                        "count": 0
                    },
                    "id": "17856059842781490",
                    "is_restricted_pending": false,
                    "owner": {
                        "id": "828421331",
                        "is_verified": false,
                        "profile_pic_url": "https://scontent-hel2-1.cdninstagram.com/v/t51.2885-19/s150x150/83345250_2677530952356580_1857463498846502912_n.jpg?_nc_ht=scontent-hel2-1.cdninstagram.com&_nc_ohc=uNe7zITD_9YAX_ACJxE&oh=ed77dcef4b893347cbbe761af55ac99d&oe=5E83186B",
                        "username": "sr.luizandre"
                    },
                    "text": "@gustavo_oliver95 claro eu vi na descri\u00e7\u00e3o, mas seria mto show esse remake eles combinaram mto pqp.",
                    "viewer_has_liked": false
                }
            }
        ]
    },
    "edge_media_preview_like": {
        "count": 1314,
        "edges": []
    },
    "edge_media_to_caption": {
        "edges": [
            {
                "node": {
                    "text": "\u2022\nDEEPFAKER \ud83d\udc64 @ezryderx47\n\u2022\nColoca Tom Holland  e  Robert Downey Jr. em \"De Volta Para o Futuro\" Como Marty McFly e Doutor Emmett Brown\n.\n[ Sincronia de Dublagem @cdgq_brasil ]\n.\n* DEEPFAKE = Tecnologia usada para colocar o rosto de uma pessoa em outra em um v\u00eddeo *\n.\n\n#backtothefuture #robertdowneyjr \n#tomholland #devoltaparaofuturo #nerd #einerd #deepfake #paulwalker #cdgq #quadrado #quadrados #golquadrado #voyage #saveiro #parati #gol #gt #gls #gl  #carro #volkswagen #7008films #brasil #rosca #fixa  #turbo #brasil #canal7008films #instafollow #carrobaixonaoecrime #carrorebaixado"
                }
            }
        ]
    },
    "edge_media_to_hoisted_comment": {
        "edges": []
    },
    "edge_media_to_parent_comment": {
        "count": 31,
        "edges": [
            {
                "node": {
                    "created_at": 1582135554,
                    "did_report_as_spam": false,
                    "edge_liked_by": {
                        "count": 0
                    },
                    "edge_threaded_comments": {
                        "count": 0,
                        "edges": [],
                        "page_info": {
                            "end_cursor": null,
                            "has_next_page": false
                        }
                    },
                    "id": "18053647015209778",
                    "is_restricted_pending": false,
                    "owner": {
                        "id": "7164505326",
                        "is_verified": false,
                        "profile_pic_url": "https://scontent-hel2-1.cdninstagram.com/v/t51.2885-19/s150x150/81138587_1277003859153598_7708035883231870976_n.jpg?_nc_ht=scontent-hel2-1.cdninstagram.com&_nc_ohc=-D1MsOI9IjAAX9PbaMb&oh=32b9c66dd68c4fa7b8cab55a190e9a96&oe=5E8672A2",
                        "username": "cdgq_brasil"
                    },
                    "text": "\ud83d\udd1d\ud83d\udd1d\ud83d\udd1d\ud83d\udd1d",
                    "viewer_has_liked": false
                }
            },
            {
                "node": {
                    "created_at": 1582135664,
                    "did_report_as_spam": false,
                    "edge_liked_by": {
                        "count": 0
                    },
                    "edge_threaded_comments": {
                        "count": 0,
                        "edges": [],
                        "page_info": {
                            "end_cursor": null,
                            "has_next_page": false
                        }
                    },
                    "id": "17846988559948181",
                    "is_restricted_pending": false,
                    "owner": {
                        "id": "365144576",
                        "is_verified": false,
                        "profile_pic_url": "https://scontent-hel2-1.cdninstagram.com/v/t51.2885-19/s150x150/74467409_991856644520131_1367026113938718720_n.jpg?_nc_ht=scontent-hel2-1.cdninstagram.com&_nc_ohc=EnmdBiBsxGAAX_jVQLU&oh=8badc57847281a99f52d6a61cc0ffa8c&oe=5E8350D3",
                        "username": "cezzinhafc"
                    },
                    "text": "@biachess @wagnermwseguros",
                    "viewer_has_liked": false
                }
            },
            {
                "node": {
                    "created_at": 1582136008,
                    "did_report_as_spam": false,
                    "edge_liked_by": {
                        "count": 0
                    },
                    "edge_threaded_comments": {
                        "count": 0,
                        "edges": [],
                        "page_info": {
                            "end_cursor": null,
                            "has_next_page": false
                        }
                    },
                    "id": "18017742220265069",
                    "is_restricted_pending": false,
                    "owner": {
                        "id": "287653028",
                        "is_verified": false,
                        "profile_pic_url": "https://scontent-hel2-1.cdninstagram.com/v/t51.2885-19/s150x150/71015885_397800214234916_5928665107553845248_n.jpg?_nc_ht=scontent-hel2-1.cdninstagram.com&_nc_ohc=FXZe72-sAxQAX9Xnmcp&oh=669064cbb45710acac9bf460b96b411c&oe=5E82CDB4",
                        "username": "ramosgabriele"
                    },
                    "text": "Ficou perfeito \ud83d\udc96",
                    "viewer_has_liked": false
                }
            },
            {
                "node": {
                    "created_at": 1582136688,
                    "did_report_as_spam": false,
                    "edge_liked_by": {
                        "count": 0
                    },
                    "edge_threaded_comments": {
                        "count": 0,
                        "edges": [],
                        "page_info": {
                            "end_cursor": null,
                            "has_next_page": false
                        }
                    },
                    "id": "18042625504234340",
                    "is_restricted_pending": false,
                    "owner": {
                        "id": "2553922999",
                        "is_verified": false,
                        "profile_pic_url": "https://scontent-hel2-1.cdninstagram.com/v/t51.2885-19/s150x150/66051599_352991392294457_1930489401851248640_n.jpg?_nc_ht=scontent-hel2-1.cdninstagram.com&_nc_ohc=bibsasYTQ4IAX8-GJdU&oh=361aa3b2a3e03dc26abfdd084884cca8&oe=5E88A327",
                        "username": "tatianecdepcastro"
                    },
                    "text": "Muito legal",
                    "viewer_has_liked": false
                }
            },
            {
                "node": {
                    "created_at": 1582137061,
                    "did_report_as_spam": false,
                    "edge_liked_by": {
                        "count": 1
                    },
                    "edge_threaded_comments": {
                        "count": 0,
                        "edges": [],
                        "page_info": {
                            "end_cursor": null,
                            "has_next_page": false
                        }
                    },
                    "id": "17849600233890228",
                    "is_restricted_pending": false,
                    "owner": {
                        "id": "186674382",
                        "is_verified": false,
                        "profile_pic_url": "https://scontent-hel2-1.cdninstagram.com/v/t51.2885-19/s150x150/34186134_213187142630665_727875842889220096_n.jpg?_nc_ht=scontent-hel2-1.cdninstagram.com&_nc_ohc=yVcVDJcir6IAX97Gsew&oh=ceab9f6d3aa92aa520fa7f30dd45d1e2&oe=5E85DDA3",
                        "username": "arenatta"
                    },
                    "text": "Gente do c\u00e9u t\u00e1 perfeitoooooo!!!!\ud83d\ude0d\ud83d\udc4f\ud83d\udc4f\ud83d\udc4f",
                    "viewer_has_liked": false
                }
            },
            {
                "node": {
                    "created_at": 1582137092,
                    "did_report_as_spam": false,
                    "edge_liked_by": {
                        "count": 2
                    },
                    "edge_threaded_comments": {
                        "count": 0,
                        "edges": [],
                        "page_info": {
                            "end_cursor": null,
                            "has_next_page": false
                        }
                    },
                    "id": "18075866446198492",
                    "is_restricted_pending": false,
                    "owner": {
                        "id": "559570867",
                        "is_verified": false,
                        "profile_pic_url": "https://scontent-hel2-1.cdninstagram.com/v/t51.2885-19/s150x150/81418964_1080843882270542_5795237413018140672_n.jpg?_nc_ht=scontent-hel2-1.cdninstagram.com&_nc_ohc=4ePBKB8bwzsAX9sEh68&oh=89040e64fb1a6bc27c6b7d6ea07d8fcc&oe=5E80E1CB",
                        "username": "amandabittlher"
                    },
                    "text": "Massaaaa!!!!\ud83d\udc4f\ud83d\udc4f\ud83d\ude0d @robertdowneyjr @tomholland2013  se todo mundo marcar, da pra chegar neles direitinho \ud83d\ude01\ud83d\ude3b",
                    "viewer_has_liked": false
                }
            },
            {
                "node": {
                    "created_at": 1582137313,
                    "did_report_as_spam": false,
                    "edge_liked_by": {
                        "count": 0
                    },
                    "edge_threaded_comments": {
                        "count": 0,
                        "edges": [],
                        "page_info": {
                            "end_cursor": null,
                            "has_next_page": false
                        }
                    },
                    "id": "18076682221196236",
                    "is_restricted_pending": false,
                    "owner": {
                        "id": "8063776883",
                        "is_verified": false,
                        "profile_pic_url": "https://scontent-hel2-1.cdninstagram.com/v/t51.2885-19/s150x150/35575300_210280686471836_8461601849663815680_n.jpg?_nc_ht=scontent-hel2-1.cdninstagram.com&_nc_ohc=n8dUZR7EggIAX_Kq7Lz&oh=20461413173da9b771b5cde4b1b40006&oe=5E8C3CF4",
                        "username": "fig_nicolas"
                    },
                    "text": "Oqueeeeeeeeeeeeee",
                    "viewer_has_liked": false
                }
            },
            {
                "node": {
                    "created_at": 1582138539,
                    "did_report_as_spam": false,
                    "edge_liked_by": {
                        "count": 0
                    },
                    "edge_threaded_comments": {
                        "count": 0,
                        "edges": [],
                        "page_info": {
                            "end_cursor": null,
                            "has_next_page": false
                        }
                    },
                    "id": "17983885042293062",
                    "is_restricted_pending": false,
                    "owner": {
                        "id": "3664317796",
                        "is_verified": false,
                        "profile_pic_url": "https://scontent-hel2-1.cdninstagram.com/v/t51.2885-19/s150x150/78852969_451096419108508_8197575134643486720_n.jpg?_nc_ht=scontent-hel2-1.cdninstagram.com&_nc_ohc=s0wrcPhshgcAX_ElOSC&oh=b90aa4a0912dd740eb0c75fc19878882&oe=5E812660",
                        "username": "jessica.faugusto"
                    },
                    "text": "Defini\u00e7\u00e3o de ator foda",
                    "viewer_has_liked": false
                }
            },
            {
                "node": {
                    "created_at": 1582143336,
                    "did_report_as_spam": false,
                    "edge_liked_by": {
                        "count": 0
                    },
                    "edge_threaded_comments": {
                        "count": 0,
                        "edges": [],
                        "page_info": {
                            "end_cursor": null,
                            "has_next_page": false
                        }
                    },
                    "id": "17856050998812970",
                    "is_restricted_pending": false,
                    "owner": {
                        "id": "364268286",
                        "is_verified": false,
                        "profile_pic_url": "https://scontent-hel2-1.cdninstagram.com/v/t51.2885-19/s150x150/84313765_800107563825129_6909164072025980928_n.jpg?_nc_ht=scontent-hel2-1.cdninstagram.com&_nc_ohc=L4kzvU_zoE4AX8H4Eof&oh=259d392d04eb59a9c17419417f45ea64&oe=5E8500E2",
                        "username": "eita_giovana07"
                    },
                    "text": "Gente eu amei hahahahahah \ud83d\ude02\ud83d\ude02\ud83d\ude02\ud83d\ude02",
                    "viewer_has_liked": false
                }
            },
            {
                "node": {
                    "created_at": 1582145184,
                    "did_report_as_spam": false,
                    "edge_liked_by": {
                        "count": 0
                    },
                    "edge_threaded_comments": {
                        "count": 2,
                        "edges": [
                            {
                                "node": {
                                    "created_at": 1582161281,
                                    "did_report_as_spam": false,
                                    "edge_liked_by": {
                                        "count": 0
                                    },
                                    "id": "17922190462371779",
                                    "is_restricted_pending": false,
                                    "owner": {
                                        "id": "1596877128",
                                        "is_verified": false,
                                        "profile_pic_url": "https://scontent-hel2-1.cdninstagram.com/v/t51.2885-19/s150x150/74674701_542803183120707_6088959626412294144_n.jpg?_nc_ht=scontent-hel2-1.cdninstagram.com&_nc_ohc=gp99d4RlC2kAX_r2J0A&oh=14bcc856d3c6483b1d4b1b72f14f3e7a&oe=5E858B84",
                                        "username": "gustavo_oliver95"
                                    },
                                    "text": "@sr.luizandre Mas isso n\u00e3o foi eles interpretando e sim uma tecnologia artificial que colocou o rosto dos 2 no lugar dos originais",
                                    "viewer_has_liked": false
                                }
                            },
                            {
                                "node": {
                                    "created_at": 1582462086,
                                    "did_report_as_spam": false,
                                    "edge_liked_by": {
                                        "count": 0
                                    },
                                    "id": "17856059842781490",
                                    "is_restricted_pending": false,
                                    "owner": {
                                        "id": "828421331",
                                        "is_verified": false,
                                        "profile_pic_url": "https://scontent-hel2-1.cdninstagram.com/v/t51.2885-19/s150x150/83345250_2677530952356580_1857463498846502912_n.jpg?_nc_ht=scontent-hel2-1.cdninstagram.com&_nc_ohc=uNe7zITD_9YAX_ACJxE&oh=ed77dcef4b893347cbbe761af55ac99d&oe=5E83186B",
                                        "username": "sr.luizandre"
                                    },
                                    "text": "@gustavo_oliver95 claro eu vi na descri\u00e7\u00e3o, mas seria mto show esse remake eles combinaram mto pqp.",
                                    "viewer_has_liked": false
                                }
                            }
                        ],
                        "page_info": {
                            "end_cursor": null,
                            "has_next_page": false
                        }
                    },
                    "id": "17850610372896786",
                    "is_restricted_pending": false,
                    "owner": {
                        "id": "828421331",
                        "is_verified": false,
                        "profile_pic_url": "https://scontent-hel2-1.cdninstagram.com/v/t51.2885-19/s150x150/83345250_2677530952356580_1857463498846502912_n.jpg?_nc_ht=scontent-hel2-1.cdninstagram.com&_nc_ohc=uNe7zITD_9YAX_ACJxE&oh=ed77dcef4b893347cbbe761af55ac99d&oe=5E83186B",
                        "username": "sr.luizandre"
                    },
                    "text": "Que sonho, o melhor filme com os melhores atores.",
                    "viewer_has_liked": false
                }
            },
            {
                "node": {
                    "created_at": 1582146740,
                    "did_report_as_spam": false,
                    "edge_liked_by": {
                        "count": 0
                    },
                    "edge_threaded_comments": {
                        "count": 0,
                        "edges": [],
                        "page_info": {
                            "end_cursor": null,
                            "has_next_page": false
                        }
                    },
                    "id": "17912275366394087",
                    "is_restricted_pending": false,
                    "owner": {
                        "id": "522951120",
                        "is_verified": false,
                        "profile_pic_url": "https://scontent-hel2-1.cdninstagram.com/v/t51.2885-19/s150x150/71191442_1298690010303789_597413269220622336_n.jpg?_nc_ht=scontent-hel2-1.cdninstagram.com&_nc_ohc=On2xpIehA-QAX_DURyl&oh=bdde2fcdf9419c116c431334af892316&oe=5E8AFA88",
                        "username": "jresoares"
                    },
                    "text": "Muito bom... Ficou perfeito\ud83d\ude0d",
                    "viewer_has_liked": false
                }
            },
            {
                "node": {
                    "created_at": 1582151599,
                    "did_report_as_spam": false,
                    "edge_liked_by": {
                        "count": 0
                    },
                    "edge_threaded_comments": {
                        "count": 0,
                        "edges": [],
                        "page_info": {
                            "end_cursor": null,
                            "has_next_page": false
                        }
                    },
                    "id": "17948292319319060",
                    "is_restricted_pending": false,
                    "owner": {
                        "id": "1912325503",
                        "is_verified": false,
                        "profile_pic_url": "https://scontent-hel2-1.cdninstagram.com/v/t51.2885-19/s150x150/13397608_1086537684766066_352420316_a.jpg?_nc_ht=scontent-hel2-1.cdninstagram.com&_nc_ohc=KUd4yyJXgAAAX-H_Xz-&oh=cac310518a5b60244366ea904fef2cee&oe=5E833A6B",
                        "username": "reginaluizrocha"
                    },
                    "text": "\u00c9 muito bom \ud83d\udc4f\ud83d\udc4f\ud83d\udc4f",
                    "viewer_has_liked": false
                }
            },
            {
                "node": {
                    "created_at": 1582153034,
                    "did_report_as_spam": false,
                    "edge_liked_by": {
                        "count": 5
                    },
                    "edge_threaded_comments": {
                        "count": 2,
                        "edges": [
                            {
                                "node": {
                                    "created_at": 1582168435,
                                    "did_report_as_spam": false,
                                    "edge_liked_by": {
                                        "count": 0
                                    },
                                    "id": "17863928929676415",
                                    "is_restricted_pending": false,
                                    "owner": {
                                        "id": "8018605865",
                                        "is_verified": false,
                                        "profile_pic_url": "https://scontent-hel2-1.cdninstagram.com/v/t51.2885-19/s150x150/83223111_328467638046439_4930587765357150208_n.jpg?_nc_ht=scontent-hel2-1.cdninstagram.com&_nc_ohc=u4DIc9R7X2QAX-ZZibe&oh=d5e467b2a2052f491c95e707040e77e2&oe=5E886915",
                                        "username": "ewertonrammon"
                                    },
                                    "text": "@romarujo90 Verdade, mano. Muito verdade isso.",
                                    "viewer_has_liked": false
                                }
                            },
                            {
                                "node": {
                                    "created_at": 1582168451,
                                    "did_report_as_spam": false,
                                    "edge_liked_by": {
                                        "count": 0
                                    },
                                    "id": "17850717373882016",
                                    "is_restricted_pending": false,
                                    "owner": {
                                        "id": "8018605865",
                                        "is_verified": false,
                                        "profile_pic_url": "https://scontent-hel2-1.cdninstagram.com/v/t51.2885-19/s150x150/83223111_328467638046439_4930587765357150208_n.jpg?_nc_ht=scontent-hel2-1.cdninstagram.com&_nc_ohc=u4DIc9R7X2QAX-ZZibe&oh=d5e467b2a2052f491c95e707040e77e2&oe=5E886915",
                                        "username": "ewertonrammon"
                                    },
                                    "text": "@romarujo90 Beira a perfei\u00e7\u00e3o.",
                                    "viewer_has_liked": false
                                }
                            }
                        ],
                        "page_info": {
                            "end_cursor": null,
                            "has_next_page": false
                        }
                    },
                    "id": "17916523936389018",
                    "is_restricted_pending": false,
                    "owner": {
                        "id": "5924645695",
                        "is_verified": false,
                        "profile_pic_url": "https://scontent-hel2-1.cdninstagram.com/v/t51.2885-19/s150x150/21040946_1496573857068005_6044235015267549184_a.jpg?_nc_ht=scontent-hel2-1.cdninstagram.com&_nc_ohc=Ka50JHX3JuoAX--ZHVw&oh=06443ee322c5e8d5022a3bbdf87f1c23&oe=5E845567",
                        "username": "romarujo90"
                    },
                    "text": "Nossa! T\u00e3o bom que ficou perigoso...",
                    "viewer_has_liked": false
                }
            },
            {
                "node": {
                    "created_at": 1582158900,
                    "did_report_as_spam": false,
                    "edge_liked_by": {
                        "count": 0
                    },
                    "edge_threaded_comments": {
                        "count": 0,
                        "edges": [],
                        "page_info": {
                            "end_cursor": null,
                            "has_next_page": false
                        }
                    },
                    "id": "17847891061928725",
                    "is_restricted_pending": false,
                    "owner": {
                        "id": "1592844603",
                        "is_verified": false,
                        "profile_pic_url": "https://scontent-hel2-1.cdninstagram.com/v/t51.2885-19/s150x150/69247928_470014216923250_7869264531707396096_n.jpg?_nc_ht=scontent-hel2-1.cdninstagram.com&_nc_ohc=YbPG8CtWepcAX_Z52Re&oh=83338eabae632df988cc15849c8a4ada&oe=5E850AF5",
                        "username": "ferh_leite"
                    },
                    "text": "Caraca... Ficou MT bom",
                    "viewer_has_liked": false
                }
            },
            {
                "node": {
                    "created_at": 1582160459,
                    "did_report_as_spam": false,
                    "edge_liked_by": {
                        "count": 0
                    },
                    "edge_threaded_comments": {
                        "count": 0,
                        "edges": [],
                        "page_info": {
                            "end_cursor": null,
                            "has_next_page": false
                        }
                    },
                    "id": "17872949293563041",
                    "is_restricted_pending": false,
                    "owner": {
                        "id": "4867851660",
                        "is_verified": false,
                        "profile_pic_url": "https://scontent-hel2-1.cdninstagram.com/v/t51.2885-19/s150x150/81209021_152008759577307_3501922539939037184_n.jpg?_nc_ht=scontent-hel2-1.cdninstagram.com&_nc_ohc=ohsUZExLxJAAX8OiDuC&oh=fc3dd36b8da44d31d855791517d58cef&oe=5E83F3F7",
                        "username": "gretavans_"
                    },
                    "text": "n\u00e3o \ns\u00f3 n\u00e3o",
                    "viewer_has_liked": false
                }
            },
            {
                "node": {
                    "created_at": 1582160797,
                    "did_report_as_spam": false,
                    "edge_liked_by": {
                        "count": 0
                    },
                    "edge_threaded_comments": {
                        "count": 0,
                        "edges": [],
                        "page_info": {
                            "end_cursor": null,
                            "has_next_page": false
                        }
                    },
                    "id": "17882679496512071",
                    "is_restricted_pending": false,
                    "owner": {
                        "id": "185345069",
                        "is_verified": false,
                        "profile_pic_url": "https://scontent-hel2-1.cdninstagram.com/v/t51.2885-19/s150x150/75403243_415727922642104_6613761521396744192_n.jpg?_nc_ht=scontent-hel2-1.cdninstagram.com&_nc_ohc=7MM6O4a4IfoAX_JmKlA&oh=460cd108d23bff0b77a161c5537171fd&oe=5E816F47",
                        "username": "fbreisbv"
                    },
                    "text": "Incr\u00edvel",
                    "viewer_has_liked": false
                }
            },
            {
                "node": {
                    "created_at": 1582164077,
                    "did_report_as_spam": false,
                    "edge_liked_by": {
                        "count": 0
                    },
                    "edge_threaded_comments": {
                        "count": 0,
                        "edges": [],
                        "page_info": {
                            "end_cursor": null,
                            "has_next_page": false
                        }
                    },
                    "id": "17864570623663210",
                    "is_restricted_pending": false,
                    "owner": {
                        "id": "1808392078",
                        "is_verified": false,
                        "profile_pic_url": "https://scontent-hel2-1.cdninstagram.com/v/t51.2885-19/s150x150/56742834_1378626105611059_7317170851156066304_n.jpg?_nc_ht=scontent-hel2-1.cdninstagram.com&_nc_ohc=ziMg0vLRN_EAX9XIjI6&oh=43b898f0804f0b7681fa57d5b0b03793&oe=5E803B24",
                        "username": "cosmedenis"
                    },
                    "text": "Caramba, fiquei impressionado \ud83d\ude02\ud83d\udc4f",
                    "viewer_has_liked": false
                }
            },
            {
                "node": {
                    "created_at": 1582168458,
                    "did_report_as_spam": false,
                    "edge_liked_by": {
                        "count": 0
                    },
                    "edge_threaded_comments": {
                        "count": 0,
                        "edges": [],
                        "page_info": {
                            "end_cursor": null,
                            "has_next_page": false
                        }
                    },
                    "id": "18086075830158562",
                    "is_restricted_pending": false,
                    "owner": {
                        "id": "8018605865",
                        "is_verified": false,
                        "profile_pic_url": "https://scontent-hel2-1.cdninstagram.com/v/t51.2885-19/s150x150/83223111_328467638046439_4930587765357150208_n.jpg?_nc_ht=scontent-hel2-1.cdninstagram.com&_nc_ohc=u4DIc9R7X2QAX-ZZibe&oh=d5e467b2a2052f491c95e707040e77e2&oe=5E886915",
                        "username": "ewertonrammon"
                    },
                    "text": "Pqp...",
                    "viewer_has_liked": false
                }
            },
            {
                "node": {
                    "created_at": 1582188400,
                    "did_report_as_spam": false,
                    "edge_liked_by": {
                        "count": 1
                    },
                    "edge_threaded_comments": {
                        "count": 0,
                        "edges": [],
                        "page_info": {
                            "end_cursor": null,
                            "has_next_page": false
                        }
                    },
                    "id": "17952074959313661",
                    "is_restricted_pending": false,
                    "owner": {
                        "id": "248170729",
                        "is_verified": false,
                        "profile_pic_url": "https://scontent-hel2-1.cdninstagram.com/v/t51.2885-19/s150x150/12543297_1665833563675815_1060587071_a.jpg?_nc_ht=scontent-hel2-1.cdninstagram.com&_nc_ohc=MfLFnuo59nEAX-CofZy&oh=e9202b1f5895b8c62bcd11d6af3c4b03&oe=5E8130AC",
                        "username": "leorf15"
                    },
                    "text": "@anakatialucas",
                    "viewer_has_liked": false
                }
            },
            {
                "node": {
                    "created_at": 1582259340,
                    "did_report_as_spam": false,
                    "edge_liked_by": {
                        "count": 0
                    },
                    "edge_threaded_comments": {
                        "count": 0,
                        "edges": [],
                        "page_info": {
                            "end_cursor": null,
                            "has_next_page": false
                        }
                    },
                    "id": "17845675789971906",
                    "is_restricted_pending": false,
                    "owner": {
                        "id": "610944878",
                        "is_verified": false,
                        "profile_pic_url": "https://scontent-hel2-1.cdninstagram.com/v/t51.2885-19/s150x150/81706185_2630604007185740_2216206221407420416_n.jpg?_nc_ht=scontent-hel2-1.cdninstagram.com&_nc_ohc=v0I80gkCVAwAX8tbpZM&oh=af039a495caaaa0401cc7e9dea470f98&oe=5E80C3A2",
                        "username": "isabellaromao_"
                    },
                    "text": "@tomholland2013",
                    "viewer_has_liked": false
                }
            },
            {
                "node": {
                    "created_at": 1582259345,
                    "did_report_as_spam": false,
                    "edge_liked_by": {
                        "count": 0
                    },
                    "edge_threaded_comments": {
                        "count": 0,
                        "edges": [],
                        "page_info": {
                            "end_cursor": null,
                            "has_next_page": false
                        }
                    },
                    "id": "18090168013146154",
                    "is_restricted_pending": false,
                    "owner": {
                        "id": "610944878",
                        "is_verified": false,
                        "profile_pic_url": "https://scontent-hel2-1.cdninstagram.com/v/t51.2885-19/s150x150/81706185_2630604007185740_2216206221407420416_n.jpg?_nc_ht=scontent-hel2-1.cdninstagram.com&_nc_ohc=v0I80gkCVAwAX8tbpZM&oh=af039a495caaaa0401cc7e9dea470f98&oe=5E80C3A2",
                        "username": "isabellaromao_"
                    },
                    "text": "@tomholland2013",
                    "viewer_has_liked": false
                }
            },
            {
                "node": {
                    "created_at": 1582259385,
                    "did_report_as_spam": false,
                    "edge_liked_by": {
                        "count": 0
                    },
                    "edge_threaded_comments": {
                        "count": 0,
                        "edges": [],
                        "page_info": {
                            "end_cursor": null,
                            "has_next_page": false
                        }
                    },
                    "id": "17856845086761595",
                    "is_restricted_pending": false,
                    "owner": {
                        "id": "610944878",
                        "is_verified": false,
                        "profile_pic_url": "https://scontent-hel2-1.cdninstagram.com/v/t51.2885-19/s150x150/81706185_2630604007185740_2216206221407420416_n.jpg?_nc_ht=scontent-hel2-1.cdninstagram.com&_nc_ohc=v0I80gkCVAwAX8tbpZM&oh=af039a495caaaa0401cc7e9dea470f98&oe=5E80C3A2",
                        "username": "isabellaromao_"
                    },
                    "text": "@robertdowneyjr",
                    "viewer_has_liked": false
                }
            },
            {
                "node": {
                    "created_at": 1582259400,
                    "did_report_as_spam": false,
                    "edge_liked_by": {
                        "count": 0
                    },
                    "edge_threaded_comments": {
                        "count": 0,
                        "edges": [],
                        "page_info": {
                            "end_cursor": null,
                            "has_next_page": false
                        }
                    },
                    "id": "17916610996382872",
                    "is_restricted_pending": false,
                    "owner": {
                        "id": "610944878",
                        "is_verified": false,
                        "profile_pic_url": "https://scontent-hel2-1.cdninstagram.com/v/t51.2885-19/s150x150/81706185_2630604007185740_2216206221407420416_n.jpg?_nc_ht=scontent-hel2-1.cdninstagram.com&_nc_ohc=v0I80gkCVAwAX8tbpZM&oh=af039a495caaaa0401cc7e9dea470f98&oe=5E80C3A2",
                        "username": "isabellaromao_"
                    },
                    "text": "@robertdowneyjr",
                    "viewer_has_liked": false
                }
            }
        ],
        "page_info": {
            "end_cursor": null,
            "has_next_page": false
        }
    },
    "edge_media_to_sponsor_user": {
        "edges": []
    },
    "edge_media_to_tagged_user": {
        "edges": []
    },
    "edge_web_media_to_related_media": {
        "edges": []
    },
    "encoding_status": null,
    "fact_check_information": null,
    "fact_check_overall_rating": null,
    "gating_info": null,
    "has_ranked_comments": false,
    "id": "2247437538557881138",
    "is_ad": false,
    "is_published": true,
    "is_video": true,
    "location": null,
    "media_preview": "ABsqq3CYxu2NkZG0LxnscAc1CEXGcA84xirz3Ekq4ONpwox6Gq6xHO3rz257GkMkhaODLuit6Agf4GodiSfMqgAkkcD1p11EUwxJGewPpUUQiKgsTnv19aQxqkgcYI+pq8pMQGfvMR+Ht/iaz4TtZl/zwcVbIH3+38vWmBHeTfvABztGB36+1UVJAxihpCzZPHP+f0pp9+tAyV/ll+v9amBIU4rNDHjnvT97ep/OgRM7en5VEQTTGY+tJk0xXP/Z",
    "owner": {
        "blocked_by_viewer": false,
        "followed_by_viewer": false,
        "full_name": "Canal Estilo Geek",
        "has_blocked_viewer": false,
        "id": "2041761158",
        "is_private": false,
        "is_unpublished": false,
        "is_verified": false,
        "profile_pic_url": "https://scontent-hel2-1.cdninstagram.com/v/t51.2885-19/s150x150/78712218_699613390562171_4512448088928944128_n.jpg?_nc_ht=scontent-hel2-1.cdninstagram.com&_nc_ohc=tGOvdzlULJAAX8dMjUg&oh=ff20b64fc66ed87270db47ff2e695a51&oe=5E8C23D5",
        "requested_by_viewer": false,
        "restricted_by_viewer": null,
        "username": "canalestilogeek"
    },
    "product_type": "igtv",
    "shortcode": "B8wgIisnusy",
    "taken_at_timestamp": 1582135514,
    "thumbnail_src": "https://scontent-hel2-1.cdninstagram.com/v/t51.2885-15/sh0.08/e35/c0.200.720.720a/s640x640/84992250_581182869140104_8033559957408378660_n.jpg?_nc_ht=scontent-hel2-1.cdninstagram.com&_nc_cat=104&_nc_ohc=jKk2e__1V_EAX-ceAWU&oh=89b006b46f72208a6674c9a5f9fcf55d&oe=5E58625C",
    "title": "sincronia de dublagem feita por @cdgq_brasil",
    "tracking_token": "eyJ2ZXJzaW9uIjo1LCJwYXlsb2FkIjp7ImlzX2FuYWx5dGljc190cmFja2VkIjp0cnVlLCJ1dWlkIjoiMTVjNGU2MWIzNTYyNDU2M2FiNzM1MDE0MGYyNWE3OGYyMjQ3NDM3NTM4NTU3ODgxMTM4In0sInNpZ25hdHVyZSI6IiJ9",
    "video_duration": 64.853,
    "video_url": "https://scontent-hel2-1.cdninstagram.com/v/t50.16885-16/10000000_184379652906221_8398800139296271046_n.mp4?_nc_ht=scontent-hel2-1.cdninstagram.com&_nc_cat=105&_nc_ohc=zOr0QNMJMXoAX8xOBeV&oe=5E5897D2&oh=47556ac15030efe11e6c659e86fd718a",
    "video_view_count": 10993,
    "viewer_can_reshare": true,
    "viewer_has_liked": false,
    "viewer_has_saved": false,
    "viewer_has_saved_to_collection": false,
    "viewer_in_photo_of_you": false
}