{
    "__typename": "GraphVideo",
    "caption_is_edited": true,
    "commenting_disabled_for_viewer": false,
    "comments_disabled": false,
    "dash_info": {
        "is_dash_eligible": false,
        "number_of_qualities": 0,
        "video_dash_manifest": null
    },
    "dimensions": {
        "height": 422,
        "width": 750
    },
    "display_resources": [
        {
            "config_height": 360,
            "config_width": 640,
            "src": "https://scontent-hel2-1.cdninstagram.com/v/t51.2885-15/sh0.08/e35/s640x640/84894658_1561392037344217_6128634522947954451_n.jpg?_nc_ht=scontent-hel2-1.cdninstagram.com&_nc_cat=101&_nc_ohc=Mm5ZzXWDYu8AX9yqRkp&oh=7a8a266c576903f8d4289f278a372b6e&oe=5E586C6A"
        },
        {
            "config_height": 422,
            "config_width": 750,
            "src": "https://scontent-hel2-1.cdninstagram.com/v/t51.2885-15/e35/84894658_1561392037344217_6128634522947954451_n.jpg?_nc_ht=scontent-hel2-1.cdninstagram.com&_nc_cat=101&_nc_ohc=Mm5ZzXWDYu8AX9yqRkp&oh=c79d1b2a7c99059b79e71e83bee12c20&oe=5E587F10"
        },
        {
            "config_height": 609,
            "config_width": 1080,
            "src": "https://scontent-hel2-1.cdninstagram.com/v/t51.2885-15/e35/84894658_1561392037344217_6128634522947954451_n.jpg?_nc_ht=scontent-hel2-1.cdninstagram.com&_nc_cat=101&_nc_ohc=Mm5ZzXWDYu8AX9yqRkp&oh=c79d1b2a7c99059b79e71e83bee12c20&oe=5E587F10"
        }
    ],
    "display_url": "https://scontent-hel2-1.cdninstagram.com/v/t51.2885-15/e35/84894658_1561392037344217_6128634522947954451_n.jpg?_nc_ht=scontent-hel2-1.cdninstagram.com&_nc_cat=101&_nc_ohc=Mm5ZzXWDYu8AX9yqRkp&oh=c79d1b2a7c99059b79e71e83bee12c20&oe=5E587F10",
    "edge_media_preview_comment": {
        "count": 14,
        "edges": [
            {
                "node": {
                    "created_at": 1582379222,
                    "did_report_as_spam": false,
                    "edge_liked_by": {
                        "count": 0
                    },
                    "id": "17881336174513150",
                    "is_restricted_pending": false,
                    "owner": {
                        "id": "17504538",
                        "is_verified": false,
                        "profile_pic_url": "https://scontent-hel2-1.cdninstagram.com/v/t51.2885-19/s150x150/57649004_354631291820745_7408631316435959808_n.jpg?_nc_ht=scontent-hel2-1.cdninstagram.com&_nc_ohc=eXj4U7BrSRIAX8kfMJj&oh=924796198a71b10556fc40b969d104d3&oe=5E8BBE1C",
                        "username": "24hrdee"
                    },
                    "text": "@theovon",
                    "viewer_has_liked": false
                }
            },
            {
                "node": {
                    "created_at": 1582391200,
                    "did_report_as_spam": false,
                    "edge_liked_by": {
                        "count": 0
                    },
                    "id": "17861699728726090",
                    "is_restricted_pending": false,
                    "owner": {
                        "id": "488054079",
                        "is_verified": false,
                        "profile_pic_url": "https://scontent-hel2-1.cdninstagram.com/v/t51.2885-19/s150x150/87227216_2514701738768318_5538139502448476160_n.jpg?_nc_ht=scontent-hel2-1.cdninstagram.com&_nc_ohc=8XUBWNiXCjwAX_l5e_U&oh=b0698a8a83272131ffd370e4503820fa&oe=5E80EB3B",
                        "username": "sjpix86"
                    },
                    "text": "You know like...",
                    "viewer_has_liked": false
                }
            }
        ]
    },
    "edge_media_preview_like": {
        "count": 304,
        "edges": []
    },
    "edge_media_to_caption": {
        "edges": [
            {
                "node": {
                    "text": "Proof that @theovon and @damnlongneck have family lineage!  #deepfake @brendanschaub @thispastweekend_ @kingandthesting"
                }
            }
        ]
    },
    "edge_media_to_hoisted_comment": {
        "edges": []
    },
    "edge_media_to_parent_comment": {
        "count": 14,
        "edges": [
            {
                "node": {
                    "created_at": 1582227571,
                    "did_report_as_spam": false,
                    "edge_liked_by": {
                        "count": 1
                    },
                    "edge_threaded_comments": {
                        "count": 0,
                        "edges": [],
                        "page_info": {
                            "end_cursor": null,
                            "has_next_page": false
                        }
                    },
                    "id": "17851417498864134",
                    "is_restricted_pending": false,
                    "owner": {
                        "id": "5673457701",
                        "is_verified": false,
                        "profile_pic_url": "https://scontent-hel2-1.cdninstagram.com/v/t51.2885-19/s150x150/50722794_681099545663221_9102090505537191936_n.jpg?_nc_ht=scontent-hel2-1.cdninstagram.com&_nc_ohc=diK-M500ptQAX_X1AtL&oh=6ae9f32abce861bfee82d760cfcdb506&oe=5E870DFC",
                        "username": "chancey.tyler"
                    },
                    "text": "Like you know",
                    "viewer_has_liked": false
                }
            },
            {
                "node": {
                    "created_at": 1582228477,
                    "did_report_as_spam": false,
                    "edge_liked_by": {
                        "count": 1
                    },
                    "edge_threaded_comments": {
                        "count": 0,
                        "edges": [],
                        "page_info": {
                            "end_cursor": null,
                            "has_next_page": false
                        }
                    },
                    "id": "17843839975999578",
                    "is_restricted_pending": false,
                    "owner": {
                        "id": "7139966161",
                        "is_verified": false,
                        "profile_pic_url": "https://scontent-hel2-1.cdninstagram.com/v/t51.2885-19/s150x150/53622466_2120878654694335_6226500877415350272_n.jpg?_nc_ht=scontent-hel2-1.cdninstagram.com&_nc_ohc=2tRy41gOTE4AX9oalH_&oh=84d4c678fed709480ffd3aecfa1948b2&oe=5E846390",
                        "username": "photoshopped_af"
                    },
                    "text": "\ud83e\udd23\ud83e\udd23\ud83e\udd23",
                    "viewer_has_liked": false
                }
            },
            {
                "node": {
                    "created_at": 1582232776,
                    "did_report_as_spam": false,
                    "edge_liked_by": {
                        "count": 1
                    },
                    "edge_threaded_comments": {
                        "count": 0,
                        "edges": [],
                        "page_info": {
                            "end_cursor": null,
                            "has_next_page": false
                        }
                    },
                    "id": "17984304247295486",
                    "is_restricted_pending": false,
                    "owner": {
                        "id": "20909023",
                        "is_verified": false,
                        "profile_pic_url": "https://scontent-hel2-1.cdninstagram.com/v/t51.2885-19/s150x150/75616136_2437533943168142_1387851641557876736_n.jpg?_nc_ht=scontent-hel2-1.cdninstagram.com&_nc_ohc=EdlMRZcoCHkAX_GqrWM&oh=bd3e28cbf5e01dd53ab704c0dda2b4de&oe=5E8C8E41",
                        "username": "brandonellard"
                    },
                    "text": "Gang gang be good to yourself, you deserve it",
                    "viewer_has_liked": false
                }
            },
            {
                "node": {
                    "created_at": 1582236377,
                    "did_report_as_spam": false,
                    "edge_liked_by": {
                        "count": 1
                    },
                    "edge_threaded_comments": {
                        "count": 0,
                        "edges": [],
                        "page_info": {
                            "end_cursor": null,
                            "has_next_page": false
                        }
                    },
                    "id": "18130209688056737",
                    "is_restricted_pending": false,
                    "owner": {
                        "id": "23384076284",
                        "is_verified": false,
                        "profile_pic_url": "https://scontent-hel2-1.cdninstagram.com/v/t51.2885-19/s150x150/79508899_1850555125080584_8768378925391806464_n.jpg?_nc_ht=scontent-hel2-1.cdninstagram.com&_nc_ohc=8fXqQJpH6VQAX8iq4OR&oh=e5b59f2907b3b224c219b356b6a528bc&oe=5E8C1E92",
                        "username": "calebl00"
                    },
                    "text": "\ud83d\ude02\ud83d\ude02\ud83d\ude02\ud83d\ude02\ud83d\ude02",
                    "viewer_has_liked": false
                }
            },
            {
                "node": {
                    "created_at": 1582241264,
                    "did_report_as_spam": false,
                    "edge_liked_by": {
                        "count": 2
                    },
                    "edge_threaded_comments": {
                        "count": 0,
                        "edges": [],
                        "page_info": {
                            "end_cursor": null,
                            "has_next_page": false
                        }
                    },
                    "id": "17846214892959074",
                    "is_restricted_pending": false,
                    "owner": {
                        "id": "7550325759",
                        "is_verified": false,
                        "profile_pic_url": "https://scontent-hel2-1.cdninstagram.com/v/t51.2885-19/s150x150/34456676_1726220784161414_8619338225871224832_n.jpg?_nc_ht=scontent-hel2-1.cdninstagram.com&_nc_ohc=NltBQZ5joiUAX9d5taD&oh=ca02b9d056b69e318c5e4909a9600a18&oe=5E855E03",
                        "username": "tammyr.schmidgall"
                    },
                    "text": "\ud83d\udd25",
                    "viewer_has_liked": false
                }
            },
            {
                "node": {
                    "created_at": 1582242328,
                    "did_report_as_spam": false,
                    "edge_liked_by": {
                        "count": 1
                    },
                    "edge_threaded_comments": {
                        "count": 0,
                        "edges": [],
                        "page_info": {
                            "end_cursor": null,
                            "has_next_page": false
                        }
                    },
                    "id": "17854434364827901",
                    "is_restricted_pending": false,
                    "owner": {
                        "id": "248894018",
                        "is_verified": false,
                        "profile_pic_url": "https://scontent-hel2-1.cdninstagram.com/v/t51.2885-19/s150x150/69699308_2341282322790117_5357623362732425216_n.jpg?_nc_ht=scontent-hel2-1.cdninstagram.com&_nc_ohc=9PAyQSkAjvIAX9O-fIJ&oh=857da859efcfa2d36b85acb06de3aa77&oe=5E8A0EC4",
                        "username": "mr_clavicles"
                    },
                    "text": "\ud83e\udd23\ud83e\udd23",
                    "viewer_has_liked": false
                }
            },
            {
                "node": {
                    "created_at": 1582244321,
                    "did_report_as_spam": false,
                    "edge_liked_by": {
                        "count": 1
                    },
                    "edge_threaded_comments": {
                        "count": 0,
                        "edges": [],
                        "page_info": {
                            "end_cursor": null,
                            "has_next_page": false
                        }
                    },
                    "id": "17845648894971359",
                    "is_restricted_pending": false,
                    "owner": {
                        "id": "444625682",
                        "is_verified": false,
                        "profile_pic_url": "https://scontent-hel2-1.cdninstagram.com/v/t51.2885-19/s150x150/84606461_217760782597314_1623218615337615360_n.jpg?_nc_ht=scontent-hel2-1.cdninstagram.com&_nc_ohc=mHSQAbxYgLkAX_JIFi5&oh=6de68ae78e3c92b69c8b23b81a0dde9c&oe=5E85D715",
                        "username": "therealdudja"
                    },
                    "text": "\ud83d\ude02\ud83d\ude02\ud83d\ude02\ud83d\ude02\ud83d\ude02",
                    "viewer_has_liked": false
                }
            },
            {
                "node": {
                    "created_at": 1582258627,
                    "did_report_as_spam": false,
                    "edge_liked_by": {
                        "count": 1
                    },
                    "edge_threaded_comments": {
                        "count": 0,
                        "edges": [],
                        "page_info": {
                            "end_cursor": null,
                            "has_next_page": false
                        }
                    },
                    "id": "17855149576802257",
                    "is_restricted_pending": false,
                    "owner": {
                        "id": "417690481",
                        "is_verified": false,
                        "profile_pic_url": "https://scontent-hel2-1.cdninstagram.com/v/t51.2885-19/s150x150/60447984_451293325444674_3823183207461814272_n.jpg?_nc_ht=scontent-hel2-1.cdninstagram.com&_nc_ohc=PvKierTivE0AX-DJJJh&oh=625c8135fedaa3c89a16ef4319fb1579&oe=5E880724",
                        "username": "hunter_gantz"
                    },
                    "text": "@damnlongneck",
                    "viewer_has_liked": false
                }
            },
            {
                "node": {
                    "created_at": 1582266772,
                    "did_report_as_spam": false,
                    "edge_liked_by": {
                        "count": 2
                    },
                    "edge_threaded_comments": {
                        "count": 0,
                        "edges": [],
                        "page_info": {
                            "end_cursor": null,
                            "has_next_page": false
                        }
                    },
                    "id": "17855073034801538",
                    "is_restricted_pending": false,
                    "owner": {
                        "id": "6895227972",
                        "is_verified": false,
                        "profile_pic_url": "https://scontent-hel2-1.cdninstagram.com/v/t51.2885-19/s150x150/84111980_215688036117834_1654279853182025728_n.jpg?_nc_ht=scontent-hel2-1.cdninstagram.com&_nc_ohc=NLp26RoL2LAAX-EDLgd&oh=42d7ebc2ea0ffbf2a6e6277a62d47df4&oe=5E820556",
                        "username": "endure2thaend"
                    },
                    "text": "That was profound.",
                    "viewer_has_liked": false
                }
            },
            {
                "node": {
                    "created_at": 1582268056,
                    "did_report_as_spam": false,
                    "edge_liked_by": {
                        "count": 1
                    },
                    "edge_threaded_comments": {
                        "count": 0,
                        "edges": [],
                        "page_info": {
                            "end_cursor": null,
                            "has_next_page": false
                        }
                    },
                    "id": "18100281547120749",
                    "is_restricted_pending": false,
                    "owner": {
                        "id": "4026737267",
                        "is_verified": false,
                        "profile_pic_url": "https://scontent-hel2-1.cdninstagram.com/v/t51.2885-19/s150x150/14562033_1113790632009439_603226206808047616_a.jpg?_nc_ht=scontent-hel2-1.cdninstagram.com&_nc_ohc=Xn4MrtSOEe0AX__Nh-n&oh=6339eb87a2e84cd9090f19c893d31568&oe=5E856C52",
                        "username": "nick_mckellar"
                    },
                    "text": "Lmaooooo",
                    "viewer_has_liked": false
                }
            },
            {
                "node": {
                    "created_at": 1582291819,
                    "did_report_as_spam": false,
                    "edge_liked_by": {
                        "count": 1
                    },
                    "edge_threaded_comments": {
                        "count": 0,
                        "edges": [],
                        "page_info": {
                            "end_cursor": null,
                            "has_next_page": false
                        }
                    },
                    "id": "17863325914716612",
                    "is_restricted_pending": false,
                    "owner": {
                        "id": "205245233",
                        "is_verified": false,
                        "profile_pic_url": "https://scontent-hel2-1.cdninstagram.com/v/t51.2885-19/s150x150/75443182_1042394946110408_2196536259034218496_n.jpg?_nc_ht=scontent-hel2-1.cdninstagram.com&_nc_ohc=pF9vPuZ6jnwAX-tMZve&oh=bd50c5b4bd2f7adaf2fbd53ac8af0de5&oe=5E822D28",
                        "username": "justinkurzynski"
                    },
                    "text": "Lmfao \ud83d\ude02\ud83d\ude02\ud83d\ude02 @damnlongneck",
                    "viewer_has_liked": false
                }
            },
            {
                "node": {
                    "created_at": 1582343536,
                    "did_report_as_spam": false,
                    "edge_liked_by": {
                        "count": 1
                    },
                    "edge_threaded_comments": {
                        "count": 0,
                        "edges": [],
                        "page_info": {
                            "end_cursor": null,
                            "has_next_page": false
                        }
                    },
                    "id": "17862323794704076",
                    "is_restricted_pending": false,
                    "owner": {
                        "id": "175037199",
                        "is_verified": false,
                        "profile_pic_url": "https://scontent-hel2-1.cdninstagram.com/v/t51.2885-19/s150x150/79769091_1063021274046211_5553288457691856896_n.jpg?_nc_ht=scontent-hel2-1.cdninstagram.com&_nc_ohc=FiQfBwXUHPYAX_A2UA4&oh=cf99b64234838ed830ec95e36469d5fa&oe=5E813A2D",
                        "username": "caitlinalyn"
                    },
                    "text": "These are amazing B",
                    "viewer_has_liked": false
                }
            },
            {
                "node": {
                    "created_at": 1582379222,
                    "did_report_as_spam": false,
                    "edge_liked_by": {
                        "count": 0
                    },
                    "edge_threaded_comments": {
                        "count": 0,
                        "edges": [],
                        "page_info": {
                            "end_cursor": null,
                            "has_next_page": false
                        }
                    },
                    "id": "17881336174513150",
                    "is_restricted_pending": false,
                    "owner": {
                        "id": "17504538",
                        "is_verified": false,
                        "profile_pic_url": "https://scontent-hel2-1.cdninstagram.com/v/t51.2885-19/s150x150/57649004_354631291820745_7408631316435959808_n.jpg?_nc_ht=scontent-hel2-1.cdninstagram.com&_nc_ohc=eXj4U7BrSRIAX8kfMJj&oh=924796198a71b10556fc40b969d104d3&oe=5E8BBE1C",
                        "username": "24hrdee"
                    },
                    "text": "@theovon",
                    "viewer_has_liked": false
                }
            },
            {
                "node": {
                    "created_at": 1582391200,
                    "did_report_as_spam": false,
                    "edge_liked_by": {
                        "count": 0
                    },
                    "edge_threaded_comments": {
                        "count": 0,
                        "edges": [],
                        "page_info": {
                            "end_cursor": null,
                            "has_next_page": false
                        }
                    },
                    "id": "17861699728726090",
                    "is_restricted_pending": false,
                    "owner": {
                        "id": "488054079",
                        "is_verified": false,
                        "profile_pic_url": "https://scontent-hel2-1.cdninstagram.com/v/t51.2885-19/s150x150/87227216_2514701738768318_5538139502448476160_n.jpg?_nc_ht=scontent-hel2-1.cdninstagram.com&_nc_ohc=8XUBWNiXCjwAX_l5e_U&oh=b0698a8a83272131ffd370e4503820fa&oe=5E80EB3B",
                        "username": "sjpix86"
                    },
                    "text": "You know like...",
                    "viewer_has_liked": false
                }
            }
        ],
        "page_info": {
            "end_cursor": null,
            "has_next_page": false
        }
    },
    "edge_media_to_sponsor_user": {
        "edges": []
    },
    "edge_media_to_tagged_user": {
        "edges": [
            {
                "node": {
                    "user": {
                        "full_name": "Theo Von",
                        "id": "1096339",
                        "is_verified": true,
                        "profile_pic_url": "https://scontent-hel2-1.cdninstagram.com/v/t51.2885-19/s150x150/50973899_314067919458273_3649832937211297792_n.jpg?_nc_ht=scontent-hel2-1.cdninstagram.com&_nc_ohc=j96BCflRA-IAX-Ify28&oh=f73ed013dcf3dc2d409aaf2b2132a4b7&oe=5E822B5C",
                        "username": "theovon"
                    },
                    "x": 0.0,
                    "y": 0.0
                }
            },
            {
                "node": {
                    "user": {
                        "full_name": "Brendan Schaub",
                        "id": "346960333",
                        "is_verified": true,
                        "profile_pic_url": "https://scontent-hel2-1.cdninstagram.com/v/t51.2885-19/s150x150/79489664_558153015031410_1469141933518487552_n.jpg?_nc_ht=scontent-hel2-1.cdninstagram.com&_nc_ohc=VqXzvkEVtLEAX8coAP6&oh=a6c561ebc6521e08e505a91838e1e7cc&oe=5E83B9F1",
                        "username": "brendanschaub"
                    },
                    "x": 0.0,
                    "y": 0.0
                }
            },
            {
                "node": {
                    "user": {
                        "full_name": "Theo Von's This Past Weekend",
                        "id": "7189775632",
                        "is_verified": false,
                        "profile_pic_url": "https://scontent-hel2-1.cdninstagram.com/v/t51.2885-19/s150x150/30884615_2240720072831116_8984621255911014400_n.jpg?_nc_ht=scontent-hel2-1.cdninstagram.com&_nc_ohc=_rISlrdwavMAX_jftRj&oh=f59e77b79804552efa3c81cbced6b899&oe=5E83D3EA",
                        "username": "thispastweekend_"
                    },
                    "x": 0.0,
                    "y": 0.0
                }
            },
            {
                "node": {
                    "user": {
                        "full_name": "Daddy Long Neck",
                        "id": "8130878130",
                        "is_verified": false,
                        "profile_pic_url": "https://scontent-hel2-1.cdninstagram.com/v/t51.2885-19/s150x150/67559146_1363923273758710_3953897277235396608_n.jpg?_nc_ht=scontent-hel2-1.cdninstagram.com&_nc_ohc=CnkXjg-SVtMAX8A7WcC&oh=57172e12a1d894d9eff72b1a82847714&oe=5E8CFDD2",
                        "username": "damnlogneck"
                    },
                    "x": 0.0,
                    "y": 0.0
                }
            },
            {
                "node": {
                    "user": {
                        "full_name": "KingAndTheSting",
                        "id": "8467290734",
                        "is_verified": false,
                        "profile_pic_url": "https://scontent-hel2-1.cdninstagram.com/v/t51.2885-19/s150x150/47689856_281922415795181_7448976980789166080_n.jpg?_nc_ht=scontent-hel2-1.cdninstagram.com&_nc_ohc=QivlDaK8v6oAX97ym1O&oh=17d8dbee328e9d038f33259174a8a9d1&oe=5E89C42A",
                        "username": "kingandthesting"
                    },
                    "x": 0.0,
                    "y": 0.0
                }
            }
        ]
    },
    "edge_web_media_to_related_media": {
        "edges": []
    },
    "encoding_status": null,
    "fact_check_information": null,
    "fact_check_overall_rating": null,
    "gating_info": null,
    "has_ranked_comments": false,
    "id": "2248203746310043105",
    "is_ad": false,
    "is_published": true,
    "is_video": true,
    "location": null,
    "media_preview": "ACoX6aiioZ51gTe3PoB3PpQNK+iKSIwlzuYtnnLHGPTb0H9OtadY/wBvBBkxhhwF9fTn+fpVy0uxcA8bWXqKhNGkoSSu1oty5RRRVmQlZuoQSSAeXjA5PPOf8/zoopNXKi+VpozVf5Mnlh/nPT8hWhYWzj947ZDDGP1HPtRRWcUrnRUdo6dWagAHSloorU5T/9k=",
    "owner": {
        "blocked_by_viewer": false,
        "followed_by_viewer": false,
        "full_name": "Brian Monarch",
        "has_blocked_viewer": false,
        "id": "198643399",
        "is_private": false,
        "is_unpublished": false,
        "is_verified": false,
        "profile_pic_url": "https://scontent-hel2-1.cdninstagram.com/v/t51.2885-19/s150x150/74704992_715129745565504_1816310943282364416_n.jpg?_nc_ht=scontent-hel2-1.cdninstagram.com&_nc_ohc=zoC6oFvgbBsAX9hRrSp&oh=6c092bf0313f1c2a7b70128cc685b0e5&oe=5E85E463",
        "requested_by_viewer": false,
        "restricted_by_viewer": null,
        "username": "brianmonarch"
    },
    "product_type": "feed",
    "shortcode": "B8zOWVRgzXh",
    "taken_at_timestamp": 1582226855,
    "thumbnail_src": "https://scontent-hel2-1.cdninstagram.com/v/t51.2885-15/e35/c157.0.406.406a/84894658_1561392037344217_6128634522947954451_n.jpg?_nc_ht=scontent-hel2-1.cdninstagram.com&_nc_cat=101&_nc_ohc=Mm5ZzXWDYu8AX9yqRkp&oh=835c13d14149ac31b8ae0503c79ebb9c&oe=5E589484",
    "title": "",
    "tracking_token": "eyJ2ZXJzaW9uIjo1LCJwYXlsb2FkIjp7ImlzX2FuYWx5dGljc190cmFja2VkIjp0cnVlLCJ1dWlkIjoiOWVmZTM0YTEwNjgxNDc5ZTliNzIzNzZhNzhkOTQ1Y2QyMjQ4MjAzNzQ2MzEwMDQzMTA1In0sInNpZ25hdHVyZSI6IiJ9",
    "video_duration": 42.8,
    "video_url": "https://scontent-hel2-1.cdninstagram.com/v/t50.2886-16/87103323_580980312493956_8985004018374708525_n.mp4?_nc_ht=scontent-hel2-1.cdninstagram.com&_nc_cat=100&_nc_ohc=jee3S56VL6wAX_b8o3_&oe=5E58DC00&oh=6d0320453371ea14f382d71324d3e2c1",
    "video_view_count": 8263,
    "viewer_can_reshare": true,
    "viewer_has_liked": false,
    "viewer_has_saved": false,
    "viewer_has_saved_to_collection": false,
    "viewer_in_photo_of_you": false
}