{
    "__typename": "GraphVideo",
    "caption_is_edited": false,
    "commenting_disabled_for_viewer": false,
    "comments_disabled": false,
    "dash_info": {
        "is_dash_eligible": false,
        "number_of_qualities": 0,
        "video_dash_manifest": null
    },
    "dimensions": {
        "height": 750,
        "width": 750
    },
    "display_resources": [
        {
            "config_height": 640,
            "config_width": 640,
            "src": "https://scontent-hel2-1.cdninstagram.com/v/t51.2885-15/sh0.08/e35/s640x640/85107935_504561736909823_3919882405419322897_n.jpg?_nc_ht=scontent-hel2-1.cdninstagram.com&_nc_cat=111&_nc_ohc=ZAfQv41WiY8AX9EhGeh&oh=ff06de86a70b5f17b53f338afa1920d2&oe=5E58A2C7"
        },
        {
            "config_height": 750,
            "config_width": 750,
            "src": "https://scontent-hel2-1.cdninstagram.com/v/t51.2885-15/e35/85107935_504561736909823_3919882405419322897_n.jpg?_nc_ht=scontent-hel2-1.cdninstagram.com&_nc_cat=111&_nc_ohc=ZAfQv41WiY8AX9EhGeh&oh=e974de111d2b8208404e54fe7113428f&oe=5E58EEA2"
        },
        {
            "config_height": 1080,
            "config_width": 1080,
            "src": "https://scontent-hel2-1.cdninstagram.com/v/t51.2885-15/e35/85107935_504561736909823_3919882405419322897_n.jpg?_nc_ht=scontent-hel2-1.cdninstagram.com&_nc_cat=111&_nc_ohc=ZAfQv41WiY8AX9EhGeh&oh=e974de111d2b8208404e54fe7113428f&oe=5E58EEA2"
        }
    ],
    "display_url": "https://scontent-hel2-1.cdninstagram.com/v/t51.2885-15/e35/85107935_504561736909823_3919882405419322897_n.jpg?_nc_ht=scontent-hel2-1.cdninstagram.com&_nc_cat=111&_nc_ohc=ZAfQv41WiY8AX9EhGeh&oh=e974de111d2b8208404e54fe7113428f&oe=5E58EEA2",
    "edge_media_preview_comment": {
        "count": 10,
        "edges": [
            {
                "node": {
                    "created_at": 1582263271,
                    "did_report_as_spam": false,
                    "edge_liked_by": {
                        "count": 0
                    },
                    "id": "17844529354976044",
                    "is_restricted_pending": false,
                    "owner": {
                        "id": "2075418228",
                        "is_verified": false,
                        "profile_pic_url": "https://scontent-hel2-1.cdninstagram.com/v/t51.2885-19/s150x150/64524671_2206349686085629_1563007086562902016_n.jpg?_nc_ht=scontent-hel2-1.cdninstagram.com&_nc_ohc=IKVvlbLS710AX-OeLxU&oh=23097a2045e731f5d3c6b62376ac08bb&oe=5E80B92E",
                        "username": "hoangyen.102"
                    },
                    "text": "@elaine_yl00 that guy knows how to use deepfake app \ud83d\ude02",
                    "viewer_has_liked": false
                }
            },
            {
                "node": {
                    "created_at": 1582274828,
                    "did_report_as_spam": false,
                    "edge_liked_by": {
                        "count": 0
                    },
                    "id": "18077332561175204",
                    "is_restricted_pending": false,
                    "owner": {
                        "id": "4036661650",
                        "is_verified": false,
                        "profile_pic_url": "https://scontent-hel2-1.cdninstagram.com/v/t51.2885-19/s150x150/16908767_155027848346205_6490397399092035584_a.jpg?_nc_ht=scontent-hel2-1.cdninstagram.com&_nc_ohc=rqq0cqy3sPAAX9dlNMy&oh=92ed461e7ec3c1c7dbc680fc02c773e9&oe=5E8263ED",
                        "username": "zanobutt5"
                    },
                    "text": "\ud83d\ude02\ud83d\ude02\ud83d\ude02\ud83d\ude02\ud83d\udc4f\ud83d\udc4f\ud83d\udc4f",
                    "viewer_has_liked": false
                }
            }
        ]
    },
    "edge_media_preview_like": {
        "count": 1642,
        "edges": []
    },
    "edge_media_to_caption": {
        "edges": [
            {
                "node": {
                    "text": "He really sent it to RDJ omg guys I can't THIS IS EVERYTHING\ud83d\ude02\u2764 EZRyderX47 keeps winning\ud83d\udcaa\ud83d\ude4c #backtothefuture \ud83d\uddde\ud83d\udca5 [ via Access on YT ]\n-\n-\n-\n-\n-\n-\n-\n-\n-\n-\n-\n-\n-\n-\n-\n-\n@tomholland2013 #TomHolland #spiderman #peterparker #spidey #farfromhome #spidermanfarfromhome @robertdowneyjr #robertdowneyjr #rdj #ironman #avengers #endgame #marvel #mcu #bttf #martymcfly #deepfake #timetravel #movie #scene #onward #premiere #pixar #movie #redcarpet #interview"
                }
            }
        ]
    },
    "edge_media_to_hoisted_comment": {
        "edges": []
    },
    "edge_media_to_parent_comment": {
        "count": 10,
        "edges": [
            {
                "node": {
                    "created_at": 1582238398,
                    "did_report_as_spam": false,
                    "edge_liked_by": {
                        "count": 2
                    },
                    "edge_threaded_comments": {
                        "count": 0,
                        "edges": [],
                        "page_info": {
                            "end_cursor": null,
                            "has_next_page": false
                        }
                    },
                    "id": "17938547893334223",
                    "is_restricted_pending": false,
                    "owner": {
                        "id": "7034136877",
                        "is_verified": false,
                        "profile_pic_url": "https://scontent-hel2-1.cdninstagram.com/v/t51.2885-19/s150x150/51780450_248868446052407_5927232735960629248_n.jpg?_nc_ht=scontent-hel2-1.cdninstagram.com&_nc_ohc=6UeDltPNq4kAX8fBQFK&oh=9ae6dfa07c65394eea204a5c657c451b&oe=5E815D0A",
                        "username": "__iceglow__"
                    },
                    "text": "I love him so much\ud83d\ude02\u2764\ufe0f",
                    "viewer_has_liked": false
                }
            },
            {
                "node": {
                    "created_at": 1582247104,
                    "did_report_as_spam": false,
                    "edge_liked_by": {
                        "count": 1
                    },
                    "edge_threaded_comments": {
                        "count": 0,
                        "edges": [],
                        "page_info": {
                            "end_cursor": null,
                            "has_next_page": false
                        }
                    },
                    "id": "17865266443659114",
                    "is_restricted_pending": false,
                    "owner": {
                        "id": "19055959493",
                        "is_verified": false,
                        "profile_pic_url": "https://scontent-hel2-1.cdninstagram.com/v/t51.2885-19/s150x150/69525752_519484695531496_1620181454984052736_n.jpg?_nc_ht=scontent-hel2-1.cdninstagram.com&_nc_ohc=d_JTnD8_1RkAX_QWMsd&oh=435a91416b01cfa6f88bd5c426d707c8&oe=5E838B0F",
                        "username": "tomhollandparker2013"
                    },
                    "text": "\ud83d\ude02\ud83d\ude02\u2764\ufe0f",
                    "viewer_has_liked": false
                }
            },
            {
                "node": {
                    "created_at": 1582258956,
                    "did_report_as_spam": false,
                    "edge_liked_by": {
                        "count": 2
                    },
                    "edge_threaded_comments": {
                        "count": 6,
                        "edges": [
                            {
                                "node": {
                                    "created_at": 1582261027,
                                    "did_report_as_spam": false,
                                    "edge_liked_by": {
                                        "count": 0
                                    },
                                    "id": "17855458249826472",
                                    "is_restricted_pending": false,
                                    "owner": {
                                        "id": "2075418228",
                                        "is_verified": false,
                                        "profile_pic_url": "https://scontent-hel2-1.cdninstagram.com/v/t51.2885-19/s150x150/64524671_2206349686085629_1563007086562902016_n.jpg?_nc_ht=scontent-hel2-1.cdninstagram.com&_nc_ohc=IKVvlbLS710AX-OeLxU&oh=23097a2045e731f5d3c6b62376ac08bb&oe=5E80B92E",
                                        "username": "hoangyen.102"
                                    },
                                    "text": "@elaine_yl00 that guy knows how to use deepfake app \ud83d\ude02",
                                    "viewer_has_liked": false
                                }
                            },
                            {
                                "node": {
                                    "created_at": 1582262122,
                                    "did_report_as_spam": false,
                                    "edge_liked_by": {
                                        "count": 1
                                    },
                                    "id": "17850889582883257",
                                    "is_restricted_pending": false,
                                    "owner": {
                                        "id": "595363881",
                                        "is_verified": false,
                                        "profile_pic_url": "https://scontent-hel2-1.cdninstagram.com/v/t51.2885-19/s150x150/72657351_2698912246827196_4671878941403774976_n.jpg?_nc_ht=scontent-hel2-1.cdninstagram.com&_nc_ohc=8XT3goO03jkAX8OLNuY&oh=0975707e7be0b02070214468d379aa24&oe=5E86BC5D",
                                        "username": "elaine_yl00"
                                    },
                                    "text": "@hoangyen.102 hahaha yeah",
                                    "viewer_has_liked": false
                                }
                            },
                            {
                                "node": {
                                    "created_at": 1582263271,
                                    "did_report_as_spam": false,
                                    "edge_liked_by": {
                                        "count": 0
                                    },
                                    "id": "17844529354976044",
                                    "is_restricted_pending": false,
                                    "owner": {
                                        "id": "2075418228",
                                        "is_verified": false,
                                        "profile_pic_url": "https://scontent-hel2-1.cdninstagram.com/v/t51.2885-19/s150x150/64524671_2206349686085629_1563007086562902016_n.jpg?_nc_ht=scontent-hel2-1.cdninstagram.com&_nc_ohc=IKVvlbLS710AX-OeLxU&oh=23097a2045e731f5d3c6b62376ac08bb&oe=5E80B92E",
                                        "username": "hoangyen.102"
                                    },
                                    "text": "@elaine_yl00 that guy knows how to use deepfake app \ud83d\ude02",
                                    "viewer_has_liked": false
                                }
                            }
                        ],
                        "page_info": {
                            "end_cursor": "QVFCeG44VDVVNnJieGp3ekYxN3pSUU1vZlJJMXNDblhpZ3B4cGxpdDhiWE5IdmdncHhVZ3R3QXRvZnMzckJGOTZzNkZaMnlmYUFIWm9TZWVXLURnRnI3dg==",
                            "has_next_page": true
                        }
                    },
                    "id": "17873051866570503",
                    "is_restricted_pending": false,
                    "owner": {
                        "id": "2075418228",
                        "is_verified": false,
                        "profile_pic_url": "https://scontent-hel2-1.cdninstagram.com/v/t51.2885-19/s150x150/64524671_2206349686085629_1563007086562902016_n.jpg?_nc_ht=scontent-hel2-1.cdninstagram.com&_nc_ohc=IKVvlbLS710AX-OeLxU&oh=23097a2045e731f5d3c6b62376ac08bb&oe=5E80B92E",
                        "username": "hoangyen.102"
                    },
                    "text": "@elaine_yl00 \ud83d\ude02\ud83d\ude02",
                    "viewer_has_liked": false
                }
            },
            {
                "node": {
                    "created_at": 1582274828,
                    "did_report_as_spam": false,
                    "edge_liked_by": {
                        "count": 0
                    },
                    "edge_threaded_comments": {
                        "count": 0,
                        "edges": [],
                        "page_info": {
                            "end_cursor": null,
                            "has_next_page": false
                        }
                    },
                    "id": "18077332561175204",
                    "is_restricted_pending": false,
                    "owner": {
                        "id": "4036661650",
                        "is_verified": false,
                        "profile_pic_url": "https://scontent-hel2-1.cdninstagram.com/v/t51.2885-19/s150x150/16908767_155027848346205_6490397399092035584_a.jpg?_nc_ht=scontent-hel2-1.cdninstagram.com&_nc_ohc=rqq0cqy3sPAAX9dlNMy&oh=92ed461e7ec3c1c7dbc680fc02c773e9&oe=5E8263ED",
                        "username": "zanobutt5"
                    },
                    "text": "\ud83d\ude02\ud83d\ude02\ud83d\ude02\ud83d\ude02\ud83d\udc4f\ud83d\udc4f\ud83d\udc4f",
                    "viewer_has_liked": false
                }
            }
        ],
        "page_info": {
            "end_cursor": null,
            "has_next_page": false
        }
    },
    "edge_media_to_sponsor_user": {
        "edges": []
    },
    "edge_media_to_tagged_user": {
        "edges": [
            {
                "node": {
                    "user": {
                        "full_name": "Tom Holland",
                        "id": "176618189",
                        "is_verified": true,
                        "profile_pic_url": "https://scontent-hel2-1.cdninstagram.com/v/t51.2885-19/s150x150/62189141_2272560973058733_4422726492698443776_n.jpg?_nc_ht=scontent-hel2-1.cdninstagram.com&_nc_ohc=X9QGAYjuZ7IAX8oIxUq&oh=8788abc0982ec5e9c8a2738eb940a11c&oe=5E81E01E",
                        "username": "tomholland2013"
                    },
                    "x": 0.0,
                    "y": 0.0
                }
            }
        ]
    },
    "edge_web_media_to_related_media": {
        "edges": []
    },
    "encoding_status": null,
    "fact_check_information": null,
    "fact_check_overall_rating": null,
    "gating_info": null,
    "has_ranked_comments": false,
    "id": "2248286893280131323",
    "is_ad": false,
    "is_published": true,
    "is_video": true,
    "location": {
        "address_json": "{\"street_address\": \"\", \"zip_code\": \"90028\", \"city_name\": \"Hollywood\", \"region_name\": \"\", \"country_code\": \"US\", \"exact_city_match\": true, \"exact_region_match\": false, \"exact_country_match\": false}",
        "has_public_page": true,
        "id": "255561330",
        "name": "Hollywood",
        "slug": "hollywood"
    },
    "media_preview": "ACoq6Azqpwcj8D/Sk+0JjPPHsayZdYi3EESKVJHy49cUh1SE9TKKANjz09+PY0eep6Z/I/4VkDVIAc5k/H/9VA1OAfxOR6H/APVQBrfaE9T+R/wqUMCMjvWKNVhUg7nOM9enPrx27Vopeo6hhnBAP50DOKnP7x/95v5mrFvFuBc9O1SmxdpGZwVQsxHqeT+X+cUTlouQPkHB9j24rNvoil3Y6Jx5gJAx0xgYz+NR3bJvPHIIzyB29uBUCq0jYTJI5GPbv+FMbOcPy3fPr61VtbivpYnhkjw24D7vB6n2x7/yrZtz+6T/AHV/kK5tVbO0cn257V0Vsf3Sf7q/yFWSbRt1Y5Oarf2chLFiWDggg47/ANR2rQopbgla7W73MWLRRC26ORgQCM4XofwpraFG2PnbI78ZP1rcooAwP+EfjzkO35CtJLFUULknaAO3artFAH//2Q==",
    "owner": {
        "blocked_by_viewer": false,
        "followed_by_viewer": false,
        "full_name": "JUST A FANPAGE!!",
        "has_blocked_viewer": false,
        "id": "11232662540",
        "is_private": false,
        "is_unpublished": false,
        "is_verified": false,
        "profile_pic_url": "https://scontent-hel2-1.cdninstagram.com/v/t51.2885-19/s150x150/69387318_2948541728505632_3452371970396520448_n.jpg?_nc_ht=scontent-hel2-1.cdninstagram.com&_nc_ohc=ejFxsqK6_z4AX-POI_y&oh=85671e523520867dd3b08157aa158750&oe=5E8C02BA",
        "requested_by_viewer": false,
        "restricted_by_viewer": null,
        "username": "tomholland_world__"
    },
    "product_type": "feed",
    "shortcode": "B8zhQR7IPj7",
    "taken_at_timestamp": 1582236747,
    "thumbnail_src": "https://scontent-hel2-1.cdninstagram.com/v/t51.2885-15/sh0.08/e35/s640x640/85107935_504561736909823_3919882405419322897_n.jpg?_nc_ht=scontent-hel2-1.cdninstagram.com&_nc_cat=111&_nc_ohc=ZAfQv41WiY8AX9EhGeh&oh=ff06de86a70b5f17b53f338afa1920d2&oe=5E58A2C7",
    "title": "",
    "tracking_token": "eyJ2ZXJzaW9uIjo1LCJwYXlsb2FkIjp7ImlzX2FuYWx5dGljc190cmFja2VkIjp0cnVlLCJ1dWlkIjoiNDAxMGZjMGU4ZDE1NDBhYjkzNWJkODhiNGFiZTVmMDMyMjQ4Mjg2ODkzMjgwMTMxMzIzIn0sInNpZ25hdHVyZSI6IiJ9",
    "video_duration": 40.493,
    "video_url": "https://scontent-hel2-1.cdninstagram.com/v/t50.2886-16/87035600_124954275589071_6039442272943615815_n.mp4?_nc_ht=scontent-hel2-1.cdninstagram.com&_nc_cat=103&_nc_ohc=6QrRWAGnwsEAX-XfAaz&oe=5E58873A&oh=5083a6e10f2f710eb0d3529e60e54a76",
    "video_view_count": 4336,
    "viewer_can_reshare": true,
    "viewer_has_liked": false,
    "viewer_has_saved": false,
    "viewer_has_saved_to_collection": false,
    "viewer_in_photo_of_you": false
}