{
    "__typename": "GraphVideo",
    "caption_is_edited": false,
    "commenting_disabled_for_viewer": false,
    "comments_disabled": false,
    "dash_info": {
        "is_dash_eligible": false,
        "number_of_qualities": 0,
        "video_dash_manifest": null
    },
    "dimensions": {
        "height": 1166,
        "width": 750
    },
    "display_resources": [
        {
            "config_height": 995,
            "config_width": 640,
            "src": "https://scontent-hel2-1.cdninstagram.com/v/t51.2885-15/sh0.08/e35/p640x640/85115878_185395699398248_5309400136854934514_n.jpg?_nc_ht=scontent-hel2-1.cdninstagram.com&_nc_cat=108&_nc_ohc=mjrVMdxJpT0AX_JZqe2&oh=e3613e0b44a62055940a815d7882e812&oe=5E58D19A"
        },
        {
            "config_height": 1166,
            "config_width": 750,
            "src": "https://scontent-hel2-1.cdninstagram.com/v/t51.2885-15/e35/85115878_185395699398248_5309400136854934514_n.jpg?_nc_ht=scontent-hel2-1.cdninstagram.com&_nc_cat=108&_nc_ohc=mjrVMdxJpT0AX_JZqe2&oh=64a88ca768bcb8e764ba9d75c6d26552&oe=5E58712C"
        },
        {
            "config_height": 1680,
            "config_width": 1080,
            "src": "https://scontent-hel2-1.cdninstagram.com/v/t51.2885-15/e35/85115878_185395699398248_5309400136854934514_n.jpg?_nc_ht=scontent-hel2-1.cdninstagram.com&_nc_cat=108&_nc_ohc=mjrVMdxJpT0AX_JZqe2&oh=64a88ca768bcb8e764ba9d75c6d26552&oe=5E58712C"
        }
    ],
    "display_url": "https://scontent-hel2-1.cdninstagram.com/v/t51.2885-15/e35/85115878_185395699398248_5309400136854934514_n.jpg?_nc_ht=scontent-hel2-1.cdninstagram.com&_nc_cat=108&_nc_ohc=mjrVMdxJpT0AX_JZqe2&oh=64a88ca768bcb8e764ba9d75c6d26552&oe=5E58712C",
    "edge_media_preview_comment": {
        "count": 0,
        "edges": []
    },
    "edge_media_preview_like": {
        "count": 4,
        "edges": []
    },
    "edge_media_to_caption": {
        "edges": [
            {
                "node": {
                    "text": "\u091c\u093f\u0938 #DeepFake #ArtificialIntelligence #AI Technology  \u0915\u094b \u0926\u0941\u0928\u093f\u092f\u093e \u0915\u0947 \u0915\u0908 \u0926\u0947\u0936 \u0905\u092a\u0928\u0940 \u0930\u093e\u0937\u094d\u091f\u094d\u0930\u0940\u092f \u0938\u0941\u0930\u0915\u094d\u0937\u093e \u0915\u0947 \u0932\u093f\u090f \u0916\u0924\u0930\u093e \u092e\u093e\u0928\u0924\u0947 \u0939\u0948\u0902,\n\u0909\u0938 Technology \u0915\u093e \u0926\u0947\u0936 \u0915\u0947 \u091a\u0941\u0928\u093e\u0935\u094b \u092e\u0947\u0902 \u092a\u0939\u0932\u093e \u0907\u0938\u094d\u0924\u0947\u092e\u093e\u0932 \u0928\u0930\u0947\u0902\u0926\u094d\u0930 Modi \u0915\u0940 BJP \u0915\u0930\u0924\u0940 \u0939\u0948, \u091c\u094b \u0930\u093e\u0937\u094d\u091f\u094d\u0930 \u0938\u0941\u0930\u0915\u094d\u0937\u093e \u0915\u094b \u092e\u0941\u0926\u094d\u0926\u093e \u092c\u0928\u093e\u0924\u0940 \u0939\u0948\u0964\n#BJP is #Dangerous For #Democracy\n#DelhiElection #FakeNews"
                }
            }
        ]
    },
    "edge_media_to_hoisted_comment": {
        "edges": []
    },
    "edge_media_to_parent_comment": {
        "count": 0,
        "edges": [],
        "page_info": {
            "end_cursor": null,
            "has_next_page": false
        }
    },
    "edge_media_to_sponsor_user": {
        "edges": []
    },
    "edge_media_to_tagged_user": {
        "edges": []
    },
    "edge_web_media_to_related_media": {
        "edges": []
    },
    "encoding_status": null,
    "fact_check_information": null,
    "fact_check_overall_rating": null,
    "gating_info": null,
    "has_ranked_comments": false,
    "id": "2248180486900165040",
    "is_ad": false,
    "is_published": true,
    "is_video": true,
    "location": null,
    "media_preview": "ABsqhu5mdEUfL5nJH9KqG2kAzwfp1q88e8If7v8AhUwDlNoHQ9iRXPCyWnn+Zso3G2Em6IZ7EioH1F4mKBAQCecn1+lTQJ5YI9WJ/WqzxqzEkdSf51Ebc0ibdBRccqvT/wCtU6SyrgtjBJ+v+RWXLxt7Yz/OrbSl4SwGOgJ/z610OKWiQ4y7llJA4zVNnIY8dz3A7023b5agc5Y/WlyJarqSmIZoWPPmEDp93rzn+lL9oiC7B5m0nLLlcdOCPes+itCbl17hFH7rcOed2P6VH9oPoKrUUBc//9k=",
    "owner": {
        "blocked_by_viewer": false,
        "followed_by_viewer": false,
        "full_name": "Chetan",
        "has_blocked_viewer": false,
        "id": "23124362983",
        "is_private": false,
        "is_unpublished": false,
        "is_verified": false,
        "profile_pic_url": "https://scontent-hel2-1.cdninstagram.com/v/t51.2885-19/s150x150/84088987_171281947435212_3102548713793388544_n.jpg?_nc_ht=scontent-hel2-1.cdninstagram.com&_nc_ohc=kJfER99OKaYAX8yqywd&oh=47a71bca793fa785ed8f5dad3165e867&oe=5E8B3562",
        "requested_by_viewer": false,
        "restricted_by_viewer": null,
        "username": "citizen_chetan"
    },
    "product_type": "igtv",
    "shortcode": "B8zJD3Qpimw",
    "taken_at_timestamp": 1582224206,
    "thumbnail_src": "https://scontent-hel2-1.cdninstagram.com/v/t51.2885-15/sh0.08/e35/c0.200.720.720a/s640x640/85115878_185395699398248_5309400136854934514_n.jpg?_nc_ht=scontent-hel2-1.cdninstagram.com&_nc_cat=108&_nc_ohc=mjrVMdxJpT0AX_JZqe2&oh=f7bc02fa575a1645eab0c012f36c41b4&oe=5E586758",
    "title": "BJP is Dangerous for Democracy.. Deepfake AI Technology",
    "tracking_token": "eyJ2ZXJzaW9uIjo1LCJwYXlsb2FkIjp7ImlzX2FuYWx5dGljc190cmFja2VkIjpmYWxzZSwidXVpZCI6IjVmNGNjYjI1MGVjZjRjZDViNTAxNTU4OGE1NTVjMDU5MjI0ODE4MDQ4NjkwMDE2NTA0MCJ9LCJzaWduYXR1cmUiOiIifQ==",
    "video_duration": 230.066,
    "video_url": "https://scontent-hel2-1.cdninstagram.com/v/t50.16885-16/10000000_493717211296985_1959228095857537149_n.mp4?_nc_ht=scontent-hel2-1.cdninstagram.com&_nc_cat=105&_nc_ohc=dA9rVdtFDgoAX_cPuKH&oe=5E5887A0&oh=97ff7173954ce2bf074992500d1983f8",
    "video_view_count": 22,
    "viewer_can_reshare": true,
    "viewer_has_liked": false,
    "viewer_has_saved": false,
    "viewer_has_saved_to_collection": false,
    "viewer_in_photo_of_you": false
}