{
    "__typename": "GraphVideo",
    "caption_is_edited": false,
    "commenting_disabled_for_viewer": false,
    "comments_disabled": false,
    "dash_info": {
        "is_dash_eligible": false,
        "number_of_qualities": 0,
        "video_dash_manifest": null
    },
    "dimensions": {
        "height": 586,
        "width": 640
    },
    "display_resources": [
        {
            "config_height": 586,
            "config_width": 640,
            "src": "https://scontent-hel2-1.cdninstagram.com/v/t51.2885-15/e35/85079288_136558044260569_7752367035310970526_n.jpg?_nc_ht=scontent-hel2-1.cdninstagram.com&_nc_cat=101&_nc_ohc=95TVXFZL4TwAX9bEnpi&oh=28dda56bd0ac6d51d0a8a291b7b3d362&oe=5E58835F"
        },
        {
            "config_height": 686,
            "config_width": 750,
            "src": "https://scontent-hel2-1.cdninstagram.com/v/t51.2885-15/e35/85079288_136558044260569_7752367035310970526_n.jpg?_nc_ht=scontent-hel2-1.cdninstagram.com&_nc_cat=101&_nc_ohc=95TVXFZL4TwAX9bEnpi&oh=28dda56bd0ac6d51d0a8a291b7b3d362&oe=5E58835F"
        },
        {
            "config_height": 989,
            "config_width": 1080,
            "src": "https://scontent-hel2-1.cdninstagram.com/v/t51.2885-15/e35/85079288_136558044260569_7752367035310970526_n.jpg?_nc_ht=scontent-hel2-1.cdninstagram.com&_nc_cat=101&_nc_ohc=95TVXFZL4TwAX9bEnpi&oh=28dda56bd0ac6d51d0a8a291b7b3d362&oe=5E58835F"
        }
    ],
    "display_url": "https://scontent-hel2-1.cdninstagram.com/v/t51.2885-15/e35/85079288_136558044260569_7752367035310970526_n.jpg?_nc_ht=scontent-hel2-1.cdninstagram.com&_nc_cat=101&_nc_ohc=95TVXFZL4TwAX9bEnpi&oh=28dda56bd0ac6d51d0a8a291b7b3d362&oe=5E58835F",
    "edge_media_preview_comment": {
        "count": 2,
        "edges": [
            {
                "node": {
                    "created_at": 1582303020,
                    "did_report_as_spam": false,
                    "edge_liked_by": {
                        "count": 0
                    },
                    "id": "18043247224234707",
                    "is_restricted_pending": false,
                    "owner": {
                        "id": "11491072",
                        "is_verified": false,
                        "profile_pic_url": "https://scontent-hel2-1.cdninstagram.com/v/t51.2885-19/s150x150/59936716_579289002474589_853585043107348480_n.jpg?_nc_ht=scontent-hel2-1.cdninstagram.com&_nc_ohc=p5T2fVEt_xcAX8HAPKN&oh=8c44f9669161894f4132f7fb22bae222&oe=5E846031",
                        "username": "soundsliketamara"
                    },
                    "text": "Maar ...hoe zit dat met auteursrecht van de makers vd originele werken? \ud83e\udd14\ud83e\udd14\ud83e\udd14",
                    "viewer_has_liked": false
                }
            },
            {
                "node": {
                    "created_at": 1582657762,
                    "did_report_as_spam": false,
                    "edge_liked_by": {
                        "count": 0
                    },
                    "id": "17869057402618521",
                    "is_restricted_pending": false,
                    "owner": {
                        "id": "1720241246",
                        "is_verified": false,
                        "profile_pic_url": "https://scontent-hel2-1.cdninstagram.com/v/t51.2885-19/s150x150/74362742_2447819192172870_1334862886270402560_n.jpg?_nc_ht=scontent-hel2-1.cdninstagram.com&_nc_ohc=5gzYChqW7foAX_0TPd_&oh=e082dfb15fa047d32858ea560c442a4b&oe=5E8AD9AA",
                        "username": "felixmeritisamsterdam"
                    },
                    "text": "@soundsliketamara good question! Dat gaan we uitzoeken :)",
                    "viewer_has_liked": false
                }
            }
        ]
    },
    "edge_media_preview_like": {
        "count": 33,
        "edges": []
    },
    "edge_media_to_caption": {
        "edges": [
            {
                "node": {
                    "text": "Wait, what? \ud83d\ude06\ud83d\ude27Geloof je eigen ogen niet: deze deepfake video's zijn allesbehalve echt. The internet's a weird place y'all... Op 1 april (geen grap!) duiken we met @the.hmm in deepfake video's.\n.\n#dontbelieve #deepfake #deepfakevideos #felixmeritis #thehmm #internetculture #clips #memes #scaryreal #homealone #sofiavergara #emmawatson #mrbean #charlizetheron #sylvesterstallone #macaulayculkin"
                }
            }
        ]
    },
    "edge_media_to_hoisted_comment": {
        "edges": []
    },
    "edge_media_to_parent_comment": {
        "count": 2,
        "edges": [
            {
                "node": {
                    "created_at": 1582303020,
                    "did_report_as_spam": false,
                    "edge_liked_by": {
                        "count": 0
                    },
                    "edge_threaded_comments": {
                        "count": 1,
                        "edges": [
                            {
                                "node": {
                                    "created_at": 1582657762,
                                    "did_report_as_spam": false,
                                    "edge_liked_by": {
                                        "count": 0
                                    },
                                    "id": "17869057402618521",
                                    "is_restricted_pending": false,
                                    "owner": {
                                        "id": "1720241246",
                                        "is_verified": false,
                                        "profile_pic_url": "https://scontent-hel2-1.cdninstagram.com/v/t51.2885-19/s150x150/74362742_2447819192172870_1334862886270402560_n.jpg?_nc_ht=scontent-hel2-1.cdninstagram.com&_nc_ohc=5gzYChqW7foAX_0TPd_&oh=e082dfb15fa047d32858ea560c442a4b&oe=5E8AD9AA",
                                        "username": "felixmeritisamsterdam"
                                    },
                                    "text": "@soundsliketamara good question! Dat gaan we uitzoeken :)",
                                    "viewer_has_liked": false
                                }
                            }
                        ],
                        "page_info": {
                            "end_cursor": null,
                            "has_next_page": false
                        }
                    },
                    "id": "18043247224234707",
                    "is_restricted_pending": false,
                    "owner": {
                        "id": "11491072",
                        "is_verified": false,
                        "profile_pic_url": "https://scontent-hel2-1.cdninstagram.com/v/t51.2885-19/s150x150/59936716_579289002474589_853585043107348480_n.jpg?_nc_ht=scontent-hel2-1.cdninstagram.com&_nc_ohc=p5T2fVEt_xcAX8HAPKN&oh=8c44f9669161894f4132f7fb22bae222&oe=5E846031",
                        "username": "soundsliketamara"
                    },
                    "text": "Maar ...hoe zit dat met auteursrecht van de makers vd originele werken? \ud83e\udd14\ud83e\udd14\ud83e\udd14",
                    "viewer_has_liked": false
                }
            }
        ],
        "page_info": {
            "end_cursor": null,
            "has_next_page": false
        }
    },
    "edge_media_to_sponsor_user": {
        "edges": []
    },
    "edge_media_to_tagged_user": {
        "edges": []
    },
    "edge_web_media_to_related_media": {
        "edges": []
    },
    "encoding_status": null,
    "fact_check_information": null,
    "fact_check_overall_rating": null,
    "gating_info": null,
    "has_ranked_comments": false,
    "id": "2248802955083243745",
    "is_ad": false,
    "is_published": true,
    "is_video": true,
    "location": null,
    "media_preview": "AComwkbbnjOUx+fetrT5Vh3O/RV/r0HuawCen0FX+do9MjNZstGp/bDk52Lt9Mnd+fTP4VlzOJCWHQ1OYoyM8/nVNhjPpnipvcq1iB2yFGMYH581ZzVHOau1bJRH5kZ6ofwYD/2WpvNV1KqpU9cls9O2MCpoYY3G4qBnp1q00KkYAA+lQ2uxaT7lEMu3p15phcD7yE++7Gf0q2bYE5qwqYqblNXMkCP+43/ff/2NSb1/uN/31/8AY1fk+UEqAT6GoPtH+ytVzeX4kctupVgctwfrV0ylRRRUy3KWwzzjTxKaKKkZXmcqCc1X3H2oorREM//Z",
    "owner": {
        "blocked_by_viewer": false,
        "followed_by_viewer": false,
        "full_name": "Felix Meritis",
        "has_blocked_viewer": false,
        "id": "1720241246",
        "is_private": false,
        "is_unpublished": false,
        "is_verified": false,
        "profile_pic_url": "https://scontent-hel2-1.cdninstagram.com/v/t51.2885-19/s150x150/74362742_2447819192172870_1334862886270402560_n.jpg?_nc_ht=scontent-hel2-1.cdninstagram.com&_nc_ohc=5gzYChqW7foAX_0TPd_&oh=e082dfb15fa047d32858ea560c442a4b&oe=5E8AD9AA",
        "requested_by_viewer": false,
        "restricted_by_viewer": null,
        "username": "felixmeritisamsterdam"
    },
    "product_type": "feed",
    "shortcode": "B81Wl97leDh",
    "taken_at_timestamp": 1582298228,
    "thumbnail_src": "https://scontent-hel2-1.cdninstagram.com/v/t51.2885-15/e35/c23.0.500.500a/85079288_136558044260569_7752367035310970526_n.jpg?_nc_ht=scontent-hel2-1.cdninstagram.com&_nc_cat=101&_nc_ohc=95TVXFZL4TwAX9bEnpi&oh=d13e6ef38f660a6e40409f76ffca6623&oe=5E586490",
    "title": "",
    "tracking_token": "eyJ2ZXJzaW9uIjo1LCJwYXlsb2FkIjp7ImlzX2FuYWx5dGljc190cmFja2VkIjp0cnVlLCJ1dWlkIjoiOGUwNzcxY2Q2YjZmNDI1YTg4NjIyYTg4YTAwYzE4NDEyMjQ4ODAyOTU1MDgzMjQzNzQ1In0sInNpZ25hdHVyZSI6IiJ9",
    "video_duration": 5.4,
    "video_url": "https://scontent-hel2-1.cdninstagram.com/v/t50.2886-16/87087408_183366006321056_2058721486585136674_n.mp4?_nc_ht=scontent-hel2-1.cdninstagram.com&_nc_cat=108&_nc_ohc=zqiNjrvaKn0AX-AWPAL&oe=5E586472&oh=8ee151f6edf237d80092c52ab4a9f31b",
    "video_view_count": 408,
    "viewer_can_reshare": true,
    "viewer_has_liked": false,
    "viewer_has_saved": false,
    "viewer_has_saved_to_collection": false,
    "viewer_in_photo_of_you": false
}