{
    "__typename": "GraphVideo",
    "caption_is_edited": false,
    "commenting_disabled_for_viewer": false,
    "comments_disabled": false,
    "dash_info": {
        "is_dash_eligible": false,
        "number_of_qualities": 0,
        "video_dash_manifest": null
    },
    "dimensions": {
        "height": 422,
        "width": 750
    },
    "display_resources": [
        {
            "config_height": 360,
            "config_width": 640,
            "src": "https://scontent-hel2-1.cdninstagram.com/v/t51.2885-15/sh0.08/e35/s640x640/87234120_864207970711056_1582010545757097623_n.jpg?_nc_ht=scontent-hel2-1.cdninstagram.com&_nc_cat=100&_nc_ohc=X8PGX0jgsk0AX-Xo2mT&oh=9c8754f9a437e740419e4cf27c7ed352&oe=5E588CCA"
        },
        {
            "config_height": 422,
            "config_width": 750,
            "src": "https://scontent-hel2-1.cdninstagram.com/v/t51.2885-15/e35/87234120_864207970711056_1582010545757097623_n.jpg?_nc_ht=scontent-hel2-1.cdninstagram.com&_nc_cat=100&_nc_ohc=X8PGX0jgsk0AX-Xo2mT&oh=35e00e82bbd6d82d40bf1ff4efb40849&oe=5E587D6F"
        },
        {
            "config_height": 609,
            "config_width": 1080,
            "src": "https://scontent-hel2-1.cdninstagram.com/v/t51.2885-15/e35/87234120_864207970711056_1582010545757097623_n.jpg?_nc_ht=scontent-hel2-1.cdninstagram.com&_nc_cat=100&_nc_ohc=X8PGX0jgsk0AX-Xo2mT&oh=35e00e82bbd6d82d40bf1ff4efb40849&oe=5E587D6F"
        }
    ],
    "display_url": "https://scontent-hel2-1.cdninstagram.com/v/t51.2885-15/e35/87234120_864207970711056_1582010545757097623_n.jpg?_nc_ht=scontent-hel2-1.cdninstagram.com&_nc_cat=100&_nc_ohc=X8PGX0jgsk0AX-Xo2mT&oh=35e00e82bbd6d82d40bf1ff4efb40849&oe=5E587D6F",
    "edge_media_preview_comment": {
        "count": 23,
        "edges": [
            {
                "node": {
                    "created_at": 1582409487,
                    "did_report_as_spam": false,
                    "edge_liked_by": {
                        "count": 0
                    },
                    "id": "18023224891262362",
                    "is_restricted_pending": false,
                    "owner": {
                        "id": "7425412902",
                        "is_verified": false,
                        "profile_pic_url": "https://scontent-hel2-1.cdninstagram.com/v/t51.2885-19/s150x150/73187702_2744629205652733_4505961206548267008_n.jpg?_nc_ht=scontent-hel2-1.cdninstagram.com&_nc_ohc=jmjCgGp29IkAX-UvcYa&oh=b2f272aa267e8cfed493f0adf13dedb5&oe=5E8110D1",
                        "username": "guilhermemontoroantolinez"
                    },
                    "text": "@lucas_adames",
                    "viewer_has_liked": false
                }
            },
            {
                "node": {
                    "created_at": 1582433653,
                    "did_report_as_spam": false,
                    "edge_liked_by": {
                        "count": 0
                    },
                    "id": "17932298494356010",
                    "is_restricted_pending": false,
                    "owner": {
                        "id": "8008683474",
                        "is_verified": false,
                        "profile_pic_url": "https://scontent-hel2-1.cdninstagram.com/v/t51.2885-19/s150x150/83631484_1254600914747507_8453149783522017280_n.jpg?_nc_ht=scontent-hel2-1.cdninstagram.com&_nc_ohc=WxPuZPIe1moAX_Qi9cw&oh=2f38b104d3876e9471a1854292c5e834&oe=5E87D3DA",
                        "username": "thecoffeezin"
                    },
                    "text": "ei, imagina o daquele evento da xbox que o Keanu Reeves apareceu, imagina trocar a cara do Keanu pela do Ohara",
                    "viewer_has_liked": false
                }
            }
        ]
    },
    "edge_media_preview_like": {
        "count": 364,
        "edges": []
    },
    "edge_media_to_caption": {
        "edges": [
            {
                "node": {
                    "text": "@eutiringaoficial e @charllesrekson do @comedia.selvagem cantam Ra\u00e7a Negra [DEEPFAKE]\n\nV\u00eddeo completo na BIO\n\n#deepfake #deepfakes #deepfaker #deepface #deepfacey #deepfacelab #tiringa #charlles #comediaselvagem"
                }
            }
        ]
    },
    "edge_media_to_hoisted_comment": {
        "edges": []
    },
    "edge_media_to_parent_comment": {
        "count": 23,
        "edges": [
            {
                "node": {
                    "created_at": 1582230076,
                    "did_report_as_spam": false,
                    "edge_liked_by": {
                        "count": 1
                    },
                    "edge_threaded_comments": {
                        "count": 0,
                        "edges": [],
                        "page_info": {
                            "end_cursor": null,
                            "has_next_page": false
                        }
                    },
                    "id": "17926795960364754",
                    "is_restricted_pending": false,
                    "owner": {
                        "id": "5657244243",
                        "is_verified": false,
                        "profile_pic_url": "https://scontent-hel2-1.cdninstagram.com/v/t51.2885-19/s150x150/79139969_460018144911267_4595262072077418496_n.jpg?_nc_ht=scontent-hel2-1.cdninstagram.com&_nc_ohc=ymQ8JRpHNswAX9q2U34&oh=fe30828b250facdc254760e2977deb52&oe=5E86E90E",
                        "username": "clov___"
                    },
                    "text": "Pqp, Essa N\u00c3O HAHAHAHHAHAHA",
                    "viewer_has_liked": false
                }
            },
            {
                "node": {
                    "created_at": 1582230094,
                    "did_report_as_spam": false,
                    "edge_liked_by": {
                        "count": 1
                    },
                    "edge_threaded_comments": {
                        "count": 0,
                        "edges": [],
                        "page_info": {
                            "end_cursor": null,
                            "has_next_page": false
                        }
                    },
                    "id": "17866329901628815",
                    "is_restricted_pending": false,
                    "owner": {
                        "id": "1649226715",
                        "is_verified": false,
                        "profile_pic_url": "https://scontent-hel2-1.cdninstagram.com/v/t51.2885-19/s150x150/75244444_442217616494776_4220992097848655872_n.jpg?_nc_ht=scontent-hel2-1.cdninstagram.com&_nc_ohc=LvM1ifF3-KkAX9G0EPH&oh=1d0f4151ba2bd63fca8bee20b2ce9b49&oe=5E8587CC",
                        "username": "lukas.menez"
                    },
                    "text": "Muito bom kkk",
                    "viewer_has_liked": false
                }
            },
            {
                "node": {
                    "created_at": 1582230186,
                    "did_report_as_spam": false,
                    "edge_liked_by": {
                        "count": 1
                    },
                    "edge_threaded_comments": {
                        "count": 0,
                        "edges": [],
                        "page_info": {
                            "end_cursor": null,
                            "has_next_page": false
                        }
                    },
                    "id": "17852677027849258",
                    "is_restricted_pending": false,
                    "owner": {
                        "id": "1649226715",
                        "is_verified": false,
                        "profile_pic_url": "https://scontent-hel2-1.cdninstagram.com/v/t51.2885-19/s150x150/75244444_442217616494776_4220992097848655872_n.jpg?_nc_ht=scontent-hel2-1.cdninstagram.com&_nc_ohc=LvM1ifF3-KkAX9G0EPH&oh=1d0f4151ba2bd63fca8bee20b2ce9b49&oe=5E8587CC",
                        "username": "lukas.menez"
                    },
                    "text": "Parece o Vanderlei Luxemburgo kkk",
                    "viewer_has_liked": false
                }
            },
            {
                "node": {
                    "created_at": 1582230421,
                    "did_report_as_spam": false,
                    "edge_liked_by": {
                        "count": 1
                    },
                    "edge_threaded_comments": {
                        "count": 0,
                        "edges": [],
                        "page_info": {
                            "end_cursor": null,
                            "has_next_page": false
                        }
                    },
                    "id": "17899827640433781",
                    "is_restricted_pending": false,
                    "owner": {
                        "id": "13482696411",
                        "is_verified": false,
                        "profile_pic_url": "https://scontent-hel2-1.cdninstagram.com/v/t51.2885-19/s150x150/81946579_1089316591405914_6854384259541499904_n.jpg?_nc_ht=scontent-hel2-1.cdninstagram.com&_nc_ohc=k4SKXdpCB8UAX_UDQNF&oh=edd3d2de1bd3f19461421110385eb3a7&oe=5E869197",
                        "username": "mathc0m3d1"
                    },
                    "text": "Wtf kkkkk",
                    "viewer_has_liked": false
                }
            },
            {
                "node": {
                    "created_at": 1582230722,
                    "did_report_as_spam": false,
                    "edge_liked_by": {
                        "count": 1
                    },
                    "edge_threaded_comments": {
                        "count": 0,
                        "edges": [],
                        "page_info": {
                            "end_cursor": null,
                            "has_next_page": false
                        }
                    },
                    "id": "17854268863829972",
                    "is_restricted_pending": false,
                    "owner": {
                        "id": "5657244243",
                        "is_verified": false,
                        "profile_pic_url": "https://scontent-hel2-1.cdninstagram.com/v/t51.2885-19/s150x150/79139969_460018144911267_4595262072077418496_n.jpg?_nc_ht=scontent-hel2-1.cdninstagram.com&_nc_ohc=ymQ8JRpHNswAX9q2U34&oh=fe30828b250facdc254760e2977deb52&oe=5E86E90E",
                        "username": "clov___"
                    },
                    "text": "@charllesrekson se liga\ud83d\ude02\ud83d\ude02\ud83d\ude02",
                    "viewer_has_liked": false
                }
            },
            {
                "node": {
                    "created_at": 1582231736,
                    "did_report_as_spam": false,
                    "edge_liked_by": {
                        "count": 1
                    },
                    "edge_threaded_comments": {
                        "count": 0,
                        "edges": [],
                        "page_info": {
                            "end_cursor": null,
                            "has_next_page": false
                        }
                    },
                    "id": "17848056859908572",
                    "is_restricted_pending": false,
                    "owner": {
                        "id": "14332115787",
                        "is_verified": false,
                        "profile_pic_url": "https://scontent-hel2-1.cdninstagram.com/v/t51.2885-19/s150x150/80718266_985581145222231_3701786759999258624_n.jpg?_nc_ht=scontent-hel2-1.cdninstagram.com&_nc_ohc=jejASpQJW2IAX85jWes&oh=9b099148f3f12d8f3a6771fcae2c9c61&oe=5E8647C9",
                        "username": "vinilemes10"
                    },
                    "text": "Manoooooooooooo \ud83d\ude02\ud83d\ude02\ud83d\ude02\ud83d\ude02\ud83d\ude02\ud83d\ude02\ud83d\ude02\ud83d\ude02\ud83d\ude02\ud83d\ude02\ud83d\ude02\ud83d\ude02\ud83d\ude02\ud83d\ude02\ud83d\ude02\ud83d\ude02\ud83d\ude02\ud83d\ude02",
                    "viewer_has_liked": false
                }
            },
            {
                "node": {
                    "created_at": 1582231842,
                    "did_report_as_spam": false,
                    "edge_liked_by": {
                        "count": 1
                    },
                    "edge_threaded_comments": {
                        "count": 0,
                        "edges": [],
                        "page_info": {
                            "end_cursor": null,
                            "has_next_page": false
                        }
                    },
                    "id": "17864881141661565",
                    "is_restricted_pending": false,
                    "owner": {
                        "id": "2041271344",
                        "is_verified": false,
                        "profile_pic_url": "https://scontent-hel2-1.cdninstagram.com/v/t51.2885-19/s150x150/70562451_582307122579529_95576641677295616_n.jpg?_nc_ht=scontent-hel2-1.cdninstagram.com&_nc_ohc=BRulZsXCQb8AX-mXyo_&oh=306a62e1ff1c62c267b16ec40c423a58&oe=5E86EB17",
                        "username": "hugos_lima"
                    },
                    "text": "Kkkkkkkkkkk m\u00edtico",
                    "viewer_has_liked": false
                }
            },
            {
                "node": {
                    "created_at": 1582233953,
                    "did_report_as_spam": false,
                    "edge_liked_by": {
                        "count": 1
                    },
                    "edge_threaded_comments": {
                        "count": 0,
                        "edges": [],
                        "page_info": {
                            "end_cursor": null,
                            "has_next_page": false
                        }
                    },
                    "id": "17844780442986404",
                    "is_restricted_pending": false,
                    "owner": {
                        "id": "291311073",
                        "is_verified": false,
                        "profile_pic_url": "https://scontent-hel2-1.cdninstagram.com/v/t51.2885-19/s150x150/62031011_1295454043969636_7118450934937550848_n.jpg?_nc_ht=scontent-hel2-1.cdninstagram.com&_nc_ohc=k1zucsnu5Q0AX9qO5I1&oh=c372b3b45cfb2929643160eeeafdf823&oe=5E8809B8",
                        "username": "ericgouvea"
                    },
                    "text": "@lipebarrozo",
                    "viewer_has_liked": false
                }
            },
            {
                "node": {
                    "created_at": 1582237871,
                    "did_report_as_spam": false,
                    "edge_liked_by": {
                        "count": 1
                    },
                    "edge_threaded_comments": {
                        "count": 0,
                        "edges": [],
                        "page_info": {
                            "end_cursor": null,
                            "has_next_page": false
                        }
                    },
                    "id": "17857012261782378",
                    "is_restricted_pending": false,
                    "owner": {
                        "id": "20729187071",
                        "is_verified": false,
                        "profile_pic_url": "https://scontent-hel2-1.cdninstagram.com/v/t51.2885-19/s150x150/83257024_171001190897710_8769270315789320192_n.jpg?_nc_ht=scontent-hel2-1.cdninstagram.com&_nc_ohc=irgSYp-jkkAAX97YP2f&oh=abd206136e99af47ef31927714ce69aa&oe=5E83DE5D",
                        "username": "hen_rique02"
                    },
                    "text": "@felipe10._pereira",
                    "viewer_has_liked": false
                }
            },
            {
                "node": {
                    "created_at": 1582237913,
                    "did_report_as_spam": false,
                    "edge_liked_by": {
                        "count": 1
                    },
                    "edge_threaded_comments": {
                        "count": 0,
                        "edges": [],
                        "page_info": {
                            "end_cursor": null,
                            "has_next_page": false
                        }
                    },
                    "id": "17888742400482361",
                    "is_restricted_pending": false,
                    "owner": {
                        "id": "5591637373",
                        "is_verified": false,
                        "profile_pic_url": "https://scontent-hel2-1.cdninstagram.com/v/t51.2885-19/s150x150/73385843_471460273576372_7080725763275620352_n.jpg?_nc_ht=scontent-hel2-1.cdninstagram.com&_nc_ohc=zWYGlUu6hH0AX_oSIps&oh=763bcb115d62c265653663d1d4e0cf7a&oe=5E84C570",
                        "username": "math.gms"
                    },
                    "text": "@charllesrekson olha esse v\u00eddeo",
                    "viewer_has_liked": false
                }
            },
            {
                "node": {
                    "created_at": 1582245898,
                    "did_report_as_spam": false,
                    "edge_liked_by": {
                        "count": 1
                    },
                    "edge_threaded_comments": {
                        "count": 0,
                        "edges": [],
                        "page_info": {
                            "end_cursor": null,
                            "has_next_page": false
                        }
                    },
                    "id": "17933961973343396",
                    "is_restricted_pending": false,
                    "owner": {
                        "id": "9032052153",
                        "is_verified": false,
                        "profile_pic_url": "https://scontent-hel2-1.cdninstagram.com/v/t51.2885-19/s150x150/79038423_465533641005897_675413689246941184_n.jpg?_nc_ht=scontent-hel2-1.cdninstagram.com&_nc_ohc=V1Li0h2KV0AAX9VdQlP&oh=1fba12f383ba421e58abf5fb05bcd3a2&oe=5E88D486",
                        "username": "taguinaraoficial"
                    },
                    "text": "\ud83d\udc0dsjsjsjsjsjsjajajsjaja",
                    "viewer_has_liked": false
                }
            },
            {
                "node": {
                    "created_at": 1582247623,
                    "did_report_as_spam": false,
                    "edge_liked_by": {
                        "count": 0
                    },
                    "edge_threaded_comments": {
                        "count": 0,
                        "edges": [],
                        "page_info": {
                            "end_cursor": null,
                            "has_next_page": false
                        }
                    },
                    "id": "17952977737308582",
                    "is_restricted_pending": false,
                    "owner": {
                        "id": "369103741",
                        "is_verified": false,
                        "profile_pic_url": "https://scontent-hel2-1.cdninstagram.com/v/t51.2885-19/s150x150/52531090_2360454240641021_7913366295284809728_n.jpg?_nc_ht=scontent-hel2-1.cdninstagram.com&_nc_ohc=YINsdwvNOiYAX9-3vMU&oh=710a81e6f730b1bd93195d6c84bee276&oe=5E80B2B3",
                        "username": "jellalmeidaa"
                    },
                    "text": "@eutiringaoficial @charllesrekson",
                    "viewer_has_liked": false
                }
            },
            {
                "node": {
                    "created_at": 1582291752,
                    "did_report_as_spam": false,
                    "edge_liked_by": {
                        "count": 1
                    },
                    "edge_threaded_comments": {
                        "count": 1,
                        "edges": [
                            {
                                "node": {
                                    "created_at": 1582293595,
                                    "did_report_as_spam": false,
                                    "edge_liked_by": {
                                        "count": 0
                                    },
                                    "id": "18052577896211297",
                                    "is_restricted_pending": false,
                                    "owner": {
                                        "id": "1438997923",
                                        "is_verified": false,
                                        "profile_pic_url": "https://scontent-hel2-1.cdninstagram.com/v/t51.2885-19/s150x150/72192078_1743579225786038_4991906897478025216_n.jpg?_nc_ht=scontent-hel2-1.cdninstagram.com&_nc_ohc=5ulWpFEmvuQAX_xXfMz&oh=9617bb586479a062e5559914aed28ff9&oe=5E897BBA",
                                        "username": "guii.goncalves22"
                                    },
                                    "text": "@davi_d.reis Mano kkkkkkkkkkkk",
                                    "viewer_has_liked": false
                                }
                            }
                        ],
                        "page_info": {
                            "end_cursor": null,
                            "has_next_page": false
                        }
                    },
                    "id": "18025000741255532",
                    "is_restricted_pending": false,
                    "owner": {
                        "id": "5135411274",
                        "is_verified": false,
                        "profile_pic_url": "https://scontent-hel2-1.cdninstagram.com/v/t51.2885-19/s150x150/57924888_668657130258109_8697248258310799360_n.jpg?_nc_ht=scontent-hel2-1.cdninstagram.com&_nc_ohc=NTplpoQFt9kAX-JVPc1&oh=b3bcd576bf0d6942e56642f84ca88851&oe=5E865CBF",
                        "username": "davi_d.reis"
                    },
                    "text": "@guii.goncalves22 \ud83d\ude02\ud83d\ude02\ud83d\ude02\ud83d\ude02",
                    "viewer_has_liked": false
                }
            },
            {
                "node": {
                    "created_at": 1582292137,
                    "did_report_as_spam": false,
                    "edge_liked_by": {
                        "count": 1
                    },
                    "edge_threaded_comments": {
                        "count": 1,
                        "edges": [
                            {
                                "node": {
                                    "created_at": 1582298674,
                                    "did_report_as_spam": false,
                                    "edge_liked_by": {
                                        "count": 0
                                    },
                                    "id": "17846301901954370",
                                    "is_restricted_pending": false,
                                    "owner": {
                                        "id": "4118682571",
                                        "is_verified": false,
                                        "profile_pic_url": "https://scontent-hel2-1.cdninstagram.com/v/t51.2885-19/s150x150/47691599_979590365573769_2306739154140004352_n.jpg?_nc_ht=scontent-hel2-1.cdninstagram.com&_nc_ohc=HIVsEtfMYB8AX-whs1B&oh=523661ca497d7241f76eac670835e47a&oe=5E8030F9",
                                        "username": "pereira_14_oficial"
                                    },
                                    "text": "@arthur_mendesz_  a n\u00e3o ze kkkkkkkkkkkkkk",
                                    "viewer_has_liked": false
                                }
                            }
                        ],
                        "page_info": {
                            "end_cursor": null,
                            "has_next_page": false
                        }
                    },
                    "id": "17844795553969570",
                    "is_restricted_pending": false,
                    "owner": {
                        "id": "27380381162",
                        "is_verified": false,
                        "profile_pic_url": "https://scontent-hel2-1.cdninstagram.com/v/t51.2885-19/s150x150/81890820_2487533548125290_6240370387671056384_n.jpg?_nc_ht=scontent-hel2-1.cdninstagram.com&_nc_ohc=DkjaQYeJLOsAX9Ftitd&oh=757bf7119feec5ef87b247ac94b61241&oe=5E848E52",
                        "username": "arthur_mendesz_"
                    },
                    "text": "@pereira_14_oficial",
                    "viewer_has_liked": false
                }
            },
            {
                "node": {
                    "created_at": 1582292949,
                    "did_report_as_spam": false,
                    "edge_liked_by": {
                        "count": 0
                    },
                    "edge_threaded_comments": {
                        "count": 0,
                        "edges": [],
                        "page_info": {
                            "end_cursor": null,
                            "has_next_page": false
                        }
                    },
                    "id": "18130980724012448",
                    "is_restricted_pending": false,
                    "owner": {
                        "id": "14703017486",
                        "is_verified": false,
                        "profile_pic_url": "https://scontent-hel2-1.cdninstagram.com/v/t51.2885-19/s150x150/71105881_2040637906035830_92035896408276992_n.jpg?_nc_ht=scontent-hel2-1.cdninstagram.com&_nc_ohc=sJLOZrm-ACcAX8JlHlR&oh=558f01e3896d9046a72aec246427f8d5&oe=5E888C8D",
                        "username": "douglasbrayan38"
                    },
                    "text": "Kkkkk top",
                    "viewer_has_liked": false
                }
            },
            {
                "node": {
                    "created_at": 1582295204,
                    "did_report_as_spam": false,
                    "edge_liked_by": {
                        "count": 0
                    },
                    "edge_threaded_comments": {
                        "count": 0,
                        "edges": [],
                        "page_info": {
                            "end_cursor": null,
                            "has_next_page": false
                        }
                    },
                    "id": "17864075032676591",
                    "is_restricted_pending": false,
                    "owner": {
                        "id": "8226422852",
                        "is_verified": false,
                        "profile_pic_url": "https://scontent-hel2-1.cdninstagram.com/v/t51.2885-19/s150x150/83785706_2261973560768824_7992142184541323264_n.jpg?_nc_ht=scontent-hel2-1.cdninstagram.com&_nc_ohc=anNTNw2AYF4AX-Kr778&oh=d5caa49667839b7a791d79a4e199903f&oe=5E8A145D",
                        "username": "douglaseuz33"
                    },
                    "text": "Ficou muito bom kkkkkkkkkk",
                    "viewer_has_liked": false
                }
            },
            {
                "node": {
                    "created_at": 1582295992,
                    "did_report_as_spam": false,
                    "edge_liked_by": {
                        "count": 1
                    },
                    "edge_threaded_comments": {
                        "count": 0,
                        "edges": [],
                        "page_info": {
                            "end_cursor": null,
                            "has_next_page": false
                        }
                    },
                    "id": "17901864064434177",
                    "is_restricted_pending": false,
                    "owner": {
                        "id": "407023398",
                        "is_verified": false,
                        "profile_pic_url": "https://scontent-hel2-1.cdninstagram.com/v/t51.2885-19/s150x150/43034825_1067147876788574_1353224215058186240_n.jpg?_nc_ht=scontent-hel2-1.cdninstagram.com&_nc_ohc=miXAfEfZT9AAX-SjRub&oh=9ead3582a05e653b4fa5e6253f882ea5&oe=5E86FD00",
                        "username": "netodeholanda"
                    },
                    "text": "@alanacerqueirap @iago_gueiros",
                    "viewer_has_liked": false
                }
            },
            {
                "node": {
                    "created_at": 1582298550,
                    "did_report_as_spam": false,
                    "edge_liked_by": {
                        "count": 1
                    },
                    "edge_threaded_comments": {
                        "count": 0,
                        "edges": [],
                        "page_info": {
                            "end_cursor": null,
                            "has_next_page": false
                        }
                    },
                    "id": "17885381245498086",
                    "is_restricted_pending": false,
                    "owner": {
                        "id": "7621914471",
                        "is_verified": false,
                        "profile_pic_url": "https://scontent-hel2-1.cdninstagram.com/v/t51.2885-19/s150x150/75538130_435138607149056_1832288603875573760_n.jpg?_nc_ht=scontent-hel2-1.cdninstagram.com&_nc_ohc=4CWyKASyff8AX8efw4D&oh=2fb21087809b8f0e263fec969fd72066&oe=5E81F8B4",
                        "username": "tallys_macedo.244"
                    },
                    "text": "@vinnycius_melo",
                    "viewer_has_liked": false
                }
            },
            {
                "node": {
                    "created_at": 1582315845,
                    "did_report_as_spam": false,
                    "edge_liked_by": {
                        "count": 0
                    },
                    "edge_threaded_comments": {
                        "count": 0,
                        "edges": [],
                        "page_info": {
                            "end_cursor": null,
                            "has_next_page": false
                        }
                    },
                    "id": "17859357910739819",
                    "is_restricted_pending": false,
                    "owner": {
                        "id": "9546880406",
                        "is_verified": false,
                        "profile_pic_url": "https://scontent-hel2-1.cdninstagram.com/v/t51.2885-19/s150x150/60388318_653391585088093_7387320878419148800_n.jpg?_nc_ht=scontent-hel2-1.cdninstagram.com&_nc_ohc=t3mAOecYzGAAX_X2o1O&oh=b20075528e3933012e981a2c02fb1b5e&oe=5E822BB6",
                        "username": "_danniel03"
                    },
                    "text": "Genial kkkkkkkkkk",
                    "viewer_has_liked": false
                }
            },
            {
                "node": {
                    "created_at": 1582409487,
                    "did_report_as_spam": false,
                    "edge_liked_by": {
                        "count": 0
                    },
                    "edge_threaded_comments": {
                        "count": 0,
                        "edges": [],
                        "page_info": {
                            "end_cursor": null,
                            "has_next_page": false
                        }
                    },
                    "id": "18023224891262362",
                    "is_restricted_pending": false,
                    "owner": {
                        "id": "7425412902",
                        "is_verified": false,
                        "profile_pic_url": "https://scontent-hel2-1.cdninstagram.com/v/t51.2885-19/s150x150/73187702_2744629205652733_4505961206548267008_n.jpg?_nc_ht=scontent-hel2-1.cdninstagram.com&_nc_ohc=jmjCgGp29IkAX-UvcYa&oh=b2f272aa267e8cfed493f0adf13dedb5&oe=5E8110D1",
                        "username": "guilhermemontoroantolinez"
                    },
                    "text": "@lucas_adames",
                    "viewer_has_liked": false
                }
            },
            {
                "node": {
                    "created_at": 1582433653,
                    "did_report_as_spam": false,
                    "edge_liked_by": {
                        "count": 0
                    },
                    "edge_threaded_comments": {
                        "count": 0,
                        "edges": [],
                        "page_info": {
                            "end_cursor": null,
                            "has_next_page": false
                        }
                    },
                    "id": "17932298494356010",
                    "is_restricted_pending": false,
                    "owner": {
                        "id": "8008683474",
                        "is_verified": false,
                        "profile_pic_url": "https://scontent-hel2-1.cdninstagram.com/v/t51.2885-19/s150x150/83631484_1254600914747507_8453149783522017280_n.jpg?_nc_ht=scontent-hel2-1.cdninstagram.com&_nc_ohc=WxPuZPIe1moAX_Qi9cw&oh=2f38b104d3876e9471a1854292c5e834&oe=5E87D3DA",
                        "username": "thecoffeezin"
                    },
                    "text": "ei, imagina o daquele evento da xbox que o Keanu Reeves apareceu, imagina trocar a cara do Keanu pela do Ohara",
                    "viewer_has_liked": false
                }
            }
        ],
        "page_info": {
            "end_cursor": null,
            "has_next_page": false
        }
    },
    "edge_media_to_sponsor_user": {
        "edges": []
    },
    "edge_media_to_tagged_user": {
        "edges": [
            {
                "node": {
                    "user": {
                        "full_name": "COMEDIA.SELVAGEM\ud83c\udf35\ud83d\udc0d\ud83d\udc1d\ud83e\udd86\ud83d\udc17\ud83e\udd82\ud83d\udd77",
                        "id": "280178611",
                        "is_verified": false,
                        "profile_pic_url": "https://scontent-hel2-1.cdninstagram.com/v/t51.2885-19/s150x150/52525557_399918333904765_4587721032923611136_n.jpg?_nc_ht=scontent-hel2-1.cdninstagram.com&_nc_ohc=3CVT1YNKkbEAX8nXZkZ&oh=0d881165cf3d7b65d55b26a45033fef3&oe=5E80BF21",
                        "username": "comedia.selvagem"
                    },
                    "x": 0.0,
                    "y": 0.0
                }
            },
            {
                "node": {
                    "user": {
                        "full_name": "Charlles Rekson",
                        "id": "1604594078",
                        "is_verified": false,
                        "profile_pic_url": "https://scontent-hel2-1.cdninstagram.com/v/t51.2885-19/s150x150/81640567_178608123200306_2669336665683656704_n.jpg?_nc_ht=scontent-hel2-1.cdninstagram.com&_nc_ohc=3OQX-vyxeZUAX_7mAc6&oh=f11f8446c0b3f0a1a6f1558ec29b7de9&oe=5E8A465B",
                        "username": "charllesrekson"
                    },
                    "x": 0.0,
                    "y": 0.0
                }
            },
            {
                "node": {
                    "user": {
                        "full_name": "Tiringa",
                        "id": "22851343473",
                        "is_verified": false,
                        "profile_pic_url": "https://scontent-hel2-1.cdninstagram.com/v/t51.2885-19/s150x150/72527399_920809641636214_4263504560317792256_n.jpg?_nc_ht=scontent-hel2-1.cdninstagram.com&_nc_ohc=YrHbFlJ1_NIAX8_rfJ4&oh=c9345afae085ce48951309e6412bf35d&oe=5E8AFC36",
                        "username": "eutiringaoficial"
                    },
                    "x": 0.0,
                    "y": 0.0
                }
            }
        ]
    },
    "edge_web_media_to_related_media": {
        "edges": []
    },
    "encoding_status": null,
    "fact_check_information": null,
    "fact_check_overall_rating": null,
    "gating_info": null,
    "has_ranked_comments": false,
    "id": "2248230661538296481",
    "is_ad": false,
    "is_published": true,
    "is_video": true,
    "location": null,
    "media_preview": "ACoXxU+7/n3qTdg7QMk4/lTU+7/n3qRHCNnr/ntWNrs672S1tp/mOkjMS7upIAxjgZ/nUSuei8f55H41Z89XIV+V6f8A1/rVSY4c7TkeuMU7XJ5rdf69SOQAHH6VHTiSaSqRk9WTKeB+dANFFUhMeVBx160l0Ar/AC9CKKKGHQrZooopAf/Z",
    "owner": {
        "blocked_by_viewer": false,
        "followed_by_viewer": false,
        "full_name": "Bruno / Canal DeepFacey",
        "has_blocked_viewer": false,
        "id": "7056578011",
        "is_private": false,
        "is_unpublished": false,
        "is_verified": false,
        "profile_pic_url": "https://scontent-hel2-1.cdninstagram.com/v/t51.2885-19/s150x150/27576200_545841595776990_1991719495005110272_n.jpg?_nc_ht=scontent-hel2-1.cdninstagram.com&_nc_ohc=YRzXS3y3eLgAX9qrAVz&oh=db126981bd7f285aa6e23239023b58ae&oe=5E85F09F",
        "requested_by_viewer": false,
        "restricted_by_viewer": null,
        "username": "brunoszdl"
    },
    "product_type": "feed",
    "shortcode": "B8zUeACIbKh",
    "taken_at_timestamp": 1582230035,
    "thumbnail_src": "https://scontent-hel2-1.cdninstagram.com/v/t51.2885-15/e35/c157.0.406.406a/87234120_864207970711056_1582010545757097623_n.jpg?_nc_ht=scontent-hel2-1.cdninstagram.com&_nc_cat=100&_nc_ohc=X8PGX0jgsk0AX-Xo2mT&oh=18f1d0ec1714bbb6eda0cae64f19d914&oe=5E5882C8",
    "title": "",
    "tracking_token": "eyJ2ZXJzaW9uIjo1LCJwYXlsb2FkIjp7ImlzX2FuYWx5dGljc190cmFja2VkIjp0cnVlLCJ1dWlkIjoiNWIwZGY0ZmVjNzFhNGQ4Nzg5NDJiMGU5OTBkNzM4MzQyMjQ4MjMwNjYxNTM4Mjk2NDgxIn0sInNpZ25hdHVyZSI6IiJ9",
    "video_duration": 30.79,
    "video_url": "https://scontent-hel2-1.cdninstagram.com/v/t50.2886-16/86728376_546343909563638_5680629626781373085_n.mp4?_nc_ht=scontent-hel2-1.cdninstagram.com&_nc_cat=102&_nc_ohc=A5OjrLXp4rUAX-66MTE&oe=5E58A100&oh=7d43359430742cfa1cc40ee3ddf786ef",
    "video_view_count": 2494,
    "viewer_can_reshare": true,
    "viewer_has_liked": false,
    "viewer_has_saved": false,
    "viewer_has_saved_to_collection": false,
    "viewer_in_photo_of_you": false
}