{
    "__typename": "GraphVideo",
    "caption_is_edited": true,
    "commenting_disabled_for_viewer": false,
    "comments_disabled": false,
    "dash_info": {
        "is_dash_eligible": false,
        "number_of_qualities": 0,
        "video_dash_manifest": null
    },
    "dimensions": {
        "height": 421,
        "width": 750
    },
    "display_resources": [
        {
            "config_height": 360,
            "config_width": 640,
            "src": "https://scontent-hel2-1.cdninstagram.com/v/t51.2885-15/sh0.08/e35/s640x640/87308437_637335817083729_2270523441330670781_n.jpg?_nc_ht=scontent-hel2-1.cdninstagram.com&_nc_cat=109&_nc_ohc=f8kJFC--BrcAX8W5c-L&oh=32a8f76d45e2e12d5ee4c59d405c8c94&oe=5E58EAB7"
        },
        {
            "config_height": 421,
            "config_width": 750,
            "src": "https://scontent-hel2-1.cdninstagram.com/v/t51.2885-15/e35/87308437_637335817083729_2270523441330670781_n.jpg?_nc_ht=scontent-hel2-1.cdninstagram.com&_nc_cat=109&_nc_ohc=f8kJFC--BrcAX8W5c-L&oh=b87ddb68ffcad061a828402f14209a12&oe=5E588612"
        },
        {
            "config_height": 607,
            "config_width": 1080,
            "src": "https://scontent-hel2-1.cdninstagram.com/v/t51.2885-15/e35/87308437_637335817083729_2270523441330670781_n.jpg?_nc_ht=scontent-hel2-1.cdninstagram.com&_nc_cat=109&_nc_ohc=f8kJFC--BrcAX8W5c-L&oh=b87ddb68ffcad061a828402f14209a12&oe=5E588612"
        }
    ],
    "display_url": "https://scontent-hel2-1.cdninstagram.com/v/t51.2885-15/e35/87308437_637335817083729_2270523441330670781_n.jpg?_nc_ht=scontent-hel2-1.cdninstagram.com&_nc_cat=109&_nc_ohc=f8kJFC--BrcAX8W5c-L&oh=b87ddb68ffcad061a828402f14209a12&oe=5E588612",
    "edge_media_preview_comment": {
        "count": 1,
        "edges": [
            {
                "node": {
                    "created_at": 1582301564,
                    "did_report_as_spam": false,
                    "edge_liked_by": {
                        "count": 1
                    },
                    "id": "17872170547591960",
                    "is_restricted_pending": false,
                    "owner": {
                        "id": "9694869244",
                        "is_verified": false,
                        "profile_pic_url": "https://scontent-hel2-1.cdninstagram.com/v/t51.2885-19/s150x150/80650624_1049931915375778_7748805327713206272_n.jpg?_nc_ht=scontent-hel2-1.cdninstagram.com&_nc_ohc=KrV-WQmlWMAAX8D2BNl&oh=2ffb4ba8da48ecf214247238e0349867&oe=5E8C7D9A",
                        "username": "chrgngo"
                    },
                    "text": "Oh man, this is great!",
                    "viewer_has_liked": false
                }
            }
        ]
    },
    "edge_media_preview_like": {
        "count": 20,
        "edges": []
    },
    "edge_media_to_caption": {
        "edges": [
            {
                "node": {
                    "text": "Jeff Bezos + Elon Musk by The Fakening  #deepfake #amazon #tesla #spacex #alien #startrek VFX Brain"
                }
            }
        ]
    },
    "edge_media_to_hoisted_comment": {
        "edges": []
    },
    "edge_media_to_parent_comment": {
        "count": 1,
        "edges": [
            {
                "node": {
                    "created_at": 1582301564,
                    "did_report_as_spam": false,
                    "edge_liked_by": {
                        "count": 1
                    },
                    "edge_threaded_comments": {
                        "count": 0,
                        "edges": [],
                        "page_info": {
                            "end_cursor": null,
                            "has_next_page": false
                        }
                    },
                    "id": "17872170547591960",
                    "is_restricted_pending": false,
                    "owner": {
                        "id": "9694869244",
                        "is_verified": false,
                        "profile_pic_url": "https://scontent-hel2-1.cdninstagram.com/v/t51.2885-19/s150x150/80650624_1049931915375778_7748805327713206272_n.jpg?_nc_ht=scontent-hel2-1.cdninstagram.com&_nc_ohc=KrV-WQmlWMAAX8D2BNl&oh=2ffb4ba8da48ecf214247238e0349867&oe=5E8C7D9A",
                        "username": "chrgngo"
                    },
                    "text": "Oh man, this is great!",
                    "viewer_has_liked": false
                }
            }
        ],
        "page_info": {
            "end_cursor": null,
            "has_next_page": false
        }
    },
    "edge_media_to_sponsor_user": {
        "edges": []
    },
    "edge_media_to_tagged_user": {
        "edges": []
    },
    "edge_web_media_to_related_media": {
        "edges": []
    },
    "encoding_status": null,
    "fact_check_information": null,
    "fact_check_overall_rating": null,
    "gating_info": null,
    "has_ranked_comments": false,
    "id": "2248826792923447818",
    "is_ad": false,
    "is_published": true,
    "is_video": true,
    "location": null,
    "media_preview": "ACoXwYHK5wTzxU6xs7BTkAnkn0qGByoOOenHb8atIvzZJIPYD+VIpFw2MRT5chuxzn86y9hrVDgjpz9P1zVdjnjO33qblNFaeR2jCv0XgdvzqhV6ZvkIHI9/6e1UapEMt22cHHtWxbqAuejd6KKXUfQeSQRgcd/aoLwDYW7iiimBjyNkYzUFFFMk/9k=",
    "owner": {
        "blocked_by_viewer": false,
        "followed_by_viewer": false,
        "full_name": "VFXBrain.com",
        "has_blocked_viewer": false,
        "id": "13154808579",
        "is_private": false,
        "is_unpublished": false,
        "is_verified": false,
        "profile_pic_url": "https://scontent-hel2-1.cdninstagram.com/v/t51.2885-19/s150x150/69678656_660547664430452_6218071707744206848_n.jpg?_nc_ht=scontent-hel2-1.cdninstagram.com&_nc_ohc=5f9iUrFGhNEAX9duzeo&oh=16bcb03958eefbeb23daf9b948805547&oe=5E897E4C",
        "requested_by_viewer": false,
        "restricted_by_viewer": null,
        "username": "vfxbrain"
    },
    "product_type": "feed",
    "shortcode": "B81cA2plUIK",
    "taken_at_timestamp": 1582301140,
    "thumbnail_src": "https://scontent-hel2-1.cdninstagram.com/v/t51.2885-15/e35/c157.0.405.405a/87308437_637335817083729_2270523441330670781_n.jpg?_nc_ht=scontent-hel2-1.cdninstagram.com&_nc_cat=109&_nc_ohc=f8kJFC--BrcAX8W5c-L&oh=97e9b852638857d77cb52cdc999b62fe&oe=5E58DFDA",
    "title": "",
    "tracking_token": "eyJ2ZXJzaW9uIjo1LCJwYXlsb2FkIjp7ImlzX2FuYWx5dGljc190cmFja2VkIjp0cnVlLCJ1dWlkIjoiOWZhZDNjYjlkNDYzNDM0OTlkODk1NWQ4YzFhMzM1ZmMyMjQ4ODI2NzkyOTIzNDQ3ODE4In0sInNpZ25hdHVyZSI6IiJ9",
    "video_duration": 60.013,
    "video_url": "https://scontent-hel2-1.cdninstagram.com/v/t50.2886-16/87070618_486226908949535_1886927163072818503_n.mp4?_nc_ht=scontent-hel2-1.cdninstagram.com&_nc_cat=111&_nc_ohc=PDmVIHyXs_sAX_jR-vo&oe=5E5883EB&oh=f7fedf9f59f0c3073f9ec63381a5ad06",
    "video_view_count": 147,
    "viewer_can_reshare": true,
    "viewer_has_liked": false,
    "viewer_has_saved": false,
    "viewer_has_saved_to_collection": false,
    "viewer_in_photo_of_you": false
}