{
    "__typename": "GraphVideo",
    "caption_is_edited": false,
    "commenting_disabled_for_viewer": false,
    "comments_disabled": false,
    "dash_info": {
        "is_dash_eligible": false,
        "number_of_qualities": 0,
        "video_dash_manifest": null
    },
    "dimensions": {
        "height": 853,
        "width": 480
    },
    "display_resources": [
        {
            "config_height": 1137,
            "config_width": 640,
            "src": "https://scontent-hel2-1.cdninstagram.com/v/t51.2885-15/e35/85084429_1431054417101739_6052567694037859029_n.jpg?_nc_ht=scontent-hel2-1.cdninstagram.com&_nc_cat=103&_nc_ohc=jcGNjFu5BRcAX8BryBu&oh=72b48048280c149221beccf539a293ef&oe=5E587055"
        },
        {
            "config_height": 1332,
            "config_width": 750,
            "src": "https://scontent-hel2-1.cdninstagram.com/v/t51.2885-15/e35/85084429_1431054417101739_6052567694037859029_n.jpg?_nc_ht=scontent-hel2-1.cdninstagram.com&_nc_cat=103&_nc_ohc=jcGNjFu5BRcAX8BryBu&oh=72b48048280c149221beccf539a293ef&oe=5E587055"
        },
        {
            "config_height": 1919,
            "config_width": 1080,
            "src": "https://scontent-hel2-1.cdninstagram.com/v/t51.2885-15/e35/85084429_1431054417101739_6052567694037859029_n.jpg?_nc_ht=scontent-hel2-1.cdninstagram.com&_nc_cat=103&_nc_ohc=jcGNjFu5BRcAX8BryBu&oh=72b48048280c149221beccf539a293ef&oe=5E587055"
        }
    ],
    "display_url": "https://scontent-hel2-1.cdninstagram.com/v/t51.2885-15/e35/85084429_1431054417101739_6052567694037859029_n.jpg?_nc_ht=scontent-hel2-1.cdninstagram.com&_nc_cat=103&_nc_ohc=jcGNjFu5BRcAX8BryBu&oh=72b48048280c149221beccf539a293ef&oe=5E587055",
    "edge_media_preview_comment": {
        "count": 5,
        "edges": [
            {
                "node": {
                    "created_at": 1582318099,
                    "did_report_as_spam": false,
                    "edge_liked_by": {
                        "count": 2
                    },
                    "id": "17848019164936418",
                    "is_restricted_pending": false,
                    "owner": {
                        "id": "2883917986",
                        "is_verified": false,
                        "profile_pic_url": "https://scontent-hel2-1.cdninstagram.com/v/t51.2885-19/12568989_173115656391442_278937835_a.jpg?_nc_ht=scontent-hel2-1.cdninstagram.com&_nc_ohc=T80ihnL8CBMAX8mP1Ku&oh=53590fdb4b56a01606c015f6b3e84d03&oe=5E85ABBD",
                        "username": "alexschady"
                    },
                    "text": "Hahaha we nailed it bitch",
                    "viewer_has_liked": false
                }
            },
            {
                "node": {
                    "created_at": 1582399953,
                    "did_report_as_spam": false,
                    "edge_liked_by": {
                        "count": 0
                    },
                    "id": "17851938019874942",
                    "is_restricted_pending": false,
                    "owner": {
                        "id": "353794284",
                        "is_verified": false,
                        "profile_pic_url": "https://scontent-hel2-1.cdninstagram.com/v/t51.2885-19/11850266_892062040884976_106120995_a.jpg?_nc_ht=scontent-hel2-1.cdninstagram.com&_nc_ohc=2cZsG3D_0ToAX-LfRZO&oh=c225ddedb6b91be8b3d8d0259b8e90c8&oe=5E8AB2F2",
                        "username": "rolinablok"
                    },
                    "text": "Yas @alexschady ! You know it!!! \ud83d\udc96",
                    "viewer_has_liked": false
                }
            }
        ]
    },
    "edge_media_preview_like": {
        "count": 33,
        "edges": []
    },
    "edge_media_to_caption": {
        "edges": [
            {
                "node": {
                    "text": "Thank you everyone for coming to our pv! We are here Friday-Sunday from 1 till 8pm \nHere a video of @alexschady and @rolinablok singing Careless Whisper on our Deepfake Sensation Karaoke\n\u2022\n\u2022\n\u2022\n#artworkiswork #workinghardorhardlyworking #deepfakesensation  #deepfake #fiveyears #exhibition #pv #karaoke #printmaking #contemporaryart \nDeep Luv from @alessandra.falbo & I xxx"
                }
            }
        ]
    },
    "edge_media_to_hoisted_comment": {
        "edges": []
    },
    "edge_media_to_parent_comment": {
        "count": 5,
        "edges": [
            {
                "node": {
                    "created_at": 1582223932,
                    "did_report_as_spam": false,
                    "edge_liked_by": {
                        "count": 1
                    },
                    "edge_threaded_comments": {
                        "count": 1,
                        "edges": [
                            {
                                "node": {
                                    "created_at": 1582241193,
                                    "did_report_as_spam": false,
                                    "edge_liked_by": {
                                        "count": 0
                                    },
                                    "id": "17863600234685007",
                                    "is_restricted_pending": false,
                                    "owner": {
                                        "id": "353794284",
                                        "is_verified": false,
                                        "profile_pic_url": "https://scontent-hel2-1.cdninstagram.com/v/t51.2885-19/11850266_892062040884976_106120995_a.jpg?_nc_ht=scontent-hel2-1.cdninstagram.com&_nc_ohc=2cZsG3D_0ToAX-LfRZO&oh=c225ddedb6b91be8b3d8d0259b8e90c8&oe=5E8AB2F2",
                                        "username": "rolinablok"
                                    },
                                    "text": "@lewi.xyz thank u angel dreams \ud83d\udc96wish you were here 2 \ud83d\udc96",
                                    "viewer_has_liked": false
                                }
                            }
                        ],
                        "page_info": {
                            "end_cursor": null,
                            "has_next_page": false
                        }
                    },
                    "id": "18077275954174702",
                    "is_restricted_pending": false,
                    "owner": {
                        "id": "643397509",
                        "is_verified": false,
                        "profile_pic_url": "https://scontent-hel2-1.cdninstagram.com/v/t51.2885-19/s150x150/77123583_781271599054564_3607639272984674304_n.jpg?_nc_ht=scontent-hel2-1.cdninstagram.com&_nc_ohc=1vfDhAyRY88AX8uEknA&oh=c3178201013a76bb8a4d2cbc603be086&oe=5E888D9F",
                        "username": "lewi.xyz"
                    },
                    "text": "Omg wish I was there. Amazing.",
                    "viewer_has_liked": false
                }
            },
            {
                "node": {
                    "created_at": 1582238520,
                    "did_report_as_spam": false,
                    "edge_liked_by": {
                        "count": 1
                    },
                    "edge_threaded_comments": {
                        "count": 0,
                        "edges": [],
                        "page_info": {
                            "end_cursor": null,
                            "has_next_page": false
                        }
                    },
                    "id": "17864723806665583",
                    "is_restricted_pending": false,
                    "owner": {
                        "id": "2091171612",
                        "is_verified": false,
                        "profile_pic_url": "https://scontent-hel2-1.cdninstagram.com/v/t51.2885-19/s150x150/22861012_352061795254413_8417052842551934976_n.jpg?_nc_ht=scontent-hel2-1.cdninstagram.com&_nc_ohc=a56l3U6L8WQAX_0R1m7&oh=fd2714f1a3abf8a4970dbe66c3221fbc&oe=5E8A34D6",
                        "username": "alex.snax"
                    },
                    "text": "\ud83d\udcab \ud83c\udfa4 \ud83d\udc95",
                    "viewer_has_liked": false
                }
            },
            {
                "node": {
                    "created_at": 1582318099,
                    "did_report_as_spam": false,
                    "edge_liked_by": {
                        "count": 2
                    },
                    "edge_threaded_comments": {
                        "count": 1,
                        "edges": [
                            {
                                "node": {
                                    "created_at": 1582399953,
                                    "did_report_as_spam": false,
                                    "edge_liked_by": {
                                        "count": 0
                                    },
                                    "id": "17851938019874942",
                                    "is_restricted_pending": false,
                                    "owner": {
                                        "id": "353794284",
                                        "is_verified": false,
                                        "profile_pic_url": "https://scontent-hel2-1.cdninstagram.com/v/t51.2885-19/11850266_892062040884976_106120995_a.jpg?_nc_ht=scontent-hel2-1.cdninstagram.com&_nc_ohc=2cZsG3D_0ToAX-LfRZO&oh=c225ddedb6b91be8b3d8d0259b8e90c8&oe=5E8AB2F2",
                                        "username": "rolinablok"
                                    },
                                    "text": "Yas @alexschady ! You know it!!! \ud83d\udc96",
                                    "viewer_has_liked": false
                                }
                            }
                        ],
                        "page_info": {
                            "end_cursor": null,
                            "has_next_page": false
                        }
                    },
                    "id": "17848019164936418",
                    "is_restricted_pending": false,
                    "owner": {
                        "id": "2883917986",
                        "is_verified": false,
                        "profile_pic_url": "https://scontent-hel2-1.cdninstagram.com/v/t51.2885-19/12568989_173115656391442_278937835_a.jpg?_nc_ht=scontent-hel2-1.cdninstagram.com&_nc_ohc=T80ihnL8CBMAX8mP1Ku&oh=53590fdb4b56a01606c015f6b3e84d03&oe=5E85ABBD",
                        "username": "alexschady"
                    },
                    "text": "Hahaha we nailed it bitch",
                    "viewer_has_liked": false
                }
            }
        ],
        "page_info": {
            "end_cursor": null,
            "has_next_page": false
        }
    },
    "edge_media_to_sponsor_user": {
        "edges": []
    },
    "edge_media_to_tagged_user": {
        "edges": []
    },
    "edge_web_media_to_related_media": {
        "edges": []
    },
    "encoding_status": null,
    "fact_check_information": null,
    "fact_check_overall_rating": null,
    "gating_info": null,
    "has_ranked_comments": false,
    "id": "2248168505701866901",
    "is_ad": false,
    "is_published": true,
    "is_video": true,
    "location": null,
    "media_preview": "ABcq1PO7UGSmrKpXaB8x/WmAZba3H+NRZGnKhxkoqKXhzjtxRT0CxUS5CEHrg5qcXKswc9SSTWYPegc1VkQWWuCxz3NFVqKVkA3NODYqOlqgHZopKKQH/9k=",
    "owner": {
        "blocked_by_viewer": false,
        "followed_by_viewer": false,
        "full_name": "Rolina E. Blok",
        "has_blocked_viewer": false,
        "id": "353794284",
        "is_private": false,
        "is_unpublished": false,
        "is_verified": false,
        "profile_pic_url": "https://scontent-hel2-1.cdninstagram.com/v/t51.2885-19/11850266_892062040884976_106120995_a.jpg?_nc_ht=scontent-hel2-1.cdninstagram.com&_nc_ohc=2cZsG3D_0ToAX-LfRZO&oh=c225ddedb6b91be8b3d8d0259b8e90c8&oe=5E8AB2F2",
        "requested_by_viewer": false,
        "restricted_by_viewer": null,
        "username": "rolinablok"
    },
    "product_type": "igtv",
    "shortcode": "B8zGVg5lJ2V",
    "taken_at_timestamp": 1582223189,
    "thumbnail_src": "https://scontent-hel2-1.cdninstagram.com/v/t51.2885-15/e35/c0.186.480.480a/85084429_1431054417101739_6052567694037859029_n.jpg?_nc_ht=scontent-hel2-1.cdninstagram.com&_nc_cat=103&_nc_ohc=jcGNjFu5BRcAX8BryBu&oh=b1f4a856d11450187e07b812a889ddb2&oe=5E589B2A",
    "title": "WORKING HARD OR HARDLY OR HARDLY WORKING: A DEEPFAKE SENSATION PV",
    "tracking_token": "eyJ2ZXJzaW9uIjo1LCJwYXlsb2FkIjp7ImlzX2FuYWx5dGljc190cmFja2VkIjp0cnVlLCJ1dWlkIjoiYTA2Mzg3MDUyYjE2NDFmNzkzMTM5YTEzMmJiODRkOTEyMjQ4MTY4NTA1NzAxODY2OTAxIn0sInNpZ25hdHVyZSI6IiJ9",
    "video_duration": 77.533,
    "video_url": "https://scontent-hel2-1.cdninstagram.com/v/t50.16885-16/87003519_124423932323748_9089409646827884963_n.mp4?_nc_ht=scontent-hel2-1.cdninstagram.com&_nc_cat=100&_nc_ohc=QQ088sIa3A0AX9P1YYx&oe=5E58E1FD&oh=47ead0fa24efd9f59fe7e1253493d284",
    "video_view_count": 179,
    "viewer_can_reshare": true,
    "viewer_has_liked": false,
    "viewer_has_saved": false,
    "viewer_has_saved_to_collection": false,
    "viewer_in_photo_of_you": false
}