{
    "__typename": "GraphVideo",
    "caption_is_edited": false,
    "commenting_disabled_for_viewer": false,
    "comments_disabled": false,
    "dash_info": {
        "is_dash_eligible": false,
        "number_of_qualities": 0,
        "video_dash_manifest": null
    },
    "dimensions": {
        "height": 350,
        "width": 640
    },
    "display_resources": [
        {
            "config_height": 350,
            "config_width": 640,
            "src": "https://scontent-hel2-1.cdninstagram.com/v/t51.2885-15/e35/87226984_336736533890858_744397876877878772_n.jpg?_nc_ht=scontent-hel2-1.cdninstagram.com&_nc_cat=102&_nc_ohc=nT8IQGv_hhcAX_yMVR0&oh=34fe30fe41da296056c445b7d0358e60&oe=5E58EE49"
        },
        {
            "config_height": 410,
            "config_width": 750,
            "src": "https://scontent-hel2-1.cdninstagram.com/v/t51.2885-15/e35/87226984_336736533890858_744397876877878772_n.jpg?_nc_ht=scontent-hel2-1.cdninstagram.com&_nc_cat=102&_nc_ohc=nT8IQGv_hhcAX_yMVR0&oh=34fe30fe41da296056c445b7d0358e60&oe=5E58EE49"
        },
        {
            "config_height": 590,
            "config_width": 1080,
            "src": "https://scontent-hel2-1.cdninstagram.com/v/t51.2885-15/e35/87226984_336736533890858_744397876877878772_n.jpg?_nc_ht=scontent-hel2-1.cdninstagram.com&_nc_cat=102&_nc_ohc=nT8IQGv_hhcAX_yMVR0&oh=34fe30fe41da296056c445b7d0358e60&oe=5E58EE49"
        }
    ],
    "display_url": "https://scontent-hel2-1.cdninstagram.com/v/t51.2885-15/e35/87226984_336736533890858_744397876877878772_n.jpg?_nc_ht=scontent-hel2-1.cdninstagram.com&_nc_cat=102&_nc_ohc=nT8IQGv_hhcAX_yMVR0&oh=34fe30fe41da296056c445b7d0358e60&oe=5E58EE49",
    "edge_media_preview_comment": {
        "count": 2,
        "edges": [
            {
                "node": {
                    "created_at": 1582429192,
                    "did_report_as_spam": false,
                    "edge_liked_by": {
                        "count": 1
                    },
                    "id": "18023790511261226",
                    "is_restricted_pending": false,
                    "owner": {
                        "id": "1654724828",
                        "is_verified": false,
                        "profile_pic_url": "https://scontent-hel2-1.cdninstagram.com/v/t51.2885-19/s150x150/87330125_3091956891030203_5163863004164390912_n.jpg?_nc_ht=scontent-hel2-1.cdninstagram.com&_nc_ohc=UFrkqapZ1DUAX9Ay5LV&oh=2550f0c36db12c1b676d790348547162&oe=5E80D2F8",
                        "username": "lu__.ko"
                    },
                    "text": "Ando sad :'( pero esto alegro un poquito mi noche :) gracias\u2661",
                    "viewer_has_liked": false
                }
            },
            {
                "node": {
                    "created_at": 1582448534,
                    "did_report_as_spam": false,
                    "edge_liked_by": {
                        "count": 1
                    },
                    "id": "18018258481271924",
                    "is_restricted_pending": false,
                    "owner": {
                        "id": "30278147307",
                        "is_verified": false,
                        "profile_pic_url": "https://scontent-hel2-1.cdninstagram.com/v/t51.2885-19/s150x150/84727663_500414014206410_8075658180094328832_n.jpg?_nc_ht=scontent-hel2-1.cdninstagram.com&_nc_ohc=INu3_FCaQ8MAX-XUa-y&oh=a1c5349546f7808dcff2f07dcaa731a9&oe=5E82BE79",
                        "username": "kaejin_kim"
                    },
                    "text": "Can I know who is this guy?",
                    "viewer_has_liked": false
                }
            }
        ]
    },
    "edge_media_preview_like": {
        "count": 108,
        "edges": []
    },
    "edge_media_to_caption": {
        "edges": [
            {
                "node": {
                    "text": "\"Esto est\u00e1 de pelos\"\n\n#bts #justinbieber #jungkook #jungkookedit #kpopdancecover #deepfake #love #loveyourself #fakefriends #beautifuldestinations #strangerthings #happy #likeforlikes #travel #tattoo #zao #house #music #koreanstyle #japon #selfie #instagram"
                }
            }
        ]
    },
    "edge_media_to_hoisted_comment": {
        "edges": []
    },
    "edge_media_to_parent_comment": {
        "count": 2,
        "edges": [
            {
                "node": {
                    "created_at": 1582429192,
                    "did_report_as_spam": false,
                    "edge_liked_by": {
                        "count": 1
                    },
                    "edge_threaded_comments": {
                        "count": 0,
                        "edges": [],
                        "page_info": {
                            "end_cursor": null,
                            "has_next_page": false
                        }
                    },
                    "id": "18023790511261226",
                    "is_restricted_pending": false,
                    "owner": {
                        "id": "1654724828",
                        "is_verified": false,
                        "profile_pic_url": "https://scontent-hel2-1.cdninstagram.com/v/t51.2885-19/s150x150/87330125_3091956891030203_5163863004164390912_n.jpg?_nc_ht=scontent-hel2-1.cdninstagram.com&_nc_ohc=UFrkqapZ1DUAX9Ay5LV&oh=2550f0c36db12c1b676d790348547162&oe=5E80D2F8",
                        "username": "lu__.ko"
                    },
                    "text": "Ando sad :'( pero esto alegro un poquito mi noche :) gracias\u2661",
                    "viewer_has_liked": false
                }
            },
            {
                "node": {
                    "created_at": 1582448534,
                    "did_report_as_spam": false,
                    "edge_liked_by": {
                        "count": 1
                    },
                    "edge_threaded_comments": {
                        "count": 0,
                        "edges": [],
                        "page_info": {
                            "end_cursor": null,
                            "has_next_page": false
                        }
                    },
                    "id": "18018258481271924",
                    "is_restricted_pending": false,
                    "owner": {
                        "id": "30278147307",
                        "is_verified": false,
                        "profile_pic_url": "https://scontent-hel2-1.cdninstagram.com/v/t51.2885-19/s150x150/84727663_500414014206410_8075658180094328832_n.jpg?_nc_ht=scontent-hel2-1.cdninstagram.com&_nc_ohc=INu3_FCaQ8MAX-XUa-y&oh=a1c5349546f7808dcff2f07dcaa731a9&oe=5E82BE79",
                        "username": "kaejin_kim"
                    },
                    "text": "Can I know who is this guy?",
                    "viewer_has_liked": false
                }
            }
        ],
        "page_info": {
            "end_cursor": null,
            "has_next_page": false
        }
    },
    "edge_media_to_sponsor_user": {
        "edges": []
    },
    "edge_media_to_tagged_user": {
        "edges": [
            {
                "node": {
                    "user": {
                        "full_name": "halsey",
                        "id": "7996847",
                        "is_verified": true,
                        "profile_pic_url": "https://scontent-hel2-1.cdninstagram.com/v/t51.2885-19/s150x150/81558445_2524777781137873_621346467671441408_n.jpg?_nc_ht=scontent-hel2-1.cdninstagram.com&_nc_ohc=YvlA_k_c6XYAX8UEKn-&oh=f10d75b8436e643cb081a206e1e303ac&oe=5E886F95",
                        "username": "iamhalsey"
                    },
                    "x": 0.0,
                    "y": 0.0
                }
            },
            {
                "node": {
                    "user": {
                        "full_name": "BTS COSPLAYER",
                        "id": "1907691449",
                        "is_verified": false,
                        "profile_pic_url": "https://scontent-hel2-1.cdninstagram.com/v/t51.2885-19/s150x150/80125606_440875770129202_5787618725150588928_n.jpg?_nc_ht=scontent-hel2-1.cdninstagram.com&_nc_ohc=-owUYcCIkHEAX99E5s2&oh=8b67ead81e3c919b6f271b3e78149f5a&oe=5E89901F",
                        "username": "kyleuin"
                    },
                    "x": 0.0,
                    "y": 0.0
                }
            },
            {
                "node": {
                    "user": {
                        "full_name": "BTS official",
                        "id": "2274763833",
                        "is_verified": true,
                        "profile_pic_url": "https://scontent-hel2-1.cdninstagram.com/v/t51.2885-19/s150x150/84348375_217873232679100_7812104087570219008_n.jpg?_nc_ht=scontent-hel2-1.cdninstagram.com&_nc_ohc=hrbhNHThvBAAX_GauSR&oh=4b7f5f7006a8b96a47ca92c1d7db9143&oe=5E83F1B7",
                        "username": "bts.bighitofficial"
                    },
                    "x": 0.0,
                    "y": 0.0
                }
            },
            {
                "node": {
                    "user": {
                        "full_name": "t e o",
                        "id": "6607332211",
                        "is_verified": false,
                        "profile_pic_url": "https://scontent-hel2-1.cdninstagram.com/v/t51.2885-19/s150x150/81834749_491350658199715_3520359275467636736_n.jpg?_nc_ht=scontent-hel2-1.cdninstagram.com&_nc_ohc=nPZAJXkl6lwAX-vsw2D&oh=11eef46b8cc47379cb04e670f02e860a&oe=5E854C65",
                        "username": "teodorooxx"
                    },
                    "x": 0.0,
                    "y": 0.0
                }
            },
            {
                "node": {
                    "user": {
                        "full_name": "bts jungkook | el \u2077",
                        "id": "7423425670",
                        "is_verified": false,
                        "profile_pic_url": "https://scontent-hel2-1.cdninstagram.com/v/t51.2885-19/s150x150/85121860_2278306569142156_7371965575766999040_n.jpg?_nc_ht=scontent-hel2-1.cdninstagram.com&_nc_ohc=GR23oWJnN2EAX8JdNAS&oh=03f8074aa5fb3215154f124d7837bd68&oe=5E82F47D",
                        "username": "jeonstellar"
                    },
                    "x": 0.0,
                    "y": 0.0
                }
            },
            {
                "node": {
                    "user": {
                        "full_name": "\u30a2\u30cb\u30e1\u306e\u5973\u306e\u5b50",
                        "id": "8129901897",
                        "is_verified": false,
                        "profile_pic_url": "https://scontent-hel2-1.cdninstagram.com/v/t51.2885-19/s150x150/87222825_1101564296863529_1314046970788052992_n.jpg?_nc_ht=scontent-hel2-1.cdninstagram.com&_nc_ohc=e9cIZD6j7mcAX9eUFvg&oh=45411aa02ed105a9d8a9d38fba27674f&oe=5E884930",
                        "username": "beerizz_"
                    },
                    "x": 0.0,
                    "y": 0.0
                }
            },
            {
                "node": {
                    "user": {
                        "full_name": "Memes de BTS |11K|",
                        "id": "9065478515",
                        "is_verified": false,
                        "profile_pic_url": "https://scontent-hel2-1.cdninstagram.com/v/t51.2885-19/s150x150/76843919_2792826177602152_6031165434080788480_n.jpg?_nc_ht=scontent-hel2-1.cdninstagram.com&_nc_ohc=75mBYIH652AAX_YRAty&oh=a2ddd93acdbfdbaa83b6f5f1d37e4824&oe=5E839075",
                        "username": "carebonarauwu"
                    },
                    "x": 0.0,
                    "y": 0.0
                }
            },
            {
                "node": {
                    "user": {
                        "full_name": "\ub0b4 \ud589\ubcf5\uc740 \uc911\uc694\ud574",
                        "id": "12304474019",
                        "is_verified": false,
                        "profile_pic_url": "https://scontent-hel2-1.cdninstagram.com/v/t51.2885-19/s150x150/84860763_1318839028325657_4998734843211677696_n.jpg?_nc_ht=scontent-hel2-1.cdninstagram.com&_nc_ohc=6Dl1X1xQjoMAX_hQsCJ&oh=c7f82f7a6e2fdefcc58cf7c987529a20&oe=5E881346",
                        "username": "eri_.0k"
                    },
                    "x": 0.0,
                    "y": 0.0
                }
            },
            {
                "node": {
                    "user": {
                        "full_name": "\u2500\u02da \u0f18\u270e\u1770\u2027\u208a\u02daCONTENIDO DE BTS 47k+",
                        "id": "13332638318",
                        "is_verified": false,
                        "profile_pic_url": "https://scontent-hel2-1.cdninstagram.com/v/t51.2885-19/s150x150/85149393_611826846323654_2548230055499137024_n.jpg?_nc_ht=scontent-hel2-1.cdninstagram.com&_nc_ohc=LRq2Sb7lcMYAX-ElGVZ&oh=eac174a9134d80124a12a0ccf8f77563&oe=5E8CF190",
                        "username": "nxchubaex._"
                    },
                    "x": 0.0,
                    "y": 0.0
                }
            },
            {
                "node": {
                    "user": {
                        "full_name": "\ucf69\ubcc4\uc774",
                        "id": "30104080459",
                        "is_verified": false,
                        "profile_pic_url": "https://scontent-hel2-1.cdninstagram.com/v/t51.2885-19/s150x150/84337964_194458941823796_8286732947696910336_n.jpg?_nc_ht=scontent-hel2-1.cdninstagram.com&_nc_ohc=iOL7bVY54n0AX-Hg-Od&oh=da46dfe3613989d292729e8e9686796c&oe=5E8254F7",
                        "username": "kongbyeol_s2"
                    },
                    "x": 0.0,
                    "y": 0.0
                }
            }
        ]
    },
    "edge_web_media_to_related_media": {
        "edges": []
    },
    "encoding_status": null,
    "fact_check_information": null,
    "fact_check_overall_rating": null,
    "gating_info": null,
    "has_ranked_comments": false,
    "id": "2249891081701699732",
    "is_ad": false,
    "is_published": true,
    "is_video": true,
    "location": null,
    "media_preview": "ACoWvNEBLs7ZAqHVbcQwFkJySB1HT8qnZv3u73BrP1W+MymOMAoPvMCDz6ew96QFKCxEoGTywyP84p1rlZHTOQD/ACpkMjRwFx1AIB9PpS6a4zg9W4H4UFM0cn/IpMGpW6UygRW1CfCbRkMx59MfXrn1rEPAoopR1RUlZ6di3bQPcRlVOApGck4O446AGoY2MRx3Rv5GiimQb0kuw45ORnt/hTwCRn1ooqgP/9k=",
    "owner": {
        "blocked_by_viewer": false,
        "followed_by_viewer": false,
        "full_name": "Andy",
        "has_blocked_viewer": false,
        "id": "7551526301",
        "is_private": false,
        "is_unpublished": false,
        "is_verified": false,
        "profile_pic_url": "https://scontent-hel2-1.cdninstagram.com/v/t51.2885-19/s150x150/84517963_217902729341383_7770197614921777152_n.jpg?_nc_ht=scontent-hel2-1.cdninstagram.com&_nc_ohc=4AhaiSoGc1kAX9P0r7T&oh=e2f47eabbfa7ae6484085f383545cf10&oe=5E8B8BC2",
        "requested_by_viewer": false,
        "restricted_by_viewer": null,
        "username": "___and.2090"
    },
    "product_type": "feed",
    "shortcode": "B85OAS0JjCU",
    "taken_at_timestamp": 1582428346,
    "thumbnail_src": "https://scontent-hel2-1.cdninstagram.com/v/t51.2885-15/e35/c145.0.350.350a/87226984_336736533890858_744397876877878772_n.jpg?_nc_ht=scontent-hel2-1.cdninstagram.com&_nc_cat=102&_nc_ohc=nT8IQGv_hhcAX_yMVR0&oh=419c89db35d55160e6c024d8a8016714&oe=5E5885FF",
    "title": "",
    "tracking_token": "eyJ2ZXJzaW9uIjo1LCJwYXlsb2FkIjp7ImlzX2FuYWx5dGljc190cmFja2VkIjp0cnVlLCJ1dWlkIjoiNmYxYmE2MWU3MWM0NDA3NmFmMzhiNTU0NjYyMWFmNDEyMjQ5ODkxMDgxNzAxNjk5NzMyIn0sInNpZ25hdHVyZSI6IiJ9",
    "video_duration": 53.373,
    "video_url": "https://scontent-hel2-1.cdninstagram.com/v/t50.2886-16/87185314_536649320307511_4694312985226044792_n.mp4?_nc_ht=scontent-hel2-1.cdninstagram.com&_nc_cat=107&_nc_ohc=TszJkM5FpvIAX8lMP6t&oe=5E58F84B&oh=f1dd7e74791e935f4340470ea8462849",
    "video_view_count": 329,
    "viewer_can_reshare": true,
    "viewer_has_liked": false,
    "viewer_has_saved": false,
    "viewer_has_saved_to_collection": false,
    "viewer_in_photo_of_you": false
}