{
    "__typename": "GraphVideo",
    "caption_is_edited": false,
    "commenting_disabled_for_viewer": false,
    "comments_disabled": false,
    "dash_info": {
        "is_dash_eligible": false,
        "number_of_qualities": 0,
        "video_dash_manifest": null
    },
    "dimensions": {
        "height": 1680,
        "width": 1080
    },
    "display_resources": [
        {
            "config_height": 995,
            "config_width": 640,
            "src": "https://scontent-hel2-1.cdninstagram.com/v/t51.2885-15/sh0.08/e35/p640x640/85133304_214903549661907_9048187790983887610_n.jpg?_nc_ht=scontent-hel2-1.cdninstagram.com&_nc_cat=103&_nc_ohc=bFRy3qkr84kAX8MAyOu&oh=398c797c80cd380c59b5945b324e6834&oe=5E58846C"
        },
        {
            "config_height": 1166,
            "config_width": 750,
            "src": "https://scontent-hel2-1.cdninstagram.com/v/t51.2885-15/sh0.08/e35/p750x750/85133304_214903549661907_9048187790983887610_n.jpg?_nc_ht=scontent-hel2-1.cdninstagram.com&_nc_cat=103&_nc_ohc=bFRy3qkr84kAX8MAyOu&oh=3034bebb3cb8e1b0fed20f9272bacefd&oe=5E5888AC"
        },
        {
            "config_height": 1680,
            "config_width": 1080,
            "src": "https://scontent-hel2-1.cdninstagram.com/v/t51.2885-15/fr/e15/p1080x1080/85133304_214903549661907_9048187790983887610_n.jpg?_nc_ht=scontent-hel2-1.cdninstagram.com&_nc_cat=103&_nc_ohc=bFRy3qkr84kAX8MAyOu&oh=de1f790c874e3db9bdcec0375359f738&oe=5E589AC4"
        }
    ],
    "display_url": "https://scontent-hel2-1.cdninstagram.com/v/t51.2885-15/fr/e15/p1080x1080/85133304_214903549661907_9048187790983887610_n.jpg?_nc_ht=scontent-hel2-1.cdninstagram.com&_nc_cat=103&_nc_ohc=bFRy3qkr84kAX8MAyOu&oh=de1f790c874e3db9bdcec0375359f738&oe=5E589AC4",
    "edge_media_preview_comment": {
        "count": 15,
        "edges": [
            {
                "node": {
                    "created_at": 1582460036,
                    "did_report_as_spam": false,
                    "edge_liked_by": {
                        "count": 0
                    },
                    "id": "17847336784913713",
                    "is_restricted_pending": false,
                    "owner": {
                        "id": "26057650628",
                        "is_verified": false,
                        "profile_pic_url": "https://scontent-hel2-1.cdninstagram.com/v/t51.2885-19/s150x150/80389027_877175522700779_7908506617098797056_n.jpg?_nc_ht=scontent-hel2-1.cdninstagram.com&_nc_ohc=9go324uq_D4AX9_bpw5&oh=0141d25aa34f7b62ea9149a74470ed7b&oe=5E85C90A",
                        "username": "hiltopsophia_fx"
                    },
                    "text": "Why waste your time on monthly salary when you can be earning over \u00a35000 consistently every week, you don\u2019t have to send money to anyone just ask me how and inbox me.",
                    "viewer_has_liked": false
                }
            }
        ]
    },
    "edge_media_preview_like": {
        "count": 1249,
        "edges": []
    },
    "edge_media_to_caption": {
        "edges": [
            {
                "node": {
                    "text": "Deepfakes, which are fake videos and images created using computers and machine learning, are threatening to undermine the credibility of almost everything we see online. As the United States enters a presidential election year, experts have named deepfakes as one of the biggest cybersecurity risks of 2020, as social media networks fight the spread of disinformation on their platforms. Deepfakes can be difficult to detect, posing a risk to companies, employees and consumers alike. So, would you recognize a deepfake video? Tell us in the comments below. \u2b07\ufe0f\n\u2022\u2060\n\u2022\u2060\n\u2022\u2060\n\u2022\u2060\n\u2022\u2060\n\u2022\u2060\n#deepfake #deepfakevideos #deepfakechallenge #uselection #uselectionnews\ud83c\uddfa\ud83c\uddf8 #uspresidentialelection #uspolitics #politicsnews #technologynews #artificialintelligence #ai #artificialintelligencenow #cybersecurity #cybersecuritynews #cybersecurityrisks #cybersecuritytips"
                }
            }
        ]
    },
    "edge_media_to_hoisted_comment": {
        "edges": []
    },
    "edge_media_to_parent_comment": {
        "count": 15,
        "edges": [
            {
                "node": {
                    "created_at": 1582338737,
                    "did_report_as_spam": false,
                    "edge_liked_by": {
                        "count": 0
                    },
                    "edge_threaded_comments": {
                        "count": 0,
                        "edges": [],
                        "page_info": {
                            "end_cursor": null,
                            "has_next_page": false
                        }
                    },
                    "id": "18092085427130487",
                    "is_restricted_pending": false,
                    "owner": {
                        "id": "29681491016",
                        "is_verified": false,
                        "profile_pic_url": "https://scontent-hel2-1.cdninstagram.com/v/t51.2885-19/s150x150/83800066_520673128565774_2514570860656852992_n.jpg?_nc_ht=scontent-hel2-1.cdninstagram.com&_nc_ohc=n7TuWPWiKLsAX-UiOkj&oh=f4f47fe7583da8ad235ac2f7dff12054&oe=5E82F4B3",
                        "username": "lee_wang6"
                    },
                    "text": "I noticed a crowd of people giving testimony about Richard for helping them make money from trading forex. So i decide to give him a try and to my surprise my first week of trading was very amazing i made more than $4,500. A very reasonable amount that i\u00a0can't even get from my current\u00a0 job, i guess someone might need his help as well. I can't\u00a0 stop sharing his good works \u2764 @forex_trader_richard7",
                    "viewer_has_liked": false
                }
            },
            {
                "node": {
                    "created_at": 1582338973,
                    "did_report_as_spam": false,
                    "edge_liked_by": {
                        "count": 1
                    },
                    "edge_threaded_comments": {
                        "count": 0,
                        "edges": [],
                        "page_info": {
                            "end_cursor": null,
                            "has_next_page": false
                        }
                    },
                    "id": "18024317638256844",
                    "is_restricted_pending": false,
                    "owner": {
                        "id": "7434067664",
                        "is_verified": false,
                        "profile_pic_url": "https://scontent-hel2-1.cdninstagram.com/v/t51.2885-19/s150x150/80557677_884195631983595_6137020967584530432_n.jpg?_nc_ht=scontent-hel2-1.cdninstagram.com&_nc_ohc=lM4peLgpGOQAX-VEZLw&oh=5b6949e0627812fefa492be68f18c2d6&oe=5E8BE68C",
                        "username": "zanele_njapha"
                    },
                    "text": "Extremely insightful",
                    "viewer_has_liked": false
                }
            },
            {
                "node": {
                    "created_at": 1582342858,
                    "did_report_as_spam": false,
                    "edge_liked_by": {
                        "count": 1
                    },
                    "edge_threaded_comments": {
                        "count": 0,
                        "edges": [],
                        "page_info": {
                            "end_cursor": null,
                            "has_next_page": false
                        }
                    },
                    "id": "17896928995446931",
                    "is_restricted_pending": false,
                    "owner": {
                        "id": "19799127390",
                        "is_verified": false,
                        "profile_pic_url": "https://scontent-hel2-1.cdninstagram.com/v/t51.2885-19/s150x150/83118729_195426531537467_6656951819899502592_n.jpg?_nc_ht=scontent-hel2-1.cdninstagram.com&_nc_ohc=d-lhrhCe_sIAX_daiN5&oh=d2ff6d7f9248d0544ccb7dbe189541fb&oe=5E8332EE",
                        "username": "lousrkk"
                    },
                    "text": "I think this one is also a fake video which is very deep\ud83e\udd14\ud83e\udd14",
                    "viewer_has_liked": false
                }
            },
            {
                "node": {
                    "created_at": 1582345602,
                    "did_report_as_spam": false,
                    "edge_liked_by": {
                        "count": 0
                    },
                    "edge_threaded_comments": {
                        "count": 0,
                        "edges": [],
                        "page_info": {
                            "end_cursor": null,
                            "has_next_page": false
                        }
                    },
                    "id": "17892076309467806",
                    "is_restricted_pending": false,
                    "owner": {
                        "id": "19286954",
                        "is_verified": false,
                        "profile_pic_url": "https://scontent-hel2-1.cdninstagram.com/v/t51.2885-19/s150x150/47694117_2273650682906779_5526992305673732096_n.jpg?_nc_ht=scontent-hel2-1.cdninstagram.com&_nc_ohc=aAFdqwiSxPgAX98cLav&oh=95e8b035e8721383db16c64dac609acf&oe=5E7FFEAD",
                        "username": "jerzeygreats"
                    },
                    "text": "\ud83d\ude33\ud83d\ude33",
                    "viewer_has_liked": false
                }
            },
            {
                "node": {
                    "created_at": 1582346302,
                    "did_report_as_spam": false,
                    "edge_liked_by": {
                        "count": 0
                    },
                    "edge_threaded_comments": {
                        "count": 0,
                        "edges": [],
                        "page_info": {
                            "end_cursor": null,
                            "has_next_page": false
                        }
                    },
                    "id": "18131249650059841",
                    "is_restricted_pending": false,
                    "owner": {
                        "id": "19058632713",
                        "is_verified": false,
                        "profile_pic_url": "https://scontent-hel2-1.cdninstagram.com/v/t51.2885-19/s150x150/83380143_183012299592186_2962407590237044736_n.jpg?_nc_ht=scontent-hel2-1.cdninstagram.com&_nc_ohc=Zy6spNdZR-EAX-PnRDj&oh=644c75fc1d26f8fd9c895901a75bbb10&oe=5E898FE5",
                        "username": "jpdevc_support_artist"
                    },
                    "text": "All People are deep fake no just on video lol\ud83c\udf37",
                    "viewer_has_liked": false
                }
            },
            {
                "node": {
                    "created_at": 1582347540,
                    "did_report_as_spam": false,
                    "edge_liked_by": {
                        "count": 0
                    },
                    "edge_threaded_comments": {
                        "count": 0,
                        "edges": [],
                        "page_info": {
                            "end_cursor": null,
                            "has_next_page": false
                        }
                    },
                    "id": "17945812060324857",
                    "is_restricted_pending": false,
                    "owner": {
                        "id": "20036229348",
                        "is_verified": false,
                        "profile_pic_url": "https://scontent-hel2-1.cdninstagram.com/v/t51.2885-19/s150x150/75564099_444693876185122_4992756502138716160_n.jpg?_nc_ht=scontent-hel2-1.cdninstagram.com&_nc_ohc=QcO77Pelji4AX8ly4E5&oh=e73d67bd57e2d9837b817096397cf2b9&oe=5E83BB19",
                        "username": "markjones880"
                    },
                    "text": "This is preposterous!",
                    "viewer_has_liked": false
                }
            },
            {
                "node": {
                    "created_at": 1582348949,
                    "did_report_as_spam": false,
                    "edge_liked_by": {
                        "count": 0
                    },
                    "edge_threaded_comments": {
                        "count": 0,
                        "edges": [],
                        "page_info": {
                            "end_cursor": null,
                            "has_next_page": false
                        }
                    },
                    "id": "18023637850256883",
                    "is_restricted_pending": false,
                    "owner": {
                        "id": "4215937439",
                        "is_verified": false,
                        "profile_pic_url": "https://scontent-hel2-1.cdninstagram.com/v/t51.2885-19/s150x150/54512349_331960940768866_4925855140893687808_n.jpg?_nc_ht=scontent-hel2-1.cdninstagram.com&_nc_ohc=pUn0G_bz0rMAX8BWnvs&oh=be59c7f0b126e4077336f55570328577&oe=5E883BB5",
                        "username": "roh_chak"
                    },
                    "text": "@sanjukta_bagchi . Must see.",
                    "viewer_has_liked": false
                }
            },
            {
                "node": {
                    "created_at": 1582355961,
                    "did_report_as_spam": false,
                    "edge_liked_by": {
                        "count": 0
                    },
                    "edge_threaded_comments": {
                        "count": 0,
                        "edges": [],
                        "page_info": {
                            "end_cursor": null,
                            "has_next_page": false
                        }
                    },
                    "id": "18050795785219450",
                    "is_restricted_pending": false,
                    "owner": {
                        "id": "36375849",
                        "is_verified": false,
                        "profile_pic_url": "https://scontent-hel2-1.cdninstagram.com/v/t51.2885-19/s150x150/81173506_1282029178670843_2806170106076332032_n.jpg?_nc_ht=scontent-hel2-1.cdninstagram.com&_nc_ohc=u5qTOELTSUEAX91KFZu&oh=472c2df6d99a912c644a5354864ec49f&oe=5E8B4F5B",
                        "username": "tmagenow"
                    },
                    "text": "Litty \ud83d\udd25",
                    "viewer_has_liked": false
                }
            },
            {
                "node": {
                    "created_at": 1582356087,
                    "did_report_as_spam": false,
                    "edge_liked_by": {
                        "count": 0
                    },
                    "edge_threaded_comments": {
                        "count": 0,
                        "edges": [],
                        "page_info": {
                            "end_cursor": null,
                            "has_next_page": false
                        }
                    },
                    "id": "17845495462957141",
                    "is_restricted_pending": false,
                    "owner": {
                        "id": "1412497088",
                        "is_verified": false,
                        "profile_pic_url": "https://scontent-hel2-1.cdninstagram.com/v/t51.2885-19/s150x150/13098853_472062866323485_1276139935_a.jpg?_nc_ht=scontent-hel2-1.cdninstagram.com&_nc_ohc=s257QbnhB_UAX_8g08Z&oh=9cac1a96b2825e2f106c142acff90942&oe=5E819B67",
                        "username": "atipat1212"
                    },
                    "text": "\ud83d\udd25\ud83d\udd25\ud83d\udd25\ud83d\udd25\ud83d\udd25\ud83d\udd25\ud83d\udd25\ud83d\udd25\ud83d\udd25\ud83d\udd25\ud83d\udd25\ud83d\udd25\ud83d\udd25\ud83d\udd25\ud83d\udd25\ud83d\udd25\ud83d\udd25\ud83d\udd25\ud83d\udd25\ud83d\udd25\ud83d\udd25\ud83d\udd25\ud83d\udd25\ud83d\udd25\ud83d\udd25",
                    "viewer_has_liked": false
                }
            },
            {
                "node": {
                    "created_at": 1582356095,
                    "did_report_as_spam": false,
                    "edge_liked_by": {
                        "count": 0
                    },
                    "edge_threaded_comments": {
                        "count": 0,
                        "edges": [],
                        "page_info": {
                            "end_cursor": null,
                            "has_next_page": false
                        }
                    },
                    "id": "17863203964720200",
                    "is_restricted_pending": false,
                    "owner": {
                        "id": "1412497088",
                        "is_verified": false,
                        "profile_pic_url": "https://scontent-hel2-1.cdninstagram.com/v/t51.2885-19/s150x150/13098853_472062866323485_1276139935_a.jpg?_nc_ht=scontent-hel2-1.cdninstagram.com&_nc_ohc=s257QbnhB_UAX_8g08Z&oh=9cac1a96b2825e2f106c142acff90942&oe=5E819B67",
                        "username": "atipat1212"
                    },
                    "text": "\ud83e\udd23\ud83e\udd23\ud83e\udd23\ud83e\udd23\ud83e\udd23\ud83e\udd23\ud83e\udd23\ud83e\udd23\ud83e\udd23\ud83e\udd23\ud83e\udd23\ud83e\udd23\ud83e\udd23\ud83e\udd23\ud83e\udd23\ud83e\udd23\ud83e\udd23\ud83e\udd23\ud83e\udd23\ud83e\udd23\ud83e\udd23\ud83e\udd23\ud83e\udd23\ud83e\udd23\ud83e\udd23",
                    "viewer_has_liked": false
                }
            },
            {
                "node": {
                    "created_at": 1582356243,
                    "did_report_as_spam": false,
                    "edge_liked_by": {
                        "count": 0
                    },
                    "edge_threaded_comments": {
                        "count": 0,
                        "edges": [],
                        "page_info": {
                            "end_cursor": null,
                            "has_next_page": false
                        }
                    },
                    "id": "17862150454722990",
                    "is_restricted_pending": false,
                    "owner": {
                        "id": "16571763865",
                        "is_verified": false,
                        "profile_pic_url": "https://scontent-hel2-1.cdninstagram.com/v/t51.2885-19/s150x150/69424186_542544016490256_3293589636508549120_n.jpg?_nc_ht=scontent-hel2-1.cdninstagram.com&_nc_ohc=KJh-7pryDaIAX_pS8g6&oh=a602b395bd63b3342709e352ef44a793&oe=5E88A202",
                        "username": "famenotes"
                    },
                    "text": "DarkSpace \ud83e\udd14 interesting.",
                    "viewer_has_liked": false
                }
            },
            {
                "node": {
                    "created_at": 1582388273,
                    "did_report_as_spam": false,
                    "edge_liked_by": {
                        "count": 0
                    },
                    "edge_threaded_comments": {
                        "count": 0,
                        "edges": [],
                        "page_info": {
                            "end_cursor": null,
                            "has_next_page": false
                        }
                    },
                    "id": "17926459480368472",
                    "is_restricted_pending": false,
                    "owner": {
                        "id": "2201334642",
                        "is_verified": false,
                        "profile_pic_url": "https://scontent-hel2-1.cdninstagram.com/v/t51.2885-19/s150x150/11881760_310846995706134_1075688530_a.jpg?_nc_ht=scontent-hel2-1.cdninstagram.com&_nc_ohc=Dijpvv9TseQAX9RVd9e&oh=3213ad2cbca94bbdf8ec93815b0301d7&oe=5E814A47",
                        "username": "ngocnguyen07kt02"
                    },
                    "text": "\ud83d\ude2e\ud83d\ude2e\ud83d\ude2e",
                    "viewer_has_liked": false
                }
            },
            {
                "node": {
                    "created_at": 1582392899,
                    "did_report_as_spam": false,
                    "edge_liked_by": {
                        "count": 0
                    },
                    "edge_threaded_comments": {
                        "count": 0,
                        "edges": [],
                        "page_info": {
                            "end_cursor": null,
                            "has_next_page": false
                        }
                    },
                    "id": "17846503555942234",
                    "is_restricted_pending": false,
                    "owner": {
                        "id": "8284291565",
                        "is_verified": false,
                        "profile_pic_url": "https://scontent-hel2-1.cdninstagram.com/v/t51.2885-19/s150x150/60332544_2555726037772950_9041333580340396032_n.jpg?_nc_ht=scontent-hel2-1.cdninstagram.com&_nc_ohc=yqkIFa8icjYAX-MjX_c&oh=98092cc1c2e560ae65b4268c8b613bb1&oe=5E8AF2F7",
                        "username": "williamwaters974"
                    },
                    "text": "I'm so endowed I never imagined or dreamed I can earned from binary option trade but to crown it all Mr Bauer I earned passively from him in seven days I was so surprised I received my withdrawal directly to my bank @beyond_option",
                    "viewer_has_liked": false
                }
            },
            {
                "node": {
                    "created_at": 1582460036,
                    "did_report_as_spam": false,
                    "edge_liked_by": {
                        "count": 0
                    },
                    "edge_threaded_comments": {
                        "count": 0,
                        "edges": [],
                        "page_info": {
                            "end_cursor": null,
                            "has_next_page": false
                        }
                    },
                    "id": "17847336784913713",
                    "is_restricted_pending": false,
                    "owner": {
                        "id": "26057650628",
                        "is_verified": false,
                        "profile_pic_url": "https://scontent-hel2-1.cdninstagram.com/v/t51.2885-19/s150x150/80389027_877175522700779_7908506617098797056_n.jpg?_nc_ht=scontent-hel2-1.cdninstagram.com&_nc_ohc=9go324uq_D4AX9_bpw5&oh=0141d25aa34f7b62ea9149a74470ed7b&oe=5E85C90A",
                        "username": "hiltopsophia_fx"
                    },
                    "text": "Why waste your time on monthly salary when you can be earning over \u00a35000 consistently every week, you don\u2019t have to send money to anyone just ask me how and inbox me.",
                    "viewer_has_liked": false
                }
            }
        ],
        "page_info": {
            "end_cursor": null,
            "has_next_page": false
        }
    },
    "edge_media_to_sponsor_user": {
        "edges": []
    },
    "edge_media_to_tagged_user": {
        "edges": []
    },
    "edge_web_media_to_related_media": {
        "edges": []
    },
    "encoding_status": null,
    "fact_check_information": null,
    "fact_check_overall_rating": null,
    "gating_info": null,
    "has_ranked_comments": false,
    "id": "2249142251343709303",
    "is_ad": false,
    "is_published": true,
    "is_video": true,
    "location": null,
    "media_preview": "ABsqg2n0P5UYNbLsRVNsH5txJ9McDIyBj/P1rV1LdDJUr9Sjil2n0NWHbgEDqATj19qkjfC9SKftPIXs/MomSTce4Hv/APXq6JSUBPcdKy53KnZ3qF3J4BNYM6FoWg5lJDYAHpUhbHTpWbuK1dRoyBnINCYmhXjVzuOc/Wm+Qnv+dTUV18seyOPml3ZD9nT3/On+Wo7frT6KOWPZBzy7s//Z",
    "owner": {
        "blocked_by_viewer": false,
        "followed_by_viewer": false,
        "full_name": "CNBC International",
        "has_blocked_viewer": false,
        "id": "1650561640",
        "is_private": false,
        "is_unpublished": false,
        "is_verified": true,
        "profile_pic_url": "https://scontent-hel2-1.cdninstagram.com/v/t51.2885-19/s150x150/56908089_562349314274220_6663672653443760128_n.jpg?_nc_ht=scontent-hel2-1.cdninstagram.com&_nc_ohc=DWmDJDyUmCcAX_UhKVx&oh=797312cfc304e1b4141719eb4d6bbf80&oe=5E80F8D4",
        "requested_by_viewer": false,
        "restricted_by_viewer": null,
        "username": "cnbcinternational"
    },
    "product_type": "igtv",
    "shortcode": "B82jvYMqgR3",
    "taken_at_timestamp": 1582338713,
    "thumbnail_src": "https://scontent-hel2-1.cdninstagram.com/v/t51.2885-15/sh0.08/e35/c0.300.1080.1080a/s640x640/85133304_214903549661907_9048187790983887610_n.jpg?_nc_ht=scontent-hel2-1.cdninstagram.com&_nc_cat=103&_nc_ohc=bFRy3qkr84kAX8MAyOu&oh=1576a1f5693acc952cee81476ff398aa&oe=5E587CB5",
    "title": "Would you recognize a deepfake video? \ud83e\uddd0",
    "tracking_token": "eyJ2ZXJzaW9uIjo1LCJwYXlsb2FkIjp7ImlzX2FuYWx5dGljc190cmFja2VkIjp0cnVlLCJ1dWlkIjoiNzZlMjNjMjI2MDVlNGM2NDgxMjQ4NGVkYzA1NjE3NDYyMjQ5MTQyMjUxMzQzNzA5MzAzIn0sInNpZ25hdHVyZSI6IiJ9",
    "video_duration": 254.839,
    "video_url": "https://scontent-hel2-1.cdninstagram.com/v/t50.16885-16/10000000_195631694873609_4716458919754109204_n.mp4?_nc_ht=scontent-hel2-1.cdninstagram.com&_nc_cat=105&_nc_ohc=kxt26IE9aooAX_X2jAH&oe=5E58FBC5&oh=9e29a1f5bc62e70353c68a6d017c3f37",
    "video_view_count": 19280,
    "viewer_can_reshare": true,
    "viewer_has_liked": false,
    "viewer_has_saved": false,
    "viewer_has_saved_to_collection": false,
    "viewer_in_photo_of_you": false
}