{
    "__typename": "GraphVideo",
    "caption_is_edited": false,
    "commenting_disabled_for_viewer": false,
    "comments_disabled": false,
    "dash_info": {
        "is_dash_eligible": false,
        "number_of_qualities": 0,
        "video_dash_manifest": null
    },
    "dimensions": {
        "height": 422,
        "width": 750
    },
    "display_resources": [
        {
            "config_height": 360,
            "config_width": 640,
            "src": "https://scontent-hel2-1.cdninstagram.com/v/t51.2885-15/sh0.08/e35/s640x640/85238303_132897434702321_420024332253234014_n.jpg?_nc_ht=scontent-hel2-1.cdninstagram.com&_nc_cat=105&_nc_ohc=at2rm5HCJ7QAX-TcTb2&oh=b2bad7c562e9ad5a76d4dc31a982507b&oe=5E585B3F"
        },
        {
            "config_height": 422,
            "config_width": 750,
            "src": "https://scontent-hel2-1.cdninstagram.com/v/t51.2885-15/e35/85238303_132897434702321_420024332253234014_n.jpg?_nc_ht=scontent-hel2-1.cdninstagram.com&_nc_cat=105&_nc_ohc=at2rm5HCJ7QAX-TcTb2&oh=d063ab921f7909bda263f4eb5a8f2c6e&oe=5E58D1CC"
        },
        {
            "config_height": 609,
            "config_width": 1080,
            "src": "https://scontent-hel2-1.cdninstagram.com/v/t51.2885-15/e35/85238303_132897434702321_420024332253234014_n.jpg?_nc_ht=scontent-hel2-1.cdninstagram.com&_nc_cat=105&_nc_ohc=at2rm5HCJ7QAX-TcTb2&oh=d063ab921f7909bda263f4eb5a8f2c6e&oe=5E58D1CC"
        }
    ],
    "display_url": "https://scontent-hel2-1.cdninstagram.com/v/t51.2885-15/e35/85238303_132897434702321_420024332253234014_n.jpg?_nc_ht=scontent-hel2-1.cdninstagram.com&_nc_cat=105&_nc_ohc=at2rm5HCJ7QAX-TcTb2&oh=d063ab921f7909bda263f4eb5a8f2c6e&oe=5E58D1CC",
    "edge_media_preview_comment": {
        "count": 0,
        "edges": []
    },
    "edge_media_preview_like": {
        "count": 23,
        "edges": []
    },
    "edge_media_to_caption": {
        "edges": [
            {
                "node": {
                    "text": "Ctrl Shift Face isimli YouTube kanal\u0131, deepfake kullanarak Neo'nun mavi hap\u0131 se\u00e7ti\u011fi alternatif bir The Matrix filmi haz\u0131rlad\u0131. Biz buna hem #Evham hem de #\u0130lham diyelim.\n\nFilmin tamam\u0131n\u0131 gelecekburada.net \u00fczerinden veya YouTube'da Ctrl Shift Face kanal\u0131ndan izleyebilirsiniz. \n#Gelecekburada #TheMatrix #Deepfake #Neo #Bluepill #Neverland #RabbitHole #Matrix #TheMatrix4"
                }
            }
        ]
    },
    "edge_media_to_hoisted_comment": {
        "edges": []
    },
    "edge_media_to_parent_comment": {
        "count": 0,
        "edges": [],
        "page_info": {
            "end_cursor": null,
            "has_next_page": false
        }
    },
    "edge_media_to_sponsor_user": {
        "edges": []
    },
    "edge_media_to_tagged_user": {
        "edges": []
    },
    "edge_web_media_to_related_media": {
        "edges": []
    },
    "encoding_status": null,
    "fact_check_information": null,
    "fact_check_overall_rating": null,
    "gating_info": null,
    "has_ranked_comments": false,
    "id": "2249383901116124384",
    "is_ad": false,
    "is_published": true,
    "is_video": true,
    "location": null,
    "media_preview": "ACoXwM4POPyFPkTCbhgg8fT61E2Sx+ppGkJG3t6Uh6EYqyrtt+6MHjOOeKrVPECwKjHrycf/AFqBB7f0owfSlcFDg5BqLdSAekxQEdQfWoaKKoAq3E4C9BnpnAP+fzoopAPa6My7ZOcD2/Tjj8DVPiiigD//2Q==",
    "owner": {
        "blocked_by_viewer": false,
        "followed_by_viewer": false,
        "full_name": "#gelecekburada",
        "has_blocked_viewer": false,
        "id": "4542358035",
        "is_private": false,
        "is_unpublished": false,
        "is_verified": false,
        "profile_pic_url": "https://scontent-hel2-1.cdninstagram.com/v/t51.2885-19/s150x150/18380303_455996878066911_3000570466311077888_a.jpg?_nc_ht=scontent-hel2-1.cdninstagram.com&_nc_ohc=uK8lMib4KmAAX-adf7D&oh=17f885a14478c459835a28870284153a&oe=5E88860D",
        "requested_by_viewer": false,
        "restricted_by_viewer": null,
        "username": "gelecek_burada"
    },
    "product_type": "feed",
    "shortcode": "B83ar2Fgkzg",
    "taken_at_timestamp": 1582367527,
    "thumbnail_src": "https://scontent-hel2-1.cdninstagram.com/v/t51.2885-15/e35/c157.0.406.406a/85238303_132897434702321_420024332253234014_n.jpg?_nc_ht=scontent-hel2-1.cdninstagram.com&_nc_cat=105&_nc_ohc=at2rm5HCJ7QAX-TcTb2&oh=8a1fd26005412797737a9a320f6a19d5&oe=5E586E90",
    "title": "",
    "tracking_token": "eyJ2ZXJzaW9uIjo1LCJwYXlsb2FkIjp7ImlzX2FuYWx5dGljc190cmFja2VkIjp0cnVlLCJ1dWlkIjoiNzFmZjM0ODMyZjZmNDllZGEyNjNlMzdlZTRjMzRlNjgyMjQ5MzgzOTAxMTE2MTI0Mzg0In0sInNpZ25hdHVyZSI6IiJ9",
    "video_duration": 60.288,
    "video_url": "https://scontent-hel2-1.cdninstagram.com/v/t50.2886-16/87128896_187384695822223_633084459314124758_n.mp4?_nc_ht=scontent-hel2-1.cdninstagram.com&_nc_cat=107&_nc_ohc=T2BMqEGWNrsAX9Udyif&oe=5E58A5AD&oh=19af22cdd24d84a17598fe36e3b185ce",
    "video_view_count": 337,
    "viewer_can_reshare": true,
    "viewer_has_liked": false,
    "viewer_has_saved": false,
    "viewer_has_saved_to_collection": false,
    "viewer_in_photo_of_you": false
}