{
    "__typename": "GraphVideo",
    "caption_is_edited": false,
    "commenting_disabled_for_viewer": false,
    "comments_disabled": false,
    "dash_info": {
        "is_dash_eligible": false,
        "number_of_qualities": 0,
        "video_dash_manifest": null
    },
    "dimensions": {
        "height": 1920,
        "width": 1080
    },
    "display_resources": [
        {
            "config_height": 1137,
            "config_width": 640,
            "src": "https://scontent-hel2-1.cdninstagram.com/v/t51.2885-15/sh0.08/e35/p640x640/84159188_630704721074585_1975448427382241867_n.jpg?_nc_ht=scontent-hel2-1.cdninstagram.com&_nc_cat=105&_nc_ohc=TU3Vmsin7bQAX8AAr6b&oh=40e6ddb0f4d7273dbaeec5a74bebb120&oe=5E58D9B5"
        },
        {
            "config_height": 1333,
            "config_width": 750,
            "src": "https://scontent-hel2-1.cdninstagram.com/v/t51.2885-15/sh0.08/e35/p750x750/84159188_630704721074585_1975448427382241867_n.jpg?_nc_ht=scontent-hel2-1.cdninstagram.com&_nc_cat=105&_nc_ohc=TU3Vmsin7bQAX8AAr6b&oh=0807d306218420a5303a19e6ec180f32&oe=5E589875"
        },
        {
            "config_height": 1920,
            "config_width": 1080,
            "src": "https://scontent-hel2-1.cdninstagram.com/v/t51.2885-15/fr/e15/p1080x1080/84159188_630704721074585_1975448427382241867_n.jpg?_nc_ht=scontent-hel2-1.cdninstagram.com&_nc_cat=105&_nc_ohc=TU3Vmsin7bQAX8AAr6b&oh=b12d7312f4b0b5c98c92db44b3355957&oe=5E586B5D"
        }
    ],
    "display_url": "https://scontent-hel2-1.cdninstagram.com/v/t51.2885-15/fr/e15/p1080x1080/84159188_630704721074585_1975448427382241867_n.jpg?_nc_ht=scontent-hel2-1.cdninstagram.com&_nc_cat=105&_nc_ohc=TU3Vmsin7bQAX8AAr6b&oh=b12d7312f4b0b5c98c92db44b3355957&oe=5E586B5D",
    "edge_media_preview_comment": {
        "count": 10,
        "edges": [
            {
                "node": {
                    "created_at": 1582444828,
                    "did_report_as_spam": false,
                    "edge_liked_by": {
                        "count": 1
                    },
                    "id": "17851881094843297",
                    "is_restricted_pending": false,
                    "owner": {
                        "id": "7508046781",
                        "is_verified": false,
                        "profile_pic_url": "https://scontent-hel2-1.cdninstagram.com/v/t51.2885-19/s150x150/84492447_212104356584281_4016451410022367232_n.jpg?_nc_ht=scontent-hel2-1.cdninstagram.com&_nc_ohc=VKfvLg8agwMAX-puaIk&oh=a3d867fafb0649551bd8fd7cc98260d6&oe=5E80267B",
                        "username": "fucdapols"
                    },
                    "text": "Finally I can make arnab's wife deepfakes \ud83d\ude33\ud83e\udd24\ud83e\udd24\ud83e\udd24\ud83e\udd24",
                    "viewer_has_liked": false
                }
            },
            {
                "node": {
                    "created_at": 1582455174,
                    "did_report_as_spam": false,
                    "edge_liked_by": {
                        "count": 0
                    },
                    "id": "17851229401887558",
                    "is_restricted_pending": false,
                    "owner": {
                        "id": "1563604082",
                        "is_verified": false,
                        "profile_pic_url": "https://scontent-hel2-1.cdninstagram.com/v/t51.2885-19/s150x150/84358876_147735336246621_1344715038736252928_n.jpg?_nc_ht=scontent-hel2-1.cdninstagram.com&_nc_ohc=8j1-h-jgiWYAX8ZpbMY&oh=8844d8f3de19198f1a08a4abb1fa463d&oe=5E8B0E87",
                        "username": "its._.me._.rishi"
                    },
                    "text": "@spiritual__hindu *\u091a\u0942\u0924\u093f\u092f\u093e",
                    "viewer_has_liked": false
                }
            }
        ]
    },
    "edge_media_preview_like": {
        "count": 1597,
        "edges": []
    },
    "edge_media_to_caption": {
        "edges": [
            {
                "node": {
                    "text": "Deepfake is basically machine learning technology that manipulates audio and video recording to show people things that others never did or said. In 2020, during the Delhi elections, there were deepfake videos of BJP politician Manoj Tiwari that were shared on WhatsApp groups.\nCatch more here: http://bit.ly/2SP8LiY\n\n#DelhiElections #Delhi #India #IndianPolitics #Technology #Deepfake #WhatsApp"
                }
            }
        ]
    },
    "edge_media_to_hoisted_comment": {
        "edges": []
    },
    "edge_media_to_parent_comment": {
        "count": 10,
        "edges": [
            {
                "node": {
                    "created_at": 1582426225,
                    "did_report_as_spam": false,
                    "edge_liked_by": {
                        "count": 0
                    },
                    "edge_threaded_comments": {
                        "count": 0,
                        "edges": [],
                        "page_info": {
                            "end_cursor": null,
                            "has_next_page": false
                        }
                    },
                    "id": "17852063173874789",
                    "is_restricted_pending": false,
                    "owner": {
                        "id": "2212946440",
                        "is_verified": false,
                        "profile_pic_url": "https://scontent-hel2-1.cdninstagram.com/v/t51.2885-19/s150x150/49821453_2206030649617433_8766414763832901632_n.jpg?_nc_ht=scontent-hel2-1.cdninstagram.com&_nc_ohc=IiD5_xkd9UsAX9j_jBy&oh=83fc7efda8b64cd5b10ed1ce12d81505&oe=5E8392F9",
                        "username": "themakky"
                    },
                    "text": "Manoj is a stupid person",
                    "viewer_has_liked": false
                }
            },
            {
                "node": {
                    "created_at": 1582426922,
                    "did_report_as_spam": false,
                    "edge_liked_by": {
                        "count": 1
                    },
                    "edge_threaded_comments": {
                        "count": 2,
                        "edges": [
                            {
                                "node": {
                                    "created_at": 1582427490,
                                    "did_report_as_spam": false,
                                    "edge_liked_by": {
                                        "count": 4
                                    },
                                    "id": "17848285819928953",
                                    "is_restricted_pending": false,
                                    "owner": {
                                        "id": "21714128963",
                                        "is_verified": false,
                                        "profile_pic_url": "https://scontent-hel2-1.cdninstagram.com/v/t51.2885-19/s150x150/83502952_491947528385536_6519906684863774720_n.jpg?_nc_ht=scontent-hel2-1.cdninstagram.com&_nc_ohc=wW35VR7Q8MIAX-Wh2Gn&oh=dbf78ad5243fafd75ebcd213debd0b44&oe=5E8C374E",
                                        "username": "spiritual__hindu"
                                    },
                                    "text": "@guruagorinathji \u092f\u0947 \u092d\u093e\u0908 \u091a\u0941\u091f\u093f\u092f\u093e \u0939\u094b \u0915\u094d\u092f\u093e? \u0938\u093e\u0932\u093e \u0939\u093f\u0928\u094d\u0926\u0942 \u0927\u0930\u094d\u092e \u0915\u094b \u092c\u0926\u0928\u093e\u092e \u0915\u0930 \u0930\u0916\u093e \u0939\u0948 \u0906\u092a\u0932\u094b\u0917\u094b \u0928\u0947\u0964",
                                    "viewer_has_liked": false
                                }
                            },
                            {
                                "node": {
                                    "created_at": 1582455174,
                                    "did_report_as_spam": false,
                                    "edge_liked_by": {
                                        "count": 0
                                    },
                                    "id": "17851229401887558",
                                    "is_restricted_pending": false,
                                    "owner": {
                                        "id": "1563604082",
                                        "is_verified": false,
                                        "profile_pic_url": "https://scontent-hel2-1.cdninstagram.com/v/t51.2885-19/s150x150/84358876_147735336246621_1344715038736252928_n.jpg?_nc_ht=scontent-hel2-1.cdninstagram.com&_nc_ohc=8j1-h-jgiWYAX8ZpbMY&oh=8844d8f3de19198f1a08a4abb1fa463d&oe=5E8B0E87",
                                        "username": "its._.me._.rishi"
                                    },
                                    "text": "@spiritual__hindu *\u091a\u0942\u0924\u093f\u092f\u093e",
                                    "viewer_has_liked": false
                                }
                            }
                        ],
                        "page_info": {
                            "end_cursor": null,
                            "has_next_page": false
                        }
                    },
                    "id": "17905787575421826",
                    "is_restricted_pending": false,
                    "owner": {
                        "id": "26229281029",
                        "is_verified": false,
                        "profile_pic_url": "https://scontent-hel2-1.cdninstagram.com/v/t51.2885-19/s150x150/79721193_923130668081754_5573463649952989184_n.jpg?_nc_ht=scontent-hel2-1.cdninstagram.com&_nc_ohc=dV4Yv8G1NEcAX8ynZtF&oh=b65bce52be66393efbc71daa7c24f049&oe=5E87ED48",
                        "username": "guruagorinathji"
                    },
                    "text": "How to get back your love,,,,,,,,,,,,,Solution's only one (((((Vashikaran))))).\u0905\u092a\u0928\u0947 \u092a\u094d\u0930\u0947\u092e\u0940 \u092f\u093e \u092a\u094d\u0930\u0947\u092e\u093f\u0915\u093e \u0915\u093e \u092b\u094b\u091f\u094b \u0926\u093f\u0916\u093e\u0915\u0930 \u0905\u092a\u0928\u0947 \u0930\u0942\u0920\u0947 \u092a\u094d\u092f\u093e\u0930 \u0915\u094b \u0935\u093e\u092a\u0938 \u0905\u092a\u0928\u0940 \u091c\u093f\u0928\u094d\u0926\u0917\u0940 \u092e\u0947 \u0932\u093e \u0938\u0915\u0924\u0947 \u0939\u0948 (((((\u0935\u0936\u093f\u0915\u0930\u0923))))) \u0915\u0947 \u0926\u094d\u0935\u093e\u0930\u093e, \u092e\u093e \u0915\u093e\u092e\u093e\u0916\u094d\u092f\u093e \u0915\u0947 \u0926\u093f\u0935\u094d\u092f \u0938\u093f\u0926\u094d\u0927 \u092e\u0928\u094d\u0924\u094d\u0930\u094b \u0938\u0947 \u0905\u092a\u0928\u0947 \u092a\u094d\u092f\u093e\u0930 \u0915\u094b \u0935\u0936 \u092e\u0947 \u0915\u0930\u0947 \u092f\u093e \u0935\u0936 \u092e\u0947 \u0939\u0941\u0910 \u0915\u094b \u091b\u0941\u0921\u093e\u0910, \u0924\u094b \u0938\u094b\u091a\u093f\u0910 \u092e\u0924 \u0914\u0930 \u092b\u094b\u0928 \u0915\u0930\u0947, \u0907\u0938\u0938\u0947 \u092a\u0939\u0932\u0947 \u0915\u0947 \u0906\u092a\u0915\u093e \u0930\u0942\u0920\u093e \u092a\u094d\u092f\u093e\u0930 \u0915\u093f\u0938\u0940 \u0914\u0930 \u0915\u093e \u0939\u094b \u091c\u093e\u0910 Call & Whatsapp Now. +91+9592482775. \u091c\u092f \u092e\u093e \u0915\u093e\u092e\u093e\u0916\u094d\u092f\u093e,\u091c\u092f \u0915\u093e\u092e \u0938\u093f\u0926\u094d\u0927 \u092d\u0948\u0930\u0935 !\ud83d\udc8f",
                    "viewer_has_liked": false
                }
            },
            {
                "node": {
                    "created_at": 1582434296,
                    "did_report_as_spam": false,
                    "edge_liked_by": {
                        "count": 0
                    },
                    "edge_threaded_comments": {
                        "count": 0,
                        "edges": [],
                        "page_info": {
                            "end_cursor": null,
                            "has_next_page": false
                        }
                    },
                    "id": "17881322797510443",
                    "is_restricted_pending": false,
                    "owner": {
                        "id": "3139842925",
                        "is_verified": false,
                        "profile_pic_url": "https://scontent-hel2-1.cdninstagram.com/v/t51.2885-19/s150x150/84572187_235000020829780_214112817014374400_n.jpg?_nc_ht=scontent-hel2-1.cdninstagram.com&_nc_ohc=4l1HNLLsRcoAX_C-KnP&oh=e94ee314e3ea9952260bcf8f6ade8c34&oe=5E805AD4",
                        "username": "e.r.a.m.a_"
                    },
                    "text": "Was this a video on how you can create a deepfake ?",
                    "viewer_has_liked": false
                }
            },
            {
                "node": {
                    "created_at": 1582435657,
                    "did_report_as_spam": false,
                    "edge_liked_by": {
                        "count": 1
                    },
                    "edge_threaded_comments": {
                        "count": 2,
                        "edges": [
                            {
                                "node": {
                                    "created_at": 1582437426,
                                    "did_report_as_spam": false,
                                    "edge_liked_by": {
                                        "count": 1
                                    },
                                    "id": "18088344958148339",
                                    "is_restricted_pending": false,
                                    "owner": {
                                        "id": "1243544487",
                                        "is_verified": false,
                                        "profile_pic_url": "https://scontent-hel2-1.cdninstagram.com/v/t51.2885-19/11355031_766413470141908_446637403_a.jpg?_nc_ht=scontent-hel2-1.cdninstagram.com&_nc_ohc=ue6k5HoQmLEAX_exkBi&oh=843d4cade8ee63aa693a1cce7431cf90&oe=5E8BE706",
                                        "username": "maxflamer"
                                    },
                                    "text": "@dibya_rv corner taken normally....SAUUUULLLLL!!!",
                                    "viewer_has_liked": false
                                }
                            },
                            {
                                "node": {
                                    "created_at": 1582438039,
                                    "did_report_as_spam": false,
                                    "edge_liked_by": {
                                        "count": 1
                                    },
                                    "id": "18088092628144087",
                                    "is_restricted_pending": false,
                                    "owner": {
                                        "id": "3275775199",
                                        "is_verified": false,
                                        "profile_pic_url": "https://scontent-hel2-1.cdninstagram.com/v/t51.2885-19/s150x150/40583631_397260564139044_2845534593740701696_n.jpg?_nc_ht=scontent-hel2-1.cdninstagram.com&_nc_ohc=py7iev5JSiMAX_vUQ1T&oh=7e8b8d68ce5d2cd2febd3a4e1bb7a90d&oe=5E861196",
                                        "username": "dibya_rv"
                                    },
                                    "text": "@maxflamer XD",
                                    "viewer_has_liked": false
                                }
                            }
                        ],
                        "page_info": {
                            "end_cursor": null,
                            "has_next_page": false
                        }
                    },
                    "id": "17856786286790850",
                    "is_restricted_pending": false,
                    "owner": {
                        "id": "3275775199",
                        "is_verified": false,
                        "profile_pic_url": "https://scontent-hel2-1.cdninstagram.com/v/t51.2885-19/s150x150/40583631_397260564139044_2845534593740701696_n.jpg?_nc_ht=scontent-hel2-1.cdninstagram.com&_nc_ohc=py7iev5JSiMAX_vUQ1T&oh=7e8b8d68ce5d2cd2febd3a4e1bb7a90d&oe=5E861196",
                        "username": "dibya_rv"
                    },
                    "text": "Liverpool is everywhere. YNWA",
                    "viewer_has_liked": false
                }
            },
            {
                "node": {
                    "created_at": 1582441013,
                    "did_report_as_spam": false,
                    "edge_liked_by": {
                        "count": 0
                    },
                    "edge_threaded_comments": {
                        "count": 0,
                        "edges": [],
                        "page_info": {
                            "end_cursor": null,
                            "has_next_page": false
                        }
                    },
                    "id": "17941721317329671",
                    "is_restricted_pending": false,
                    "owner": {
                        "id": "1714135794",
                        "is_verified": false,
                        "profile_pic_url": "https://scontent-hel2-1.cdninstagram.com/v/t51.2885-19/s150x150/37813919_1827660007282800_6088046739703463936_n.jpg?_nc_ht=scontent-hel2-1.cdninstagram.com&_nc_ohc=bdQw8rRiF3QAX9qnRKF&oh=0628ca000df9bfffc28dbbb3f162847b&oe=5E8A261B",
                        "username": "adv.faizal_ahmed_galivant"
                    },
                    "text": "Gazab",
                    "viewer_has_liked": false
                }
            },
            {
                "node": {
                    "created_at": 1582444828,
                    "did_report_as_spam": false,
                    "edge_liked_by": {
                        "count": 1
                    },
                    "edge_threaded_comments": {
                        "count": 0,
                        "edges": [],
                        "page_info": {
                            "end_cursor": null,
                            "has_next_page": false
                        }
                    },
                    "id": "17851881094843297",
                    "is_restricted_pending": false,
                    "owner": {
                        "id": "7508046781",
                        "is_verified": false,
                        "profile_pic_url": "https://scontent-hel2-1.cdninstagram.com/v/t51.2885-19/s150x150/84492447_212104356584281_4016451410022367232_n.jpg?_nc_ht=scontent-hel2-1.cdninstagram.com&_nc_ohc=VKfvLg8agwMAX-puaIk&oh=a3d867fafb0649551bd8fd7cc98260d6&oe=5E80267B",
                        "username": "fucdapols"
                    },
                    "text": "Finally I can make arnab's wife deepfakes \ud83d\ude33\ud83e\udd24\ud83e\udd24\ud83e\udd24\ud83e\udd24",
                    "viewer_has_liked": false
                }
            }
        ],
        "page_info": {
            "end_cursor": null,
            "has_next_page": false
        }
    },
    "edge_media_to_sponsor_user": {
        "edges": []
    },
    "edge_media_to_tagged_user": {
        "edges": []
    },
    "edge_web_media_to_related_media": {
        "edges": []
    },
    "encoding_status": null,
    "fact_check_information": null,
    "fact_check_overall_rating": null,
    "gating_info": null,
    "has_ranked_comments": false,
    "id": "2249852456758194993",
    "is_ad": false,
    "is_published": true,
    "is_video": true,
    "location": null,
    "media_preview": null,
    "owner": {
        "blocked_by_viewer": false,
        "followed_by_viewer": false,
        "full_name": "The Quint",
        "has_blocked_viewer": false,
        "id": "1656647589",
        "is_private": false,
        "is_unpublished": false,
        "is_verified": true,
        "profile_pic_url": "https://scontent-hel2-1.cdninstagram.com/v/t51.2885-19/s150x150/68895828_724881561293752_3390369650712772608_n.jpg?_nc_ht=scontent-hel2-1.cdninstagram.com&_nc_ohc=hKRNNc3w6OsAX_BA3HO&oh=ad24ba207bd5015aa23eaa47d8eb980b&oe=5E8147C7",
        "requested_by_viewer": false,
        "restricted_by_viewer": null,
        "username": "thequint"
    },
    "product_type": "igtv",
    "shortcode": "B85FOOiHLMx",
    "taken_at_timestamp": 1582423877,
    "thumbnail_src": "https://scontent-hel2-1.cdninstagram.com/v/t51.2885-15/sh0.08/e35/c0.420.1080.1080a/s640x640/84159188_630704721074585_1975448427382241867_n.jpg?_nc_ht=scontent-hel2-1.cdninstagram.com&_nc_cat=105&_nc_ohc=TU3Vmsin7bQAX8AAr6b&oh=25d38d5306e22b90153e751afcbcf42f&oe=5E58FA33",
    "title": "Here\u2019s how you can make deepfake videos using free software",
    "tracking_token": "eyJ2ZXJzaW9uIjo1LCJwYXlsb2FkIjp7ImlzX2FuYWx5dGljc190cmFja2VkIjp0cnVlLCJ1dWlkIjoiNjZlZDgxMjlmZGI4NDkzMGFmZmE3ZWU4ZTUxNzNjOTAyMjQ5ODUyNDU2NzU4MTk0OTkzIn0sInNpZ25hdHVyZSI6IiJ9",
    "video_duration": 279.826,
    "video_url": "https://scontent-hel2-1.cdninstagram.com/v/t50.16885-16/10000000_845171669239437_170023598910403542_n.mp4?_nc_ht=scontent-hel2-1.cdninstagram.com&_nc_cat=109&_nc_ohc=DSsLGmjrSiMAX-qCXfH&oe=5E587A2A&oh=af7afee1b60028e324b493c4f8d59ccd",
    "video_view_count": 15969,
    "viewer_can_reshare": true,
    "viewer_has_liked": false,
    "viewer_has_saved": false,
    "viewer_has_saved_to_collection": false,
    "viewer_in_photo_of_you": false
}