{
    "__typename": "GraphVideo",
    "caption_is_edited": true,
    "commenting_disabled_for_viewer": false,
    "comments_disabled": false,
    "dash_info": {
        "is_dash_eligible": false,
        "number_of_qualities": 0,
        "video_dash_manifest": null
    },
    "dimensions": {
        "height": 750,
        "width": 750
    },
    "display_resources": [
        {
            "config_height": 640,
            "config_width": 640,
            "src": "https://scontent-hel2-1.cdninstagram.com/v/t51.2885-15/sh0.08/e35/s640x640/84158193_497147491210027_9210162540871697306_n.jpg?_nc_ht=scontent-hel2-1.cdninstagram.com&_nc_cat=107&_nc_ohc=ZJ9kuirojKMAX9_3zae&oh=c62aba93e2437b460101e2b529c1c84f&oe=5E58656A"
        },
        {
            "config_height": 750,
            "config_width": 750,
            "src": "https://scontent-hel2-1.cdninstagram.com/v/t51.2885-15/e35/84158193_497147491210027_9210162540871697306_n.jpg?_nc_ht=scontent-hel2-1.cdninstagram.com&_nc_cat=107&_nc_ohc=ZJ9kuirojKMAX9_3zae&oh=a1d52bf118e5c153e414c8e144ef537e&oe=5E58818F"
        },
        {
            "config_height": 1080,
            "config_width": 1080,
            "src": "https://scontent-hel2-1.cdninstagram.com/v/t51.2885-15/e35/84158193_497147491210027_9210162540871697306_n.jpg?_nc_ht=scontent-hel2-1.cdninstagram.com&_nc_cat=107&_nc_ohc=ZJ9kuirojKMAX9_3zae&oh=a1d52bf118e5c153e414c8e144ef537e&oe=5E58818F"
        }
    ],
    "display_url": "https://scontent-hel2-1.cdninstagram.com/v/t51.2885-15/e35/84158193_497147491210027_9210162540871697306_n.jpg?_nc_ht=scontent-hel2-1.cdninstagram.com&_nc_cat=107&_nc_ohc=ZJ9kuirojKMAX9_3zae&oh=a1d52bf118e5c153e414c8e144ef537e&oe=5E58818F",
    "edge_media_preview_comment": {
        "count": 2,
        "edges": [
            {
                "node": {
                    "created_at": 1582407892,
                    "did_report_as_spam": false,
                    "edge_liked_by": {
                        "count": 0
                    },
                    "id": "17854344664816356",
                    "is_restricted_pending": false,
                    "owner": {
                        "id": "1654015165",
                        "is_verified": false,
                        "profile_pic_url": "https://scontent-hel2-1.cdninstagram.com/v/t51.2885-19/s150x150/87636039_2528199927463084_8002646768309239808_n.jpg?_nc_ht=scontent-hel2-1.cdninstagram.com&_nc_ohc=JHs0iEvXek4AX_HqBFZ&oh=20e11fe453d92a0db6d116e977dfc9a6&oe=5E8180AF",
                        "username": "alfabeery"
                    },
                    "text": "WESH Morray @boobaofficial",
                    "viewer_has_liked": false
                }
            },
            {
                "node": {
                    "created_at": 1582446516,
                    "did_report_as_spam": false,
                    "edge_liked_by": {
                        "count": 0
                    },
                    "id": "17842669979017300",
                    "is_restricted_pending": false,
                    "owner": {
                        "id": "21971330505",
                        "is_verified": false,
                        "profile_pic_url": "https://scontent-hel2-1.cdninstagram.com/v/t51.2885-19/s150x150/82817344_1795818503875525_2084160728951947264_n.jpg?_nc_ht=scontent-hel2-1.cdninstagram.com&_nc_ohc=-S0B9swm96EAX_RzCJg&oh=0b0e0f27790a3191d8db0f1fee5c97ca&oe=5E8143BA",
                        "username": "fan_b2oba92i_pirate"
                    },
                    "text": "\ud83d\udd25\ud83d\udd25\ud83d\udd25\ud83d\udd25\u2764\ufe0f\u2764\ufe0f\u2764\ufe0f\ud83d\udc4c\ud83d\udc4c\ud83d\udc4c\ud83d\ude02",
                    "viewer_has_liked": false
                }
            }
        ]
    },
    "edge_media_preview_like": {
        "count": 66,
        "edges": []
    },
    "edge_media_to_caption": {
        "edges": [
            {
                "node": {
                    "text": "#KoppDicaprio #Titanic J'vais Tous Vous Couler \ud83c\udff4\u200d\u2620\ufe0f #Booba #Commelesautres #WeshMorray #deepfakes #deepfake ##LaPiraterie #lpnjf"
                }
            }
        ]
    },
    "edge_media_to_hoisted_comment": {
        "edges": []
    },
    "edge_media_to_parent_comment": {
        "count": 2,
        "edges": [
            {
                "node": {
                    "created_at": 1582407892,
                    "did_report_as_spam": false,
                    "edge_liked_by": {
                        "count": 0
                    },
                    "edge_threaded_comments": {
                        "count": 0,
                        "edges": [],
                        "page_info": {
                            "end_cursor": null,
                            "has_next_page": false
                        }
                    },
                    "id": "17854344664816356",
                    "is_restricted_pending": false,
                    "owner": {
                        "id": "1654015165",
                        "is_verified": false,
                        "profile_pic_url": "https://scontent-hel2-1.cdninstagram.com/v/t51.2885-19/s150x150/87636039_2528199927463084_8002646768309239808_n.jpg?_nc_ht=scontent-hel2-1.cdninstagram.com&_nc_ohc=JHs0iEvXek4AX_HqBFZ&oh=20e11fe453d92a0db6d116e977dfc9a6&oe=5E8180AF",
                        "username": "alfabeery"
                    },
                    "text": "WESH Morray @boobaofficial",
                    "viewer_has_liked": false
                }
            },
            {
                "node": {
                    "created_at": 1582446516,
                    "did_report_as_spam": false,
                    "edge_liked_by": {
                        "count": 0
                    },
                    "edge_threaded_comments": {
                        "count": 0,
                        "edges": [],
                        "page_info": {
                            "end_cursor": null,
                            "has_next_page": false
                        }
                    },
                    "id": "17842669979017300",
                    "is_restricted_pending": false,
                    "owner": {
                        "id": "21971330505",
                        "is_verified": false,
                        "profile_pic_url": "https://scontent-hel2-1.cdninstagram.com/v/t51.2885-19/s150x150/82817344_1795818503875525_2084160728951947264_n.jpg?_nc_ht=scontent-hel2-1.cdninstagram.com&_nc_ohc=-S0B9swm96EAX_RzCJg&oh=0b0e0f27790a3191d8db0f1fee5c97ca&oe=5E8143BA",
                        "username": "fan_b2oba92i_pirate"
                    },
                    "text": "\ud83d\udd25\ud83d\udd25\ud83d\udd25\ud83d\udd25\u2764\ufe0f\u2764\ufe0f\u2764\ufe0f\ud83d\udc4c\ud83d\udc4c\ud83d\udc4c\ud83d\ude02",
                    "viewer_has_liked": false
                }
            }
        ],
        "page_info": {
            "end_cursor": null,
            "has_next_page": false
        }
    },
    "edge_media_to_sponsor_user": {
        "edges": []
    },
    "edge_media_to_tagged_user": {
        "edges": [
            {
                "node": {
                    "user": {
                        "full_name": "boobaofficial",
                        "id": "29521531069",
                        "is_verified": true,
                        "profile_pic_url": "https://scontent-hel2-1.cdninstagram.com/v/t51.2885-19/s150x150/81359447_2555961111395256_3957821627508457472_n.jpg?_nc_ht=scontent-hel2-1.cdninstagram.com&_nc_ohc=Mj-M9IAlmpYAX9Wlikj&oh=af9f1d6505ec4bf3cea24fadde8026a6&oe=5E8B11B0",
                        "username": "boobaofficial"
                    },
                    "x": 0.0,
                    "y": 0.0
                }
            }
        ]
    },
    "edge_web_media_to_related_media": {
        "edges": []
    },
    "encoding_status": null,
    "fact_check_information": null,
    "fact_check_overall_rating": null,
    "gating_info": null,
    "has_ranked_comments": false,
    "id": "2249712969775150947",
    "is_ad": false,
    "is_published": true,
    "is_video": true,
    "location": null,
    "media_preview": "ACoqxxa7jwCo75p0FosxOCcD9akY5GMD8Min2jGOM5HQ49Kyu7GqWoxtOIPBzSPZLGMnJPtVxZwwJxjHvmq7Sl1OBjHoaLsbiiu1qB649f8AIoFsnv8An/8AWqbduHXp1pM0XYWRB5y9gw/HNX4ZFkHHPqD2qjsIwp5+vb2/xq1awu7Exjt+BxSeuw07b7E/yICCOtQuAqMR6cfjS5Uj+eaZOrJGCAQrHv3x/nipRbsVFAIHvSZapkPygUyquZ2IWnPb/wDXW3pdwioWmdQTwATjAHoO3P5965yitbGTdzpitsZS7SIVxkDcOW9/bvj1qnqlyrhVRg2CTwQe1YtFFrBe5ZjmA4P50/evqKp0VPKiuZn/2Q==",
    "owner": {
        "blocked_by_viewer": false,
        "followed_by_viewer": false,
        "full_name": "77SKOPP",
        "has_blocked_viewer": false,
        "id": "5901331427",
        "is_private": false,
        "is_unpublished": false,
        "is_verified": false,
        "profile_pic_url": "https://scontent-hel2-1.cdninstagram.com/v/t51.2885-19/s150x150/83460711_2741345045953860_2095288332085886976_n.jpg?_nc_ht=scontent-hel2-1.cdninstagram.com&_nc_ohc=PYbJKivAYRYAX8E5TAI&oh=d6397cbc4b8a7869a275b265fda37892&oe=5E8CD5C5",
        "requested_by_viewer": false,
        "restricted_by_viewer": null,
        "username": "77skopp"
    },
    "product_type": "feed",
    "shortcode": "B84lgbKCXdj",
    "taken_at_timestamp": 1582406754,
    "thumbnail_src": "https://scontent-hel2-1.cdninstagram.com/v/t51.2885-15/sh0.08/e35/s640x640/84158193_497147491210027_9210162540871697306_n.jpg?_nc_ht=scontent-hel2-1.cdninstagram.com&_nc_cat=107&_nc_ohc=ZJ9kuirojKMAX9_3zae&oh=c62aba93e2437b460101e2b529c1c84f&oe=5E58656A",
    "title": "",
    "tracking_token": "eyJ2ZXJzaW9uIjo1LCJwYXlsb2FkIjp7ImlzX2FuYWx5dGljc190cmFja2VkIjp0cnVlLCJ1dWlkIjoiY2ZiNGEzOGRmZDQ1NDFhZjllZDYzZjg3M2Y5NGM0NDQyMjQ5NzEyOTY5Nzc1MTUwOTQ3In0sInNpZ25hdHVyZSI6IiJ9",
    "video_duration": 10.166,
    "video_url": "https://scontent-hel2-1.cdninstagram.com/v/t50.2886-16/87908278_134615454717097_7023095484655484194_n.mp4?_nc_ht=scontent-hel2-1.cdninstagram.com&_nc_cat=101&_nc_ohc=Ko9bGSZiuHMAX8BjJg9&oe=5E58EA76&oh=42c41586cd8ddb7705b00f37ac6e9827",
    "video_view_count": 261,
    "viewer_can_reshare": true,
    "viewer_has_liked": false,
    "viewer_has_saved": false,
    "viewer_has_saved_to_collection": false,
    "viewer_in_photo_of_you": false
}