{
    "__typename": "GraphVideo",
    "caption_is_edited": false,
    "commenting_disabled_for_viewer": false,
    "comments_disabled": false,
    "dash_info": {
        "is_dash_eligible": false,
        "number_of_qualities": 0,
        "video_dash_manifest": null
    },
    "dimensions": {
        "height": 853,
        "width": 480
    },
    "display_resources": [
        {
            "config_height": 1137,
            "config_width": 640,
            "src": "https://scontent-hel2-1.cdninstagram.com/v/t51.2885-15/e35/85157122_330388641247249_3018563057242242249_n.jpg?_nc_ht=scontent-hel2-1.cdninstagram.com&_nc_cat=101&_nc_ohc=rE6vOVwQR84AX_N_gvF&oh=2624475bef12521fe203dcc7ac5af5e1&oe=5E58AA6B"
        },
        {
            "config_height": 1332,
            "config_width": 750,
            "src": "https://scontent-hel2-1.cdninstagram.com/v/t51.2885-15/e35/85157122_330388641247249_3018563057242242249_n.jpg?_nc_ht=scontent-hel2-1.cdninstagram.com&_nc_cat=101&_nc_ohc=rE6vOVwQR84AX_N_gvF&oh=2624475bef12521fe203dcc7ac5af5e1&oe=5E58AA6B"
        },
        {
            "config_height": 1919,
            "config_width": 1080,
            "src": "https://scontent-hel2-1.cdninstagram.com/v/t51.2885-15/e35/85157122_330388641247249_3018563057242242249_n.jpg?_nc_ht=scontent-hel2-1.cdninstagram.com&_nc_cat=101&_nc_ohc=rE6vOVwQR84AX_N_gvF&oh=2624475bef12521fe203dcc7ac5af5e1&oe=5E58AA6B"
        }
    ],
    "display_url": "https://scontent-hel2-1.cdninstagram.com/v/t51.2885-15/e35/85157122_330388641247249_3018563057242242249_n.jpg?_nc_ht=scontent-hel2-1.cdninstagram.com&_nc_cat=101&_nc_ohc=rE6vOVwQR84AX_N_gvF&oh=2624475bef12521fe203dcc7ac5af5e1&oe=5E58AA6B",
    "edge_media_preview_comment": {
        "count": 0,
        "edges": []
    },
    "edge_media_preview_like": {
        "count": 11,
        "edges": []
    },
    "edge_media_to_caption": {
        "edges": [
            {
                "node": {
                    "text": "Sewaktu ngobrol sama Mas Pratama dari @cissrec kami mendapati kondisi mencengangkan. Indonesia menempati posisi kedua negara paling banyak mendapat serangan siber. Deep fake sendiri termasuk salah satunya. Simak lagi penjelasan detil tentang bagaimana kita menjaga diri dari serangan siber!\n#15minutes\n#deepfake"
                }
            }
        ]
    },
    "edge_media_to_hoisted_comment": {
        "edges": []
    },
    "edge_media_to_parent_comment": {
        "count": 0,
        "edges": [],
        "page_info": {
            "end_cursor": null,
            "has_next_page": false
        }
    },
    "edge_media_to_sponsor_user": {
        "edges": []
    },
    "edge_media_to_tagged_user": {
        "edges": []
    },
    "edge_web_media_to_related_media": {
        "edges": []
    },
    "encoding_status": null,
    "fact_check_information": null,
    "fact_check_overall_rating": null,
    "gating_info": null,
    "has_ranked_comments": false,
    "id": "2249320317742739518",
    "is_ad": false,
    "is_published": true,
    "is_video": true,
    "location": null,
    "media_preview": "ABcqwzxV6OHeVzG3uc9fpx/npVYfdIwOe/cfSrn2e4jZRtTLDK/d6cD+o49eaoDRWNI0K+Wck+uTRWdPBOOJQBjntnn8eRRSsMRYkKg9MjP60lwtujAK7Hj5uOQeMdce/SqZcnqavSrIpBMKjKngDORxycHqPX3rR9CSBjC3Jdz9VB/9mopkiO5GI9vHRVPPvRSAgNXJD8wHnZ4+8c8dOOCT/wDqqiabTYy1IzJ0l35/uluPzxRVaikB/9k=",
    "owner": {
        "blocked_by_viewer": false,
        "followed_by_viewer": false,
        "full_name": "15 Minutes",
        "has_blocked_viewer": false,
        "id": "2519092872",
        "is_private": false,
        "is_unpublished": false,
        "is_verified": false,
        "profile_pic_url": "https://scontent-hel2-1.cdninstagram.com/v/t51.2885-19/s150x150/83937410_168590774438029_2454328678700548096_n.jpg?_nc_ht=scontent-hel2-1.cdninstagram.com&_nc_ohc=KbcYSwbzJbAAX9LpEB_&oh=8e731fa65a4d834d802bcde0f4a91165&oe=5E8218D5",
        "requested_by_viewer": false,
        "restricted_by_viewer": null,
        "username": "15minutes.metrotv"
    },
    "product_type": "igtv",
    "shortcode": "B83MOldH_A-",
    "taken_at_timestamp": 1582360094,
    "thumbnail_src": "https://scontent-hel2-1.cdninstagram.com/v/t51.2885-15/e35/c0.186.480.480a/85157122_330388641247249_3018563057242242249_n.jpg?_nc_ht=scontent-hel2-1.cdninstagram.com&_nc_cat=101&_nc_ohc=rE6vOVwQR84AX_N_gvF&oh=d290f8c418b46710b9af9d2d3612e7b0&oe=5E588474",
    "title": "Indonesia Diserang",
    "tracking_token": "eyJ2ZXJzaW9uIjo1LCJwYXlsb2FkIjp7ImlzX2FuYWx5dGljc190cmFja2VkIjpmYWxzZSwidXVpZCI6IjEwMGNjNjgyNTI0YTQzZmI4MzI0ZDUyYTViNjI0NDI4MjI0OTMyMDMxNzc0MjczOTUxOCJ9LCJzaWduYXR1cmUiOiIifQ==",
    "video_duration": 240.2,
    "video_url": "https://scontent-hel2-1.cdninstagram.com/v/t50.16885-16/10000000_2726787394037677_1991811539285209073_n.mp4?_nc_ht=scontent-hel2-1.cdninstagram.com&_nc_cat=101&_nc_ohc=IFIKXrKvomEAX9FpykE&oe=5E589C6A&oh=9be4106c7b612df2e338279bf1314feb",
    "video_view_count": 203,
    "viewer_can_reshare": true,
    "viewer_has_liked": false,
    "viewer_has_saved": false,
    "viewer_has_saved_to_collection": false,
    "viewer_in_photo_of_you": false
}