{
    "__typename": "GraphVideo",
    "caption_is_edited": false,
    "commenting_disabled_for_viewer": false,
    "comments_disabled": false,
    "dash_info": {
        "is_dash_eligible": false,
        "number_of_qualities": 0,
        "video_dash_manifest": null
    },
    "dimensions": {
        "height": 1138,
        "width": 640
    },
    "display_resources": [
        {
            "config_height": 1138,
            "config_width": 640,
            "src": "https://scontent-hel2-1.cdninstagram.com/v/t51.2885-15/e35/87574201_190462152160240_2715936934596238564_n.jpg?_nc_ht=scontent-hel2-1.cdninstagram.com&_nc_cat=104&_nc_ohc=7QQdu3uv_EEAX_6_Vk3&oh=60785190f4a59f0846fa9ac8550fdc2d&oe=5E58FFE2"
        },
        {
            "config_height": 1334,
            "config_width": 750,
            "src": "https://scontent-hel2-1.cdninstagram.com/v/t51.2885-15/e35/87574201_190462152160240_2715936934596238564_n.jpg?_nc_ht=scontent-hel2-1.cdninstagram.com&_nc_cat=104&_nc_ohc=7QQdu3uv_EEAX_6_Vk3&oh=60785190f4a59f0846fa9ac8550fdc2d&oe=5E58FFE2"
        },
        {
            "config_height": 1921,
            "config_width": 1080,
            "src": "https://scontent-hel2-1.cdninstagram.com/v/t51.2885-15/e35/87574201_190462152160240_2715936934596238564_n.jpg?_nc_ht=scontent-hel2-1.cdninstagram.com&_nc_cat=104&_nc_ohc=7QQdu3uv_EEAX_6_Vk3&oh=60785190f4a59f0846fa9ac8550fdc2d&oe=5E58FFE2"
        }
    ],
    "display_url": "https://scontent-hel2-1.cdninstagram.com/v/t51.2885-15/e35/87574201_190462152160240_2715936934596238564_n.jpg?_nc_ht=scontent-hel2-1.cdninstagram.com&_nc_cat=104&_nc_ohc=7QQdu3uv_EEAX_6_Vk3&oh=60785190f4a59f0846fa9ac8550fdc2d&oe=5E58FFE2",
    "edge_media_preview_comment": {
        "count": 4,
        "edges": [
            {
                "node": {
                    "created_at": 1582544869,
                    "did_report_as_spam": false,
                    "edge_liked_by": {
                        "count": 1
                    },
                    "id": "17847450415945763",
                    "is_restricted_pending": false,
                    "owner": {
                        "id": "265505691",
                        "is_verified": false,
                        "profile_pic_url": "https://scontent-hel2-1.cdninstagram.com/v/t51.2885-19/s150x150/29403374_176233313026918_7399399065189875712_n.jpg?_nc_ht=scontent-hel2-1.cdninstagram.com&_nc_ohc=sQCj4ttiux4AX_uYm1n&oh=d1f0310a1099b1800a9cbd153e3f28f8&oe=5E86A230",
                        "username": "joshdanielsofficial"
                    },
                    "text": "@hannahjperry",
                    "viewer_has_liked": false
                }
            },
            {
                "node": {
                    "created_at": 1582562061,
                    "did_report_as_spam": false,
                    "edge_liked_by": {
                        "count": 1
                    },
                    "id": "17847429037908591",
                    "is_restricted_pending": false,
                    "owner": {
                        "id": "11049365050",
                        "is_verified": false,
                        "profile_pic_url": "https://scontent-hel2-1.cdninstagram.com/v/t51.2885-19/s150x150/71829420_386451208969741_3824123311378399232_n.jpg?_nc_ht=scontent-hel2-1.cdninstagram.com&_nc_ohc=RXS38C9mrHkAX9rKmPh&oh=cb8d668396620b76fc2aa88d054f10b6&oe=5E85D407",
                        "username": "vjohnson2nd"
                    },
                    "text": "I hear this in Brody's voice lol",
                    "viewer_has_liked": false
                }
            }
        ]
    },
    "edge_media_preview_like": {
        "count": 65,
        "edges": []
    },
    "edge_media_to_caption": {
        "edges": [
            {
                "node": {
                    "text": "Scent of a Woman\n@brodyismefriend x Al Pacino\n\u2022\n\u2022\n\u2022\n\u2022\n\u2022\n#deepfake #scentofawoman #alpacino \n#stevenbrodystevens #yougotit  #pushittothelimit #tarzana #thehangover #thehangover2 #duedate #cutoutoffunnypeople #thecomedystore #positiveenergy #brodystevens #818tillidie #reseda #highkick #818  #pushandbelieve #bornjewishraisedgemini  #princeofperiscope #positivepush #yes  #comedy #comedian #hegetsit #standupcomedy #allthingscomedy #ccc #comedycontentcollective"
                }
            }
        ]
    },
    "edge_media_to_hoisted_comment": {
        "edges": []
    },
    "edge_media_to_parent_comment": {
        "count": 4,
        "edges": [
            {
                "node": {
                    "created_at": 1582517778,
                    "did_report_as_spam": false,
                    "edge_liked_by": {
                        "count": 1
                    },
                    "edge_threaded_comments": {
                        "count": 0,
                        "edges": [],
                        "page_info": {
                            "end_cursor": null,
                            "has_next_page": false
                        }
                    },
                    "id": "17850249502884083",
                    "is_restricted_pending": false,
                    "owner": {
                        "id": "8588788010",
                        "is_verified": false,
                        "profile_pic_url": "https://scontent-hel2-1.cdninstagram.com/v/t51.2885-19/s150x150/41296661_2273455169393652_8114909035808948224_n.jpg?_nc_ht=scontent-hel2-1.cdninstagram.com&_nc_ohc=Jm91zCUcQFIAX_16Zh7&oh=ef56c6b4f3d335890b4873399f04e757&oe=5E8C0729",
                        "username": "voicemonsteredits"
                    },
                    "text": "Awsome \ud83d\udc4f\ud83d\udc4f!!!!",
                    "viewer_has_liked": false
                }
            },
            {
                "node": {
                    "created_at": 1582519369,
                    "did_report_as_spam": false,
                    "edge_liked_by": {
                        "count": 1
                    },
                    "edge_threaded_comments": {
                        "count": 0,
                        "edges": [],
                        "page_info": {
                            "end_cursor": null,
                            "has_next_page": false
                        }
                    },
                    "id": "18057482662205788",
                    "is_restricted_pending": false,
                    "owner": {
                        "id": "7139966161",
                        "is_verified": false,
                        "profile_pic_url": "https://scontent-hel2-1.cdninstagram.com/v/t51.2885-19/s150x150/53622466_2120878654694335_6226500877415350272_n.jpg?_nc_ht=scontent-hel2-1.cdninstagram.com&_nc_ohc=2tRy41gOTE4AX9oalH_&oh=84d4c678fed709480ffd3aecfa1948b2&oe=5E846390",
                        "username": "photoshopped_af"
                    },
                    "text": "Snitches get stitches!",
                    "viewer_has_liked": false
                }
            },
            {
                "node": {
                    "created_at": 1582544869,
                    "did_report_as_spam": false,
                    "edge_liked_by": {
                        "count": 1
                    },
                    "edge_threaded_comments": {
                        "count": 0,
                        "edges": [],
                        "page_info": {
                            "end_cursor": null,
                            "has_next_page": false
                        }
                    },
                    "id": "17847450415945763",
                    "is_restricted_pending": false,
                    "owner": {
                        "id": "265505691",
                        "is_verified": false,
                        "profile_pic_url": "https://scontent-hel2-1.cdninstagram.com/v/t51.2885-19/s150x150/29403374_176233313026918_7399399065189875712_n.jpg?_nc_ht=scontent-hel2-1.cdninstagram.com&_nc_ohc=sQCj4ttiux4AX_uYm1n&oh=d1f0310a1099b1800a9cbd153e3f28f8&oe=5E86A230",
                        "username": "joshdanielsofficial"
                    },
                    "text": "@hannahjperry",
                    "viewer_has_liked": false
                }
            },
            {
                "node": {
                    "created_at": 1582562061,
                    "did_report_as_spam": false,
                    "edge_liked_by": {
                        "count": 1
                    },
                    "edge_threaded_comments": {
                        "count": 0,
                        "edges": [],
                        "page_info": {
                            "end_cursor": null,
                            "has_next_page": false
                        }
                    },
                    "id": "17847429037908591",
                    "is_restricted_pending": false,
                    "owner": {
                        "id": "11049365050",
                        "is_verified": false,
                        "profile_pic_url": "https://scontent-hel2-1.cdninstagram.com/v/t51.2885-19/s150x150/71829420_386451208969741_3824123311378399232_n.jpg?_nc_ht=scontent-hel2-1.cdninstagram.com&_nc_ohc=RXS38C9mrHkAX9rKmPh&oh=cb8d668396620b76fc2aa88d054f10b6&oe=5E85D407",
                        "username": "vjohnson2nd"
                    },
                    "text": "I hear this in Brody's voice lol",
                    "viewer_has_liked": false
                }
            }
        ],
        "page_info": {
            "end_cursor": null,
            "has_next_page": false
        }
    },
    "edge_media_to_sponsor_user": {
        "edges": []
    },
    "edge_media_to_tagged_user": {
        "edges": []
    },
    "edge_web_media_to_related_media": {
        "edges": []
    },
    "encoding_status": null,
    "fact_check_information": null,
    "fact_check_overall_rating": null,
    "gating_info": null,
    "has_ranked_comments": false,
    "id": "2250629286820299444",
    "is_ad": false,
    "is_published": true,
    "is_video": true,
    "location": null,
    "media_preview": "ABcqzEtvMUn5VKHGD3Pf8q0Y/Kki3bUB5GMDqOOKiiRjGWyOSxIPTAALH6DNU0KsMgikaaD0hCnLAY/A0U0iikBMJYlTAdM8jlCTyfXNBliQhgyHPA/dHGMD36j88nNZUZXcN4JXPIHBP0q/GYHQAqxxnA3cZ9fbPf8AnVEFiVkkUFSpPUBUK57HnPaiqSMIwRzkkEY9MHI549OtFIpFVRwT3A//AF1JEcLz7/yqNWIPBNSb29T+dMS0LkdzF5ZSQDgjtyRgf5+lFUCxPeikO5//2Q==",
    "owner": {
        "blocked_by_viewer": false,
        "followed_by_viewer": false,
        "full_name": "",
        "has_blocked_viewer": false,
        "id": "8193037304",
        "is_private": false,
        "is_unpublished": false,
        "is_verified": false,
        "profile_pic_url": "https://scontent-hel2-1.cdninstagram.com/v/t51.2885-19/s150x150/74535957_967738266958180_7062265044649639936_n.jpg?_nc_ht=scontent-hel2-1.cdninstagram.com&_nc_ohc=YpP2J70iv_UAX-WpcJ3&oh=f3742eded4891a8e45a071d9960d7207&oe=5E8112D7",
        "requested_by_viewer": false,
        "restricted_by_viewer": null,
        "username": "ohmydeezus"
    },
    "product_type": "igtv",
    "shortcode": "B8712l6A8K0",
    "taken_at_timestamp": 1582516090,
    "thumbnail_src": "https://scontent-hel2-1.cdninstagram.com/v/t51.2885-15/e35/c0.236.607.607a/87574201_190462152160240_2715936934596238564_n.jpg?_nc_ht=scontent-hel2-1.cdninstagram.com&_nc_cat=104&_nc_ohc=7QQdu3uv_EEAX_6_Vk3&oh=a39540bec0f0af00dbb38da271d4e13a&oe=5E58D3DC",
    "title": "Sunday\u2019s are for @brodyismefriend",
    "tracking_token": "eyJ2ZXJzaW9uIjo1LCJwYXlsb2FkIjp7ImlzX2FuYWx5dGljc190cmFja2VkIjpmYWxzZSwidXVpZCI6IjRhNDM2MDUyYTQ3ZDQyMmY4NjBlZWUwNjJhNWEyZmJhMjI1MDYyOTI4NjgyMDI5OTQ0NCJ9LCJzaWduYXR1cmUiOiIifQ==",
    "video_duration": 322.2,
    "video_url": "https://scontent-hel2-1.cdninstagram.com/v/t50.16885-16/10000000_1406829686145668_1290209908347813809_n.mp4?_nc_ht=scontent-hel2-1.cdninstagram.com&_nc_cat=108&_nc_ohc=CXdl1j_3Pd8AX8yIfs_&oe=5E586813&oh=237b0bb4efa4df55989f583920f8731a",
    "video_view_count": 893,
    "viewer_can_reshare": true,
    "viewer_has_liked": false,
    "viewer_has_saved": false,
    "viewer_has_saved_to_collection": false,
    "viewer_in_photo_of_you": false
}