{
    "__typename": "GraphVideo",
    "caption_is_edited": false,
    "commenting_disabled_for_viewer": false,
    "comments_disabled": false,
    "dash_info": {
        "is_dash_eligible": false,
        "number_of_qualities": 0,
        "video_dash_manifest": null
    },
    "dimensions": {
        "height": 799,
        "width": 640
    },
    "display_resources": [
        {
            "config_height": 799,
            "config_width": 640,
            "src": "https://scontent-hel2-1.cdninstagram.com/v/t51.2885-15/e35/84039660_2902060093184329_6547859515253315458_n.jpg?_nc_ht=scontent-hel2-1.cdninstagram.com&_nc_cat=101&_nc_ohc=qiJ3Tw9SUsgAX8Xs_4F&oh=e052e9679c4ba00e5fee932258401135&oe=5E58886E"
        },
        {
            "config_height": 936,
            "config_width": 750,
            "src": "https://scontent-hel2-1.cdninstagram.com/v/t51.2885-15/e35/84039660_2902060093184329_6547859515253315458_n.jpg?_nc_ht=scontent-hel2-1.cdninstagram.com&_nc_cat=101&_nc_ohc=qiJ3Tw9SUsgAX8Xs_4F&oh=e052e9679c4ba00e5fee932258401135&oe=5E58886E"
        },
        {
            "config_height": 1348,
            "config_width": 1080,
            "src": "https://scontent-hel2-1.cdninstagram.com/v/t51.2885-15/e35/84039660_2902060093184329_6547859515253315458_n.jpg?_nc_ht=scontent-hel2-1.cdninstagram.com&_nc_cat=101&_nc_ohc=qiJ3Tw9SUsgAX8Xs_4F&oh=e052e9679c4ba00e5fee932258401135&oe=5E58886E"
        }
    ],
    "display_url": "https://scontent-hel2-1.cdninstagram.com/v/t51.2885-15/e35/84039660_2902060093184329_6547859515253315458_n.jpg?_nc_ht=scontent-hel2-1.cdninstagram.com&_nc_cat=101&_nc_ohc=qiJ3Tw9SUsgAX8Xs_4F&oh=e052e9679c4ba00e5fee932258401135&oe=5E58886E",
    "edge_media_preview_comment": {
        "count": 0,
        "edges": []
    },
    "edge_media_preview_like": {
        "count": 16,
        "edges": []
    },
    "edge_media_to_caption": {
        "edges": [
            {
                "node": {
                    "text": "New on Opiniown.com:\nFuture of Cinemas \u2013 The Next Immersive Experience. Cinema is an immersive experience, which gives us the opportunity to transcend within the story realm itself, like a dream. After CG, 3D films and iMax 4D, what\u2019s gonna be next? Read the predictions by @abhishek.sareen in the article (link in bio) .\n.\n#cgi #terminator #arnoldschwarzenegger #opiniown #deepfake #cinema #movies #moviescenes #terminator2 #opinions"
                }
            }
        ]
    },
    "edge_media_to_hoisted_comment": {
        "edges": []
    },
    "edge_media_to_parent_comment": {
        "count": 0,
        "edges": [],
        "page_info": {
            "end_cursor": null,
            "has_next_page": false
        }
    },
    "edge_media_to_sponsor_user": {
        "edges": []
    },
    "edge_media_to_tagged_user": {
        "edges": [
            {
                "node": {
                    "user": {
                        "full_name": "Arnold Schwarzenegger",
                        "id": "198945880",
                        "is_verified": true,
                        "profile_pic_url": "https://scontent-hel2-1.cdninstagram.com/v/t51.2885-19/s150x150/74573503_770410946746336_200504221726932992_n.jpg?_nc_ht=scontent-hel2-1.cdninstagram.com&_nc_ohc=SMV2_VYM4zgAX8EwyDj&oh=0f9bbe60f010189fb44d819b9a2b6000&oe=5E85D50B",
                        "username": "schwarzenegger"
                    },
                    "x": 0.0,
                    "y": 0.0
                }
            },
            {
                "node": {
                    "user": {
                        "full_name": "Abhishek",
                        "id": "1162820986",
                        "is_verified": false,
                        "profile_pic_url": "https://scontent-hel2-1.cdninstagram.com/v/t51.2885-19/s150x150/73512759_556001835167535_1088876253663985664_n.jpg?_nc_ht=scontent-hel2-1.cdninstagram.com&_nc_ohc=JrTQRRL_GCUAX_X2UZC&oh=8d989ba6928d7a01783eadc5414900d6&oe=5E84B3E3",
                        "username": "abhishek.sareen"
                    },
                    "x": 0.0,
                    "y": 0.0
                }
            },
            {
                "node": {
                    "user": {
                        "full_name": "Terminator: Dark Fate",
                        "id": "1294957884",
                        "is_verified": true,
                        "profile_pic_url": "https://scontent-hel2-1.cdninstagram.com/v/t51.2885-19/s150x150/75476781_3389545074454059_6526367999304138752_n.jpg?_nc_ht=scontent-hel2-1.cdninstagram.com&_nc_ohc=T4cfwlFNTckAX-l1F58&oh=502a2b81c5f491e587fd29a50b189856&oe=5E8A2DFC",
                        "username": "terminator"
                    },
                    "x": 0.0,
                    "y": 0.0
                }
            }
        ]
    },
    "edge_web_media_to_related_media": {
        "edges": []
    },
    "encoding_status": null,
    "fact_check_information": null,
    "fact_check_overall_rating": null,
    "gating_info": null,
    "has_ranked_comments": false,
    "id": "2250711088742098178",
    "is_ad": false,
    "is_published": true,
    "is_video": true,
    "location": null,
    "media_preview": "ACEq1bviJvXBrmprZgcE89/yzXVzrvjYe3/665u4nYyk7fl6D6dBQwRUjgYOAp+c9P8APpWwG+Xn2rMWbyn3Ywy8j0P6Gtjadqk4yAOn+f500JlX5fUUVZ8k+/5D/CimSaNxcpAMvwP5+1c7JKrHcOA3I+h7VXuZzIOWLe5P+cD2qokxUY64qWWmaJcgiRRg9Mdeg+9/nvzWrbyrMgKdsAg9q51JGk+XGAM1ftPNtzkrwRyMgcevJpoTNnyx6UVU/tOL3/T/ABopknOt6+tRU9ulTQjKn60iiNT8vvkCnlwp4J4/M+tSsBsb6D+YqjQBb+0D+6KKqUUAf//Z",
    "owner": {
        "blocked_by_viewer": false,
        "followed_by_viewer": false,
        "full_name": "Shilpa Ahuja",
        "has_blocked_viewer": false,
        "id": "1603099782",
        "is_private": false,
        "is_unpublished": false,
        "is_verified": false,
        "profile_pic_url": "https://scontent-hel2-1.cdninstagram.com/v/t51.2885-19/s150x150/83633541_329173347983173_3442735541253046272_n.jpg?_nc_ht=scontent-hel2-1.cdninstagram.com&_nc_ohc=K097GItzoUIAX-a1UrM&oh=056a5d7be8efd17cf34257e24cea5bea&oe=5E89A95C",
        "requested_by_viewer": false,
        "restricted_by_viewer": null,
        "username": "shilpaahujadotcom"
    },
    "product_type": "feed",
    "shortcode": "B88Ic94gWUC",
    "taken_at_timestamp": 1582525949,
    "thumbnail_src": "https://scontent-hel2-1.cdninstagram.com/v/t51.2885-15/e35/c0.65.522.522a/84039660_2902060093184329_6547859515253315458_n.jpg?_nc_ht=scontent-hel2-1.cdninstagram.com&_nc_cat=101&_nc_ohc=qiJ3Tw9SUsgAX8Xs_4F&oh=fc296f9a539eef1099a610091bf7a143&oe=5E588228",
    "title": "",
    "tracking_token": "eyJ2ZXJzaW9uIjo1LCJwYXlsb2FkIjp7ImlzX2FuYWx5dGljc190cmFja2VkIjp0cnVlLCJ1dWlkIjoiNjYzNjRiYzZjZWMyNDRiNTk1YTE5YTljMGVhM2RhNzYyMjUwNzExMDg4NzQyMDk4MTc4In0sInNpZ25hdHVyZSI6IiJ9",
    "video_duration": 3.5,
    "video_url": "https://scontent-hel2-1.cdninstagram.com/v/t50.2886-16/87940137_662601057613821_2342821308289221438_n.mp4?_nc_ht=scontent-hel2-1.cdninstagram.com&_nc_cat=109&_nc_ohc=2u3CNKSfCJAAX82jBQP&oe=5E590062&oh=9a3ca519379576eb3cfd22037a748210",
    "video_view_count": 190,
    "viewer_can_reshare": true,
    "viewer_has_liked": false,
    "viewer_has_saved": false,
    "viewer_has_saved_to_collection": false,
    "viewer_in_photo_of_you": false
}