{
    "__typename": "GraphVideo",
    "caption_is_edited": false,
    "commenting_disabled_for_viewer": false,
    "comments_disabled": false,
    "dash_info": {
        "is_dash_eligible": false,
        "number_of_qualities": 0,
        "video_dash_manifest": null
    },
    "dimensions": {
        "height": 750,
        "width": 750
    },
    "display_resources": [
        {
            "config_height": 640,
            "config_width": 640,
            "src": "https://scontent-hel2-1.cdninstagram.com/v/t51.2885-15/sh0.08/e35/s640x640/87311982_219362702795258_3259626400521938065_n.jpg?_nc_ht=scontent-hel2-1.cdninstagram.com&_nc_cat=102&_nc_ohc=Epw5UQyX0OYAX-27H0f&oh=a103c1d6585992d39814988c2624da09&oe=5E589974"
        },
        {
            "config_height": 750,
            "config_width": 750,
            "src": "https://scontent-hel2-1.cdninstagram.com/v/t51.2885-15/e35/87311982_219362702795258_3259626400521938065_n.jpg?_nc_ht=scontent-hel2-1.cdninstagram.com&_nc_cat=102&_nc_ohc=Epw5UQyX0OYAX-27H0f&oh=cef437a75e671c4118ca86aae44a4bc1&oe=5E58DA51"
        },
        {
            "config_height": 1080,
            "config_width": 1080,
            "src": "https://scontent-hel2-1.cdninstagram.com/v/t51.2885-15/e35/87311982_219362702795258_3259626400521938065_n.jpg?_nc_ht=scontent-hel2-1.cdninstagram.com&_nc_cat=102&_nc_ohc=Epw5UQyX0OYAX-27H0f&oh=cef437a75e671c4118ca86aae44a4bc1&oe=5E58DA51"
        }
    ],
    "display_url": "https://scontent-hel2-1.cdninstagram.com/v/t51.2885-15/e35/87311982_219362702795258_3259626400521938065_n.jpg?_nc_ht=scontent-hel2-1.cdninstagram.com&_nc_cat=102&_nc_ohc=Epw5UQyX0OYAX-27H0f&oh=cef437a75e671c4118ca86aae44a4bc1&oe=5E58DA51",
    "edge_media_preview_comment": {
        "count": 24,
        "edges": [
            {
                "node": {
                    "created_at": 1582621097,
                    "did_report_as_spam": false,
                    "edge_liked_by": {
                        "count": 0
                    },
                    "id": "18131631046060950",
                    "is_restricted_pending": false,
                    "owner": {
                        "id": "3927433094",
                        "is_verified": false,
                        "profile_pic_url": "https://scontent-hel2-1.cdninstagram.com/v/t51.2885-19/s150x150/83624361_218299245872045_4122182350819819520_n.jpg?_nc_ht=scontent-hel2-1.cdninstagram.com&_nc_ohc=cO_2fJFIW_wAX_cryns&oh=1fb8ead40af79a4200c27e70d9948399&oe=5E88B312",
                        "username": "a.m.a.n.d.a_triss"
                    },
                    "text": "Grattis p\u00e5 f\u00f6delsedagen Danny boy \ud83c\udf89\ud83c\udf89\u2764\ufe0f\u2764\ufe0f",
                    "viewer_has_liked": false
                }
            },
            {
                "node": {
                    "created_at": 1582623705,
                    "did_report_as_spam": false,
                    "edge_liked_by": {
                        "count": 0
                    },
                    "id": "18077902051169450",
                    "is_restricted_pending": false,
                    "owner": {
                        "id": "13056327",
                        "is_verified": false,
                        "profile_pic_url": "https://scontent-hel2-1.cdninstagram.com/v/t51.2885-19/s150x150/19121545_636763649842890_3861208300984991744_a.jpg?_nc_ht=scontent-hel2-1.cdninstagram.com&_nc_ohc=V2wHTq0GaaAAX-iJ66W&oh=7c71f3743940a4fc3a132a4c719c5a84&oe=5E897086",
                        "username": "todoelmundo_karo"
                    },
                    "text": "@dannysaucedo happy birthday! Wszystkiego najlepszego! \ud83c\udf89\ud83d\ude18",
                    "viewer_has_liked": false
                }
            }
        ]
    },
    "edge_media_preview_like": {
        "count": 967,
        "edges": []
    },
    "edge_media_to_caption": {
        "edges": [
            {
                "node": {
                    "text": "Ni som f\u00f6ljer mig vet att jag \u00e4lskar livet som artist, men det finns baksidor med att vara en offentlig person \u2013 jag r\u00e5kar ofta ut f\u00f6r taskiga kommentarer och haters som stj\u00e4l mina bilder och reggar falska konton i mitt namn. Men s\u00e5nt h\u00e4r kan drabba vem som helst. Via ett samarbete med Dina F\u00f6rs\u00e4kringar vill vi uppm\u00e4rksamma det h\u00e4r problemet. Ta hand om er \ud83d\ude4f\u2665\ufe0f #dinaf\u00f6rs\u00e4kringar #n\u00e4thj\u00e4lpen #deepfake"
                }
            }
        ]
    },
    "edge_media_to_hoisted_comment": {
        "edges": []
    },
    "edge_media_to_parent_comment": {
        "count": 24,
        "edges": [
            {
                "node": {
                    "created_at": 1582558397,
                    "did_report_as_spam": false,
                    "edge_liked_by": {
                        "count": 1
                    },
                    "edge_threaded_comments": {
                        "count": 0,
                        "edges": [],
                        "page_info": {
                            "end_cursor": null,
                            "has_next_page": false
                        }
                    },
                    "id": "17868920461620022",
                    "is_restricted_pending": false,
                    "owner": {
                        "id": "20334264430",
                        "is_verified": false,
                        "profile_pic_url": "https://scontent-hel2-1.cdninstagram.com/v/t51.2885-19/s150x150/82690593_220476015756147_8438599855957344256_n.jpg?_nc_ht=scontent-hel2-1.cdninstagram.com&_nc_ohc=xTNkBXt6OUMAX8IjzyK&oh=3e71691c6929ef69806821eda8efb71d&oe=5E898ED8",
                        "username": "natalie_h00"
                    },
                    "text": "\u2764\ufe0f\u2764\ufe0f\ud83d\ude4c\ud83d\ude4c",
                    "viewer_has_liked": false
                }
            },
            {
                "node": {
                    "created_at": 1582558455,
                    "did_report_as_spam": false,
                    "edge_liked_by": {
                        "count": 0
                    },
                    "edge_threaded_comments": {
                        "count": 0,
                        "edges": [],
                        "page_info": {
                            "end_cursor": null,
                            "has_next_page": false
                        }
                    },
                    "id": "17848527652912705",
                    "is_restricted_pending": false,
                    "owner": {
                        "id": "52885675",
                        "is_verified": false,
                        "profile_pic_url": "https://scontent-hel2-1.cdninstagram.com/v/t51.2885-19/s150x150/60008843_476973122844564_1425692064372228096_n.jpg?_nc_ht=scontent-hel2-1.cdninstagram.com&_nc_ohc=oWXsjBJT_oMAX-i28Cq&oh=eb904941a66b1f2a74b712e1e6702b51&oe=5E821267",
                        "username": "madeleine_58"
                    },
                    "text": "Du e b\u00e4st \ud83c\udfb6\ud83d\udc4f\ud83c\udffb\ud83d\ude0d",
                    "viewer_has_liked": false
                }
            },
            {
                "node": {
                    "created_at": 1582558502,
                    "did_report_as_spam": false,
                    "edge_liked_by": {
                        "count": 0
                    },
                    "edge_threaded_comments": {
                        "count": 0,
                        "edges": [],
                        "page_info": {
                            "end_cursor": null,
                            "has_next_page": false
                        }
                    },
                    "id": "17856471151769077",
                    "is_restricted_pending": false,
                    "owner": {
                        "id": "47967204",
                        "is_verified": false,
                        "profile_pic_url": "https://scontent-hel2-1.cdninstagram.com/v/t51.2885-19/s150x150/15535401_1284012081637143_822099234860826624_a.jpg?_nc_ht=scontent-hel2-1.cdninstagram.com&_nc_ohc=JHsYszuoxkgAX9RG-bS&oh=57a2fa279669268cba563f8c676de2f1&oe=5E84090B",
                        "username": "andreasmathiasson"
                    },
                    "text": "Sjukt! \ud83d\ude22",
                    "viewer_has_liked": false
                }
            },
            {
                "node": {
                    "created_at": 1582558689,
                    "did_report_as_spam": false,
                    "edge_liked_by": {
                        "count": 0
                    },
                    "edge_threaded_comments": {
                        "count": 0,
                        "edges": [],
                        "page_info": {
                            "end_cursor": null,
                            "has_next_page": false
                        }
                    },
                    "id": "17856294652785631",
                    "is_restricted_pending": false,
                    "owner": {
                        "id": "3227439576",
                        "is_verified": false,
                        "profile_pic_url": "https://scontent-hel2-1.cdninstagram.com/v/t51.2885-19/s150x150/75430283_1498159843669019_2101664348475752448_n.jpg?_nc_ht=scontent-hel2-1.cdninstagram.com&_nc_ohc=y0K2cUBK9UIAX8fifEc&oh=3cad3e72539212b717c20ba3c21d484a&oe=5E8858E3",
                        "username": "kishtitomita"
                    },
                    "text": "\ud83d\ude02\ud83d\ude02\ud83d\ude02\ud83d\ude02\ud83d\ude02sjukt",
                    "viewer_has_liked": false
                }
            },
            {
                "node": {
                    "created_at": 1582558759,
                    "did_report_as_spam": false,
                    "edge_liked_by": {
                        "count": 1
                    },
                    "edge_threaded_comments": {
                        "count": 0,
                        "edges": [],
                        "page_info": {
                            "end_cursor": null,
                            "has_next_page": false
                        }
                    },
                    "id": "17869001002615875",
                    "is_restricted_pending": false,
                    "owner": {
                        "id": "24417998034",
                        "is_verified": false,
                        "profile_pic_url": "https://scontent-hel2-1.cdninstagram.com/v/t51.2885-19/s150x150/82916957_490906634829827_5107349223188201472_n.jpg?_nc_ht=scontent-hel2-1.cdninstagram.com&_nc_ohc=RI34vAvIq6wAX_cjdd0&oh=6ca338d76a3a81314c929c61f1aa3a42&oe=5E81EB1D",
                        "username": "kikkicigg1"
                    },
                    "text": "\u2764\ufe0f\ud83d\ude2e\ud83d\ude0d\ud83d\ude4c\ud83d\ude0d\ud83d\ude0d\ud83d\udd25\ud83d\udc4f\ud83d\ude3d\ud83d\ude02\u2764\ufe0f\ud83d\ude2e\ud83d\ude4c\ud83d\udd25\ud83d\udc4f\ud83d\udc4f\ud83d\ude02\u2764\ufe0f\ud83d\ude2e\ud83d\ude2e\ud83d\ude2e\ud83d\ude2e\ud83d\ude0d\ud83d\ude0d\ud83d\ude0d\ud83d\ude0d\ud83d\ude0d\ud83d\ude0d",
                    "viewer_has_liked": false
                }
            },
            {
                "node": {
                    "created_at": 1582558836,
                    "did_report_as_spam": false,
                    "edge_liked_by": {
                        "count": 0
                    },
                    "edge_threaded_comments": {
                        "count": 0,
                        "edges": [],
                        "page_info": {
                            "end_cursor": null,
                            "has_next_page": false
                        }
                    },
                    "id": "17894362450458586",
                    "is_restricted_pending": false,
                    "owner": {
                        "id": "239819155",
                        "is_verified": false,
                        "profile_pic_url": "https://scontent-hel2-1.cdninstagram.com/v/t51.2885-19/s150x150/56627405_2294462924166865_633145163740348416_n.jpg?_nc_ht=scontent-hel2-1.cdninstagram.com&_nc_ohc=-NadGAkYyAoAX9TCyxH&oh=6abc124a0807a00c4920c7e0bbd6086c&oe=5E813FCC",
                        "username": "paulotattoo"
                    },
                    "text": "@idamariatattoo kolla Angela \u2764\ufe0f\u2764\ufe0f\u2764\ufe0f",
                    "viewer_has_liked": false
                }
            },
            {
                "node": {
                    "created_at": 1582559088,
                    "did_report_as_spam": false,
                    "edge_liked_by": {
                        "count": 0
                    },
                    "edge_threaded_comments": {
                        "count": 0,
                        "edges": [],
                        "page_info": {
                            "end_cursor": null,
                            "has_next_page": false
                        }
                    },
                    "id": "17875034461560408",
                    "is_restricted_pending": false,
                    "owner": {
                        "id": "185358438",
                        "is_verified": false,
                        "profile_pic_url": "https://scontent-hel2-1.cdninstagram.com/v/t51.2885-19/s150x150/12826036_1689465038003031_1494405450_a.jpg?_nc_ht=scontent-hel2-1.cdninstagram.com&_nc_ohc=yObf9uUP1-8AX8R3PUO&oh=6a25f4b7dae3e68992167af960701bf7&oe=5E8440F7",
                        "username": "avmhollsten"
                    },
                    "text": "HAHAHAHAHAHAHAHA",
                    "viewer_has_liked": false
                }
            },
            {
                "node": {
                    "created_at": 1582559287,
                    "did_report_as_spam": false,
                    "edge_liked_by": {
                        "count": 0
                    },
                    "edge_threaded_comments": {
                        "count": 0,
                        "edges": [],
                        "page_info": {
                            "end_cursor": null,
                            "has_next_page": false
                        }
                    },
                    "id": "17846076562965466",
                    "is_restricted_pending": false,
                    "owner": {
                        "id": "20039511",
                        "is_verified": false,
                        "profile_pic_url": "https://scontent-hel2-1.cdninstagram.com/v/t51.2885-19/10727465_591845587624868_72738495_a.jpg?_nc_ht=scontent-hel2-1.cdninstagram.com&_nc_ohc=Onl_H_dXujMAX-CJAWd&oh=c4a630bb9893bade27fc0d16b505a5c1&oe=5E842989",
                        "username": "spokyboy"
                    },
                    "text": "Hahaha",
                    "viewer_has_liked": false
                }
            },
            {
                "node": {
                    "created_at": 1582560787,
                    "did_report_as_spam": false,
                    "edge_liked_by": {
                        "count": 0
                    },
                    "edge_threaded_comments": {
                        "count": 1,
                        "edges": [
                            {
                                "node": {
                                    "created_at": 1582562358,
                                    "did_report_as_spam": false,
                                    "edge_liked_by": {
                                        "count": 0
                                    },
                                    "id": "17877033127536395",
                                    "is_restricted_pending": false,
                                    "owner": {
                                        "id": "10250921705",
                                        "is_verified": false,
                                        "profile_pic_url": "https://scontent-hel2-1.cdninstagram.com/v/t51.2885-19/s150x150/59265566_413531616103362_8834125056398327808_n.jpg?_nc_ht=scontent-hel2-1.cdninstagram.com&_nc_ohc=9UvhCSWGzSEAX-2O27s&oh=4de739567288eac7220b15087373079c&oe=5E8034DF",
                                        "username": "aleksandradebic"
                                    },
                                    "text": "Danny, tomorrow birthday semladagen\ud83d\ude09\ud83d\udc93\ud83c\uddf8\ud83c\uddea\ud83c\udf82",
                                    "viewer_has_liked": false
                                }
                            }
                        ],
                        "page_info": {
                            "end_cursor": null,
                            "has_next_page": false
                        }
                    },
                    "id": "17941552639331311",
                    "is_restricted_pending": false,
                    "owner": {
                        "id": "10250921705",
                        "is_verified": false,
                        "profile_pic_url": "https://scontent-hel2-1.cdninstagram.com/v/t51.2885-19/s150x150/59265566_413531616103362_8834125056398327808_n.jpg?_nc_ht=scontent-hel2-1.cdninstagram.com&_nc_ohc=9UvhCSWGzSEAX-2O27s&oh=4de739567288eac7220b15087373079c&oe=5E8034DF",
                        "username": "aleksandradebic"
                    },
                    "text": "Nice video\ud83d\ude0d",
                    "viewer_has_liked": false
                }
            },
            {
                "node": {
                    "created_at": 1582563462,
                    "did_report_as_spam": false,
                    "edge_liked_by": {
                        "count": 0
                    },
                    "edge_threaded_comments": {
                        "count": 0,
                        "edges": [],
                        "page_info": {
                            "end_cursor": null,
                            "has_next_page": false
                        }
                    },
                    "id": "18009460510275854",
                    "is_restricted_pending": false,
                    "owner": {
                        "id": "15428301",
                        "is_verified": false,
                        "profile_pic_url": "https://scontent-hel2-1.cdninstagram.com/v/t51.2885-19/s150x150/65716338_328365498074009_3379741410541436928_n.jpg?_nc_ht=scontent-hel2-1.cdninstagram.com&_nc_ohc=W2w2DP-cpE4AX8kj289&oh=0d31a061f092ed3c4d8c2e35e5ed4ee7&oe=5E81BBB4",
                        "username": "lollolojsan"
                    },
                    "text": "Alltid finns det en baksida.. hoppas det positiva alltid kommer v\u00e4ga upp f\u00f6r dig, f\u00f6r du \u00e4r inte v\u00e4rd n\u00e5gon skit. Du ska ha det b\u00e4sta i livet \u2764\ufe0f",
                    "viewer_has_liked": false
                }
            },
            {
                "node": {
                    "created_at": 1582565652,
                    "did_report_as_spam": false,
                    "edge_liked_by": {
                        "count": 2
                    },
                    "edge_threaded_comments": {
                        "count": 0,
                        "edges": [],
                        "page_info": {
                            "end_cursor": null,
                            "has_next_page": false
                        }
                    },
                    "id": "17902057999431736",
                    "is_restricted_pending": false,
                    "owner": {
                        "id": "180055560",
                        "is_verified": false,
                        "profile_pic_url": "https://scontent-hel2-1.cdninstagram.com/v/t51.2885-19/s150x150/83332224_516049195762528_5950621302493544448_n.jpg?_nc_ht=scontent-hel2-1.cdninstagram.com&_nc_ohc=7NDKz3NYJ_MAX_eHmMG&oh=740a4388ccde6a3051f905a36571a7e7&oe=5E8BF577",
                        "username": "alvaroestrellamusic"
                    },
                    "text": "Jajajajajajaj",
                    "viewer_has_liked": false
                }
            },
            {
                "node": {
                    "created_at": 1582567983,
                    "did_report_as_spam": false,
                    "edge_liked_by": {
                        "count": 0
                    },
                    "edge_threaded_comments": {
                        "count": 0,
                        "edges": [],
                        "page_info": {
                            "end_cursor": null,
                            "has_next_page": false
                        }
                    },
                    "id": "18077649046175459",
                    "is_restricted_pending": false,
                    "owner": {
                        "id": "5874352934",
                        "is_verified": false,
                        "profile_pic_url": "https://scontent-hel2-1.cdninstagram.com/v/t51.2885-19/s150x150/83749759_236347487367838_5037082510253621248_n.jpg?_nc_ht=scontent-hel2-1.cdninstagram.com&_nc_ohc=pnbFzpNYylgAX88jYw_&oh=39a616b2b5aa7a31100fe7211c584f9d&oe=5E8287D7",
                        "username": "myfrostylife"
                    },
                    "text": "\u2764\ufe0f\u2764\ufe0f\u2764\ufe0f\u2764\ufe0f\u2764\ufe0f",
                    "viewer_has_liked": false
                }
            },
            {
                "node": {
                    "created_at": 1582571227,
                    "did_report_as_spam": false,
                    "edge_liked_by": {
                        "count": 0
                    },
                    "edge_threaded_comments": {
                        "count": 0,
                        "edges": [],
                        "page_info": {
                            "end_cursor": null,
                            "has_next_page": false
                        }
                    },
                    "id": "17858605372749597",
                    "is_restricted_pending": false,
                    "owner": {
                        "id": "1523203151",
                        "is_verified": false,
                        "profile_pic_url": "https://scontent-hel2-1.cdninstagram.com/v/t51.2885-19/s150x150/65908574_469200807226333_2184603856338419712_n.jpg?_nc_ht=scontent-hel2-1.cdninstagram.com&_nc_ohc=NF_ssHmCoHUAX9OgxdI&oh=0d2809813e88ca13240fddf8da3124d4&oe=5E8B032B",
                        "username": "annalundell95"
                    },
                    "text": "Jag har m\u00e4ssa av Danny saucedo  p\u00e5 Snapchat  som l\u00e5sas  att vara dig vad ska jag g\u00f6ra jag e ett stort fans av dig. \u2764\ufe0f\u2764\ufe0f\u2764\ufe0fsjukt \u2764\ufe0f\u2764\ufe0f",
                    "viewer_has_liked": false
                }
            },
            {
                "node": {
                    "created_at": 1582578330,
                    "did_report_as_spam": false,
                    "edge_liked_by": {
                        "count": 0
                    },
                    "edge_threaded_comments": {
                        "count": 0,
                        "edges": [],
                        "page_info": {
                            "end_cursor": null,
                            "has_next_page": false
                        }
                    },
                    "id": "17888963914472930",
                    "is_restricted_pending": false,
                    "owner": {
                        "id": "1212215137",
                        "is_verified": false,
                        "profile_pic_url": "https://scontent-hel2-1.cdninstagram.com/v/t51.2885-19/11417428_873034292783164_157861105_a.jpg?_nc_ht=scontent-hel2-1.cdninstagram.com&_nc_ohc=eCcmijHiuVgAX8vGKB8&oh=8814c944eb0267f42b4d4cb12f55daac&oe=5E865FF5",
                        "username": "timmartenson"
                    },
                    "text": "\u2764\ufe0f\u2764\ufe0f\u2764\ufe0f",
                    "viewer_has_liked": false
                }
            },
            {
                "node": {
                    "created_at": 1582582584,
                    "did_report_as_spam": false,
                    "edge_liked_by": {
                        "count": 0
                    },
                    "edge_threaded_comments": {
                        "count": 0,
                        "edges": [],
                        "page_info": {
                            "end_cursor": null,
                            "has_next_page": false
                        }
                    },
                    "id": "17851988971852088",
                    "is_restricted_pending": false,
                    "owner": {
                        "id": "5514174625",
                        "is_verified": false,
                        "profile_pic_url": "https://scontent-hel2-1.cdninstagram.com/v/t51.2885-19/s150x150/31709147_123946565143690_9020799702475472896_n.jpg?_nc_ht=scontent-hel2-1.cdninstagram.com&_nc_ohc=FBQQfSaOVX8AX_2L04K&oh=5c6756d84a4a5d2222e4743d4844e84b&oe=5E86F786",
                        "username": "anna.aro.arts"
                    },
                    "text": "@angwand What y'all doin' there! \ud83d\ude04 I recognized your voice in a second \ud83d\ude04\u2764\ufe0f\ud83d\udd25",
                    "viewer_has_liked": false
                }
            },
            {
                "node": {
                    "created_at": 1582584006,
                    "did_report_as_spam": false,
                    "edge_liked_by": {
                        "count": 0
                    },
                    "edge_threaded_comments": {
                        "count": 0,
                        "edges": [],
                        "page_info": {
                            "end_cursor": null,
                            "has_next_page": false
                        }
                    },
                    "id": "17892463873458643",
                    "is_restricted_pending": false,
                    "owner": {
                        "id": "393636588",
                        "is_verified": false,
                        "profile_pic_url": "https://scontent-hel2-1.cdninstagram.com/v/t51.2885-19/s150x150/74702437_767204607080499_3183475569916379136_n.jpg?_nc_ht=scontent-hel2-1.cdninstagram.com&_nc_ohc=rTrxPeb5sgAAX8pTKk8&oh=0ddb2abbcad05e18c0d4af68e6629713&oe=5E879787",
                        "username": "natachavolk"
                    },
                    "text": "Wow your English and acting are both great!!!! \ud83d\udc4c\ud83d\udc4c\ud83d\udc4c\u2764\ufe0f",
                    "viewer_has_liked": false
                }
            },
            {
                "node": {
                    "created_at": 1582603738,
                    "did_report_as_spam": false,
                    "edge_liked_by": {
                        "count": 0
                    },
                    "edge_threaded_comments": {
                        "count": 0,
                        "edges": [],
                        "page_info": {
                            "end_cursor": null,
                            "has_next_page": false
                        }
                    },
                    "id": "17955584419306626",
                    "is_restricted_pending": false,
                    "owner": {
                        "id": "640486487",
                        "is_verified": false,
                        "profile_pic_url": "https://scontent-hel2-1.cdninstagram.com/v/t51.2885-19/11820552_396633453879008_1658352830_a.jpg?_nc_ht=scontent-hel2-1.cdninstagram.com&_nc_ohc=Rg4km_aGGNsAX8FWiuT&oh=6ec5e713cdb91111e7c47e915d33a02e&oe=5E8204B9",
                        "username": "saucedovna"
                    },
                    "text": "Grattis p\u00e5 bem\u00e4rkelsedagen \ud83d\udc9c\ud83d\udc9c\ud83d\udc9c",
                    "viewer_has_liked": false
                }
            },
            {
                "node": {
                    "created_at": 1582608009,
                    "did_report_as_spam": false,
                    "edge_liked_by": {
                        "count": 0
                    },
                    "edge_threaded_comments": {
                        "count": 0,
                        "edges": [],
                        "page_info": {
                            "end_cursor": null,
                            "has_next_page": false
                        }
                    },
                    "id": "17846706238958759",
                    "is_restricted_pending": false,
                    "owner": {
                        "id": "34910202",
                        "is_verified": false,
                        "profile_pic_url": "https://scontent-hel2-1.cdninstagram.com/v/t51.2885-19/10665502_1560414367523306_85285341_a.jpg?_nc_ht=scontent-hel2-1.cdninstagram.com&_nc_ohc=h8wHNBWee80AX-EtMgh&oh=079c0b238454e949553dd2a18b5c0d8d&oe=5E806F60",
                        "username": "patriksweden"
                    },
                    "text": "Grattis p\u00e5 f\u00f6delsedagen m\u00e4n!!hoppas du f\u00e5r en grym dag!\u2b50\ud83c\udf89\ud83c\udf89",
                    "viewer_has_liked": false
                }
            },
            {
                "node": {
                    "created_at": 1582609287,
                    "did_report_as_spam": false,
                    "edge_liked_by": {
                        "count": 0
                    },
                    "edge_threaded_comments": {
                        "count": 0,
                        "edges": [],
                        "page_info": {
                            "end_cursor": null,
                            "has_next_page": false
                        }
                    },
                    "id": "17879911636521151",
                    "is_restricted_pending": false,
                    "owner": {
                        "id": "215004187",
                        "is_verified": false,
                        "profile_pic_url": "https://scontent-hel2-1.cdninstagram.com/v/t51.2885-19/s150x150/83072029_3416239248447568_5612572307890372608_n.jpg?_nc_ht=scontent-hel2-1.cdninstagram.com&_nc_ohc=wF6dWmItq6sAX_P0kkK&oh=98954d175430f5df23a4efe83caf35b7&oe=5E8BD565",
                        "username": "evelynnicklasson"
                    },
                    "text": "GRATTIS P\u00c5 F\u00d6DELSEDAGEN!!! Hoppas verkligen att din dag blir s\u00e5 bra den kan bli\ud83e\udd73\ud83e\udd73\ud83e\udd73\u2728",
                    "viewer_has_liked": false
                }
            },
            {
                "node": {
                    "created_at": 1582619005,
                    "did_report_as_spam": false,
                    "edge_liked_by": {
                        "count": 0
                    },
                    "edge_threaded_comments": {
                        "count": 0,
                        "edges": [],
                        "page_info": {
                            "end_cursor": null,
                            "has_next_page": false
                        }
                    },
                    "id": "18010675807273149",
                    "is_restricted_pending": false,
                    "owner": {
                        "id": "376806251",
                        "is_verified": false,
                        "profile_pic_url": "https://scontent-hel2-1.cdninstagram.com/v/t51.2885-19/s150x150/84332823_195061715233955_4899439773468327936_n.jpg?_nc_ht=scontent-hel2-1.cdninstagram.com&_nc_ohc=P4Q0MLbdwtAAX9AqKo9&oh=0bcb691683ea621af2576236fa718e7f&oe=5E8511E8",
                        "username": "aliciaa077"
                    },
                    "text": "Grattis p\u00e5 f\u00f6delsedagen!!! \ud83d\udc97\ud83d\udc96\ud83d\udc97\ud83d\udc96",
                    "viewer_has_liked": false
                }
            },
            {
                "node": {
                    "created_at": 1582619244,
                    "did_report_as_spam": false,
                    "edge_liked_by": {
                        "count": 0
                    },
                    "edge_threaded_comments": {
                        "count": 0,
                        "edges": [],
                        "page_info": {
                            "end_cursor": null,
                            "has_next_page": false
                        }
                    },
                    "id": "17856224983782146",
                    "is_restricted_pending": false,
                    "owner": {
                        "id": "54728013",
                        "is_verified": false,
                        "profile_pic_url": "https://scontent-hel2-1.cdninstagram.com/v/t51.2885-19/11282046_895374313861511_1499682846_a.jpg?_nc_ht=scontent-hel2-1.cdninstagram.com&_nc_ohc=UTB3JFWX3qkAX_HRv6P&oh=b4b6f9c2eba7b74651d333eff4f9ac7b&oe=5E891326",
                        "username": "lauragarcia9"
                    },
                    "text": "Feliz cumplea\u00f1os, Danny \ud83c\udf89\u2764\ufe0f",
                    "viewer_has_liked": false
                }
            },
            {
                "node": {
                    "created_at": 1582621097,
                    "did_report_as_spam": false,
                    "edge_liked_by": {
                        "count": 0
                    },
                    "edge_threaded_comments": {
                        "count": 0,
                        "edges": [],
                        "page_info": {
                            "end_cursor": null,
                            "has_next_page": false
                        }
                    },
                    "id": "18131631046060950",
                    "is_restricted_pending": false,
                    "owner": {
                        "id": "3927433094",
                        "is_verified": false,
                        "profile_pic_url": "https://scontent-hel2-1.cdninstagram.com/v/t51.2885-19/s150x150/83624361_218299245872045_4122182350819819520_n.jpg?_nc_ht=scontent-hel2-1.cdninstagram.com&_nc_ohc=cO_2fJFIW_wAX_cryns&oh=1fb8ead40af79a4200c27e70d9948399&oe=5E88B312",
                        "username": "a.m.a.n.d.a_triss"
                    },
                    "text": "Grattis p\u00e5 f\u00f6delsedagen Danny boy \ud83c\udf89\ud83c\udf89\u2764\ufe0f\u2764\ufe0f",
                    "viewer_has_liked": false
                }
            },
            {
                "node": {
                    "created_at": 1582623705,
                    "did_report_as_spam": false,
                    "edge_liked_by": {
                        "count": 0
                    },
                    "edge_threaded_comments": {
                        "count": 0,
                        "edges": [],
                        "page_info": {
                            "end_cursor": null,
                            "has_next_page": false
                        }
                    },
                    "id": "18077902051169450",
                    "is_restricted_pending": false,
                    "owner": {
                        "id": "13056327",
                        "is_verified": false,
                        "profile_pic_url": "https://scontent-hel2-1.cdninstagram.com/v/t51.2885-19/s150x150/19121545_636763649842890_3861208300984991744_a.jpg?_nc_ht=scontent-hel2-1.cdninstagram.com&_nc_ohc=V2wHTq0GaaAAX-iJ66W&oh=7c71f3743940a4fc3a132a4c719c5a84&oe=5E897086",
                        "username": "todoelmundo_karo"
                    },
                    "text": "@dannysaucedo happy birthday! Wszystkiego najlepszego! \ud83c\udf89\ud83d\ude18",
                    "viewer_has_liked": false
                }
            }
        ],
        "page_info": {
            "end_cursor": null,
            "has_next_page": false
        }
    },
    "edge_media_to_sponsor_user": {
        "edges": []
    },
    "edge_media_to_tagged_user": {
        "edges": []
    },
    "edge_web_media_to_related_media": {
        "edges": []
    },
    "encoding_status": null,
    "fact_check_information": null,
    "fact_check_overall_rating": null,
    "gating_info": null,
    "has_ranked_comments": false,
    "id": "2250984049719123240",
    "is_ad": false,
    "is_published": true,
    "is_video": true,
    "location": null,
    "media_preview": "ACoqsKvDHrik3A9hUwHyt9KrDOKQEclysZ24y2M4FUBdyse2PTFa6bQcEctxnH8zUaWKoTnkE8eopXLUbj4WEigkDPelK0ltGVLZ9cVKRQIePut9KpIwKgjpVxejfSs1JgqDPXp0qkSWg+3j1NWFkzx1rPeTP/6qntnMmM4UJx7HPr+I7Umr6lKVtC8xVRuPGTj8aiPWs25uDM2egHAHt/8AXqMXDgdadhXOjidmRWUBgQDkEc1mTo8sznBYLgcbeOASOevXrTYycR+zf1rKunZJmCkrk54OKllwundGk1q+OEbPvtoNo/8Acf8A8d/xrKjlfH3j+Zp3mvn7x/M0cqNPbSWll+P+ZpG0cjARs/8AAev/AOusp22sQeCCQaeZXx94/mahUZA+lUo8pnUqOokn07H/2Q==",
    "owner": {
        "blocked_by_viewer": false,
        "followed_by_viewer": false,
        "full_name": "D  A  N  N  Y    S A U C E D O",
        "has_blocked_viewer": false,
        "id": "13002223",
        "is_private": false,
        "is_unpublished": false,
        "is_verified": true,
        "profile_pic_url": "https://scontent-hel2-1.cdninstagram.com/v/t51.2885-19/s150x150/74636006_2615673738499817_2907515464357773312_n.jpg?_nc_ht=scontent-hel2-1.cdninstagram.com&_nc_ohc=DvE2P6ip2uUAX_8px3m&oh=b35ca67b2db5f5b71ea3b3406b3ae8cb&oe=5E8BCB77",
        "requested_by_viewer": false,
        "restricted_by_viewer": null,
        "username": "dannysaucedo"
    },
    "product_type": "feed",
    "shortcode": "B89GhEmlB0o",
    "taken_at_timestamp": 1582558321,
    "thumbnail_src": "https://scontent-hel2-1.cdninstagram.com/v/t51.2885-15/sh0.08/e35/s640x640/87311982_219362702795258_3259626400521938065_n.jpg?_nc_ht=scontent-hel2-1.cdninstagram.com&_nc_cat=102&_nc_ohc=Epw5UQyX0OYAX-27H0f&oh=a103c1d6585992d39814988c2624da09&oe=5E589974",
    "title": "",
    "tracking_token": "eyJ2ZXJzaW9uIjo1LCJwYXlsb2FkIjp7ImlzX2FuYWx5dGljc190cmFja2VkIjp0cnVlLCJ1dWlkIjoiYzljMjYyMjI1ZjllNDEzODkzMmY5ODhkZWYxYTYxOTgyMjUwOTg0MDQ5NzE5MTIzMjQwIn0sInNpZ25hdHVyZSI6IiJ9",
    "video_duration": 49.039,
    "video_url": "https://scontent-hel2-1.cdninstagram.com/v/t50.2886-16/87287356_535320800432979_2693897459529345175_n.mp4?_nc_ht=scontent-hel2-1.cdninstagram.com&_nc_cat=103&_nc_ohc=sArKpbqZBYIAX_u1-fT&oe=5E58AA0A&oh=3d0d49e5f4b5fc94931666d8472153da",
    "video_view_count": 26175,
    "viewer_can_reshare": true,
    "viewer_has_liked": false,
    "viewer_has_saved": false,
    "viewer_has_saved_to_collection": false,
    "viewer_in_photo_of_you": false
}