{
    "__typename": "GraphVideo",
    "caption_is_edited": false,
    "commenting_disabled_for_viewer": false,
    "comments_disabled": false,
    "dash_info": {
        "is_dash_eligible": false,
        "number_of_qualities": 0,
        "video_dash_manifest": null
    },
    "dimensions": {
        "height": 640,
        "width": 640
    },
    "display_resources": [
        {
            "config_height": 640,
            "config_width": 640,
            "src": "https://scontent-hel2-1.cdninstagram.com/v/t51.2885-15/e35/85246164_3038390919526967_741287645195610918_n.jpg?_nc_ht=scontent-hel2-1.cdninstagram.com&_nc_cat=111&_nc_ohc=yvo_nS3xKFkAX82PHAY&oh=ba5446a32594e9d407a894c963407027&oe=5E58C139"
        },
        {
            "config_height": 750,
            "config_width": 750,
            "src": "https://scontent-hel2-1.cdninstagram.com/v/t51.2885-15/e35/85246164_3038390919526967_741287645195610918_n.jpg?_nc_ht=scontent-hel2-1.cdninstagram.com&_nc_cat=111&_nc_ohc=yvo_nS3xKFkAX82PHAY&oh=ba5446a32594e9d407a894c963407027&oe=5E58C139"
        },
        {
            "config_height": 1080,
            "config_width": 1080,
            "src": "https://scontent-hel2-1.cdninstagram.com/v/t51.2885-15/e35/85246164_3038390919526967_741287645195610918_n.jpg?_nc_ht=scontent-hel2-1.cdninstagram.com&_nc_cat=111&_nc_ohc=yvo_nS3xKFkAX82PHAY&oh=ba5446a32594e9d407a894c963407027&oe=5E58C139"
        }
    ],
    "display_url": "https://scontent-hel2-1.cdninstagram.com/v/t51.2885-15/e35/85246164_3038390919526967_741287645195610918_n.jpg?_nc_ht=scontent-hel2-1.cdninstagram.com&_nc_cat=111&_nc_ohc=yvo_nS3xKFkAX82PHAY&oh=ba5446a32594e9d407a894c963407027&oe=5E58C139",
    "edge_media_preview_comment": {
        "count": 1,
        "edges": [
            {
                "node": {
                    "created_at": 1582532017,
                    "did_report_as_spam": false,
                    "edge_liked_by": {
                        "count": 0
                    },
                    "id": "17857393873785762",
                    "is_restricted_pending": false,
                    "owner": {
                        "id": "2261255834",
                        "is_verified": false,
                        "profile_pic_url": "https://scontent-hel2-1.cdninstagram.com/v/t51.2885-19/s150x150/87219020_3020629624628267_8077798362297925632_n.jpg?_nc_ht=scontent-hel2-1.cdninstagram.com&_nc_ohc=0FMj0Z010GEAX_cRbxJ&oh=1ae0d6bf16e7ca75e1175950a089e584&oe=5E86C88F",
                        "username": "thebandanaboi"
                    },
                    "text": "Ahahahhahaha",
                    "viewer_has_liked": false
                }
            }
        ]
    },
    "edge_media_preview_like": {
        "count": 45,
        "edges": []
    },
    "edge_media_to_caption": {
        "edges": [
            {
                "node": {
                    "text": "Wow \ud83e\udd29 DeepFake Posted by\u2022 @fxhome_official Check out this incredible deepfake of Robert Downey Jr and Tom Holland in Back to the Future with over 3.9 million views, created by a talented HitFilm Express user! To watch the full edit, search @ezryderx47 on YouTube.\n\u2022\n\u2022\n\u2022\n#VFX #VisualEffects #HitFilm #HitFilmPro #HitFilmExpress #FXhome #Software #Editing #Filmmaking #ContentCreation #ContentCreator #YouTube #FilmmakingLife #FilmmakingTips #FilmmakingLifestyle #Filmmaking101 #IndieFilmmaking #DSLRFilmmaking #Postproductionlife #VideoPostProduction #BTS #BehindTheScenes #FilmShoot #Community #DeepFake #DeepFakeVideos #BackToTheFuture #TomHolland #RobertDowneyJr"
                }
            }
        ]
    },
    "edge_media_to_hoisted_comment": {
        "edges": []
    },
    "edge_media_to_parent_comment": {
        "count": 1,
        "edges": [
            {
                "node": {
                    "created_at": 1582532017,
                    "did_report_as_spam": false,
                    "edge_liked_by": {
                        "count": 0
                    },
                    "edge_threaded_comments": {
                        "count": 0,
                        "edges": [],
                        "page_info": {
                            "end_cursor": null,
                            "has_next_page": false
                        }
                    },
                    "id": "17857393873785762",
                    "is_restricted_pending": false,
                    "owner": {
                        "id": "2261255834",
                        "is_verified": false,
                        "profile_pic_url": "https://scontent-hel2-1.cdninstagram.com/v/t51.2885-19/s150x150/87219020_3020629624628267_8077798362297925632_n.jpg?_nc_ht=scontent-hel2-1.cdninstagram.com&_nc_ohc=0FMj0Z010GEAX_cRbxJ&oh=1ae0d6bf16e7ca75e1175950a089e584&oe=5E86C88F",
                        "username": "thebandanaboi"
                    },
                    "text": "Ahahahhahaha",
                    "viewer_has_liked": false
                }
            }
        ],
        "page_info": {
            "end_cursor": null,
            "has_next_page": false
        }
    },
    "edge_media_to_sponsor_user": {
        "edges": []
    },
    "edge_media_to_tagged_user": {
        "edges": []
    },
    "edge_web_media_to_related_media": {
        "edges": []
    },
    "encoding_status": null,
    "fact_check_information": null,
    "fact_check_overall_rating": null,
    "gating_info": null,
    "has_ranked_comments": false,
    "id": "2250744714261941246",
    "is_ad": false,
    "is_published": true,
    "is_video": true,
    "location": null,
    "media_preview": "ACoqospQDPQjNODxGM/Od4PC/wAJH16VVVjPJhj8oPT6VNPFHnjAPsaku1xQBu2nP509AWGaZbxYUHPUmrUQ+X8v5UxFy/AKL/ntWdtrVvANqnvz/Ksz5aQypCgU7/Xt7/8A6qediAnA5GOTTMAsT3Ax+NRl88Ec+tItE0RK4x0q1buCCDwcDj/CqMdwv3TxirIKMKoyaLMs28hfT/DFVzB7iogwibJyQfU5qz5sZ7igWq2M6GTD4P3WPzVMyAEgdQT/AJ/Kol+//wAC/pV9R8jHvg0F3Mhk2nFPibawHrxSS/eP1qPvTEabjiofLFTvTABSA//Z",
    "owner": {
        "blocked_by_viewer": false,
        "followed_by_viewer": false,
        "full_name": "VFXR.io",
        "has_blocked_viewer": false,
        "id": "3605671825",
        "is_private": false,
        "is_unpublished": false,
        "is_verified": false,
        "profile_pic_url": "https://scontent-hel2-1.cdninstagram.com/v/t51.2885-19/s150x150/30590910_1807721532856777_7790314498706898944_n.jpg?_nc_ht=scontent-hel2-1.cdninstagram.com&_nc_ohc=SQP58rviWTQAX9uc-Yd&oh=9f2dde48e3618414b3094aebfd069735&oe=5E889CD6",
        "requested_by_viewer": false,
        "restricted_by_viewer": null,
        "username": "vfxr.io"
    },
    "product_type": "feed",
    "shortcode": "B88QGSFq8v-",
    "taken_at_timestamp": 1582529785,
    "thumbnail_src": "https://scontent-hel2-1.cdninstagram.com/v/t51.2885-15/e35/85246164_3038390919526967_741287645195610918_n.jpg?_nc_ht=scontent-hel2-1.cdninstagram.com&_nc_cat=111&_nc_ohc=yvo_nS3xKFkAX82PHAY&oh=ba5446a32594e9d407a894c963407027&oe=5E58C139",
    "title": "",
    "tracking_token": "eyJ2ZXJzaW9uIjo1LCJwYXlsb2FkIjp7ImlzX2FuYWx5dGljc190cmFja2VkIjp0cnVlLCJ1dWlkIjoiOWJiZmU5NzZjZGQxNDdhMjhkZTRiMTU5Nzk5Zjc5OGEyMjUwNzQ0NzE0MjYxOTQxMjQ2In0sInNpZ25hdHVyZSI6IiJ9",
    "video_duration": 13.4,
    "video_url": "https://scontent-hel2-1.cdninstagram.com/v/t50.2886-16/87287046_2983063138383993_1732694506736401758_n.mp4?_nc_ht=scontent-hel2-1.cdninstagram.com&_nc_cat=109&_nc_ohc=VDbTBUP6DvUAX-Dehwy&oe=5E58B2DB&oh=99b9dc1b9c968f6703c550276ebd3cf2",
    "video_view_count": 308,
    "viewer_can_reshare": true,
    "viewer_has_liked": false,
    "viewer_has_saved": false,
    "viewer_has_saved_to_collection": false,
    "viewer_in_photo_of_you": false
}