{
    "__typename": "GraphVideo",
    "caption_is_edited": false,
    "commenting_disabled_for_viewer": false,
    "comments_disabled": false,
    "dash_info": {
        "is_dash_eligible": false,
        "number_of_qualities": 0,
        "video_dash_manifest": null
    },
    "dimensions": {
        "height": 750,
        "width": 750
    },
    "display_resources": [
        {
            "config_height": 640,
            "config_width": 640,
            "src": "https://scontent-hel2-1.cdninstagram.com/v/t51.2885-15/sh0.08/e35/s640x640/82597043_606288470150507_7427297294363809827_n.jpg?_nc_ht=scontent-hel2-1.cdninstagram.com&_nc_cat=111&_nc_ohc=ni3hkJI-KAEAX9QPYYm&oh=665aaef38ec0ec4a4fe6331b1da8da54&oe=5E58F2A3"
        },
        {
            "config_height": 750,
            "config_width": 750,
            "src": "https://scontent-hel2-1.cdninstagram.com/v/t51.2885-15/e35/82597043_606288470150507_7427297294363809827_n.jpg?_nc_ht=scontent-hel2-1.cdninstagram.com&_nc_cat=111&_nc_ohc=ni3hkJI-KAEAX9QPYYm&oh=89a8c517ddb90ca72ad9058bcd83cc45&oe=5E586FC6"
        },
        {
            "config_height": 1080,
            "config_width": 1080,
            "src": "https://scontent-hel2-1.cdninstagram.com/v/t51.2885-15/e35/82597043_606288470150507_7427297294363809827_n.jpg?_nc_ht=scontent-hel2-1.cdninstagram.com&_nc_cat=111&_nc_ohc=ni3hkJI-KAEAX9QPYYm&oh=89a8c517ddb90ca72ad9058bcd83cc45&oe=5E586FC6"
        }
    ],
    "display_url": "https://scontent-hel2-1.cdninstagram.com/v/t51.2885-15/e35/82597043_606288470150507_7427297294363809827_n.jpg?_nc_ht=scontent-hel2-1.cdninstagram.com&_nc_cat=111&_nc_ohc=ni3hkJI-KAEAX9QPYYm&oh=89a8c517ddb90ca72ad9058bcd83cc45&oe=5E586FC6",
    "edge_media_preview_comment": {
        "count": 1,
        "edges": [
            {
                "node": {
                    "created_at": 1582465711,
                    "did_report_as_spam": false,
                    "edge_liked_by": {
                        "count": 0
                    },
                    "id": "17927492437367077",
                    "is_restricted_pending": false,
                    "owner": {
                        "id": "4229049676",
                        "is_verified": false,
                        "profile_pic_url": "https://scontent-hel2-1.cdninstagram.com/v/t51.2885-19/s150x150/15305877_145575985926197_1701942591324422144_n.jpg?_nc_ht=scontent-hel2-1.cdninstagram.com&_nc_ohc=9E8ZUBolyvEAX-IOrIl&oh=39b0f0c3fd0a6114a074fd1f72f7c2d7&oe=5E8B3040",
                        "username": "paigekarlsen"
                    },
                    "text": "\ud83d\ude02\ud83d\ude0d\ud83d\ude4cs\u00e5 kult!\ud83d\ude02",
                    "viewer_has_liked": false
                }
            }
        ]
    },
    "edge_media_preview_like": {
        "count": 420,
        "edges": []
    },
    "edge_media_to_caption": {
        "edges": [
            {
                "node": {
                    "text": "#AINEWS \u201cDeepfakes\u201d are Artificial Intelligence-generated videos of real people doing and saying fictional things.\n. \nIn this deepfake video of the Amazon CEO and the Tesla CEO, the two are seen playing roles in the pilot episode of the original Star Trek, \u201cThe Cage\u201d, The Verge reported.\n. \nWhile Bezos is seen playing a Talosian alien, Musk plays Captain Christopher Pike.\n.\n\ud83c\udf1f Follow us @heu.ai\nHappy Learning. \ud83d\ude0a\n. \n#news #deepfake #viral #viralvideos #ai #artificialintelligence #deeplearning #machinelearning #datascience #data #artificialintelligenceai #numpy #python #computerscience #programming #robotics\u00a0 #neuralnetworks #computervision #NaturalLanguageProcessing #pune #bangalore #gurgaon #data #heuai #tensorflow #keras #startup #pytorch #coding"
                }
            }
        ]
    },
    "edge_media_to_hoisted_comment": {
        "edges": []
    },
    "edge_media_to_parent_comment": {
        "count": 1,
        "edges": [
            {
                "node": {
                    "created_at": 1582465711,
                    "did_report_as_spam": false,
                    "edge_liked_by": {
                        "count": 0
                    },
                    "edge_threaded_comments": {
                        "count": 0,
                        "edges": [],
                        "page_info": {
                            "end_cursor": null,
                            "has_next_page": false
                        }
                    },
                    "id": "17927492437367077",
                    "is_restricted_pending": false,
                    "owner": {
                        "id": "4229049676",
                        "is_verified": false,
                        "profile_pic_url": "https://scontent-hel2-1.cdninstagram.com/v/t51.2885-19/s150x150/15305877_145575985926197_1701942591324422144_n.jpg?_nc_ht=scontent-hel2-1.cdninstagram.com&_nc_ohc=9E8ZUBolyvEAX-IOrIl&oh=39b0f0c3fd0a6114a074fd1f72f7c2d7&oe=5E8B3040",
                        "username": "paigekarlsen"
                    },
                    "text": "\ud83d\ude02\ud83d\ude0d\ud83d\ude4cs\u00e5 kult!\ud83d\ude02",
                    "viewer_has_liked": false
                }
            }
        ],
        "page_info": {
            "end_cursor": null,
            "has_next_page": false
        }
    },
    "edge_media_to_sponsor_user": {
        "edges": []
    },
    "edge_media_to_tagged_user": {
        "edges": []
    },
    "edge_web_media_to_related_media": {
        "edges": []
    },
    "encoding_status": null,
    "fact_check_information": null,
    "fact_check_overall_rating": null,
    "gating_info": null,
    "has_ranked_comments": false,
    "id": "2250146478985215871",
    "is_ad": false,
    "is_published": true,
    "is_video": true,
    "location": null,
    "media_preview": "ACoqxtjZII2n3qe3jCvlsHA4+vr+FQh93y4yD1J6/rUsShfmySaktGtvRlwcHPXNYrRYYjtnitATqR29x7+tQNJ1HrRcporiFs+lJ83+RUhKp3yfr+hqPzX96LkEQcZ7c1YVlX396csw2gYGceienfv/AFpfOG7jGOnROn8s5/SmK43zh0prurexqUzKcZAwM5+59OPXv19qBOMk4GOMfc/HPb6UwuZ/mUnmNVt50RdqjJ6jIUjr7c/59Kok5OcdaVgLoOBjOcf73p/uUhOB147fe/8Aiaql2B4JH400ux4JJH1pi2LXmL6/qf8A4mjzF9evuf8A4mqdFMd/L8y0S7HIbg+x/wAKh2D1H6/4UqyMBwT+ZqM8mkF/L8z/2Q==",
    "owner": {
        "blocked_by_viewer": false,
        "followed_by_viewer": false,
        "full_name": "Artificial Intelligence",
        "has_blocked_viewer": false,
        "id": "19498507247",
        "is_private": false,
        "is_unpublished": false,
        "is_verified": false,
        "profile_pic_url": "https://scontent-hel2-1.cdninstagram.com/v/t51.2885-19/s150x150/84094631_209696923558029_3915193355541151744_n.jpg?_nc_ht=scontent-hel2-1.cdninstagram.com&_nc_ohc=i48IlZBDkAEAX_pQxaH&oh=5fb1a7e6d8cbefd005e70d0933e0f304&oe=5E81AB6D",
        "requested_by_viewer": false,
        "restricted_by_viewer": null,
        "username": "heu.ai"
    },
    "product_type": "feed",
    "shortcode": "B86IE0Egn9_",
    "taken_at_timestamp": 1582458419,
    "thumbnail_src": "https://scontent-hel2-1.cdninstagram.com/v/t51.2885-15/sh0.08/e35/s640x640/82597043_606288470150507_7427297294363809827_n.jpg?_nc_ht=scontent-hel2-1.cdninstagram.com&_nc_cat=111&_nc_ohc=ni3hkJI-KAEAX9QPYYm&oh=665aaef38ec0ec4a4fe6331b1da8da54&oe=5E58F2A3",
    "title": "",
    "tracking_token": "eyJ2ZXJzaW9uIjo1LCJwYXlsb2FkIjp7ImlzX2FuYWx5dGljc190cmFja2VkIjp0cnVlLCJ1dWlkIjoiYWFhOTg2YmIwZTU2NGI0MmIwMTU3MDYzOWNlYmE3MDAyMjUwMTQ2NDc4OTg1MjE1ODcxIn0sInNpZ25hdHVyZSI6IiJ9",
    "video_duration": 59.996,
    "video_url": "https://scontent-hel2-1.cdninstagram.com/v/t50.2886-16/87946724_641858029716049_8753813989467986706_n.mp4?_nc_ht=scontent-hel2-1.cdninstagram.com&_nc_cat=101&_nc_ohc=w6hidzUAXYkAX9XjRXJ&oe=5E58A3BE&oh=c9df010dfe9b8732148d19884ad1cc0b",
    "video_view_count": 4201,
    "viewer_can_reshare": true,
    "viewer_has_liked": false,
    "viewer_has_saved": false,
    "viewer_has_saved_to_collection": false,
    "viewer_in_photo_of_you": false
}