{
    "__typename": "GraphVideo",
    "caption_is_edited": false,
    "commenting_disabled_for_viewer": false,
    "comments_disabled": false,
    "dash_info": {
        "is_dash_eligible": false,
        "number_of_qualities": 0,
        "video_dash_manifest": null
    },
    "dimensions": {
        "height": 1088,
        "width": 612
    },
    "display_resources": [
        {
            "config_height": 1137,
            "config_width": 640,
            "src": "https://scontent-hel2-1.cdninstagram.com/v/t51.2885-15/e15/87243695_498896364148560_3076088666195169052_n.jpg?_nc_ht=scontent-hel2-1.cdninstagram.com&_nc_cat=100&_nc_ohc=l8fXLVJ1LjsAX9GijwI&oh=538e0b7e642d3a374d6f85450b854163&oe=5E58D0B9"
        },
        {
            "config_height": 1333,
            "config_width": 750,
            "src": "https://scontent-hel2-1.cdninstagram.com/v/t51.2885-15/e15/87243695_498896364148560_3076088666195169052_n.jpg?_nc_ht=scontent-hel2-1.cdninstagram.com&_nc_cat=100&_nc_ohc=l8fXLVJ1LjsAX9GijwI&oh=538e0b7e642d3a374d6f85450b854163&oe=5E58D0B9"
        },
        {
            "config_height": 1920,
            "config_width": 1080,
            "src": "https://scontent-hel2-1.cdninstagram.com/v/t51.2885-15/e15/87243695_498896364148560_3076088666195169052_n.jpg?_nc_ht=scontent-hel2-1.cdninstagram.com&_nc_cat=100&_nc_ohc=l8fXLVJ1LjsAX9GijwI&oh=538e0b7e642d3a374d6f85450b854163&oe=5E58D0B9"
        }
    ],
    "display_url": "https://scontent-hel2-1.cdninstagram.com/v/t51.2885-15/e15/87243695_498896364148560_3076088666195169052_n.jpg?_nc_ht=scontent-hel2-1.cdninstagram.com&_nc_cat=100&_nc_ohc=l8fXLVJ1LjsAX9GijwI&oh=538e0b7e642d3a374d6f85450b854163&oe=5E58D0B9",
    "edge_media_preview_comment": {
        "count": 3,
        "edges": [
            {
                "node": {
                    "created_at": 1582690710,
                    "did_report_as_spam": false,
                    "edge_liked_by": {
                        "count": 1
                    },
                    "id": "18094248403093148",
                    "is_restricted_pending": false,
                    "owner": {
                        "id": "5920532616",
                        "is_verified": false,
                        "profile_pic_url": "https://scontent-hel2-1.cdninstagram.com/v/t51.2885-19/s150x150/67323714_464847520737745_1881666133480701952_n.jpg?_nc_ht=scontent-hel2-1.cdninstagram.com&_nc_ohc=R7Rzz_vudR0AX-4s9Ib&oh=69879e8cd5d00ba412fb07f78b378403&oe=5E8B80C1",
                        "username": "potatotechi"
                    },
                    "text": "@highestnoob how deep you got it.. \ud83d\ude02",
                    "viewer_has_liked": false
                }
            },
            {
                "node": {
                    "created_at": 1582697499,
                    "did_report_as_spam": false,
                    "edge_liked_by": {
                        "count": 0
                    },
                    "id": "17848553683934263",
                    "is_restricted_pending": false,
                    "owner": {
                        "id": "12413642615",
                        "is_verified": false,
                        "profile_pic_url": "https://scontent-hel2-1.cdninstagram.com/v/t51.2885-19/s150x150/60502535_316697305897413_6996421508079812608_n.jpg?_nc_ht=scontent-hel2-1.cdninstagram.com&_nc_ohc=NmUhjNypTBsAX9en3jz&oh=138e1f8930038996a6342852f8d7e9d0&oe=5E87721C",
                        "username": "highestnoob"
                    },
                    "text": "@potatotechi okkkk okkkk okkkkkkkkkkkk",
                    "viewer_has_liked": false
                }
            }
        ]
    },
    "edge_media_preview_like": {
        "count": 13,
        "edges": []
    },
    "edge_media_to_caption": {
        "edges": [
            {
                "node": {
                    "text": "All About #Deepfake #Videos in a Nutshell - [Hindi] \n#potatotech\n\nMerch : https://ongrey.com\n\nThe term \"Deepfake\" originated from a Reddit user who claims to have developed a machine learning algorithm that helped him transpose celebrity faces into fake videos.\n\nDeepfakes are synthetic media in which a person in an existing image or video is replaced with someone else's likeness.\n\nWhile the act of faking content is a not new, Deepfakes leverage powerful techniques from machine learning and artificial intelligence to manipulate or generate visual and audio content with a high potential to deceive.\n\nSocial Links : ---------------------\nWeb : http://potatotech.in/\nTwitter: https://twitter.com/Potatotechi/\nFacebook :  https://www.facebook.com/Potatotechi/\nInstagram: https://www.instagram.com/Potatotechi/\nYoutube: https://goo.gl/SZDui6\nBusiness: anurag@potatotech.in | travelogview@gmail.com"
                }
            }
        ]
    },
    "edge_media_to_hoisted_comment": {
        "edges": []
    },
    "edge_media_to_parent_comment": {
        "count": 3,
        "edges": [
            {
                "node": {
                    "created_at": 1582656557,
                    "did_report_as_spam": false,
                    "edge_liked_by": {
                        "count": 1
                    },
                    "edge_threaded_comments": {
                        "count": 2,
                        "edges": [
                            {
                                "node": {
                                    "created_at": 1582690710,
                                    "did_report_as_spam": false,
                                    "edge_liked_by": {
                                        "count": 1
                                    },
                                    "id": "18094248403093148",
                                    "is_restricted_pending": false,
                                    "owner": {
                                        "id": "5920532616",
                                        "is_verified": false,
                                        "profile_pic_url": "https://scontent-hel2-1.cdninstagram.com/v/t51.2885-19/s150x150/67323714_464847520737745_1881666133480701952_n.jpg?_nc_ht=scontent-hel2-1.cdninstagram.com&_nc_ohc=R7Rzz_vudR0AX-4s9Ib&oh=69879e8cd5d00ba412fb07f78b378403&oe=5E8B80C1",
                                        "username": "potatotechi"
                                    },
                                    "text": "@highestnoob how deep you got it.. \ud83d\ude02",
                                    "viewer_has_liked": false
                                }
                            },
                            {
                                "node": {
                                    "created_at": 1582697499,
                                    "did_report_as_spam": false,
                                    "edge_liked_by": {
                                        "count": 0
                                    },
                                    "id": "17848553683934263",
                                    "is_restricted_pending": false,
                                    "owner": {
                                        "id": "12413642615",
                                        "is_verified": false,
                                        "profile_pic_url": "https://scontent-hel2-1.cdninstagram.com/v/t51.2885-19/s150x150/60502535_316697305897413_6996421508079812608_n.jpg?_nc_ht=scontent-hel2-1.cdninstagram.com&_nc_ohc=NmUhjNypTBsAX9en3jz&oh=138e1f8930038996a6342852f8d7e9d0&oe=5E87721C",
                                        "username": "highestnoob"
                                    },
                                    "text": "@potatotechi okkkk okkkk okkkkkkkkkkkk",
                                    "viewer_has_liked": false
                                }
                            }
                        ],
                        "page_info": {
                            "end_cursor": null,
                            "has_next_page": false
                        }
                    },
                    "id": "17846064331974525",
                    "is_restricted_pending": false,
                    "owner": {
                        "id": "12413642615",
                        "is_verified": false,
                        "profile_pic_url": "https://scontent-hel2-1.cdninstagram.com/v/t51.2885-19/s150x150/60502535_316697305897413_6996421508079812608_n.jpg?_nc_ht=scontent-hel2-1.cdninstagram.com&_nc_ohc=NmUhjNypTBsAX9en3jz&oh=138e1f8930038996a6342852f8d7e9d0&oe=5E87721C",
                        "username": "highestnoob"
                    },
                    "text": "Thank you for this DEEEP knowledge",
                    "viewer_has_liked": false
                }
            }
        ],
        "page_info": {
            "end_cursor": null,
            "has_next_page": false
        }
    },
    "edge_media_to_sponsor_user": {
        "edges": []
    },
    "edge_media_to_tagged_user": {
        "edges": []
    },
    "edge_web_media_to_related_media": {
        "edges": []
    },
    "encoding_status": null,
    "fact_check_information": null,
    "fact_check_overall_rating": null,
    "gating_info": null,
    "has_ranked_comments": false,
    "id": "2251785189019764531",
    "is_ad": false,
    "is_published": true,
    "is_video": true,
    "location": null,
    "media_preview": null,
    "owner": {
        "blocked_by_viewer": false,
        "followed_by_viewer": false,
        "full_name": "Potato Tech",
        "has_blocked_viewer": false,
        "id": "5920532616",
        "is_private": false,
        "is_unpublished": false,
        "is_verified": false,
        "profile_pic_url": "https://scontent-hel2-1.cdninstagram.com/v/t51.2885-19/s150x150/67323714_464847520737745_1881666133480701952_n.jpg?_nc_ht=scontent-hel2-1.cdninstagram.com&_nc_ohc=R7Rzz_vudR0AX-4s9Ib&oh=69879e8cd5d00ba412fb07f78b378403&oe=5E8B80C1",
        "requested_by_viewer": false,
        "restricted_by_viewer": null,
        "username": "potatotechi"
    },
    "product_type": "igtv",
    "shortcode": "B8_8rLuAkcz",
    "taken_at_timestamp": 1582653827,
    "thumbnail_src": "https://scontent-hel2-1.cdninstagram.com/v/t51.2885-15/e15/c0.238.612.612a/87243695_498896364148560_3076088666195169052_n.jpg?_nc_ht=scontent-hel2-1.cdninstagram.com&_nc_cat=100&_nc_ohc=l8fXLVJ1LjsAX9GijwI&oh=4bbf838a1893cf77054421f2e78f813a&oe=5E58F490",
    "title": "All About Deepfake Videos in a Nutshell #Deepfake #Videos #potatotech",
    "tracking_token": "eyJ2ZXJzaW9uIjo1LCJwYXlsb2FkIjp7ImlzX2FuYWx5dGljc190cmFja2VkIjp0cnVlLCJ1dWlkIjoiZjE5OTcwZTYwOTYwNDM5MWI1YTFiMzE2MzY1ZTU1ZTMyMjUxNzg1MTg5MDE5NzY0NTMxIn0sInNpZ25hdHVyZSI6IiJ9",
    "video_duration": 339.564,
    "video_url": "https://scontent-hel2-1.cdninstagram.com/v/t50.16885-16/10000000_613143472854428_7883564116787196362_n.mp4?_nc_ht=scontent-hel2-1.cdninstagram.com&_nc_cat=108&_nc_ohc=TqHY2EUzfeIAX_17_Cu&oe=5E586568&oh=59625106010a0149f0dd82546534147c",
    "video_view_count": 33,
    "viewer_can_reshare": true,
    "viewer_has_liked": false,
    "viewer_has_saved": false,
    "viewer_has_saved_to_collection": false,
    "viewer_in_photo_of_you": false
}