{
    "__typename": "GraphVideo",
    "caption_is_edited": true,
    "commenting_disabled_for_viewer": false,
    "comments_disabled": false,
    "dash_info": {
        "is_dash_eligible": false,
        "number_of_qualities": 0,
        "video_dash_manifest": null
    },
    "dimensions": {
        "height": 937,
        "width": 750
    },
    "display_resources": [
        {
            "config_height": 800,
            "config_width": 640,
            "src": "https://scontent-hel2-1.cdninstagram.com/v/t51.2885-15/sh0.08/e35/p640x640/85107934_216562832801772_8825168677474595099_n.jpg?_nc_ht=scontent-hel2-1.cdninstagram.com&_nc_cat=100&_nc_ohc=hqIxB6bfy9cAX9Yqdid&oh=6f69985bb6d3ccab3c43e7af7df628b6&oe=5E58E8B0"
        },
        {
            "config_height": 937,
            "config_width": 750,
            "src": "https://scontent-hel2-1.cdninstagram.com/v/t51.2885-15/e35/85107934_216562832801772_8825168677474595099_n.jpg?_nc_ht=scontent-hel2-1.cdninstagram.com&_nc_cat=100&_nc_ohc=hqIxB6bfy9cAX9Yqdid&oh=d41816ccea2b3ded6b2726ae084b4df3&oe=5E58B146"
        },
        {
            "config_height": 1350,
            "config_width": 1080,
            "src": "https://scontent-hel2-1.cdninstagram.com/v/t51.2885-15/e35/85107934_216562832801772_8825168677474595099_n.jpg?_nc_ht=scontent-hel2-1.cdninstagram.com&_nc_cat=100&_nc_ohc=hqIxB6bfy9cAX9Yqdid&oh=d41816ccea2b3ded6b2726ae084b4df3&oe=5E58B146"
        }
    ],
    "display_url": "https://scontent-hel2-1.cdninstagram.com/v/t51.2885-15/e35/85107934_216562832801772_8825168677474595099_n.jpg?_nc_ht=scontent-hel2-1.cdninstagram.com&_nc_cat=100&_nc_ohc=hqIxB6bfy9cAX9Yqdid&oh=d41816ccea2b3ded6b2726ae084b4df3&oe=5E58B146",
    "edge_media_preview_comment": {
        "count": 0,
        "edges": []
    },
    "edge_media_preview_like": {
        "count": 11,
        "edges": []
    },
    "edge_media_to_caption": {
        "edges": [
            {
                "node": {
                    "text": "#using figuration and identities is disorienting and most your audience will only eat the face. #videoarts #pixels #deeplearning #loop #faceswap #gretafrommarketing #deepfake #abraxas #scotty #faces"
                }
            }
        ]
    },
    "edge_media_to_hoisted_comment": {
        "edges": []
    },
    "edge_media_to_parent_comment": {
        "count": 0,
        "edges": [],
        "page_info": {
            "end_cursor": null,
            "has_next_page": false
        }
    },
    "edge_media_to_sponsor_user": {
        "edges": []
    },
    "edge_media_to_tagged_user": {
        "edges": []
    },
    "edge_web_media_to_related_media": {
        "edges": []
    },
    "encoding_status": null,
    "fact_check_information": null,
    "fact_check_overall_rating": null,
    "gating_info": null,
    "has_ranked_comments": false,
    "id": "2251642139439927388",
    "is_ad": false,
    "is_published": true,
    "is_video": true,
    "location": {
        "address_json": "{\"street_address\": \"\", \"zip_code\": \"\", \"city_name\": \"Brisbane, Queensland, Australia\", \"region_name\": \"\", \"country_code\": \"AU\", \"exact_city_match\": true, \"exact_region_match\": false, \"exact_country_match\": false}",
        "has_public_page": true,
        "id": "213570382",
        "name": "Brisbane, Queensland, Australia",
        "slug": "brisbane-queensland-australia"
    },
    "media_preview": "ACEqkRVH3VH1p7QhxyB+FRxMB1q9kKOaqb5djKnFS3MSWExnBqqw9a3rgKwrCcYJB7VUJc25copbDOKKSitCDXiUHryRV9OVGfSqFuGA+bvVtMKOOormqNPQ1pwcdWNnYAc1iStuYkVpXwZcMfung/XsDWW1XTWlwmxlFLRWxkb0ByvPTNTxgdarW/3fzqwtcjOxlDU3+6Pqay2birupffH0/rVFu9aR0sZPqM3Gim0Vrcxsf//Z",
    "owner": {
        "blocked_by_viewer": false,
        "followed_by_viewer": false,
        "full_name": "Anthony Elliott Baker",
        "has_blocked_viewer": false,
        "id": "3504699658",
        "is_private": false,
        "is_unpublished": false,
        "is_verified": false,
        "profile_pic_url": "https://scontent-hel2-1.cdninstagram.com/v/t51.2885-19/s150x150/13525502_1621787391469372_295840632_a.jpg?_nc_ht=scontent-hel2-1.cdninstagram.com&_nc_ohc=9EDEnH1-XiQAX_MUCLQ&oh=c79edf853c7a968079d5afb9571baf5b&oe=5E855505",
        "requested_by_viewer": false,
        "restricted_by_viewer": null,
        "username": "toneartaeb"
    },
    "product_type": "feed",
    "shortcode": "B8_cJianhBc",
    "taken_at_timestamp": 1582636803,
    "thumbnail_src": "https://scontent-hel2-1.cdninstagram.com/v/t51.2885-15/sh0.08/e35/c0.90.720.720a/s640x640/85107934_216562832801772_8825168677474595099_n.jpg?_nc_ht=scontent-hel2-1.cdninstagram.com&_nc_cat=100&_nc_ohc=hqIxB6bfy9cAX9Yqdid&oh=7172608e3570970697e1a579f9c831d8&oe=5E58AB12",
    "title": "",
    "tracking_token": "eyJ2ZXJzaW9uIjo1LCJwYXlsb2FkIjp7ImlzX2FuYWx5dGljc190cmFja2VkIjp0cnVlLCJ1dWlkIjoiYzFmYzljYmY0ZWExNDc5ZDgwNzMzZjAxNDAwZDQxOWMyMjUxNjQyMTM5NDM5OTI3Mzg4In0sInNpZ25hdHVyZSI6IiJ9",
    "video_duration": 4.9,
    "video_url": "https://scontent-hel2-1.cdninstagram.com/v/t50.2886-16/88009216_1108683429477063_2707599011745611336_n.mp4?_nc_ht=scontent-hel2-1.cdninstagram.com&_nc_cat=103&_nc_ohc=fe9RALUa2QoAX8SWOuP&oe=5E58B0D6&oh=b870d7e8d0857df9e6e456d5c6c16c5c",
    "video_view_count": 104,
    "viewer_can_reshare": true,
    "viewer_has_liked": false,
    "viewer_has_saved": false,
    "viewer_has_saved_to_collection": false,
    "viewer_in_photo_of_you": false
}