{
    "__typename": "GraphVideo",
    "caption_is_edited": false,
    "commenting_disabled_for_viewer": false,
    "comments_disabled": false,
    "dash_info": {
        "is_dash_eligible": false,
        "number_of_qualities": 0,
        "video_dash_manifest": null
    },
    "dimensions": {
        "height": 391,
        "width": 750
    },
    "display_resources": [
        {
            "config_height": 334,
            "config_width": 640,
            "src": "https://scontent-hel2-1.cdninstagram.com/v/t51.2885-15/sh0.08/e35/s640x640/84348365_636203570473978_5277559310758636547_n.jpg?_nc_ht=scontent-hel2-1.cdninstagram.com&_nc_cat=110&_nc_ohc=ACF5mX_JTwwAX-Hzz9x&oh=f47ecb52b15de5352dd529f2119b4791&oe=5E58FF07"
        },
        {
            "config_height": 391,
            "config_width": 750,
            "src": "https://scontent-hel2-1.cdninstagram.com/v/t51.2885-15/e35/84348365_636203570473978_5277559310758636547_n.jpg?_nc_ht=scontent-hel2-1.cdninstagram.com&_nc_cat=110&_nc_ohc=ACF5mX_JTwwAX-Hzz9x&oh=dcbeb21e1e8751eb5735cabf5937f906&oe=5E58BAA2"
        },
        {
            "config_height": 564,
            "config_width": 1080,
            "src": "https://scontent-hel2-1.cdninstagram.com/v/t51.2885-15/e35/84348365_636203570473978_5277559310758636547_n.jpg?_nc_ht=scontent-hel2-1.cdninstagram.com&_nc_cat=110&_nc_ohc=ACF5mX_JTwwAX-Hzz9x&oh=dcbeb21e1e8751eb5735cabf5937f906&oe=5E58BAA2"
        }
    ],
    "display_url": "https://scontent-hel2-1.cdninstagram.com/v/t51.2885-15/e35/84348365_636203570473978_5277559310758636547_n.jpg?_nc_ht=scontent-hel2-1.cdninstagram.com&_nc_cat=110&_nc_ohc=ACF5mX_JTwwAX-Hzz9x&oh=dcbeb21e1e8751eb5735cabf5937f906&oe=5E58BAA2",
    "edge_media_preview_comment": {
        "count": 3,
        "edges": [
            {
                "node": {
                    "created_at": 1582610511,
                    "did_report_as_spam": false,
                    "edge_liked_by": {
                        "count": 1
                    },
                    "id": "17856815479790486",
                    "is_restricted_pending": false,
                    "owner": {
                        "id": "24998757362",
                        "is_verified": false,
                        "profile_pic_url": "https://scontent-hel2-1.cdninstagram.com/v/t51.2885-19/s150x150/84156256_861438084276743_1114444142437466112_n.jpg?_nc_ht=scontent-hel2-1.cdninstagram.com&_nc_ohc=_DskqBpLkokAX_au1Nw&oh=5f8ad8af78b289485f37d45772005588&oe=5E8A395D",
                        "username": "horstpatrick188"
                    },
                    "text": "\ud83d\udc4f\ud83d\udc4f\ud83d\udc4f\ud83d\udc4f\ud83d\udc4f\ud83d\udc8bLOVE IT\u2764\ufe0f\u2764\ufe0f\u2764\ufe0f\ud83d\udc4f\ud83d\udc4f\ud83d\udc4f\ud83d\udc4f\ud83d\udc51\ud83c\udf1f\ud83d\udcaf",
                    "viewer_has_liked": false
                }
            },
            {
                "node": {
                    "created_at": 1582633705,
                    "did_report_as_spam": false,
                    "edge_liked_by": {
                        "count": 0
                    },
                    "id": "17847781513941518",
                    "is_restricted_pending": false,
                    "owner": {
                        "id": "8865812",
                        "is_verified": false,
                        "profile_pic_url": "https://scontent-hel2-1.cdninstagram.com/v/t51.2885-19/s150x150/82867752_468377613852270_7645333178936197120_n.jpg?_nc_ht=scontent-hel2-1.cdninstagram.com&_nc_ohc=s3Pojzb9JjcAX-Y39U2&oh=01463afcd95a7c492d01e751f4a5d18f&oe=5E872370",
                        "username": "mcgnarlee"
                    },
                    "text": "@mattycamsky",
                    "viewer_has_liked": false
                }
            }
        ]
    },
    "edge_media_preview_like": {
        "count": 45,
        "edges": []
    },
    "edge_media_to_caption": {
        "edges": [
            {
                "node": {
                    "text": "Elon Musk showing Marty McFly the #cybertruck \nOriginal vid: @fortyorkvfx  deepfake by madGANs on YouTube\n\n#teslacybertruck #tesla #elonmusk #trucks #truck #trucksofinstagram #spacex #electriccars #electrictruck #teslatruck #electriccar #backtothefuture #bttf #delorean #deepfake"
                }
            }
        ]
    },
    "edge_media_to_hoisted_comment": {
        "edges": []
    },
    "edge_media_to_parent_comment": {
        "count": 3,
        "edges": [
            {
                "node": {
                    "created_at": 1582610483,
                    "did_report_as_spam": false,
                    "edge_liked_by": {
                        "count": 2
                    },
                    "edge_threaded_comments": {
                        "count": 0,
                        "edges": [],
                        "page_info": {
                            "end_cursor": null,
                            "has_next_page": false
                        }
                    },
                    "id": "17878575922526505",
                    "is_restricted_pending": false,
                    "owner": {
                        "id": "24998757362",
                        "is_verified": false,
                        "profile_pic_url": "https://scontent-hel2-1.cdninstagram.com/v/t51.2885-19/s150x150/84156256_861438084276743_1114444142437466112_n.jpg?_nc_ht=scontent-hel2-1.cdninstagram.com&_nc_ohc=_DskqBpLkokAX_au1Nw&oh=5f8ad8af78b289485f37d45772005588&oe=5E8A395D",
                        "username": "horstpatrick188"
                    },
                    "text": "\ud83d\ude02\ud83d\ude02\ud83d\ude02\ud83d\ude02\ud83d\udc4d",
                    "viewer_has_liked": false
                }
            },
            {
                "node": {
                    "created_at": 1582610511,
                    "did_report_as_spam": false,
                    "edge_liked_by": {
                        "count": 1
                    },
                    "edge_threaded_comments": {
                        "count": 0,
                        "edges": [],
                        "page_info": {
                            "end_cursor": null,
                            "has_next_page": false
                        }
                    },
                    "id": "17856815479790486",
                    "is_restricted_pending": false,
                    "owner": {
                        "id": "24998757362",
                        "is_verified": false,
                        "profile_pic_url": "https://scontent-hel2-1.cdninstagram.com/v/t51.2885-19/s150x150/84156256_861438084276743_1114444142437466112_n.jpg?_nc_ht=scontent-hel2-1.cdninstagram.com&_nc_ohc=_DskqBpLkokAX_au1Nw&oh=5f8ad8af78b289485f37d45772005588&oe=5E8A395D",
                        "username": "horstpatrick188"
                    },
                    "text": "\ud83d\udc4f\ud83d\udc4f\ud83d\udc4f\ud83d\udc4f\ud83d\udc4f\ud83d\udc8bLOVE IT\u2764\ufe0f\u2764\ufe0f\u2764\ufe0f\ud83d\udc4f\ud83d\udc4f\ud83d\udc4f\ud83d\udc4f\ud83d\udc51\ud83c\udf1f\ud83d\udcaf",
                    "viewer_has_liked": false
                }
            },
            {
                "node": {
                    "created_at": 1582633705,
                    "did_report_as_spam": false,
                    "edge_liked_by": {
                        "count": 0
                    },
                    "edge_threaded_comments": {
                        "count": 0,
                        "edges": [],
                        "page_info": {
                            "end_cursor": null,
                            "has_next_page": false
                        }
                    },
                    "id": "17847781513941518",
                    "is_restricted_pending": false,
                    "owner": {
                        "id": "8865812",
                        "is_verified": false,
                        "profile_pic_url": "https://scontent-hel2-1.cdninstagram.com/v/t51.2885-19/s150x150/82867752_468377613852270_7645333178936197120_n.jpg?_nc_ht=scontent-hel2-1.cdninstagram.com&_nc_ohc=s3Pojzb9JjcAX-Y39U2&oh=01463afcd95a7c492d01e751f4a5d18f&oe=5E872370",
                        "username": "mcgnarlee"
                    },
                    "text": "@mattycamsky",
                    "viewer_has_liked": false
                }
            }
        ],
        "page_info": {
            "end_cursor": null,
            "has_next_page": false
        }
    },
    "edge_media_to_sponsor_user": {
        "edges": []
    },
    "edge_media_to_tagged_user": {
        "edges": []
    },
    "edge_web_media_to_related_media": {
        "edges": []
    },
    "encoding_status": null,
    "fact_check_information": null,
    "fact_check_overall_rating": null,
    "gating_info": null,
    "has_ranked_comments": false,
    "id": "2251360525866180014",
    "is_ad": false,
    "is_published": true,
    "is_video": true,
    "location": null,
    "media_preview": "ACoV5miinKcHJGfY0ANoqUyL/dH6/wCNI7hugC49M/1NAEdFFFABTlGSB60UUAWPs3v+n/16hkTYcdaKKAI6KKKAP//Z",
    "owner": {
        "blocked_by_viewer": false,
        "followed_by_viewer": false,
        "full_name": "Cybertruck",
        "has_blocked_viewer": false,
        "id": "28709889404",
        "is_private": false,
        "is_unpublished": false,
        "is_verified": false,
        "profile_pic_url": "https://scontent-hel2-1.cdninstagram.com/v/t51.2885-19/s150x150/83753222_211007193273223_6775176777611345920_n.jpg?_nc_ht=scontent-hel2-1.cdninstagram.com&_nc_ohc=JfExIhrXNRUAX9YYHLG&oh=9bac5d278aa16250c0aaffc3ed7fa6eb&oe=5E84B5C6",
        "requested_by_viewer": false,
        "restricted_by_viewer": null,
        "username": "2022cybertruck"
    },
    "product_type": "feed",
    "shortcode": "B8-cHhVlx2u",
    "taken_at_timestamp": 1582603298,
    "thumbnail_src": "https://scontent-hel2-1.cdninstagram.com/v/t51.2885-15/e35/c172.0.376.376a/84348365_636203570473978_5277559310758636547_n.jpg?_nc_ht=scontent-hel2-1.cdninstagram.com&_nc_cat=110&_nc_ohc=ACF5mX_JTwwAX-Hzz9x&oh=d6d0bbd2e4c992506a7114e432ce6f7d&oe=5E58949F",
    "title": "",
    "tracking_token": "eyJ2ZXJzaW9uIjo1LCJwYXlsb2FkIjp7ImlzX2FuYWx5dGljc190cmFja2VkIjpmYWxzZSwidXVpZCI6IjcxZjNjNDFmMGMxNjRhMmQ5OWU3MzVlNTU4MzMxZmFiMjI1MTM2MDUyNTg2NjE4MDAxNCJ9LCJzaWduYXR1cmUiOiIifQ==",
    "video_duration": 42.283,
    "video_url": "https://scontent-hel2-1.cdninstagram.com/v/t50.2886-16/87461752_2663102843787078_6042761572659027124_n.mp4?_nc_ht=scontent-hel2-1.cdninstagram.com&_nc_cat=106&_nc_ohc=RKp90oeU5IYAX_Q7k_A&oe=5E58B464&oh=9f242074bf9ecf809c33ef6a1b894817",
    "video_view_count": 314,
    "viewer_can_reshare": true,
    "viewer_has_liked": false,
    "viewer_has_saved": false,
    "viewer_has_saved_to_collection": false,
    "viewer_in_photo_of_you": false
}