{
    "__typename": "GraphVideo",
    "caption_is_edited": true,
    "commenting_disabled_for_viewer": false,
    "comments_disabled": false,
    "dash_info": {
        "is_dash_eligible": false,
        "number_of_qualities": 0,
        "video_dash_manifest": null
    },
    "dimensions": {
        "height": 750,
        "width": 750
    },
    "display_resources": [
        {
            "config_height": 640,
            "config_width": 640,
            "src": "https://scontent-hel2-1.cdninstagram.com/v/t51.2885-15/sh0.08/e35/s640x640/84266461_230818344621226_581162631919474809_n.jpg?_nc_ht=scontent-hel2-1.cdninstagram.com&_nc_cat=110&_nc_ohc=sshosDUVfPcAX-9E4i8&oh=60117cda254f796cbf60efb802338e27&oe=5E58C286"
        },
        {
            "config_height": 750,
            "config_width": 750,
            "src": "https://scontent-hel2-1.cdninstagram.com/v/t51.2885-15/e35/84266461_230818344621226_581162631919474809_n.jpg?_nc_ht=scontent-hel2-1.cdninstagram.com&_nc_cat=110&_nc_ohc=sshosDUVfPcAX-9E4i8&oh=ebf3c3a713ed000805b935fd1697fdec&oe=5E58D8F5"
        },
        {
            "config_height": 1080,
            "config_width": 1080,
            "src": "https://scontent-hel2-1.cdninstagram.com/v/t51.2885-15/e35/84266461_230818344621226_581162631919474809_n.jpg?_nc_ht=scontent-hel2-1.cdninstagram.com&_nc_cat=110&_nc_ohc=sshosDUVfPcAX-9E4i8&oh=ebf3c3a713ed000805b935fd1697fdec&oe=5E58D8F5"
        }
    ],
    "display_url": "https://scontent-hel2-1.cdninstagram.com/v/t51.2885-15/e35/84266461_230818344621226_581162631919474809_n.jpg?_nc_ht=scontent-hel2-1.cdninstagram.com&_nc_cat=110&_nc_ohc=sshosDUVfPcAX-9E4i8&oh=ebf3c3a713ed000805b935fd1697fdec&oe=5E58D8F5",
    "edge_media_preview_comment": {
        "count": 0,
        "edges": []
    },
    "edge_media_preview_like": {
        "count": 20,
        "edges": []
    },
    "edge_media_to_caption": {
        "edges": [
            {
                "node": {
                    "text": "Dr Phil #faceswap \u201cvideo games are the devil\u201d\n\u2014\u2014\u2014\u2014\u2014\u2014\u2014\u2014\u2014\u2014\u2014\u2014\u2014\u2014\u2014\u2014\u2014\n#faceswapping #drphil comedy #comedian #comediansoftheworld #comediansofinstagram #celebrityimpressions #impersonator #impersonation #impersonate #comedyshow #funnyordie #laughter #laugh #justforlaughs #laughmore #snl #comedycentral #improvisation #deepfakes #deepfake #goodcomedy #drphilshow #philmcgraw #lol"
                }
            }
        ]
    },
    "edge_media_to_hoisted_comment": {
        "edges": []
    },
    "edge_media_to_parent_comment": {
        "count": 0,
        "edges": [],
        "page_info": {
            "end_cursor": null,
            "has_next_page": false
        }
    },
    "edge_media_to_sponsor_user": {
        "edges": []
    },
    "edge_media_to_tagged_user": {
        "edges": [
            {
                "node": {
                    "user": {
                        "full_name": "Comedy Central",
                        "id": "4416358",
                        "is_verified": true,
                        "profile_pic_url": "https://scontent-hel2-1.cdninstagram.com/v/t51.2885-19/s150x150/37362327_233331623985072_6366684091651194880_n.jpg?_nc_ht=scontent-hel2-1.cdninstagram.com&_nc_ohc=syIurt57W18AX8t7XB1&oh=9a130eb4157bceb31584b05f29d90327&oe=5E820B52",
                        "username": "comedycentral"
                    },
                    "x": 0.0,
                    "y": 0.0
                }
            },
            {
                "node": {
                    "user": {
                        "full_name": "Funny Or Die",
                        "id": "201669099",
                        "is_verified": true,
                        "profile_pic_url": "https://scontent-hel2-1.cdninstagram.com/v/t51.2885-19/s150x150/20686450_130434114240297_2031918928606789632_a.jpg?_nc_ht=scontent-hel2-1.cdninstagram.com&_nc_ohc=oDanzJCDkwAAX8fqQoV&oh=7ff88bb26453024f076d2d1debfa36d5&oe=5E8045D7",
                        "username": "funnyordie"
                    },
                    "x": 0.0,
                    "y": 0.0
                }
            },
            {
                "node": {
                    "user": {
                        "full_name": "Saturday Night Live",
                        "id": "218738123",
                        "is_verified": true,
                        "profile_pic_url": "https://scontent-hel2-1.cdninstagram.com/v/t51.2885-19/s150x150/11375920_1683402398570816_833036140_a.jpg?_nc_ht=scontent-hel2-1.cdninstagram.com&_nc_ohc=xe-5xSD6N54AX-nvSKd&oh=a8cd22ba2b013f0b5fde5b19b7bcd96f&oe=5E8224C0",
                        "username": "nbcsnl"
                    },
                    "x": 0.0,
                    "y": 0.0
                }
            },
            {
                "node": {
                    "user": {
                        "full_name": "Just For Laughs",
                        "id": "262927574",
                        "is_verified": true,
                        "profile_pic_url": "https://scontent-hel2-1.cdninstagram.com/v/t51.2885-19/s150x150/64253090_358791917997183_6406740790604726272_n.jpg?_nc_ht=scontent-hel2-1.cdninstagram.com&_nc_ohc=cbFnlbIBkcwAX_r4EOP&oh=1a86eb4aa5fb8277ec4ae32d66aeb8ea&oe=5E80CCDD",
                        "username": "justforlaughs"
                    },
                    "x": 0.0,
                    "y": 0.0
                }
            }
        ]
    },
    "edge_web_media_to_related_media": {
        "edges": []
    },
    "encoding_status": null,
    "fact_check_information": null,
    "fact_check_overall_rating": null,
    "gating_info": null,
    "has_ranked_comments": false,
    "id": "2251337892781896564",
    "is_ad": false,
    "is_published": true,
    "is_video": true,
    "location": {
        "address_json": null,
        "has_public_page": true,
        "id": "177197892806716",
        "name": "USA.United States Of America",
        "slug": "usaunited-states-of-america"
    },
    "media_preview": "ACoq5qtmwsA2Hbn2Pasaur06ZTGvrjH4jipl5FxtfUma1VhhgCPeuavoBC+B0NdaXYsFA49f8/1rG1SNRGWON24Y/H/9VSi5K6OeoopcVoYhitrSJgA0Z/3h/I/0rHANTRExEOvDDkUmrjTs7nXxzbux5rM1IgxkdyRTINR3jaQEPc84/CqdzL5p46Dpn+f41KWpo2rFAoKTbUtNrQyEApTSCg0ASom724/l/U9qUHK+/NIlSyDDMB0/+tQBBTaduI6Gm0Af/9k=",
    "owner": {
        "blocked_by_viewer": false,
        "followed_by_viewer": false,
        "full_name": "Dick Facce Face Swaps",
        "has_blocked_viewer": false,
        "id": "26531292529",
        "is_private": false,
        "is_unpublished": false,
        "is_verified": false,
        "profile_pic_url": "https://scontent-hel2-1.cdninstagram.com/v/t51.2885-19/s150x150/79918377_2631997093587300_6895738506769858560_n.jpg?_nc_ht=scontent-hel2-1.cdninstagram.com&_nc_ohc=-iblBRdc6K0AX95Lb_g&oh=234047d9969416546429a2b3330163e2&oe=5E80F385",
        "requested_by_viewer": false,
        "restricted_by_viewer": null,
        "username": "dickfacceshow"
    },
    "product_type": "feed",
    "shortcode": "B8-W-KopDN0",
    "taken_at_timestamp": 1582601316,
    "thumbnail_src": "https://scontent-hel2-1.cdninstagram.com/v/t51.2885-15/sh0.08/e35/s640x640/84266461_230818344621226_581162631919474809_n.jpg?_nc_ht=scontent-hel2-1.cdninstagram.com&_nc_cat=110&_nc_ohc=sshosDUVfPcAX-9E4i8&oh=60117cda254f796cbf60efb802338e27&oe=5E58C286",
    "title": "",
    "tracking_token": "eyJ2ZXJzaW9uIjo1LCJwYXlsb2FkIjp7ImlzX2FuYWx5dGljc190cmFja2VkIjp0cnVlLCJ1dWlkIjoiMjA0NDg5MTExZjIzNGViOTliYjJkNTQ4ZmZjMTI0OTMyMjUxMzM3ODkyNzgxODk2NTY0In0sInNpZ25hdHVyZSI6IiJ9",
    "video_duration": 30.8,
    "video_url": "https://scontent-hel2-1.cdninstagram.com/v/t50.2886-16/87202232_612042279620729_6873458207304018726_n.mp4?_nc_ht=scontent-hel2-1.cdninstagram.com&_nc_cat=105&_nc_ohc=97hv_womFbYAX9tW9p8&oe=5E589C45&oh=1d8e56e5bfd2926430b2264bb33c1944",
    "video_view_count": 183,
    "viewer_can_reshare": true,
    "viewer_has_liked": false,
    "viewer_has_saved": false,
    "viewer_has_saved_to_collection": false,
    "viewer_in_photo_of_you": false
}