{
    "__typename": "GraphVideo",
    "caption_is_edited": false,
    "commenting_disabled_for_viewer": false,
    "comments_disabled": false,
    "dash_info": {
        "is_dash_eligible": false,
        "number_of_qualities": 0,
        "video_dash_manifest": null
    },
    "dimensions": {
        "height": 750,
        "width": 750
    },
    "display_resources": [
        {
            "config_height": 640,
            "config_width": 640,
            "src": "https://scontent-hel2-1.cdninstagram.com/v/t51.2885-15/sh0.08/e35/s640x640/85215042_230805838086103_154637647471166594_n.jpg?_nc_ht=scontent-hel2-1.cdninstagram.com&_nc_cat=107&_nc_ohc=kggW6KMxI40AX9YfFKd&oh=cd44c5a848f3470f62c6b397d4145d4d&oe=5E58D7C0"
        },
        {
            "config_height": 750,
            "config_width": 750,
            "src": "https://scontent-hel2-1.cdninstagram.com/v/t51.2885-15/e35/85215042_230805838086103_154637647471166594_n.jpg?_nc_ht=scontent-hel2-1.cdninstagram.com&_nc_cat=107&_nc_ohc=kggW6KMxI40AX9YfFKd&oh=dcb975c7ae4f712f374b28d10a6369fc&oe=5E58B2F3"
        },
        {
            "config_height": 1080,
            "config_width": 1080,
            "src": "https://scontent-hel2-1.cdninstagram.com/v/t51.2885-15/e35/85215042_230805838086103_154637647471166594_n.jpg?_nc_ht=scontent-hel2-1.cdninstagram.com&_nc_cat=107&_nc_ohc=kggW6KMxI40AX9YfFKd&oh=dcb975c7ae4f712f374b28d10a6369fc&oe=5E58B2F3"
        }
    ],
    "display_url": "https://scontent-hel2-1.cdninstagram.com/v/t51.2885-15/e35/85215042_230805838086103_154637647471166594_n.jpg?_nc_ht=scontent-hel2-1.cdninstagram.com&_nc_cat=107&_nc_ohc=kggW6KMxI40AX9YfFKd&oh=dcb975c7ae4f712f374b28d10a6369fc&oe=5E58B2F3",
    "edge_media_preview_comment": {
        "count": 0,
        "edges": []
    },
    "edge_media_preview_like": {
        "count": 3,
        "edges": []
    },
    "edge_media_to_caption": {
        "edges": [
            {
                "node": {
                    "text": "#IThankGod4AnotherDay #Christianity#NonExtremismChristianity #Family #Friends #USOfA #OurTroops #Heterosexuality #AuthenticFemaleGender #Nongayness #Nonhaterheteros #NonDrugDealersNonKingpinsNonHumanTraffickersNonSexEnslaversNonCartelsNonKidnappersNonCannibalsPredatory!\n\n6:56AM I GOT UP FOR THE DAY.  AND I'm still ALONE all day/night since I returned alone=YESTERDAY=3:20PM=FEBRUARY24TH2020! AND MY 606DOOR AIN'T OPENED SINCE THEN REGARDLESS WHAT THESE MANY \"OR?\" ALL 6TH FLOOR~RESIDENTS & OR THEIR VISITORS & SEVERAL OTHER RESIDENTS IN THIS BUILDING & OR THEIR VISITORS IN THIS BUILDING CONVEYS & REGARDLESS WHAT #DEEPFAKE=#VIDEOS DEEPFAKE=#PHOTOGRAPHY & DEEPFAKE=#IMAGES CONVEYS TOO FURTHER FRAME ME WITH #ASSOCIATIONS~#CRIMES~#RELIGIONS~#BELIEFS~#NONBELIEFS~#RELATIONSHIPS~#CREEDS~#CONDUCTS~#GAYNESS~#PRECEPTS~#FAITHS~#WEALTH/COMFORTS~#VICES~AND ETCETERA SOCIOECONOMIC=DEMOGRAPHIC~LIFESTYLES I DO NOT LIVE SINCE I WAS A KID/1961-1969!\n\n7:44AM INTO MY BATHROOM FOR A DUMP AND AS I SIT ON MY TOILET THE USUAL 604 PEOPLE TRAFFIC INTO THAT BEDROOM OR BATHROOM TOO ATTAIN/COLLECT AND TAINT MY EXCREMENTS WITH VICES & OR HUMAN~MATTER TOO SUSTAIN FRAMING ME FOR CRAP!!! 8:06AM SOMEONE(S) IS MANIPULATING PIPES BETWEEN THE WALLS AS I AM STILL IN MY BATHROOM.\n\n8:17AM/8:18AM IN MY SHOWER AND I DRIED OFF=8:23AM!!! AND STILL MY 606DOOR AINT OPENED SINCE MAINTENANCE LEFT YESTERDAY ABOUT=3:33PM=FEBRUARY24TH2020 WHILE I AM STILL ALONE ALL DAY/NIGHT [ACCEPT FOR MAINTENANCE] SINCE I RETURNED YESTERDAY=3:20PM=FEBURARY24TH2020!!! AND #DITTO MY 2020=NONHACKED INSTAGRAM POSTS, ESPECIALLY FOR FEBRUARY2020!!! February25th2020=9:20AM OUR FOR THE DAY."
                }
            }
        ]
    },
    "edge_media_to_hoisted_comment": {
        "edges": []
    },
    "edge_media_to_parent_comment": {
        "count": 0,
        "edges": [],
        "page_info": {
            "end_cursor": null,
            "has_next_page": false
        }
    },
    "edge_media_to_sponsor_user": {
        "edges": []
    },
    "edge_media_to_tagged_user": {
        "edges": []
    },
    "edge_web_media_to_related_media": {
        "edges": []
    },
    "encoding_status": null,
    "fact_check_information": null,
    "fact_check_overall_rating": null,
    "gating_info": null,
    "has_ranked_comments": false,
    "id": "2251679135633994041",
    "is_ad": false,
    "is_published": true,
    "is_video": true,
    "location": null,
    "media_preview": "ACoq0CKSnE02kMSkp1JQA003FPpKAH5optLQAUlFFABSUUlAC5ozTaKAHZpM0lFABmkzRSUAf//Z",
    "owner": {
        "blocked_by_viewer": false,
        "followed_by_viewer": false,
        "full_name": "Robert Wilson",
        "has_blocked_viewer": false,
        "id": "522631127",
        "is_private": false,
        "is_unpublished": false,
        "is_verified": false,
        "profile_pic_url": "https://scontent-hel2-1.cdninstagram.com/v/t51.2885-19/s150x150/66444435_2342591169152274_2097831463826227200_n.jpg?_nc_ht=scontent-hel2-1.cdninstagram.com&_nc_ohc=gCJ-5O7TlMoAX9o6-L-&oh=3c7aa17dbf87bc36dd5e6a98db538dc7&oe=5E86604B",
        "requested_by_viewer": false,
        "restricted_by_viewer": null,
        "username": "inotquiet"
    },
    "product_type": "feed",
    "shortcode": "B8_kj5zn3E5",
    "taken_at_timestamp": 1582641105,
    "thumbnail_src": "https://scontent-hel2-1.cdninstagram.com/v/t51.2885-15/sh0.08/e35/s640x640/85215042_230805838086103_154637647471166594_n.jpg?_nc_ht=scontent-hel2-1.cdninstagram.com&_nc_cat=107&_nc_ohc=kggW6KMxI40AX9YfFKd&oh=cd44c5a848f3470f62c6b397d4145d4d&oe=5E58D7C0",
    "title": "",
    "tracking_token": "eyJ2ZXJzaW9uIjo1LCJwYXlsb2FkIjp7ImlzX2FuYWx5dGljc190cmFja2VkIjpmYWxzZSwidXVpZCI6IjcxNTUyNDBlMjdmYzRiZTQ5MDcyZjQ0NGVlNjllZjI0MjI1MTY3OTEzNTYzMzk5NDA0MSJ9LCJzaWduYXR1cmUiOiIifQ==",
    "video_duration": 14.305,
    "video_url": "https://scontent-hel2-1.cdninstagram.com/v/t50.2886-16/87279392_596952294479454_8532694303112628050_n.mp4?_nc_ht=scontent-hel2-1.cdninstagram.com&_nc_cat=106&_nc_ohc=OF82ESwj0SUAX_D9eWs&oe=5E5892E3&oh=d7864fe03e01d1bd3eb509cfd50526b6",
    "video_view_count": 58,
    "viewer_can_reshare": true,
    "viewer_has_liked": false,
    "viewer_has_saved": false,
    "viewer_has_saved_to_collection": false,
    "viewer_in_photo_of_you": false
}