{
    "__typename": "GraphVideo",
    "caption_is_edited": false,
    "commenting_disabled_for_viewer": false,
    "comments_disabled": false,
    "dash_info": {
        "is_dash_eligible": false,
        "number_of_qualities": 0,
        "video_dash_manifest": null
    },
    "dimensions": {
        "height": 422,
        "width": 750
    },
    "display_resources": [
        {
            "config_height": 360,
            "config_width": 640,
            "src": "https://scontent-hel2-1.cdninstagram.com/v/t51.2885-15/sh0.08/e35/s640x640/84343817_2281505628817340_386385185213202334_n.jpg?_nc_ht=scontent-hel2-1.cdninstagram.com&_nc_cat=108&_nc_ohc=pPbRLSNzId0AX_ZNWoh&oh=b49bf758443237bbcdced7fb8231c741&oe=5E5892D2"
        },
        {
            "config_height": 422,
            "config_width": 750,
            "src": "https://scontent-hel2-1.cdninstagram.com/v/t51.2885-15/e35/84343817_2281505628817340_386385185213202334_n.jpg?_nc_ht=scontent-hel2-1.cdninstagram.com&_nc_cat=108&_nc_ohc=pPbRLSNzId0AX_ZNWoh&oh=3082467fbc3dc66f3c3166f3d7bd7e83&oe=5E589C77"
        },
        {
            "config_height": 609,
            "config_width": 1080,
            "src": "https://scontent-hel2-1.cdninstagram.com/v/t51.2885-15/e35/84343817_2281505628817340_386385185213202334_n.jpg?_nc_ht=scontent-hel2-1.cdninstagram.com&_nc_cat=108&_nc_ohc=pPbRLSNzId0AX_ZNWoh&oh=3082467fbc3dc66f3c3166f3d7bd7e83&oe=5E589C77"
        }
    ],
    "display_url": "https://scontent-hel2-1.cdninstagram.com/v/t51.2885-15/e35/84343817_2281505628817340_386385185213202334_n.jpg?_nc_ht=scontent-hel2-1.cdninstagram.com&_nc_cat=108&_nc_ohc=pPbRLSNzId0AX_ZNWoh&oh=3082467fbc3dc66f3c3166f3d7bd7e83&oe=5E589C77",
    "edge_media_preview_comment": {
        "count": 0,
        "edges": []
    },
    "edge_media_preview_like": {
        "count": 18,
        "edges": []
    },
    "edge_media_to_caption": {
        "edges": [
            {
                "node": {
                    "text": "STO MALISSIMO \u26b0\ufe0f\u26b0\ufe0f\n.\n.\n.\n#maravenier #ziamara #domenicain #striscialanotizia #deepfake #sanremo2020 #festivaldisanremo #amadeus #fiorello #tizianoferro #elettralamborghini #bugo #morgan #coioni #smile #friends #amici #gfvip #noneladurso #trash #trashitaliano #tv #canale5 #mediaset #power #powertrash"
                }
            }
        ]
    },
    "edge_media_to_hoisted_comment": {
        "edges": []
    },
    "edge_media_to_parent_comment": {
        "count": 0,
        "edges": [],
        "page_info": {
            "end_cursor": null,
            "has_next_page": false
        }
    },
    "edge_media_to_sponsor_user": {
        "edges": []
    },
    "edge_media_to_tagged_user": {
        "edges": [
            {
                "node": {
                    "user": {
                        "full_name": "Mara Venier",
                        "id": "1649019397",
                        "is_verified": true,
                        "profile_pic_url": "https://scontent-hel2-1.cdninstagram.com/v/t51.2885-19/11123746_978521622159300_1059635863_a.jpg?_nc_ht=scontent-hel2-1.cdninstagram.com&_nc_ohc=1_lVdhWDHPcAX8hBUCU&oh=a2063fc70847c4551231546ace66f1e4&oe=5E864C9D",
                        "username": "mara_venier"
                    },
                    "x": 0.0,
                    "y": 0.0
                }
            },
            {
                "node": {
                    "user": {
                        "full_name": "Striscia la notizia",
                        "id": "2260333476",
                        "is_verified": true,
                        "profile_pic_url": "https://scontent-hel2-1.cdninstagram.com/v/t51.2885-19/s150x150/69551568_696193187525108_8524028486346604544_n.jpg?_nc_ht=scontent-hel2-1.cdninstagram.com&_nc_ohc=Pt3aEwYMQWwAX-FcY3k&oh=f29182ef7908829218a1411d8736e072&oe=5E874094",
                        "username": "striscialanotizia"
                    },
                    "x": 0.0,
                    "y": 0.0
                }
            }
        ]
    },
    "edge_web_media_to_related_media": {
        "edges": []
    },
    "encoding_status": null,
    "fact_check_information": null,
    "fact_check_overall_rating": null,
    "gating_info": null,
    "has_ranked_comments": false,
    "id": "2251852985148178743",
    "is_ad": false,
    "is_published": true,
    "is_video": true,
    "location": null,
    "media_preview": "ACoX52N9jBsA47HpWrYJHIrM65JbjGcDjIC47+3J6cVkxoZHCDqxA/M4r0NYI1AUKAE+7x0+nvQNOxwjOS20YJz0GRz+Pf1p08UsHEnfkY6enaukvbQSXCSDhsEdhkg9T+FZ2oRcMrHLKMj9M8f59aV9bFdLmCTmkpabTINC2eGKWKTJBUqXzyPcjv8AhXbQSrMgkTo3NFFIZm3sgd8LnMXLdOjdMZ78elZdwVIZmJIwcZx17ZwB/hRRSG9EYoIdvQYppC+tFFUSf//Z",
    "owner": {
        "blocked_by_viewer": false,
        "followed_by_viewer": false,
        "full_name": "POWER TRASH",
        "has_blocked_viewer": false,
        "id": "17378285162",
        "is_private": false,
        "is_unpublished": false,
        "is_verified": false,
        "profile_pic_url": "https://scontent-hel2-1.cdninstagram.com/v/t51.2885-19/s150x150/73512783_439209093401209_6807587163467677696_n.jpg?_nc_ht=scontent-hel2-1.cdninstagram.com&_nc_ohc=QT0LpuoEe9kAX-rAZnA&oh=09b9aca6edf88415d738b6d4859f10d7&oe=5E8C2A3F",
        "requested_by_viewer": false,
        "restricted_by_viewer": null,
        "username": "powertrash_"
    },
    "product_type": "feed",
    "shortcode": "B9AMFvyKQE3",
    "taken_at_timestamp": 1582661840,
    "thumbnail_src": "https://scontent-hel2-1.cdninstagram.com/v/t51.2885-15/e35/c157.0.406.406a/84343817_2281505628817340_386385185213202334_n.jpg?_nc_ht=scontent-hel2-1.cdninstagram.com&_nc_cat=108&_nc_ohc=pPbRLSNzId0AX_ZNWoh&oh=88df0dbd592844c06ac5922ee02008d8&oe=5E58F3D0",
    "title": "",
    "tracking_token": "eyJ2ZXJzaW9uIjo1LCJwYXlsb2FkIjp7ImlzX2FuYWx5dGljc190cmFja2VkIjp0cnVlLCJ1dWlkIjoiYTFhOTlkYzViODQzNDBiZjg3NTRlOWIzODBhNTI0MjcyMjUxODUyOTg1MTQ4MTc4NzQzIn0sInNpZ25hdHVyZSI6IiJ9",
    "video_duration": 17.366,
    "video_url": "https://scontent-hel2-1.cdninstagram.com/v/t50.2886-16/87325502_209778563743734_4453787162887521403_n.mp4?_nc_ht=scontent-hel2-1.cdninstagram.com&_nc_cat=106&_nc_ohc=pyScIKf6Q5sAX90si94&oe=5E58C38D&oh=d922c9f5a2bc6e3b6e4b4be0b01c08bd",
    "video_view_count": 221,
    "viewer_can_reshare": true,
    "viewer_has_liked": false,
    "viewer_has_saved": false,
    "viewer_has_saved_to_collection": false,
    "viewer_in_photo_of_you": false
}