{
    "__typename": "GraphVideo",
    "caption_is_edited": false,
    "commenting_disabled_for_viewer": false,
    "comments_disabled": false,
    "dash_info": {
        "is_dash_eligible": false,
        "number_of_qualities": 0,
        "video_dash_manifest": null
    },
    "dimensions": {
        "height": 640,
        "width": 640
    },
    "display_resources": [
        {
            "config_height": 640,
            "config_width": 640,
            "src": "https://scontent-hel2-1.cdninstagram.com/v/t51.2885-15/e35/87233382_193154245109961_255805812800873779_n.jpg?_nc_ht=scontent-hel2-1.cdninstagram.com&_nc_cat=109&_nc_ohc=q0RsmGfl99wAX8aa99o&oh=c792df6343bc0653228f4eb3e11decf7&oe=5E586C65"
        },
        {
            "config_height": 750,
            "config_width": 750,
            "src": "https://scontent-hel2-1.cdninstagram.com/v/t51.2885-15/e35/87233382_193154245109961_255805812800873779_n.jpg?_nc_ht=scontent-hel2-1.cdninstagram.com&_nc_cat=109&_nc_ohc=q0RsmGfl99wAX8aa99o&oh=c792df6343bc0653228f4eb3e11decf7&oe=5E586C65"
        },
        {
            "config_height": 1080,
            "config_width": 1080,
            "src": "https://scontent-hel2-1.cdninstagram.com/v/t51.2885-15/e35/87233382_193154245109961_255805812800873779_n.jpg?_nc_ht=scontent-hel2-1.cdninstagram.com&_nc_cat=109&_nc_ohc=q0RsmGfl99wAX8aa99o&oh=c792df6343bc0653228f4eb3e11decf7&oe=5E586C65"
        }
    ],
    "display_url": "https://scontent-hel2-1.cdninstagram.com/v/t51.2885-15/e35/87233382_193154245109961_255805812800873779_n.jpg?_nc_ht=scontent-hel2-1.cdninstagram.com&_nc_cat=109&_nc_ohc=q0RsmGfl99wAX8aa99o&oh=c792df6343bc0653228f4eb3e11decf7&oe=5E586C65",
    "edge_media_preview_comment": {
        "count": 3,
        "edges": [
            {
                "node": {
                    "created_at": 1582697593,
                    "did_report_as_spam": false,
                    "edge_liked_by": {
                        "count": 1
                    },
                    "id": "17857383850759197",
                    "is_restricted_pending": false,
                    "owner": {
                        "id": "4718594252",
                        "is_verified": false,
                        "profile_pic_url": "https://scontent-hel2-1.cdninstagram.com/v/t51.2885-19/s150x150/56334807_352965432001536_7965915795676987392_n.jpg?_nc_ht=scontent-hel2-1.cdninstagram.com&_nc_ohc=B25t5acP9LcAX-KqXZw&oh=6770ad85bd8eaa20ea854c696f4b1d4d&oe=5E81470E",
                        "username": "dimon_rz"
                    },
                    "text": "soon actors will not be needed",
                    "viewer_has_liked": false
                }
            },
            {
                "node": {
                    "created_at": 1582698769,
                    "did_report_as_spam": false,
                    "edge_liked_by": {
                        "count": 0
                    },
                    "id": "17871920065605521",
                    "is_restricted_pending": false,
                    "owner": {
                        "id": "1694816724",
                        "is_verified": false,
                        "profile_pic_url": "https://scontent-hel2-1.cdninstagram.com/v/t51.2885-19/s150x150/83033691_504209033810987_61935867949744128_n.jpg?_nc_ht=scontent-hel2-1.cdninstagram.com&_nc_ohc=Mf8YO1yh5VEAX_zrp60&oh=df4445d7f614c1595dc2cecd866616be&oe=5E863885",
                        "username": "lightgiveslife"
                    },
                    "text": "Just lost your acting job to SKYNET\ud83d\ude02\ud83d\ude4f",
                    "viewer_has_liked": false
                }
            }
        ]
    },
    "edge_media_preview_like": {
        "count": 223,
        "edges": []
    },
    "edge_media_to_caption": {
        "edges": [
            {
                "node": {
                    "text": "Repost @tpocomp | Got some time to return to this personal project and prep some breakdowns of my experiments of what could be possible  AI in Comp.  Hope you guys enjoy! \u2014\n\u2014- Consegui voltar nesse projeto pessoal e preparar uns Breakdowns dos meus experimentos do que poderia ser feito na Comp com Intelig\u00eancia Artificial. Espero que gostem. \u2014\n\u2014- #learning #facedetection #breakdown26 #break_down26 #vfxnews #vfciiiii #makingof #vfxbreakdown #vfxexpress #vfxcompositing #cgjunkies #deepfake #research #artificialintelligence #ai #machinelearning #datascience #deeplearning #algorithm #motionaep  #visualeffects #adobebra #aftereffects #autodeskflame"
                }
            }
        ]
    },
    "edge_media_to_hoisted_comment": {
        "edges": []
    },
    "edge_media_to_parent_comment": {
        "count": 3,
        "edges": [
            {
                "node": {
                    "created_at": 1582697585,
                    "did_report_as_spam": false,
                    "edge_liked_by": {
                        "count": 0
                    },
                    "edge_threaded_comments": {
                        "count": 0,
                        "edges": [],
                        "page_info": {
                            "end_cursor": null,
                            "has_next_page": false
                        }
                    },
                    "id": "17878776922537654",
                    "is_restricted_pending": false,
                    "owner": {
                        "id": "21809379826",
                        "is_verified": false,
                        "profile_pic_url": "https://scontent-hel2-1.cdninstagram.com/v/t51.2885-19/s150x150/79638705_479515372766641_3524920384707100672_n.jpg?_nc_ht=scontent-hel2-1.cdninstagram.com&_nc_ohc=9dVUKVWUP-wAX-2dczm&oh=7490e299fa9d93d85ece6f64ffdf9a2d&oe=5E8254B3",
                        "username": "dwackenhut"
                    },
                    "text": "Is this the tech that has people worried about deep fakes?",
                    "viewer_has_liked": false
                }
            },
            {
                "node": {
                    "created_at": 1582697593,
                    "did_report_as_spam": false,
                    "edge_liked_by": {
                        "count": 1
                    },
                    "edge_threaded_comments": {
                        "count": 0,
                        "edges": [],
                        "page_info": {
                            "end_cursor": null,
                            "has_next_page": false
                        }
                    },
                    "id": "17857383850759197",
                    "is_restricted_pending": false,
                    "owner": {
                        "id": "4718594252",
                        "is_verified": false,
                        "profile_pic_url": "https://scontent-hel2-1.cdninstagram.com/v/t51.2885-19/s150x150/56334807_352965432001536_7965915795676987392_n.jpg?_nc_ht=scontent-hel2-1.cdninstagram.com&_nc_ohc=B25t5acP9LcAX-KqXZw&oh=6770ad85bd8eaa20ea854c696f4b1d4d&oe=5E81470E",
                        "username": "dimon_rz"
                    },
                    "text": "soon actors will not be needed",
                    "viewer_has_liked": false
                }
            },
            {
                "node": {
                    "created_at": 1582698769,
                    "did_report_as_spam": false,
                    "edge_liked_by": {
                        "count": 0
                    },
                    "edge_threaded_comments": {
                        "count": 0,
                        "edges": [],
                        "page_info": {
                            "end_cursor": null,
                            "has_next_page": false
                        }
                    },
                    "id": "17871920065605521",
                    "is_restricted_pending": false,
                    "owner": {
                        "id": "1694816724",
                        "is_verified": false,
                        "profile_pic_url": "https://scontent-hel2-1.cdninstagram.com/v/t51.2885-19/s150x150/83033691_504209033810987_61935867949744128_n.jpg?_nc_ht=scontent-hel2-1.cdninstagram.com&_nc_ohc=Mf8YO1yh5VEAX_zrp60&oh=df4445d7f614c1595dc2cecd866616be&oe=5E863885",
                        "username": "lightgiveslife"
                    },
                    "text": "Just lost your acting job to SKYNET\ud83d\ude02\ud83d\ude4f",
                    "viewer_has_liked": false
                }
            }
        ],
        "page_info": {
            "end_cursor": null,
            "has_next_page": false
        }
    },
    "edge_media_to_sponsor_user": {
        "edges": []
    },
    "edge_media_to_tagged_user": {
        "edges": []
    },
    "edge_web_media_to_related_media": {
        "edges": []
    },
    "encoding_status": null,
    "fact_check_information": null,
    "fact_check_overall_rating": null,
    "gating_info": null,
    "has_ranked_comments": false,
    "id": "2252147966863282475",
    "is_ad": false,
    "is_published": true,
    "is_video": true,
    "location": null,
    "media_preview": "ACoq5rafSjGa1fJ3/KDtJ70txZbEDZyfpilcq2lzJwRRg1Kx+UEE1cgXeoJ/yM0yTOII60YNdFFCrccFfQjNQNpqkkjilcqzQbl3bfvEYJHpReyBU2qCS3P09f8A6wrLizu4qzK5cZPbj/6/60W1GnpYakIl4z93uO+auYWFOTgD8zVATGIHHU/pUBYsck5NMg2oiByRjBznPFQNqD5OF47c9qgidlXHY8c54/pTDG2alItyvsVV3DBApxmbkcc1DRVEDy5IxTc0lFAEolIGOKd9ob2qCigD/9k=",
    "owner": {
        "blocked_by_viewer": false,
        "followed_by_viewer": false,
        "full_name": "Artificial Intelligence #AI",
        "has_blocked_viewer": false,
        "id": "4467912123",
        "is_private": false,
        "is_unpublished": false,
        "is_verified": false,
        "profile_pic_url": "https://scontent-hel2-1.cdninstagram.com/v/t51.2885-19/s150x150/15875635_1743972212494336_4332237768064237568_a.jpg?_nc_ht=scontent-hel2-1.cdninstagram.com&_nc_ohc=eQV0zu5R7Q8AX9vPfka&oh=74962391d190cce680a3e8b662499d7b&oe=5E81FF84",
        "requested_by_viewer": false,
        "restricted_by_viewer": null,
        "username": "welcome.ai"
    },
    "product_type": "feed",
    "shortcode": "B9BPKS6gREr",
    "taken_at_timestamp": 1582697017,
    "thumbnail_src": "https://scontent-hel2-1.cdninstagram.com/v/t51.2885-15/e35/87233382_193154245109961_255805812800873779_n.jpg?_nc_ht=scontent-hel2-1.cdninstagram.com&_nc_cat=109&_nc_ohc=q0RsmGfl99wAX8aa99o&oh=c792df6343bc0653228f4eb3e11decf7&oe=5E586C65",
    "title": "",
    "tracking_token": "eyJ2ZXJzaW9uIjo1LCJwYXlsb2FkIjp7ImlzX2FuYWx5dGljc190cmFja2VkIjp0cnVlLCJ1dWlkIjoiNTM3OTA1MWRjODFkNDk5NDhmYjVmYTJiZmNkNTZiNDYyMjUyMTQ3OTY2ODYzMjgyNDc1In0sInNpZ25hdHVyZSI6IiJ9",
    "video_duration": 60.0,
    "video_url": "https://scontent-hel2-1.cdninstagram.com/v/t50.2886-16/87917867_146690110137541_5635723951913191893_n.mp4?_nc_ht=scontent-hel2-1.cdninstagram.com&_nc_cat=101&_nc_ohc=SvxLcn3nTGEAX_X8Noy&oe=5E58DFA0&oh=b063e1b0609ec262276aadebbd1c2d99",
    "video_view_count": 1873,
    "viewer_can_reshare": true,
    "viewer_has_liked": false,
    "viewer_has_saved": false,
    "viewer_has_saved_to_collection": false,
    "viewer_in_photo_of_you": false
}